<?xml version="1.0" encoding="UTF-8"?>
<!DOCTYPE chunkList SYSTEM "ccl.dtd">
<chunkList>
 <chunk type="p" id="ch1">
  <sentence id="s1">
   <tok>
    <orth>Też</orth>
    <lex disamb="1"><base>też</base><ctag>qub</ctag></lex>
   </tok>
   <tok>
    <orth>znalazł</orth>
    <lex disamb="1"><base>znaleźć</base><ctag>praet:sg:m1:perf</ctag></lex>
   </tok>
   <ns/>
   <tok>
    <orth>em</orth>
    <lex disamb="1"><base>być</base><ctag>aglt:sg:pri:imperf:wok</ctag></lex>
   </tok>
   <tok>
    <orth>na</orth>
    <lex disamb="1"><base>na</base><ctag>prep:acc</ctag></lex>
   </tok>
   <tok>
    <orth>#</orth>
    <lex disamb="1"><base>#</base><ctag>interp</ctag></lex>
   </tok>
   <ns/>
   <tok>
    <orth>olx</orth>
    <lex disamb="1"><base>olx</base><ctag>ign</ctag></lex>
   </tok>
   <tok>
    <orth>jedną</orth>
    <lex disamb="1"><base>jeden</base><ctag>adj:sg:acc:f:pos</ctag></lex>
   </tok>
   <tok>
    <orth>z</orth>
    <lex disamb="1"><base>z</base><ctag>prep:gen:nwok</ctag></lex>
   </tok>
   <tok>
    <orth>tych</orth>
    <lex disamb="1"><base>ten</base><ctag>adj:pl:gen:m1:pos</ctag></lex>
   </tok>
   <tok>
    <orth>słynnych</orth>
    <lex disamb="1"><base>słynny</base><ctag>adj:pl:gen:m1:pos</ctag></lex>
   </tok>
   <tok>
    <orth>kawalerek</orth>
    <lex disamb="1"><base>kawalerka</base><ctag>subst:pl:gen:f</ctag></lex>
   </tok>
   <tok>
    <orth>w</orth>
    <lex disamb="1"><base>w</base><ctag>prep:acc:nwok</ctag></lex>
   </tok>
   <tok>
    <orth>#</orth>
    <lex disamb="1"><base>#</base><ctag>interp</ctag></lex>
   </tok>
   <ns/>
   <tok>
    <orth>katowice</orth>
    <lex disamb="1"><base>Katowice</base><ctag>subst:pl:nom:n</ctag></lex>
   </tok>
   <tok>
    <orth>#</orth>
    <lex disamb="1"><base>#</base><ctag>interp</ctag></lex>
   </tok>
   <ns/>
   <tok>
    <orth>slask</orth>
    <lex disamb="1"><base>slask</base><ctag>ign</ctag></lex>
   </tok>
   <tok>
    <orth>#</orth>
    <lex disamb="1"><base>#</base><ctag>interp</ctag></lex>
   </tok>
   <ns/>
   <tok>
    <orth>mieszkanie</orth>
    <lex disamb="1"><base>mieszkanie</base><ctag>subst:sg:nom:n</ctag></lex>
   </tok>
   <tok>
    <orth>#</orth>
    <lex disamb="1"><base>#</base><ctag>interp</ctag></lex>
   </tok>
   <ns/>
   <tok>
    <orth>nieruchomosci</orth>
    <lex disamb="1"><base>nieruchomosci</base><ctag>ign</ctag></lex>
   </tok>
   <tok>
    <orth>#</orth>
    <lex disamb="1"><base>#</base><ctag>interp</ctag></lex>
   </tok>
   <ns/>
   <tok>
    <orth>januszebiznesu</orth>
    <lex disamb="1"><base>januszebiznesu</base><ctag>ign</ctag></lex>
   </tok>
  </sentence>
 </chunk>
</chunkList>