<?xml version="1.0" encoding="UTF-8"?>
<!DOCTYPE chunkList SYSTEM "ccl.dtd">
<chunkList>
 <chunk type="p" id="ch1">
  <sentence id="s1">
   <tok>
    <orth>Skuszony</orth>
    <lex disamb="1"><base>skusić</base><ctag>ppas:sg:nom:m1:perf:aff</ctag></lex>
   </tok>
   <tok>
    <orth>tym</orth>
    <lex disamb="1"><base>tym</base><ctag>conj</ctag></lex>
   </tok>
   <tok>
    <orth>pieprzeniem</orth>
    <lex disamb="1"><base>pieprzyć</base><ctag>ger:sg:inst:n:imperf:aff</ctag></lex>
   </tok>
   <tok>
    <orth>na</orth>
    <lex disamb="1"><base>na</base><ctag>prep:acc</ctag></lex>
   </tok>
   <tok>
    <orth>necie</orth>
    <lex disamb="1"><base>net</base><ctag>subst:sg:loc:m3</ctag></lex>
   </tok>
   <tok>
    <orth>wrócił</orth>
    <lex disamb="1"><base>wrócić</base><ctag>praet:sg:m1:perf</ctag></lex>
   </tok>
   <tok>
    <orth>i</orth>
    <lex disamb="1"><base>i</base><ctag>conj</ctag></lex>
   </tok>
   <tok>
    <orth>relacjach</orth>
    <lex disamb="1"><base>relacja</base><ctag>subst:pl:loc:f</ctag></lex>
   </tok>
   <tok>
    <orth>na</orth>
    <lex disamb="1"><base>na</base><ctag>prep:acc</ctag></lex>
   </tok>
   <tok>
    <orth>insta</orth>
    <lex disamb="1"><base>insta</base><ctag>ign</ctag></lex>
   </tok>
   <tok>
    <orth>i</orth>
    <lex disamb="1"><base>i</base><ctag>conj</ctag></lex>
   </tok>
   <tok>
    <orth>na</orth>
    <lex disamb="1"><base>na</base><ctag>prep:acc</ctag></lex>
   </tok>
   <tok>
    <orth>wykop</orth>
    <lex disamb="1"><base>wykop</base><ctag>subst:sg:nom:m3</ctag></lex>
   </tok>
   <tok>
    <orth>-</orth>
    <lex disamb="1"><base>-</base><ctag>interp</ctag></lex>
   </tok>
   <tok>
    <orth>zjadł</orth>
    <lex disamb="1"><base>zjeść</base><ctag>praet:sg:m1:perf</ctag></lex>
   </tok>
   <ns/>
   <tok>
    <orth>em</orth>
    <lex disamb="1"><base>być</base><ctag>aglt:sg:pri:imperf:wok</ctag></lex>
   </tok>
   <tok>
    <orth>kanapkę</orth>
    <lex disamb="1"><base>kanapka</base><ctag>subst:sg:acc:f</ctag></lex>
   </tok>
   <tok>
    <orth>drwala</orth>
    <lex disamb="1"><base>drwal</base><ctag>subst:sg:gen:m1</ctag></lex>
   </tok>
   <ns/>
   <tok>
    <orth>.</orth>
    <lex disamb="1"><base>.</base><ctag>interp</ctag></lex>
   </tok>
  </sentence>
 </chunk>
 <chunk type="p" id="ch2">
  <sentence id="s2">
   <tok>
    <orth>Mocne</orth>
    <lex disamb="1"><base>mocny</base><ctag>subst:pl:nom:m2</ctag></lex>
    <ann chan="nam">0</ann>
   </tok>
   <tok>
    <orth>2</orth>
    <lex disamb="1"><base>2</base><ctag>num:pl:nom:m1:rec</ctag></lex>
    <ann chan="nam">0</ann>
   </tok>
   <ns/>
   <tok>
    <orth>/</orth>
    <lex disamb="1"><base>/</base><ctag>interp</ctag></lex>
    <ann chan="nam">0</ann>
   </tok>
   <ns/>
   <tok>
    <orth>10</orth>
    <lex disamb="1"><base>10</base><ctag>num:pl:nom:m1:rec</ctag></lex>
    <ann chan="nam">0</ann>
   </tok>
   <tok>
    <orth>Obrzydliwe</orth>
    <lex disamb="1"><base>obrzydliwy</base><ctag>adj:sg:nom:n:pos</ctag></lex>
    <ann chan="nam">0</ann>
   </tok>
   <tok>
    <orth>gówno</orth>
    <lex disamb="1"><base>gówno</base><ctag>subst:sg:nom:n</ctag></lex>
    <ann chan="nam">0</ann>
   </tok>
   <ns/>
   <tok>
    <orth>,</orth>
    <lex disamb="1"><base>,</base><ctag>interp</ctag></lex>
    <ann chan="nam">0</ann>
   </tok>
   <tok>
    <orth>kto</orth>
    <lex disamb="1"><base>kto</base><ctag>subst:sg:nom:m1</ctag></lex>
    <ann chan="nam">0</ann>
   </tok>
   <tok>
    <orth>tym</orth>
    <lex disamb="1"><base>tym</base><ctag>conj</ctag></lex>
    <ann chan="nam">0</ann>
   </tok>
   <tok>
    <orth>się</orth>
    <lex disamb="1"><base>się</base><ctag>qub</ctag></lex>
    <ann chan="nam">0</ann>
   </tok>
   <tok>
    <orth>rozkoszuje</orth>
    <lex disamb="1"><base>rozkoszować</base><ctag>fin:sg:ter:imperf</ctag></lex>
    <ann chan="nam">0</ann>
   </tok>
   <tok>
    <orth>to</orth>
    <lex disamb="1"><base>to</base><ctag>conj</ctag></lex>
    <ann chan="nam">0</ann>
   </tok>
   <tok>
    <orth>chyba</orth>
    <lex disamb="1"><base>chyba</base><ctag>qub</ctag></lex>
    <ann chan="nam">0</ann>
   </tok>
   <tok>
    <orth>nie</orth>
    <lex disamb="1"><base>nie</base><ctag>conj</ctag></lex>
    <ann chan="nam">0</ann>
   </tok>
   <tok>
    <orth>jadł</orth>
    <lex disamb="1"><base>jeść</base><ctag>praet:sg:m1:imperf</ctag></lex>
    <ann chan="nam">0</ann>
   </tok>
   <tok>
    <orth>dobrego</orth>
    <lex disamb="1"><base>dobre</base><ctag>subst:sg:gen:n</ctag></lex>
    <ann chan="nam">0</ann>
   </tok>
   <tok>
    <orth>burgera</orth>
    <lex disamb="1"><base>burger</base><ctag>subst:sg:gen:m2</ctag></lex>
    <ann chan="nam">0</ann>
   </tok>
   <tok>
    <orth>typu</orth>
    <lex disamb="1"><base>typ</base><ctag>subst:sg:gen:m3</ctag></lex>
    <ann chan="nam">0</ann>
   </tok>
   <tok>
    <orth>moaburger</orth>
    <lex disamb="1"><base>moaburger</base><ctag>ign</ctag></lex>
    <ann chan="nam">0</ann>
   </tok>
   <tok>
    <orth>Śmierdzący</orth>
    <lex disamb="1"><base>śmierdzący</base><ctag>adj:sg:nom:m1:pos</ctag></lex>
    <ann chan="nam">1</ann>
   </tok>
   <tok>
    <orth>placek</orth>
    <lex disamb="1"><base>placek</base><ctag>subst:sg:nom:m2</ctag></lex>
    <ann chan="nam">0</ann>
   </tok>
   <tok>
    <orth>serowy</orth>
    <lex disamb="1"><base>serowy</base><ctag>adj:sg:nom:m1:pos</ctag></lex>
    <ann chan="nam">0</ann>
   </tok>
   <ns/>
   <tok>
    <orth>,</orth>
    <lex disamb="1"><base>,</base><ctag>interp</ctag></lex>
    <ann chan="nam">0</ann>
   </tok>
   <tok>
    <orth>mięso</orth>
    <lex disamb="1"><base>mięso</base><ctag>subst:sg:nom:n</ctag></lex>
    <ann chan="nam">0</ann>
   </tok>
   <tok>
    <orth>kiepskie</orth>
    <lex disamb="1"><base>kiepski</base><ctag>adj:sg:nom:n:pos</ctag></lex>
    <ann chan="nam">0</ann>
   </tok>
   <ns/>
   <tok>
    <orth>.</orth>
    <lex disamb="1"><base>.</base><ctag>interp</ctag></lex>
    <ann chan="nam">0</ann>
   </tok>
  </sentence>
 </chunk>
 <chunk type="p" id="ch3">
  <sentence id="s3">
   <tok>
    <orth>Jedyne</orth>
    <lex disamb="1"><base>jedyna</base><ctag>subst:pl:nom:f</ctag></lex>
   </tok>
   <tok>
    <orth>coś</orth>
    <lex disamb="1"><base>coś</base><ctag>qub</ctag></lex>
   </tok>
   <tok>
    <orth>smacznego</orth>
    <lex disamb="1"><base>smaczny</base><ctag>adj:sg:gen:m1:pos</ctag></lex>
   </tok>
   <tok>
    <orth>w</orth>
    <lex disamb="1"><base>w</base><ctag>prep:acc:nwok</ctag></lex>
   </tok>
   <tok>
    <orth>nim</orth>
    <lex disamb="1"><base>nim</base><ctag>comp</ctag></lex>
   </tok>
   <tok>
    <orth>to</orth>
    <lex disamb="1"><base>to</base><ctag>conj</ctag></lex>
   </tok>
   <tok>
    <orth>był</orth>
    <lex disamb="1"><base>być</base><ctag>praet:sg:m1:imperf</ctag></lex>
   </tok>
   <tok>
    <orth>pikantny</orth>
    <lex disamb="1"><base>pikantny</base><ctag>adj:sg:nom:m1:pos</ctag></lex>
   </tok>
   <tok>
    <orth>sos</orth>
    <lex disamb="1"><base>sos</base><ctag>subst:sg:nom:m3</ctag></lex>
   </tok>
   <tok>
    <orth>jalapeno</orth>
    <lex disamb="1"><base>jalapeno</base><ctag>ign</ctag></lex>
   </tok>
  </sentence>
 </chunk>
 <chunk type="p" id="ch4">
  <sentence id="s4">
   <tok>
    <orth>nie</orth>
    <lex disamb="1"><base>nie</base><ctag>conj</ctag></lex>
   </tok>
   <tok>
    <orth>polecam</orth>
    <lex disamb="1"><base>polecać</base><ctag>fin:sg:pri:imperf</ctag></lex>
   </tok>
  </sentence>
 </chunk>
 <chunk type="p" id="ch5">
  <sentence id="s5">
   <tok>
    <orth>#</orth>
    <lex disamb="1"><base>#</base><ctag>interp</ctag></lex>
   </tok>
   <ns/>
   <tok>
    <orth>oswiadczenie</orth>
    <lex disamb="1"><base>oswiadczenie</base><ctag>ign</ctag></lex>
   </tok>
   <tok>
    <orth>#</orth>
    <lex disamb="1"><base>#</base><ctag>interp</ctag></lex>
   </tok>
   <ns/>
   <tok>
    <orth>mcdonalds</orth>
    <lex disamb="1"><base>mcdonalds</base><ctag>ign</ctag></lex>
   </tok>
   <tok>
    <orth>#</orth>
    <lex disamb="1"><base>#</base><ctag>interp</ctag></lex>
   </tok>
   <ns/>
   <tok>
    <orth>gotujzwykopem</orth>
    <lex disamb="1"><base>gotujzwykopem</base><ctag>ign</ctag></lex>
   </tok>
   <tok>
    <orth>#</orth>
    <lex disamb="1"><base>#</base><ctag>interp</ctag></lex>
   </tok>
   <ns/>
   <tok>
    <orth>jedzenie</orth>
    <lex disamb="1"><base>jedzenie</base><ctag>subst:sg:nom:n</ctag></lex>
   </tok>
   <tok>
    <orth>#</orth>
    <lex disamb="1"><base>#</base><ctag>interp</ctag></lex>
   </tok>
   <ns/>
   <tok>
    <orth>kanapkadrwala</orth>
    <lex disamb="1"><base>kanapkadrwala</base><ctag>ign</ctag></lex>
   </tok>
   <tok>
    <orth>#</orth>
    <lex disamb="1"><base>#</base><ctag>interp</ctag></lex>
   </tok>
   <ns/>
   <tok>
    <orth>foodporn</orth>
    <lex disamb="1"><base>foodporn</base><ctag>ign</ctag></lex>
   </tok>
  </sentence>
 </chunk>
</chunkList>