<?xml version="1.0" encoding="UTF-8"?>
<!DOCTYPE chunkList SYSTEM "ccl.dtd">
<chunkList>
 <chunk type="p" id="ch1">
  <sentence id="s1">
   <tok>
    <orth>Jaki</orth>
    <lex disamb="1"><base>jak</base><ctag>subst:pl:nom:m2</ctag></lex>
   </tok>
   <tok>
    <orth>może</orth>
    <lex disamb="1"><base>może</base><ctag>qub</ctag></lex>
   </tok>
   <tok>
    <orth>być</orth>
    <lex disamb="1"><base>być</base><ctag>inf:imperf</ctag></lex>
   </tok>
   <tok>
    <orth>koszt</orth>
    <lex disamb="1"><base>koszt</base><ctag>subst:sg:nom:m3</ctag></lex>
   </tok>
   <tok>
    <orth>takiego</orth>
    <lex disamb="1"><base>taki</base><ctag>adj:sg:gen:m1:pos</ctag></lex>
   </tok>
   <tok>
    <orth>tatuażu</orth>
    <lex disamb="1"><base>tatuaż</base><ctag>subst:sg:gen:m3</ctag></lex>
   </tok>
   <ns/>
   <tok>
    <orth>?</orth>
    <lex disamb="1"><base>?</base><ctag>interp</ctag></lex>
   </tok>
  </sentence>
 </chunk>
 <chunk type="p" id="ch2">
  <sentence id="s2">
   <tok>
    <orth>#</orth>
    <lex disamb="1"><base>#</base><ctag>interp</ctag></lex>
   </tok>
   <ns/>
   <tok>
    <orth>tatuaze</orth>
    <lex disamb="1"><base>tatuaze</base><ctag>ign</ctag></lex>
   </tok>
  </sentence>
 </chunk>
</chunkList>