<?xml version="1.0" encoding="UTF-8"?>
<!DOCTYPE chunkList SYSTEM "ccl.dtd">
<chunkList>
 <chunk type="p" id="ch1">
  <sentence id="s1">
   <tok>
    <orth>Poprzednia</orth>
    <lex disamb="1"><base>poprzedni</base><ctag>adj:sg:nom:f:pos</ctag></lex>
    <ann chan="nam">0</ann>
    <ann chan="nam_oth_tech">0</ann>
    <ann chan="nam_oth">0</ann>
   </tok>
   <tok>
    <orth>paczka</orth>
    <lex disamb="1"><base>paczek</base><ctag>subst:sg:gen:m3</ctag></lex>
    <ann chan="nam">0</ann>
    <ann chan="nam_oth_tech">0</ann>
    <ann chan="nam_oth">0</ann>
   </tok>
   <tok>
    <orth>już</orth>
    <lex disamb="1"><base>już</base><ctag>qub</ctag></lex>
    <ann chan="nam">0</ann>
    <ann chan="nam_oth_tech">0</ann>
    <ann chan="nam_oth">0</ann>
   </tok>
   <tok>
    <orth>wysłana</orth>
    <lex disamb="1"><base>wysłać</base><ctag>ppas:sg:nom:f:perf:aff</ctag></lex>
    <ann chan="nam">0</ann>
    <ann chan="nam_oth_tech">0</ann>
    <ann chan="nam_oth">0</ann>
   </tok>
   <ns/>
   <tok>
    <orth>,</orth>
    <lex disamb="1"><base>,</base><ctag>interp</ctag></lex>
    <ann chan="nam">0</ann>
    <ann chan="nam_oth_tech">0</ann>
    <ann chan="nam_oth">0</ann>
   </tok>
   <tok>
    <orth>a</orth>
    <lex disamb="1"><base>a</base><ctag>conj</ctag></lex>
    <ann chan="nam">0</ann>
    <ann chan="nam_oth_tech">0</ann>
    <ann chan="nam_oth">0</ann>
   </tok>
   <tok>
    <orth>tym</orth>
    <lex disamb="1"><base>tym</base><ctag>conj</ctag></lex>
    <ann chan="nam">0</ann>
    <ann chan="nam_oth_tech">0</ann>
    <ann chan="nam_oth">0</ann>
   </tok>
   <tok>
    <orth>razem</orth>
    <lex disamb="1"><base>razem</base><ctag>adv:pos</ctag></lex>
    <ann chan="nam">0</ann>
    <ann chan="nam_oth_tech">0</ann>
    <ann chan="nam_oth">0</ann>
   </tok>
   <tok>
    <orth>kolejne</orth>
    <lex disamb="1"><base>kolejny</base><ctag>adj:sg:nom:n:pos</ctag></lex>
    <ann chan="nam">0</ann>
    <ann chan="nam_oth_tech">0</ann>
    <ann chan="nam_oth">0</ann>
   </tok>
   <tok>
    <orth>#</orth>
    <lex disamb="1"><base>#</base><ctag>interp</ctag></lex>
    <ann chan="nam">0</ann>
    <ann chan="nam_oth_tech">0</ann>
    <ann chan="nam_oth">0</ann>
   </tok>
   <ns/>
   <tok>
    <orth>rozdajo</orth>
    <lex disamb="1"><base>rozdajo</base><ctag>ign</ctag></lex>
    <ann chan="nam">0</ann>
    <ann chan="nam_oth_tech">0</ann>
    <ann chan="nam_oth">0</ann>
   </tok>
   <tok>
    <orth>jeszcze</orth>
    <lex disamb="1"><base>jeszcze</base><ctag>qub</ctag></lex>
    <ann chan="nam">0</ann>
    <ann chan="nam_oth_tech">0</ann>
    <ann chan="nam_oth">0</ann>
   </tok>
   <tok>
    <orth>jednego</orth>
    <lex disamb="1"><base>jeden</base><ctag>subst:sg:gen:m2</ctag></lex>
    <ann chan="nam">0</ann>
    <ann chan="nam_oth_tech">0</ann>
    <ann chan="nam_oth">0</ann>
   </tok>
   <tok>
    <orth>#</orth>
    <lex disamb="1"><base>#</base><ctag>interp</ctag></lex>
    <ann chan="nam">0</ann>
    <ann chan="nam_oth_tech">0</ann>
    <ann chan="nam_oth">0</ann>
   </tok>
   <ns/>
   <tok>
    <orth>mysterybox</orth>
    <lex disamb="1"><base>mysterybox</base><ctag>ign</ctag></lex>
    <ann chan="nam">0</ann>
    <ann chan="nam_oth_tech">0</ann>
    <ann chan="nam_oth">0</ann>
   </tok>
   <tok>
    <orth>z</orth>
    <lex disamb="1"><base>z</base><ctag>prep:gen:nwok</ctag></lex>
    <ann chan="nam">0</ann>
    <ann chan="nam_oth_tech">0</ann>
    <ann chan="nam_oth">0</ann>
   </tok>
   <tok>
    <orth>kategorii</orth>
    <lex disamb="1"><base>kategoria</base><ctag>subst:sg:gen:f</ctag></lex>
    <ann chan="nam">0</ann>
    <ann chan="nam_oth_tech">0</ann>
    <ann chan="nam_oth">0</ann>
   </tok>
   <tok>
    <orth>elektronika</orth>
    <lex disamb="1"><base>elektronik</base><ctag>subst:sg:gen:m1</ctag></lex>
    <ann chan="nam">0</ann>
    <ann chan="nam_oth_tech">0</ann>
    <ann chan="nam_oth">0</ann>
   </tok>
   <ns/>
   <tok>
    <orth>/</orth>
    <lex disamb="1"><base>/</base><ctag>interp</ctag></lex>
    <ann chan="nam">0</ann>
    <ann chan="nam_oth_tech">0</ann>
    <ann chan="nam_oth">0</ann>
   </tok>
   <ns/>
   <tok>
    <orth>gadżety</orth>
    <lex disamb="1"><base>gadżet</base><ctag>subst:pl:nom:m3</ctag></lex>
    <ann chan="nam">0</ann>
    <ann chan="nam_oth_tech">0</ann>
    <ann chan="nam_oth">0</ann>
   </tok>
   <tok>
    <orth>elektroniczne</orth>
    <lex disamb="1"><base>elektroniczny</base><ctag>adj:sg:nom:n:pos</ctag></lex>
    <ann chan="nam">0</ann>
    <ann chan="nam_oth_tech">0</ann>
    <ann chan="nam_oth">0</ann>
   </tok>
   <ns/>
   <tok>
    <orth>,</orth>
    <lex disamb="1"><base>,</base><ctag>interp</ctag></lex>
    <ann chan="nam">0</ann>
    <ann chan="nam_oth_tech">0</ann>
    <ann chan="nam_oth">0</ann>
   </tok>
   <tok>
    <orth>od</orth>
    <lex disamb="1"><base>od</base><ctag>prep:gen:nwok</ctag></lex>
    <ann chan="nam">0</ann>
    <ann chan="nam_oth_tech">0</ann>
    <ann chan="nam_oth">0</ann>
   </tok>
   <tok>
    <orth>kabla</orth>
    <lex disamb="1"><base>kabel</base><ctag>subst:sg:gen:m1</ctag></lex>
    <ann chan="nam">0</ann>
    <ann chan="nam_oth_tech">0</ann>
    <ann chan="nam_oth">0</ann>
   </tok>
   <tok>
    <orth>USB</orth>
    <lex disamb="1"><base>USB</base><ctag>subst:sg:nom:n</ctag></lex>
    <ann chan="nam">0</ann>
    <ann chan="nam_oth_tech">0</ann>
    <ann chan="nam_oth">0</ann>
   </tok>
   <tok>
    <orth>aż</orth>
    <lex disamb="1"><base>aż</base><ctag>comp</ctag></lex>
    <ann chan="nam">0</ann>
    <ann chan="nam_oth_tech">0</ann>
    <ann chan="nam_oth">0</ann>
   </tok>
   <tok>
    <orth>do</orth>
    <lex disamb="1"><base>do</base><ctag>prep:gen</ctag></lex>
    <ann chan="nam">0</ann>
    <ann chan="nam_oth_tech">0</ann>
    <ann chan="nam_oth">0</ann>
   </tok>
   <tok>
    <orth>pamięci</orth>
    <lex disamb="1"><base>pamięć</base><ctag>subst:sg:gen:f</ctag></lex>
    <ann chan="nam">0</ann>
    <ann chan="nam_oth_tech">0</ann>
    <ann chan="nam_oth">0</ann>
   </tok>
   <tok>
    <orth>RAM</orth>
    <lex disamb="1"><base>RAM</base><ctag>subst:sg:nom:m3</ctag></lex>
    <ann chan="nam">1</ann>
    <ann chan="nam_oth_tech">1</ann>
    <ann chan="nam_oth">1</ann>
   </tok>
   <ns/>
   <tok>
    <orth>.</orth>
    <lex disamb="1"><base>.</base><ctag>interp</ctag></lex>
    <ann chan="nam">0</ann>
    <ann chan="nam_oth_tech">0</ann>
    <ann chan="nam_oth">0</ann>
   </tok>
  </sentence>
 </chunk>
 <chunk type="p" id="ch2">
  <sentence id="s2">
   <tok>
    <orth>Ponad</orth>
    <lex disamb="1"><base>ponad</base><ctag>qub</ctag></lex>
   </tok>
   <tok>
    <orth>15</orth>
    <lex disamb="1"><base>15</base><ctag>num:pl:nom:m1:rec</ctag></lex>
   </tok>
   <tok>
    <orth>elementów</orth>
    <lex disamb="1"><base>element</base><ctag>subst:pl:gen:m3</ctag></lex>
   </tok>
   <tok>
    <orth>w</orth>
    <lex disamb="1"><base>w</base><ctag>prep:acc:nwok</ctag></lex>
   </tok>
   <tok>
    <orth>kopertach</orth>
    <lex disamb="1"><base>koperta</base><ctag>subst:pl:loc:f</ctag></lex>
   </tok>
   <tok>
    <orth>bąbelkowych</orth>
    <lex disamb="1"><base>bąbelkowy</base><ctag>adj:pl:gen:m1:pos</ctag></lex>
   </tok>
   <ns/>
   <tok>
    <orth>.</orth>
    <lex disamb="1"><base>.</base><ctag>interp</ctag></lex>
   </tok>
  </sentence>
 </chunk>
 <chunk type="p" id="ch3">
  <sentence id="s3">
   <tok>
    <orth>Paczka</orth>
    <lex disamb="1"><base>paczek</base><ctag>subst:sg:gen:m3</ctag></lex>
    <ann chan="nam">0</ann>
    <ann chan="nam_liv_person">0</ann>
    <ann chan="nam_liv">0</ann>
    <ann chan="timex">0</ann>
    <ann chan="t3_date">0</ann>
    <ann chan="t3_time">0</ann>
   </tok>
   <tok>
    <orth>łącznie</orth>
    <lex disamb="1"><base>łącznie</base><ctag>adv:pos</ctag></lex>
    <ann chan="nam">0</ann>
    <ann chan="nam_liv_person">0</ann>
    <ann chan="nam_liv">0</ann>
    <ann chan="timex">0</ann>
    <ann chan="t3_date">0</ann>
    <ann chan="t3_time">0</ann>
   </tok>
   <tok>
    <orth>o</orth>
    <lex disamb="1"><base>o</base><ctag>prep:acc</ctag></lex>
    <ann chan="nam">0</ann>
    <ann chan="nam_liv_person">0</ann>
    <ann chan="nam_liv">0</ann>
    <ann chan="timex">0</ann>
    <ann chan="t3_date">0</ann>
    <ann chan="t3_time">0</ann>
   </tok>
   <tok>
    <orth>wymiarach</orth>
    <lex disamb="1"><base>wymiar</base><ctag>subst:pl:loc:m3</ctag></lex>
    <ann chan="nam">0</ann>
    <ann chan="nam_liv_person">0</ann>
    <ann chan="nam_liv">0</ann>
    <ann chan="timex">0</ann>
    <ann chan="t3_date">0</ann>
    <ann chan="t3_time">0</ann>
   </tok>
   <tok>
    <orth>35x30x25</orth>
    <lex disamb="1"><base>35x30x25</base><ctag>ign</ctag></lex>
    <ann chan="nam">0</ann>
    <ann chan="nam_liv_person">0</ann>
    <ann chan="nam_liv">0</ann>
    <ann chan="timex">0</ann>
    <ann chan="t3_date">0</ann>
    <ann chan="t3_time">0</ann>
   </tok>
   <tok>
    <orth>i</orth>
    <lex disamb="1"><base>i</base><ctag>conj</ctag></lex>
    <ann chan="nam">0</ann>
    <ann chan="nam_liv_person">0</ann>
    <ann chan="nam_liv">0</ann>
    <ann chan="timex">0</ann>
    <ann chan="t3_date">0</ann>
    <ann chan="t3_time">0</ann>
   </tok>
   <tok>
    <orth>wadze</orth>
    <lex disamb="1"><base>waga</base><ctag>subst:sg:dat:f</ctag></lex>
    <ann chan="nam">0</ann>
    <ann chan="nam_liv_person">0</ann>
    <ann chan="nam_liv">0</ann>
    <ann chan="timex">0</ann>
    <ann chan="t3_date">0</ann>
    <ann chan="t3_time">0</ann>
   </tok>
   <tok>
    <orth>~</orth>
    <lex disamb="1"><base>~</base><ctag>interp</ctag></lex>
    <ann chan="nam">0</ann>
    <ann chan="nam_liv_person">0</ann>
    <ann chan="nam_liv">0</ann>
    <ann chan="timex">0</ann>
    <ann chan="t3_date">0</ann>
    <ann chan="t3_time">0</ann>
   </tok>
   <ns/>
   <tok>
    <orth>1kg</orth>
    <lex disamb="1"><base>1kg</base><ctag>ign</ctag></lex>
    <ann chan="nam">0</ann>
    <ann chan="nam_liv_person">0</ann>
    <ann chan="nam_liv">0</ann>
    <ann chan="timex">0</ann>
    <ann chan="t3_date">0</ann>
    <ann chan="t3_time">0</ann>
   </tok>
   <tok>
    <orth>Plusy</orth>
    <lex disamb="1"><base>plus</base><ctag>subst:pl:nom:m2</ctag></lex>
    <ann chan="nam">1</ann>
    <ann chan="nam_liv_person">0</ann>
    <ann chan="nam_liv">0</ann>
    <ann chan="timex">0</ann>
    <ann chan="t3_date">0</ann>
    <ann chan="t3_time">0</ann>
   </tok>
   <tok>
    <orth>zbieramy</orth>
    <lex disamb="1"><base>zbierać</base><ctag>fin:pl:pri:imperf</ctag></lex>
    <ann chan="nam">0</ann>
    <ann chan="nam_liv_person">0</ann>
    <ann chan="nam_liv">0</ann>
    <ann chan="timex">0</ann>
    <ann chan="t3_date">0</ann>
    <ann chan="t3_time">0</ann>
   </tok>
   <tok>
    <orth>do</orth>
    <lex disamb="1"><base>do</base><ctag>prep:gen</ctag></lex>
    <ann chan="nam">0</ann>
    <ann chan="nam_liv_person">0</ann>
    <ann chan="nam_liv">0</ann>
    <ann chan="timex">0</ann>
    <ann chan="t3_date">0</ann>
    <ann chan="t3_time">0</ann>
   </tok>
   <tok>
    <orth>końca</orth>
    <lex disamb="1"><base>koniec</base><ctag>subst:sg:gen:m3</ctag></lex>
    <ann chan="nam">0</ann>
    <ann chan="nam_liv_person">0</ann>
    <ann chan="nam_liv">0</ann>
    <ann chan="timex">1</ann>
    <ann chan="t3_date">1</ann>
    <ann chan="t3_time">0</ann>
   </tok>
   <tok>
    <orth>soboty</orth>
    <lex disamb="1"><base>sobota</base><ctag>subst:sg:gen:f</ctag></lex>
    <ann chan="nam">0</ann>
    <ann chan="nam_liv_person">0</ann>
    <ann chan="nam_liv">0</ann>
    <ann chan="timex">1</ann>
    <ann chan="t3_date">1</ann>
    <ann chan="t3_time">0</ann>
   </tok>
   <tok>
    <orth>(</orth>
    <lex disamb="1"><base>(</base><ctag>interp</ctag></lex>
    <ann chan="nam">0</ann>
    <ann chan="nam_liv_person">0</ann>
    <ann chan="nam_liv">0</ann>
    <ann chan="timex">1</ann>
    <ann chan="t3_date">0</ann>
    <ann chan="t3_time">0</ann>
   </tok>
   <ns/>
   <tok>
    <orth>08</orth>
    <lex disamb="1"><base>08</base><ctag>num:pl:nom:m1:rec</ctag></lex>
    <ann chan="nam">0</ann>
    <ann chan="nam_liv_person">0</ann>
    <ann chan="nam_liv">0</ann>
    <ann chan="timex">1</ann>
    <ann chan="t3_date">0</ann>
    <ann chan="t3_time">1</ann>
   </tok>
   <ns/>
   <tok>
    <orth>.</orth>
    <lex disamb="1"><base>.</base><ctag>interp</ctag></lex>
    <ann chan="nam">0</ann>
    <ann chan="nam_liv_person">0</ann>
    <ann chan="nam_liv">0</ann>
    <ann chan="timex">1</ann>
    <ann chan="t3_date">0</ann>
    <ann chan="t3_time">1</ann>
   </tok>
   <ns/>
   <tok>
    <orth>12</orth>
    <lex disamb="1"><base>12</base><ctag>num:pl:nom:m1:rec</ctag></lex>
    <ann chan="nam">0</ann>
    <ann chan="nam_liv_person">0</ann>
    <ann chan="nam_liv">0</ann>
    <ann chan="timex">1</ann>
    <ann chan="t3_date">0</ann>
    <ann chan="t3_time">1</ann>
   </tok>
   <ns/>
   <tok>
    <orth>.</orth>
    <lex disamb="1"><base>.</base><ctag>interp</ctag></lex>
    <ann chan="nam">0</ann>
    <ann chan="nam_liv_person">0</ann>
    <ann chan="nam_liv">0</ann>
    <ann chan="timex">1</ann>
    <ann chan="t3_date">0</ann>
    <ann chan="t3_time">1</ann>
   </tok>
   <ns/>
   <tok>
    <orth>2018</orth>
    <lex disamb="1"><base>2018</base><ctag>num:pl:nom:m1:rec</ctag></lex>
    <ann chan="nam">0</ann>
    <ann chan="nam_liv_person">0</ann>
    <ann chan="nam_liv">0</ann>
    <ann chan="timex">1</ann>
    <ann chan="t3_date">0</ann>
    <ann chan="t3_time">1</ann>
   </tok>
   <ns/>
   <tok>
    <orth>)</orth>
    <lex disamb="1"><base>)</base><ctag>interp</ctag></lex>
    <ann chan="nam">0</ann>
    <ann chan="nam_liv_person">0</ann>
    <ann chan="nam_liv">0</ann>
    <ann chan="timex">0</ann>
    <ann chan="t3_date">0</ann>
    <ann chan="t3_time">0</ann>
   </tok>
   <ns/>
   <tok>
    <orth>,</orth>
    <lex disamb="1"><base>,</base><ctag>interp</ctag></lex>
    <ann chan="nam">0</ann>
    <ann chan="nam_liv_person">0</ann>
    <ann chan="nam_liv">0</ann>
    <ann chan="timex">0</ann>
    <ann chan="t3_date">0</ann>
    <ann chan="t3_time">0</ann>
   </tok>
   <tok>
    <orth>zielonki</orth>
    <lex disamb="1"><base>zielonka</base><ctag>subst:sg:gen:f</ctag></lex>
    <ann chan="nam">0</ann>
    <ann chan="nam_liv_person">0</ann>
    <ann chan="nam_liv">0</ann>
    <ann chan="timex">0</ann>
    <ann chan="t3_date">0</ann>
    <ann chan="t3_time">0</ann>
   </tok>
   <tok>
    <orth>biorą</orth>
    <lex disamb="1"><base>brać</base><ctag>fin:pl:ter:imperf</ctag></lex>
    <ann chan="nam">0</ann>
    <ann chan="nam_liv_person">0</ann>
    <ann chan="nam_liv">0</ann>
    <ann chan="timex">0</ann>
    <ann chan="t3_date">0</ann>
    <ann chan="t3_time">0</ann>
   </tok>
   <tok>
    <orth>udział</orth>
    <lex disamb="1"><base>udział</base><ctag>subst:sg:nom:m3</ctag></lex>
    <ann chan="nam">0</ann>
    <ann chan="nam_liv_person">0</ann>
    <ann chan="nam_liv">0</ann>
    <ann chan="timex">0</ann>
    <ann chan="t3_date">0</ann>
    <ann chan="t3_time">0</ann>
   </tok>
   <tok>
    <orth>Paczka</orth>
    <lex disamb="1"><base>paczek</base><ctag>subst:sg:gen:m3</ctag></lex>
    <ann chan="nam">2</ann>
    <ann chan="nam_liv_person">1</ann>
    <ann chan="nam_liv">1</ann>
    <ann chan="timex">0</ann>
    <ann chan="t3_date">0</ann>
    <ann chan="t3_time">0</ann>
   </tok>
   <tok>
    <orth>całkowicie</orth>
    <lex disamb="1"><base>całkowicie</base><ctag>adv:pos</ctag></lex>
    <ann chan="nam">0</ann>
    <ann chan="nam_liv_person">0</ann>
    <ann chan="nam_liv">0</ann>
    <ann chan="timex">0</ann>
    <ann chan="t3_date">0</ann>
    <ann chan="t3_time">0</ann>
   </tok>
   <tok>
    <orth>darmowa</orth>
    <lex disamb="1"><base>darmowy</base><ctag>adj:sg:nom:f:pos</ctag></lex>
    <ann chan="nam">0</ann>
    <ann chan="nam_liv_person">0</ann>
    <ann chan="nam_liv">0</ann>
    <ann chan="timex">0</ann>
    <ann chan="t3_date">0</ann>
    <ann chan="t3_time">0</ann>
   </tok>
   <ns/>
   <tok>
    <orth>,</orth>
    <lex disamb="1"><base>,</base><ctag>interp</ctag></lex>
    <ann chan="nam">0</ann>
    <ann chan="nam_liv_person">0</ann>
    <ann chan="nam_liv">0</ann>
    <ann chan="timex">0</ann>
    <ann chan="t3_date">0</ann>
    <ann chan="t3_time">0</ann>
   </tok>
   <tok>
    <orth>jednak</orth>
    <lex disamb="1"><base>jednak</base><ctag>conj</ctag></lex>
    <ann chan="nam">0</ann>
    <ann chan="nam_liv_person">0</ann>
    <ann chan="nam_liv">0</ann>
    <ann chan="timex">0</ann>
    <ann chan="t3_date">0</ann>
    <ann chan="t3_time">0</ann>
   </tok>
   <tok>
    <orth>wymagam</orth>
    <lex disamb="1"><base>wymagać</base><ctag>fin:sg:pri:imperf</ctag></lex>
    <ann chan="nam">0</ann>
    <ann chan="nam_liv_person">0</ann>
    <ann chan="nam_liv">0</ann>
    <ann chan="timex">0</ann>
    <ann chan="t3_date">0</ann>
    <ann chan="t3_time">0</ann>
   </tok>
   <tok>
    <orth>pokrycia</orth>
    <lex disamb="1"><base>pokrycie</base><ctag>subst:sg:gen:n</ctag></lex>
    <ann chan="nam">0</ann>
    <ann chan="nam_liv_person">0</ann>
    <ann chan="nam_liv">0</ann>
    <ann chan="timex">0</ann>
    <ann chan="t3_date">0</ann>
    <ann chan="t3_time">0</ann>
   </tok>
   <tok>
    <orth>kosztów</orth>
    <lex disamb="1"><base>koszt</base><ctag>subst:pl:gen:m3</ctag></lex>
    <ann chan="nam">0</ann>
    <ann chan="nam_liv_person">0</ann>
    <ann chan="nam_liv">0</ann>
    <ann chan="timex">0</ann>
    <ann chan="t3_date">0</ann>
    <ann chan="t3_time">0</ann>
   </tok>
   <tok>
    <orth>transportu</orth>
    <lex disamb="1"><base>transport</base><ctag>subst:sg:gen:m3</ctag></lex>
    <ann chan="nam">0</ann>
    <ann chan="nam_liv_person">0</ann>
    <ann chan="nam_liv">0</ann>
    <ann chan="timex">0</ann>
    <ann chan="t3_date">0</ann>
    <ann chan="t3_time">0</ann>
   </tok>
   <tok>
    <orth>kurierem</orth>
    <lex disamb="1"><base>kurier</base><ctag>subst:sg:inst:m1</ctag></lex>
    <ann chan="nam">0</ann>
    <ann chan="nam_liv_person">0</ann>
    <ann chan="nam_liv">0</ann>
    <ann chan="timex">0</ann>
    <ann chan="t3_date">0</ann>
    <ann chan="t3_time">0</ann>
   </tok>
   <tok>
    <orth>w</orth>
    <lex disamb="1"><base>w</base><ctag>prep:acc:nwok</ctag></lex>
    <ann chan="nam">0</ann>
    <ann chan="nam_liv_person">0</ann>
    <ann chan="nam_liv">0</ann>
    <ann chan="timex">0</ann>
    <ann chan="t3_date">0</ann>
    <ann chan="t3_time">0</ann>
   </tok>
   <tok>
    <orth>wysokości</orth>
    <lex disamb="1"><base>wysokość</base><ctag>subst:sg:gen:f</ctag></lex>
    <ann chan="nam">0</ann>
    <ann chan="nam_liv_person">0</ann>
    <ann chan="nam_liv">0</ann>
    <ann chan="timex">0</ann>
    <ann chan="t3_date">0</ann>
    <ann chan="t3_time">0</ann>
   </tok>
   <tok>
    <orth>16</orth>
    <lex disamb="1"><base>16</base><ctag>num:pl:nom:m1:rec</ctag></lex>
    <ann chan="nam">0</ann>
    <ann chan="nam_liv_person">0</ann>
    <ann chan="nam_liv">0</ann>
    <ann chan="timex">0</ann>
    <ann chan="t3_date">0</ann>
    <ann chan="t3_time">0</ann>
   </tok>
   <ns/>
   <tok>
    <orth>,</orth>
    <lex disamb="1"><base>,</base><ctag>interp</ctag></lex>
    <ann chan="nam">0</ann>
    <ann chan="nam_liv_person">0</ann>
    <ann chan="nam_liv">0</ann>
    <ann chan="timex">0</ann>
    <ann chan="t3_date">0</ann>
    <ann chan="t3_time">0</ann>
   </tok>
   <ns/>
   <tok>
    <orth>90zł</orth>
    <lex disamb="1"><base>90zł</base><ctag>ign</ctag></lex>
    <ann chan="nam">0</ann>
    <ann chan="nam_liv_person">0</ann>
    <ann chan="nam_liv">0</ann>
    <ann chan="timex">0</ann>
    <ann chan="t3_date">0</ann>
    <ann chan="t3_time">0</ann>
   </tok>
   <tok>
    <orth>Zwycięzca</orth>
    <lex disamb="1"><base>zwycięzca</base><ctag>subst:sg:nom:m1</ctag></lex>
    <ann chan="nam">3</ann>
    <ann chan="nam_liv_person">0</ann>
    <ann chan="nam_liv">0</ann>
    <ann chan="timex">0</ann>
    <ann chan="t3_date">0</ann>
    <ann chan="t3_time">0</ann>
   </tok>
   <tok>
    <orth>zostanie</orth>
    <lex disamb="1"><base>zostać</base><ctag>ger:sg:nom:n:perf:aff</ctag></lex>
    <ann chan="nam">0</ann>
    <ann chan="nam_liv_person">0</ann>
    <ann chan="nam_liv">0</ann>
    <ann chan="timex">0</ann>
    <ann chan="t3_date">0</ann>
    <ann chan="t3_time">0</ann>
   </tok>
   <tok>
    <orth>wybrany</orth>
    <lex disamb="1"><base>wybrany</base><ctag>subst:sg:nom:m1</ctag></lex>
    <ann chan="nam">0</ann>
    <ann chan="nam_liv_person">0</ann>
    <ann chan="nam_liv">0</ann>
    <ann chan="timex">0</ann>
    <ann chan="t3_date">0</ann>
    <ann chan="t3_time">0</ann>
   </tok>
   <tok>
    <orth>w</orth>
    <lex disamb="1"><base>w</base><ctag>prep:acc:nwok</ctag></lex>
    <ann chan="nam">0</ann>
    <ann chan="nam_liv_person">0</ann>
    <ann chan="nam_liv">0</ann>
    <ann chan="timex">0</ann>
    <ann chan="t3_date">0</ann>
    <ann chan="t3_time">0</ann>
   </tok>
   <tok>
    <orth>niedzielę</orth>
    <lex disamb="1"><base>niedziela</base><ctag>subst:sg:acc:f</ctag></lex>
    <ann chan="nam">0</ann>
    <ann chan="nam_liv_person">0</ann>
    <ann chan="nam_liv">0</ann>
    <ann chan="timex">2</ann>
    <ann chan="t3_date">2</ann>
    <ann chan="t3_time">0</ann>
   </tok>
   <ns/>
   <tok>
    <orth>.</orth>
    <lex disamb="1"><base>.</base><ctag>interp</ctag></lex>
    <ann chan="nam">0</ann>
    <ann chan="nam_liv_person">0</ann>
    <ann chan="nam_liv">0</ann>
    <ann chan="timex">0</ann>
    <ann chan="t3_date">0</ann>
    <ann chan="t3_time">0</ann>
   </tok>
  </sentence>
 </chunk>
 <chunk type="p" id="ch4">
  <sentence id="s4">
   <tok>
    <orth>Powodzenia</orth>
    <lex disamb="1"><base>powodzenie</base><ctag>subst:sg:gen:n</ctag></lex>
   </tok>
  </sentence>
 </chunk>
</chunkList>