<?xml version="1.0" encoding="UTF-8"?>
<!DOCTYPE chunkList SYSTEM "ccl.dtd">
<chunkList>
 <chunk type="p" id="ch1">
  <sentence id="s1">
   <tok>
    <orth>Mirki</orth>
    <lex disamb="1"><base>Mirka</base><ctag>subst:sg:gen:f</ctag></lex>
    <ann chan="nam">1</ann>
   </tok>
   <ns/>
   <tok>
    <orth>,</orth>
    <lex disamb="1"><base>,</base><ctag>interp</ctag></lex>
    <ann chan="nam">0</ann>
   </tok>
   <tok>
    <orth>jaka</orth>
    <lex disamb="1"><base>jak</base><ctag>subst:sg:gen:m2</ctag></lex>
    <ann chan="nam">0</ann>
   </tok>
   <tok>
    <orth>z</orth>
    <lex disamb="1"><base>z</base><ctag>prep:gen:nwok</ctag></lex>
    <ann chan="nam">0</ann>
   </tok>
   <tok>
    <orth>pozoru</orth>
    <lex disamb="1"><base>pozór</base><ctag>subst:sg:gen:m3</ctag></lex>
    <ann chan="nam">0</ann>
   </tok>
   <tok>
    <orth>pierdoła</orth>
    <lex disamb="1"><base>pierdoła</base><ctag>subst:sg:nom:m1</ctag></lex>
    <ann chan="nam">0</ann>
   </tok>
   <tok>
    <orth>w</orth>
    <lex disamb="1"><base>w</base><ctag>prep:acc:nwok</ctag></lex>
    <ann chan="nam">0</ann>
   </tok>
   <tok>
    <orth>wyglądzie</orth>
    <lex disamb="1"><base>wygląd</base><ctag>subst:sg:loc:m3</ctag></lex>
    <ann chan="nam">0</ann>
   </tok>
   <tok>
    <orth>fizycznym</orth>
    <lex disamb="1"><base>fizyczny</base><ctag>adj:sg:inst:m1:pos</ctag></lex>
    <ann chan="nam">0</ann>
   </tok>
   <tok>
    <orth>u</orth>
    <lex disamb="1"><base>u</base><ctag>prep:gen</ctag></lex>
    <ann chan="nam">0</ann>
   </tok>
   <tok>
    <orth>laski</orth>
    <lex disamb="1"><base>lasek</base><ctag>subst:pl:nom:m3</ctag></lex>
    <ann chan="nam">0</ann>
   </tok>
   <tok>
    <orth>powoduje</orth>
    <lex disamb="1"><base>powodować</base><ctag>fin:sg:ter:imperf</ctag></lex>
    <ann chan="nam">0</ann>
   </tok>
   <ns/>
   <tok>
    <orth>,</orth>
    <lex disamb="1"><base>,</base><ctag>interp</ctag></lex>
    <ann chan="nam">0</ann>
   </tok>
   <tok>
    <orth>że</orth>
    <lex disamb="1"><base>że</base><ctag>comp</ctag></lex>
    <ann chan="nam">0</ann>
   </tok>
   <tok>
    <orth>staje</orth>
    <lex disamb="1"><base>staj</base><ctag>subst:pl:nom:m3</ctag></lex>
    <ann chan="nam">0</ann>
   </tok>
   <tok>
    <orth>się</orth>
    <lex disamb="1"><base>się</base><ctag>qub</ctag></lex>
    <ann chan="nam">0</ann>
   </tok>
   <tok>
    <orth>dla</orth>
    <lex disamb="1"><base>dla</base><ctag>prep:gen</ctag></lex>
    <ann chan="nam">0</ann>
   </tok>
   <tok>
    <orth>was</orth>
    <lex disamb="1"><base>wy</base><ctag>ppron12:pl:gen:m1:sec</ctag></lex>
    <ann chan="nam">0</ann>
   </tok>
   <tok>
    <orth>całkowicie</orth>
    <lex disamb="1"><base>całkowicie</base><ctag>adv:pos</ctag></lex>
    <ann chan="nam">0</ann>
   </tok>
   <tok>
    <orth>askeusalnym</orth>
    <lex disamb="1"><base>askeusalnym</base><ctag>ign</ctag></lex>
    <ann chan="nam">0</ann>
   </tok>
   <tok>
    <orth>tworem</orth>
    <lex disamb="1"><base>twór</base><ctag>subst:sg:inst:m3</ctag></lex>
    <ann chan="nam">0</ann>
   </tok>
   <ns/>
   <tok>
    <orth>?</orth>
    <lex disamb="1"><base>?</base><ctag>interp</ctag></lex>
    <ann chan="nam">0</ann>
   </tok>
  </sentence>
 </chunk>
 <chunk type="p" id="ch2">
  <sentence id="s2">
   <tok>
    <orth>#</orth>
    <lex disamb="1"><base>#</base><ctag>interp</ctag></lex>
   </tok>
   <ns/>
   <tok>
    <orth>zwiazki</orth>
    <lex disamb="1"><base>zwiazki</base><ctag>ign</ctag></lex>
   </tok>
   <tok>
    <orth>#</orth>
    <lex disamb="1"><base>#</base><ctag>interp</ctag></lex>
   </tok>
   <ns/>
   <tok>
    <orth>rozowepaski</orth>
    <lex disamb="1"><base>rozowepaski</base><ctag>ign</ctag></lex>
   </tok>
   <tok>
    <orth>#</orth>
    <lex disamb="1"><base>#</base><ctag>interp</ctag></lex>
   </tok>
   <ns/>
   <tok>
    <orth>tinder</orth>
    <lex disamb="1"><base>tinder</base><ctag>ign</ctag></lex>
   </tok>
  </sentence>
 </chunk>
 <chunk type="p" id="ch3">
  <sentence id="s3">
   <tok>
    <orth>Dla</orth>
    <lex disamb="1"><base>dla</base><ctag>prep:gen</ctag></lex>
   </tok>
   <tok>
    <orth>mnie</orth>
    <lex disamb="1"><base>ja</base><ctag>ppron12:sg:gen:m1:pri:akc</ctag></lex>
   </tok>
   <tok>
    <orth>są</orth>
    <lex disamb="1"><base>być</base><ctag>fin:pl:ter:imperf</ctag></lex>
   </tok>
   <tok>
    <orth>to</orth>
    <lex disamb="1"><base>to</base><ctag>conj</ctag></lex>
   </tok>
   <tok>
    <orth>laski</orth>
    <lex disamb="1"><base>lasek</base><ctag>subst:pl:nom:m3</ctag></lex>
   </tok>
   <tok>
    <orth>noszące</orth>
    <lex disamb="1"><base>nosić</base><ctag>pact:sg:nom:n:imperf:aff</ctag></lex>
   </tok>
   <tok>
    <orth>takie</orth>
    <lex disamb="1"><base>taki</base><ctag>adj:sg:nom:n:pos</ctag></lex>
   </tok>
   <tok>
    <orth>buty</orth>
    <lex disamb="1"><base>but</base><ctag>subst:pl:nom:m2</ctag></lex>
   </tok>
   <ns/>
   <tok>
    <orth>,</orth>
    <lex disamb="1"><base>,</base><ctag>interp</ctag></lex>
   </tok>
   <tok>
    <orth>jak</orth>
    <lex disamb="1"><base>jak</base><ctag>conj</ctag></lex>
   </tok>
   <tok>
    <orth>z</orth>
    <lex disamb="1"><base>z</base><ctag>prep:gen:nwok</ctag></lex>
   </tok>
   <tok>
    <orth>obrazka</orth>
    <lex disamb="1"><base>obrazek</base><ctag>subst:sg:gen:m3</ctag></lex>
   </tok>
   <tok>
    <orth>poniżej</orth>
    <lex disamb="1"><base>poniżej</base><ctag>adv:pos</ctag></lex>
   </tok>
   <tok>
    <orth>(</orth>
    <lex disamb="1"><base>(</base><ctag>interp</ctag></lex>
   </tok>
   <ns/>
   <tok>
    <orth>╯</orth>
    <lex disamb="1"><base>╯</base><ctag>interp</ctag></lex>
   </tok>
   <ns/>
   <tok>
    <orth>︵</orth>
    <lex disamb="1"><base>︵</base><ctag>interp</ctag></lex>
   </tok>
   <ns/>
   <tok>
    <orth>╰</orth>
    <lex disamb="1"><base>╰</base><ctag>interp</ctag></lex>
   </tok>
   <ns/>
   <tok>
    <orth>,</orth>
    <lex disamb="1"><base>,</base><ctag>interp</ctag></lex>
   </tok>
   <ns/>
   <tok>
    <orth>)</orth>
    <lex disamb="1"><base>)</base><ctag>interp</ctag></lex>
   </tok>
  </sentence>
 </chunk>
</chunkList>