<?xml version="1.0" encoding="UTF-8"?>
<!DOCTYPE chunkList SYSTEM "ccl.dtd">
<chunkList>
 <chunk type="p" id="ch1">
  <sentence id="s1">
   <tok>
    <orth>moim</orth>
    <lex disamb="1"><base>moi</base><ctag>subst:pl:dat:m1</ctag></lex>
    <lex disamb="1"><base>mój</base><ctag>subst:pl:dat:m1</ctag></lex>
   </tok>
   <tok>
    <orth>zdaniem</orth>
    <lex disamb="1"><base>zdanie</base><ctag>subst:sg:inst:n</ctag></lex>
   </tok>
   <tok>
    <orth>żeby</orth>
    <lex disamb="1"><base>żeby</base><ctag>comp</ctag></lex>
   </tok>
   <tok>
    <orth>osiągnąć</orth>
    <lex disamb="1"><base>osiągnąć</base><ctag>inf:perf</ctag></lex>
   </tok>
   <tok>
    <orth>spokój</orth>
    <lex disamb="1"><base>spokój</base><ctag>subst:sg:nom:m3</ctag></lex>
   </tok>
   <tok>
    <orth>ducha</orth>
    <lex disamb="1"><base>duch</base><ctag>subst:sg:gen:m2</ctag></lex>
   </tok>
   <tok>
    <orth>trzeba</orth>
    <lex disamb="1"><base>trzeba</base><ctag>pred</ctag></lex>
   </tok>
   <tok>
    <orth>znać</orth>
    <lex disamb="1"><base>znać</base><ctag>pred</ctag></lex>
   </tok>
   <tok>
    <orth>odpowiedź</orth>
    <lex disamb="1"><base>odpowiedź</base><ctag>subst:sg:nom:f</ctag></lex>
   </tok>
   <tok>
    <orth>na</orth>
    <lex disamb="1"><base>na</base><ctag>prep:acc</ctag></lex>
   </tok>
   <tok>
    <orth>fundamentalne</orth>
    <lex disamb="1"><base>fundamentalny</base><ctag>adj:sg:nom:n:pos</ctag></lex>
   </tok>
   <tok>
    <orth>pytanie</orth>
    <lex disamb="1"><base>pytanie</base><ctag>subst:sg:nom:n</ctag></lex>
   </tok>
   <tok>
    <orth>a</orth>
    <lex disamb="1"><base>a</base><ctag>conj</ctag></lex>
   </tok>
   <tok>
    <orth>mianowicie</orth>
    <lex disamb="1"><base>mianowicie</base><ctag>conj</ctag></lex>
   </tok>
   <tok>
    <orth>o</orth>
    <lex disamb="1"><base>o</base><ctag>prep:acc</ctag></lex>
   </tok>
   <tok>
    <orth>chuj</orth>
    <lex disamb="1"><base>chuj</base><ctag>subst:sg:nom:m1</ctag></lex>
   </tok>
   <tok>
    <orth>mi</orth>
    <lex disamb="1"><base>mi</base><ctag>subst:sg:nom:n</ctag></lex>
   </tok>
   <tok>
    <orth>chodzi</orth>
    <lex disamb="1"><base>chodzić</base><ctag>fin:sg:ter:imperf</ctag></lex>
   </tok>
   <ns/>
   <tok>
    <orth>?</orth>
    <lex disamb="1"><base>?</base><ctag>interp</ctag></lex>
   </tok>
  </sentence>
 </chunk>
 <chunk type="p" id="ch2">
  <sentence id="s2">
   <tok>
    <orth>no</orth>
    <lex disamb="1"><base>no</base><ctag>qub</ctag></lex>
   </tok>
   <tok>
    <orth>i</orth>
    <lex disamb="1"><base>i</base><ctag>conj</ctag></lex>
   </tok>
   <tok>
    <orth>ja</orth>
    <lex disamb="1"><base>ja</base><ctag>ppron12:sg:nom:m1:pri</ctag></lex>
   </tok>
   <tok>
    <orth>na</orth>
    <lex disamb="1"><base>na</base><ctag>prep:acc</ctag></lex>
   </tok>
   <tok>
    <orth>przykład</orth>
    <lex disamb="1"><base>przykład</base><ctag>subst:sg:nom:m3</ctag></lex>
   </tok>
   <tok>
    <orth>nie</orth>
    <lex disamb="1"><base>nie</base><ctag>conj</ctag></lex>
   </tok>
   <tok>
    <orth>wiem</orth>
    <lex disamb="1"><base>wiedzieć</base><ctag>fin:sg:pri:imperf</ctag></lex>
   </tok>
  </sentence>
 </chunk>
</chunkList>