<?xml version="1.0" encoding="UTF-8"?>
<!DOCTYPE chunkList SYSTEM "ccl.dtd">
<chunkList>
 <chunk type="p" id="ch1">
  <sentence id="s1">
   <tok>
    <orth>#</orth>
    <lex disamb="1"><base>#</base><ctag>interp</ctag></lex>
    <ann chan="nam">0</ann>
    <ann chan="nam_org_institution">0</ann>
    <ann chan="nam_org">0</ann>
   </tok>
   <ns/>
   <tok>
    <orth>chili</orth>
    <lex disamb="1"><base>chili</base><ctag>subst:sg:nom:n</ctag></lex>
    <ann chan="nam">0</ann>
    <ann chan="nam_org_institution">0</ann>
    <ann chan="nam_org">0</ann>
   </tok>
   <tok>
    <orth>#</orth>
    <lex disamb="1"><base>#</base><ctag>interp</ctag></lex>
    <ann chan="nam">0</ann>
    <ann chan="nam_org_institution">0</ann>
    <ann chan="nam_org">0</ann>
   </tok>
   <ns/>
   <tok>
    <orth>chilihead</orth>
    <lex disamb="1"><base>chilihead</base><ctag>ign</ctag></lex>
    <ann chan="nam">0</ann>
    <ann chan="nam_org_institution">0</ann>
    <ann chan="nam_org">0</ann>
   </tok>
   <tok>
    <orth>#</orth>
    <lex disamb="1"><base>#</base><ctag>interp</ctag></lex>
    <ann chan="nam">0</ann>
    <ann chan="nam_org_institution">0</ann>
    <ann chan="nam_org">0</ann>
   </tok>
   <ns/>
   <tok>
    <orth>papryczki</orth>
    <lex disamb="1"><base>papryczka</base><ctag>subst:sg:gen:f</ctag></lex>
    <ann chan="nam">0</ann>
    <ann chan="nam_org_institution">0</ann>
    <ann chan="nam_org">0</ann>
   </tok>
   <tok>
    <orth>#</orth>
    <lex disamb="1"><base>#</base><ctag>interp</ctag></lex>
    <ann chan="nam">0</ann>
    <ann chan="nam_org_institution">0</ann>
    <ann chan="nam_org">0</ann>
   </tok>
   <ns/>
   <tok>
    <orth>ostrezarcie</orth>
    <lex disamb="1"><base>ostrezarcie</base><ctag>ign</ctag></lex>
    <ann chan="nam">0</ann>
    <ann chan="nam_org_institution">0</ann>
    <ann chan="nam_org">0</ann>
   </tok>
   <tok>
    <orth>#</orth>
    <lex disamb="1"><base>#</base><ctag>interp</ctag></lex>
    <ann chan="nam">0</ann>
    <ann chan="nam_org_institution">0</ann>
    <ann chan="nam_org">0</ann>
   </tok>
   <ns/>
   <tok>
    <orth>gotujzwykopem</orth>
    <lex disamb="1"><base>gotujzwykopem</base><ctag>ign</ctag></lex>
    <ann chan="nam">0</ann>
    <ann chan="nam_org_institution">0</ann>
    <ann chan="nam_org">0</ann>
   </tok>
   <tok>
    <orth>#</orth>
    <lex disamb="1"><base>#</base><ctag>interp</ctag></lex>
    <ann chan="nam">0</ann>
    <ann chan="nam_org_institution">0</ann>
    <ann chan="nam_org">0</ann>
   </tok>
   <ns/>
   <tok>
    <orth>foodporn</orth>
    <lex disamb="1"><base>foodporn</base><ctag>ign</ctag></lex>
    <ann chan="nam">0</ann>
    <ann chan="nam_org_institution">0</ann>
    <ann chan="nam_org">0</ann>
   </tok>
   <tok>
    <orth>#</orth>
    <lex disamb="1"><base>#</base><ctag>interp</ctag></lex>
    <ann chan="nam">0</ann>
    <ann chan="nam_org_institution">0</ann>
    <ann chan="nam_org">0</ann>
   </tok>
   <ns/>
   <tok>
    <orth>rozdajo</orth>
    <lex disamb="1"><base>rozdajo</base><ctag>ign</ctag></lex>
    <ann chan="nam">0</ann>
    <ann chan="nam_org_institution">0</ann>
    <ann chan="nam_org">0</ann>
   </tok>
   <tok>
    <orth>MIKOŁAJKOWE</orth>
    <lex disamb="1"><base>mikołajkowy</base><ctag>adj:sg:nom:n:pos</ctag></lex>
    <ann chan="nam">1</ann>
    <ann chan="nam_org_institution">1</ann>
    <ann chan="nam_org">1</ann>
   </tok>
   <tok>
    <orth>POTRÓJNE</orth>
    <lex disamb="1"><base>potrójny</base><ctag>adj:sg:nom:n:pos</ctag></lex>
    <ann chan="nam">1</ann>
    <ann chan="nam_org_institution">1</ann>
    <ann chan="nam_org">1</ann>
   </tok>
   <tok>
    <orth>ROZDAJO</orth>
    <lex disamb="1"><base>ROZDAJO</base><ctag>ign</ctag></lex>
    <ann chan="nam">1</ann>
    <ann chan="nam_org_institution">1</ann>
    <ann chan="nam_org">1</ann>
   </tok>
  </sentence>
 </chunk>
 <chunk type="p" id="ch2">
  <sentence id="s2">
   <tok>
    <orth>Mikołajki</orth>
    <lex disamb="1"><base>mikołajek</base><ctag>subst:pl:nom:m2</ctag></lex>
    <ann chan="nam">1</ann>
    <ann chan="nam_loc">1</ann>
    <ann chan="timex">0</ann>
    <ann chan="t3_date">0</ann>
   </tok>
   <tok>
    <orth>tuż</orth>
    <lex disamb="1"><base>tuż</base><ctag>adv:pos</ctag></lex>
    <ann chan="nam">0</ann>
    <ann chan="nam_loc">0</ann>
    <ann chan="timex">0</ann>
    <ann chan="t3_date">0</ann>
   </tok>
   <tok>
    <orth>tuż</orth>
    <lex disamb="1"><base>tuż</base><ctag>adv:pos</ctag></lex>
    <ann chan="nam">0</ann>
    <ann chan="nam_loc">0</ann>
    <ann chan="timex">0</ann>
    <ann chan="t3_date">0</ann>
   </tok>
   <ns/>
   <tok>
    <orth>,</orth>
    <lex disamb="1"><base>,</base><ctag>interp</ctag></lex>
    <ann chan="nam">0</ann>
    <ann chan="nam_loc">0</ann>
    <ann chan="timex">0</ann>
    <ann chan="t3_date">0</ann>
   </tok>
   <tok>
    <orth>więc</orth>
    <lex disamb="1"><base>więc</base><ctag>conj</ctag></lex>
    <ann chan="nam">0</ann>
    <ann chan="nam_loc">0</ann>
    <ann chan="timex">0</ann>
    <ann chan="t3_date">0</ann>
   </tok>
   <tok>
    <orth>mam</orth>
    <lex disamb="1"><base>mama</base><ctag>subst:pl:gen:f</ctag></lex>
    <ann chan="nam">0</ann>
    <ann chan="nam_loc">0</ann>
    <ann chan="timex">0</ann>
    <ann chan="t3_date">0</ann>
   </tok>
   <tok>
    <orth>dla</orth>
    <lex disamb="1"><base>dla</base><ctag>prep:gen</ctag></lex>
    <ann chan="nam">0</ann>
    <ann chan="nam_loc">0</ann>
    <ann chan="timex">0</ann>
    <ann chan="t3_date">0</ann>
   </tok>
   <tok>
    <orth>Was</orth>
    <lex disamb="1"><base>wy</base><ctag>ppron12:pl:gen:m1:sec</ctag></lex>
    <ann chan="nam">0</ann>
    <ann chan="nam_loc">0</ann>
    <ann chan="timex">0</ann>
    <ann chan="t3_date">0</ann>
   </tok>
   <tok>
    <orth>coś</orth>
    <lex disamb="1"><base>coś</base><ctag>qub</ctag></lex>
    <ann chan="nam">0</ann>
    <ann chan="nam_loc">0</ann>
    <ann chan="timex">0</ann>
    <ann chan="t3_date">0</ann>
   </tok>
   <tok>
    <orth>na</orth>
    <lex disamb="1"><base>na</base><ctag>prep:acc</ctag></lex>
    <ann chan="nam">0</ann>
    <ann chan="nam_loc">0</ann>
    <ann chan="timex">0</ann>
    <ann chan="t3_date">0</ann>
   </tok>
   <tok>
    <orth>rozgrzanie</orth>
    <lex disamb="1"><base>rozgrzać</base><ctag>ger:sg:nom:n:perf:aff</ctag></lex>
    <ann chan="nam">0</ann>
    <ann chan="nam_loc">0</ann>
    <ann chan="timex">0</ann>
    <ann chan="t3_date">0</ann>
   </tok>
   <tok>
    <orth>w</orth>
    <lex disamb="1"><base>w</base><ctag>prep:acc:nwok</ctag></lex>
    <ann chan="nam">0</ann>
    <ann chan="nam_loc">0</ann>
    <ann chan="timex">0</ann>
    <ann chan="t3_date">0</ann>
   </tok>
   <tok>
    <orth>te</orth>
    <lex disamb="1"><base>te</base><ctag>subst:sg:nom:n</ctag></lex>
    <ann chan="nam">0</ann>
    <ann chan="nam_loc">0</ann>
    <ann chan="timex">0</ann>
    <ann chan="t3_date">0</ann>
   </tok>
   <tok>
    <orth>zimowe</orth>
    <lex disamb="1"><base>zimowy</base><ctag>adj:sg:nom:n:pos</ctag></lex>
    <ann chan="nam">0</ann>
    <ann chan="nam_loc">0</ann>
    <ann chan="timex">1</ann>
    <ann chan="t3_date">1</ann>
   </tok>
   <tok>
    <orth>dni</orth>
    <lex disamb="1"><base>dzień</base><ctag>subst:pl:nom:m3</ctag></lex>
    <ann chan="nam">0</ann>
    <ann chan="nam_loc">0</ann>
    <ann chan="timex">1</ann>
    <ann chan="t3_date">1</ann>
   </tok>
   <tok>
    <orth>(</orth>
    <lex disamb="1"><base>(</base><ctag>interp</ctag></lex>
    <ann chan="nam">0</ann>
    <ann chan="nam_loc">0</ann>
    <ann chan="timex">0</ann>
    <ann chan="t3_date">0</ann>
   </tok>
   <tok>
    <orth>͡</orth>
    <lex disamb="1"><base>͡</base><ctag>ign</ctag></lex>
    <ann chan="nam">0</ann>
    <ann chan="nam_loc">0</ann>
    <ann chan="timex">0</ann>
    <ann chan="t3_date">0</ann>
   </tok>
   <ns/>
   <tok>
    <orth>°</orth>
    <lex disamb="1"><base>°</base><ctag>interp</ctag></lex>
    <ann chan="nam">0</ann>
    <ann chan="nam_loc">0</ann>
    <ann chan="timex">0</ann>
    <ann chan="t3_date">0</ann>
   </tok>
   <tok>
    <orth>͜ʖ</orth>
    <lex disamb="1"><base>͜ʖ</base><ctag>ign</ctag></lex>
    <ann chan="nam">0</ann>
    <ann chan="nam_loc">0</ann>
    <ann chan="timex">0</ann>
    <ann chan="t3_date">0</ann>
   </tok>
   <tok>
    <orth>͡</orth>
    <lex disamb="1"><base>͡</base><ctag>ign</ctag></lex>
    <ann chan="nam">0</ann>
    <ann chan="nam_loc">0</ann>
    <ann chan="timex">0</ann>
    <ann chan="t3_date">0</ann>
   </tok>
   <ns/>
   <tok>
    <orth>°</orth>
    <lex disamb="1"><base>°</base><ctag>interp</ctag></lex>
    <ann chan="nam">0</ann>
    <ann chan="nam_loc">0</ann>
    <ann chan="timex">0</ann>
    <ann chan="t3_date">0</ann>
   </tok>
   <ns/>
   <tok>
    <orth>)</orth>
    <lex disamb="1"><base>)</base><ctag>interp</ctag></lex>
    <ann chan="nam">0</ann>
    <ann chan="nam_loc">0</ann>
    <ann chan="timex">0</ann>
    <ann chan="t3_date">0</ann>
   </tok>
  </sentence>
 </chunk>
 <chunk type="p" id="ch3">
  <sentence id="s3">
   <tok>
    <orth>Pierwsza</orth>
    <lex disamb="1"><base>pierwsza</base><ctag>subst:sg:nom:f</ctag></lex>
   </tok>
   <tok>
    <orth>wylosowana</orth>
    <lex disamb="1"><base>wylosować</base><ctag>ppas:sg:nom:f:perf:aff</ctag></lex>
   </tok>
   <tok>
    <orth>osoba</orth>
    <lex disamb="1"><base>osoba</base><ctag>subst:sg:nom:f</ctag></lex>
   </tok>
   <tok>
    <orth>otrzyma</orth>
    <lex disamb="1"><base>otrzymać</base><ctag>fin:sg:ter:perf</ctag></lex>
   </tok>
   <ns/>
   <tok>
    <orth>:</orth>
    <lex disamb="1"><base>:</base><ctag>interp</ctag></lex>
   </tok>
   <tok>
    <orth>-</orth>
    <lex disamb="1"><base>-</base><ctag>interp</ctag></lex>
   </tok>
   <ns/>
   <tok>
    <orth>Sosik</orth>
    <lex disamb="1"><base>sosik</base><ctag>subst:sg:nom:m3</ctag></lex>
   </tok>
   <tok>
    <orth>z</orth>
    <lex disamb="1"><base>z</base><ctag>prep:gen:nwok</ctag></lex>
   </tok>
   <tok>
    <orth>ostrej</orth>
    <lex disamb="1"><base>ostry</base><ctag>adj:sg:gen:f:pos</ctag></lex>
   </tok>
   <tok>
    <orth>kiszonej</orth>
    <lex disamb="1"><base>kisić</base><ctag>ppas:sg:gen:f:imperf:aff</ctag></lex>
   </tok>
   <tok>
    <orth>papryki</orth>
    <lex disamb="1"><base>papryka</base><ctag>subst:sg:gen:f</ctag></lex>
   </tok>
   <tok>
    <orth>z</orth>
    <lex disamb="1"><base>z</base><ctag>prep:gen:nwok</ctag></lex>
   </tok>
   <tok>
    <orth>dodatkiem</orth>
    <lex disamb="1"><base>dodatek</base><ctag>subst:sg:inst:m3</ctag></lex>
   </tok>
   <tok>
    <orth>warzyw</orth>
    <lex disamb="1"><base>warzywo</base><ctag>subst:pl:gen:n</ctag></lex>
   </tok>
   <tok>
    <orth>takich</orth>
    <lex disamb="1"><base>taki</base><ctag>adj:pl:gen:m1:pos</ctag></lex>
   </tok>
   <tok>
    <orth>jak</orth>
    <lex disamb="1"><base>jak</base><ctag>conj</ctag></lex>
   </tok>
   <tok>
    <orth>marchew</orth>
    <lex disamb="1"><base>marchew</base><ctag>subst:sg:nom:f</ctag></lex>
   </tok>
   <ns/>
   <tok>
    <orth>,</orth>
    <lex disamb="1"><base>,</base><ctag>interp</ctag></lex>
   </tok>
   <tok>
    <orth>cebula</orth>
    <lex disamb="1"><base>cebula</base><ctag>subst:sg:nom:f</ctag></lex>
   </tok>
   <tok>
    <orth>i</orth>
    <lex disamb="1"><base>i</base><ctag>conj</ctag></lex>
   </tok>
   <tok>
    <orth>seler</orth>
    <lex disamb="1"><base>seler</base><ctag>subst:sg:nom:m2</ctag></lex>
   </tok>
   <tok>
    <orth>z</orth>
    <lex disamb="1"><base>z</base><ctag>prep:gen:nwok</ctag></lex>
   </tok>
   <tok>
    <orth>dodatkiem</orth>
    <lex disamb="1"><base>dodatek</base><ctag>subst:sg:inst:m3</ctag></lex>
   </tok>
   <tok>
    <orth>ananasa</orth>
    <lex disamb="1"><base>ananas</base><ctag>subst:sg:gen:m1</ctag></lex>
   </tok>
   <tok>
    <orth>(</orth>
    <lex disamb="1"><base>(</base><ctag>interp</ctag></lex>
   </tok>
   <ns/>
   <tok>
    <orth>b</orth>
    <lex disamb="1"><base>bit</base><ctag>brev:npun</ctag></lex>
   </tok>
   <ns/>
   <tok>
    <orth>.</orth>
    <lex disamb="1"><base>.</base><ctag>interp</ctag></lex>
   </tok>
   <tok>
    <orth>ostry</orth>
    <lex disamb="1"><base>ostry</base><ctag>adj:sg:nom:m1:pos</ctag></lex>
   </tok>
   <tok>
    <orth>(</orth>
    <lex disamb="1"><base>(</base><ctag>interp</ctag></lex>
   </tok>
   <tok>
    <orth>͡</orth>
    <lex disamb="1"><base>͡</base><ctag>ign</ctag></lex>
   </tok>
   <ns/>
   <tok>
    <orth>°</orth>
    <lex disamb="1"><base>°</base><ctag>interp</ctag></lex>
   </tok>
   <tok>
    <orth>͜ʖ</orth>
    <lex disamb="1"><base>͜ʖ</base><ctag>ign</ctag></lex>
   </tok>
   <tok>
    <orth>͡</orth>
    <lex disamb="1"><base>͡</base><ctag>ign</ctag></lex>
   </tok>
   <ns/>
   <tok>
    <orth>°</orth>
    <lex disamb="1"><base>°</base><ctag>interp</ctag></lex>
   </tok>
   <ns/>
   <tok>
    <orth>)</orth>
    <lex disamb="1"><base>)</base><ctag>interp</ctag></lex>
   </tok>
   <tok>
    <orth>)</orth>
    <lex disamb="1"><base>)</base><ctag>interp</ctag></lex>
   </tok>
  </sentence>
 </chunk>
 <chunk type="p" id="ch4">
  <sentence id="s4">
   <tok>
    <orth>Druga</orth>
    <lex disamb="1"><base>druga</base><ctag>subst:sg:nom:f</ctag></lex>
    <ann chan="nam">0</ann>
   </tok>
   <tok>
    <orth>wylosowana</orth>
    <lex disamb="1"><base>wylosować</base><ctag>ppas:sg:nom:f:perf:aff</ctag></lex>
    <ann chan="nam">0</ann>
   </tok>
   <tok>
    <orth>osoba</orth>
    <lex disamb="1"><base>osoba</base><ctag>subst:sg:nom:f</ctag></lex>
    <ann chan="nam">0</ann>
   </tok>
   <tok>
    <orth>otrzyma</orth>
    <lex disamb="1"><base>otrzymać</base><ctag>fin:sg:ter:perf</ctag></lex>
    <ann chan="nam">0</ann>
   </tok>
   <ns/>
   <tok>
    <orth>:</orth>
    <lex disamb="1"><base>:</base><ctag>interp</ctag></lex>
    <ann chan="nam">0</ann>
   </tok>
   <tok>
    <orth>-</orth>
    <lex disamb="1"><base>-</base><ctag>interp</ctag></lex>
    <ann chan="nam">0</ann>
   </tok>
   <ns/>
   <tok>
    <orth>3</orth>
    <lex disamb="1"><base>3</base><ctag>num:pl:nom:m1:rec</ctag></lex>
    <ann chan="nam">0</ann>
   </tok>
   <tok>
    <orth>typy</orth>
    <lex disamb="1"><base>typ</base><ctag>subst:pl:nom:m3</ctag></lex>
    <ann chan="nam">0</ann>
   </tok>
   <tok>
    <orth>suszonej</orth>
    <lex disamb="1"><base>suszyć</base><ctag>ppas:sg:gen:f:imperf:aff</ctag></lex>
    <ann chan="nam">0</ann>
   </tok>
   <tok>
    <orth>ostrej</orth>
    <lex disamb="1"><base>ostry</base><ctag>adj:sg:gen:f:pos</ctag></lex>
    <ann chan="nam">0</ann>
   </tok>
   <tok>
    <orth>papryki</orth>
    <lex disamb="1"><base>papryka</base><ctag>subst:sg:gen:f</ctag></lex>
    <ann chan="nam">0</ann>
   </tok>
   <tok>
    <orth>(</orth>
    <lex disamb="1"><base>(</base><ctag>interp</ctag></lex>
    <ann chan="nam">0</ann>
   </tok>
   <ns/>
   <tok>
    <orth>Jay's</orth>
    <lex disamb="1"><base>Jay's</base><ctag>ign</ctag></lex>
    <ann chan="nam">1</ann>
   </tok>
   <tok>
    <orth>Peach</orth>
    <lex disamb="1"><base>Peach</base><ctag>ign</ctag></lex>
    <ann chan="nam">1</ann>
   </tok>
   <tok>
    <orth>Ghost</orth>
    <lex disamb="1"><base>Ghost</base><ctag>ign</ctag></lex>
    <ann chan="nam">1</ann>
   </tok>
   <ns/>
   <tok>
    <orth>,</orth>
    <lex disamb="1"><base>,</base><ctag>interp</ctag></lex>
    <ann chan="nam">0</ann>
   </tok>
   <tok>
    <orth>Bhutlah</orth>
    <lex disamb="1"><base>Bhutlah</base><ctag>ign</ctag></lex>
    <ann chan="nam">2</ann>
   </tok>
   <tok>
    <orth>Chocolate</orth>
    <lex disamb="1"><base>Chocolate</base><ctag>ign</ctag></lex>
    <ann chan="nam">2</ann>
   </tok>
   <tok>
    <orth>oraz</orth>
    <lex disamb="1"><base>oraz</base><ctag>conj</ctag></lex>
    <ann chan="nam">0</ann>
   </tok>
   <tok>
    <orth>hybrydę</orth>
    <lex disamb="1"><base>hybryda</base><ctag>subst:sg:acc:f</ctag></lex>
    <ann chan="nam">0</ann>
   </tok>
   <tok>
    <orth>:</orth>
    <lex disamb="1"><base>:</base><ctag>interp</ctag></lex>
    <ann chan="nam">0</ann>
   </tok>
   <ns/>
   <tok>
    <orth>D</orth>
    <lex disamb="1"><base>D</base><ctag>num:pl:nom:m1:rec</ctag></lex>
    <ann chan="nam">3</ann>
   </tok>
   <tok>
    <orth>)</orth>
    <lex disamb="1"><base>)</base><ctag>interp</ctag></lex>
    <ann chan="nam">0</ann>
   </tok>
  </sentence>
 </chunk>
 <chunk type="p" id="ch5">
  <sentence id="s5">
   <tok>
    <orth>Trzecia</orth>
    <lex disamb="1"><base>trzecia</base><ctag>subst:sg:nom:f</ctag></lex>
   </tok>
   <tok>
    <orth>wylosowana</orth>
    <lex disamb="1"><base>wylosować</base><ctag>ppas:sg:nom:f:perf:aff</ctag></lex>
   </tok>
   <tok>
    <orth>osoba</orth>
    <lex disamb="1"><base>osoba</base><ctag>subst:sg:nom:f</ctag></lex>
   </tok>
   <tok>
    <orth>otrzyma</orth>
    <lex disamb="1"><base>otrzymać</base><ctag>fin:sg:ter:perf</ctag></lex>
   </tok>
   <ns/>
   <tok>
    <orth>:</orth>
    <lex disamb="1"><base>:</base><ctag>interp</ctag></lex>
   </tok>
   <tok>
    <orth>-</orth>
    <lex disamb="1"><base>-</base><ctag>interp</ctag></lex>
   </tok>
   <ns/>
   <tok>
    <orth>Zestaw</orth>
    <lex disamb="1"><base>zestaw</base><ctag>subst:sg:nom:m3</ctag></lex>
   </tok>
   <tok>
    <orth>nasion</orth>
    <lex disamb="1"><base>nasienie</base><ctag>subst:pl:gen:n</ctag></lex>
    <lex disamb="1"><base>nasiono</base><ctag>subst:pl:gen:n</ctag></lex>
   </tok>
   <tok>
    <orth>na</orth>
    <lex disamb="1"><base>na</base><ctag>prep:acc</ctag></lex>
   </tok>
   <tok>
    <orth>nadchodzący</orth>
    <lex disamb="1"><base>nadchodzić</base><ctag>pact:sg:nom:m1:imperf:aff</ctag></lex>
   </tok>
   <tok>
    <orth>sezon</orth>
    <lex disamb="1"><base>sezon</base><ctag>subst:sg:nom:m3</ctag></lex>
   </tok>
   <tok>
    <orth>(</orth>
    <lex disamb="1"><base>(</base><ctag>interp</ctag></lex>
   </tok>
   <ns/>
   <tok>
    <orth>5</orth>
    <lex disamb="1"><base>5</base><ctag>num:pl:nom:m1:rec</ctag></lex>
   </tok>
   <tok>
    <orth>odmian</orth>
    <lex disamb="1"><base>odmiana</base><ctag>subst:pl:gen:f</ctag></lex>
   </tok>
   <ns/>
   <tok>
    <orth>)</orth>
    <lex disamb="1"><base>)</base><ctag>interp</ctag></lex>
   </tok>
  </sentence>
 </chunk>
 <chunk type="p" id="ch6">
  <sentence id="s6">
   <tok>
    <orth>Zasady</orth>
    <lex disamb="1"><base>zasada</base><ctag>subst:sg:gen:f</ctag></lex>
    <ann chan="timex">0</ann>
    <ann chan="t3_time">0</ann>
   </tok>
   <tok>
    <orth>proste</orth>
    <lex disamb="1"><base>prosta</base><ctag>subst:pl:nom:f</ctag></lex>
    <ann chan="timex">0</ann>
    <ann chan="t3_time">0</ann>
   </tok>
   <ns/>
   <tok>
    <orth>:</orth>
    <lex disamb="1"><base>:</base><ctag>interp</ctag></lex>
    <ann chan="timex">0</ann>
    <ann chan="t3_time">0</ann>
   </tok>
   <tok>
    <orth>-</orth>
    <lex disamb="1"><base>-</base><ctag>interp</ctag></lex>
    <ann chan="timex">0</ann>
    <ann chan="t3_time">0</ann>
   </tok>
   <ns/>
   <tok>
    <orth>losowanie</orth>
    <lex disamb="1"><base>losowanie</base><ctag>subst:sg:nom:n</ctag></lex>
    <ann chan="timex">0</ann>
    <ann chan="t3_time">0</ann>
   </tok>
   <tok>
    <orth>odbędzie</orth>
    <lex disamb="1"><base>odbyć</base><ctag>fin:sg:ter:perf</ctag></lex>
    <ann chan="timex">0</ann>
    <ann chan="t3_time">0</ann>
   </tok>
   <tok>
    <orth>się</orth>
    <lex disamb="1"><base>się</base><ctag>qub</ctag></lex>
    <ann chan="timex">0</ann>
    <ann chan="t3_time">0</ann>
   </tok>
   <tok>
    <orth>dziś</orth>
    <lex disamb="1"><base>dziś</base><ctag>adv:pos</ctag></lex>
    <ann chan="timex">1</ann>
    <ann chan="t3_time">1</ann>
   </tok>
   <tok>
    <orth>o</orth>
    <lex disamb="1"><base>o</base><ctag>prep:acc</ctag></lex>
    <ann chan="timex">0</ann>
    <ann chan="t3_time">1</ann>
   </tok>
   <tok>
    <orth>21</orth>
    <lex disamb="1"><base>21</base><ctag>num:pl:nom:m1:rec</ctag></lex>
    <ann chan="timex">0</ann>
    <ann chan="t3_time">1</ann>
   </tok>
   <tok>
    <orth>-</orth>
    <lex disamb="1"><base>-</base><ctag>interp</ctag></lex>
    <ann chan="timex">0</ann>
    <ann chan="t3_time">0</ann>
   </tok>
   <ns/>
   <tok>
    <orth>zielonki</orth>
    <lex disamb="1"><base>zielonka</base><ctag>subst:sg:gen:f</ctag></lex>
    <ann chan="timex">0</ann>
    <ann chan="t3_time">0</ann>
   </tok>
   <tok>
    <orth>to</orth>
    <lex disamb="1"><base>to</base><ctag>conj</ctag></lex>
    <ann chan="timex">0</ann>
    <ann chan="t3_time">0</ann>
   </tok>
   <tok>
    <orth>wiadomo</orth>
    <lex disamb="1"><base>wiadomo</base><ctag>pred</ctag></lex>
    <ann chan="timex">0</ann>
    <ann chan="t3_time">0</ann>
   </tok>
   <tok>
    <orth>-</orth>
    <lex disamb="1"><base>-</base><ctag>interp</ctag></lex>
    <ann chan="timex">0</ann>
    <ann chan="t3_time">0</ann>
   </tok>
   <ns/>
   <tok>
    <orth>wysyłka</orth>
    <lex disamb="1"><base>wysyłka</base><ctag>subst:sg:nom:f</ctag></lex>
    <ann chan="timex">0</ann>
    <ann chan="t3_time">0</ann>
   </tok>
   <tok>
    <orth>na</orth>
    <lex disamb="1"><base>na</base><ctag>prep:acc</ctag></lex>
    <ann chan="timex">0</ann>
    <ann chan="t3_time">0</ann>
   </tok>
   <tok>
    <orth>mój</orth>
    <lex disamb="1"><base>mój</base><ctag>subst:sg:nom:m1</ctag></lex>
    <ann chan="timex">0</ann>
    <ann chan="t3_time">0</ann>
   </tok>
   <tok>
    <orth>koszt</orth>
    <lex disamb="1"><base>koszt</base><ctag>subst:sg:nom:m3</ctag></lex>
    <ann chan="timex">0</ann>
    <ann chan="t3_time">0</ann>
   </tok>
  </sentence>
 </chunk>
 <chunk type="p" id="ch7">
  <sentence id="s7">
   <tok>
    <orth>Zapraszam</orth>
    <lex disamb="1"><base>zapraszać</base><ctag>fin:sg:pri:imperf</ctag></lex>
   </tok>
   <tok>
    <orth>do</orth>
    <lex disamb="1"><base>do</base><ctag>prep:gen</ctag></lex>
   </tok>
   <tok>
    <orth>zabawy</orth>
    <lex disamb="1"><base>zabawa</base><ctag>subst:sg:gen:f</ctag></lex>
   </tok>
   <tok>
    <orth>:</orth>
    <lex disamb="1"><base>:</base><ctag>interp</ctag></lex>
   </tok>
   <ns/>
   <tok>
    <orth>)</orth>
    <lex disamb="1"><base>)</base><ctag>interp</ctag></lex>
   </tok>
  </sentence>
 </chunk>
 <chunk type="p" id="ch8">
  <sentence id="s8">
   <tok>
    <orth>PS</orth>
    <lex disamb="1"><base>PS</base><ctag>subst:sg:nom:m3</ctag></lex>
   </tok>
   <ns/>
   <tok>
    <orth>:</orth>
    <lex disamb="1"><base>:</base><ctag>interp</ctag></lex>
   </tok>
   <tok>
    <orth>jak</orth>
    <lex disamb="1"><base>jak</base><ctag>conj</ctag></lex>
   </tok>
   <tok>
    <orth>by</orth>
    <lex disamb="1"><base>by</base><ctag>comp</ctag></lex>
   </tok>
   <tok>
    <orth>ktoś</orth>
    <lex disamb="1"><base>ktoś</base><ctag>subst:sg:nom:m1</ctag></lex>
   </tok>
   <tok>
    <orth>chciał</orth>
    <lex disamb="1"><base>chcieć</base><ctag>praet:sg:m1:imperf</ctag></lex>
   </tok>
   <tok>
    <orth>taki</orth>
    <lex disamb="1"><base>taki</base><ctag>adv:pos</ctag></lex>
   </tok>
   <tok>
    <orth>sosik</orth>
    <lex disamb="1"><base>sosik</base><ctag>subst:sg:nom:m3</ctag></lex>
   </tok>
   <tok>
    <orth>poza</orth>
    <lex disamb="1"><base>poza</base><ctag>prep:acc</ctag></lex>
   </tok>
   <tok>
    <orth>konkursem</orth>
    <lex disamb="1"><base>konkurs</base><ctag>subst:sg:inst:m3</ctag></lex>
   </tok>
   <tok>
    <orth>lub</orth>
    <lex disamb="1"><base>lub</base><ctag>conj</ctag></lex>
   </tok>
   <tok>
    <orth>jakieś</orth>
    <lex disamb="1"><base>jakiś</base><ctag>adj:sg:nom:n:pos</ctag></lex>
   </tok>
   <tok>
    <orth>nasiona</orth>
    <lex disamb="1"><base>nasienie</base><ctag>subst:pl:nom:n</ctag></lex>
    <lex disamb="1"><base>nasiono</base><ctag>subst:pl:nom:n</ctag></lex>
   </tok>
   <tok>
    <orth>czy</orth>
    <lex disamb="1"><base>czy</base><ctag>conj</ctag></lex>
   </tok>
   <tok>
    <orth>susz</orth>
    <lex disamb="1"><base>susz</base><ctag>subst:sg:nom:m3</ctag></lex>
   </tok>
   <tok>
    <orth>to</orth>
    <lex disamb="1"><base>to</base><ctag>conj</ctag></lex>
   </tok>
   <tok>
    <orth>zapraszam</orth>
    <lex disamb="1"><base>zapraszać</base><ctag>fin:sg:pri:imperf</ctag></lex>
   </tok>
   <tok>
    <orth>na</orth>
    <lex disamb="1"><base>na</base><ctag>prep:acc</ctag></lex>
   </tok>
   <tok>
    <orth>priv</orth>
    <lex disamb="1"><base>priv</base><ctag>ign</ctag></lex>
   </tok>
   <tok>
    <orth>jeszcze</orth>
    <lex disamb="1"><base>jeszcze</base><ctag>qub</ctag></lex>
   </tok>
   <tok>
    <orth>trochę</orth>
    <lex disamb="1"><base>trochę</base><ctag>adv:pos</ctag></lex>
   </tok>
   <tok>
    <orth>tego</orth>
    <lex disamb="1"><base>to</base><ctag>subst:sg:gen:n</ctag></lex>
   </tok>
   <tok>
    <orth>mam</orth>
    <lex disamb="1"><base>mama</base><ctag>subst:pl:gen:f</ctag></lex>
   </tok>
   <tok>
    <orth>xD</orth>
    <lex disamb="1"><base>xD</base><ctag>ign</ctag></lex>
   </tok>
  </sentence>
 </chunk>
</chunkList>