<?xml version="1.0" encoding="UTF-8"?>
<!DOCTYPE chunkList SYSTEM "ccl.dtd">
<chunkList>
 <chunk type="p" id="ch1">
  <sentence id="s1">
   <tok>
    <orth>Dzisiaj</orth>
    <lex disamb="1"><base>dzisiaj</base><ctag>adv:pos</ctag></lex>
    <ann chan="timex">1</ann>
    <ann chan="t3_date">1</ann>
   </tok>
   <tok>
    <orth>nasza</orth>
    <lex disamb="1"><base>nasz</base><ctag>adj:sg:nom:f:pos</ctag></lex>
    <ann chan="timex">0</ann>
    <ann chan="t3_date">0</ann>
   </tok>
   <tok>
    <orth>córka</orth>
    <lex disamb="1"><base>córka</base><ctag>subst:sg:nom:f</ctag></lex>
    <ann chan="timex">0</ann>
    <ann chan="t3_date">0</ann>
   </tok>
   <tok>
    <orth>kończy</orth>
    <lex disamb="1"><base>kończyć</base><ctag>fin:sg:ter:imperf</ctag></lex>
    <ann chan="timex">0</ann>
    <ann chan="t3_date">0</ann>
   </tok>
   <tok>
    <orth>7</orth>
    <lex disamb="1"><base>7</base><ctag>num:pl:nom:m1:rec</ctag></lex>
    <ann chan="timex">2</ann>
    <ann chan="t3_date">0</ann>
   </tok>
   <tok>
    <orth>tydzień</orth>
    <lex disamb="1"><base>tydzień</base><ctag>subst:sg:nom:m3</ctag></lex>
    <ann chan="timex">2</ann>
    <ann chan="t3_date">0</ann>
   </tok>
   <tok>
    <orth>życia</orth>
    <lex disamb="1"><base>życie</base><ctag>subst:sg:gen:n</ctag></lex>
    <ann chan="timex">0</ann>
    <ann chan="t3_date">0</ann>
   </tok>
   <ns/>
   <tok>
    <orth>.</orth>
    <lex disamb="1"><base>.</base><ctag>interp</ctag></lex>
    <ann chan="timex">0</ann>
    <ann chan="t3_date">0</ann>
   </tok>
  </sentence>
 </chunk>
 <chunk type="p" id="ch2">
  <sentence id="s2">
   <tok>
    <orth>Odpukac</orth>
    <lex disamb="1"><base>Odpukac</base><ctag>ign</ctag></lex>
   </tok>
   <tok>
    <orth>wszystko</orth>
    <lex disamb="1"><base>wszystko</base><ctag>adv:pos</ctag></lex>
   </tok>
   <tok>
    <orth>jest</orth>
    <lex disamb="1"><base>być</base><ctag>fin:sg:ter:imperf</ctag></lex>
   </tok>
   <tok>
    <orth>na</orth>
    <lex disamb="1"><base>na</base><ctag>prep:acc</ctag></lex>
   </tok>
   <tok>
    <orth>razie</orth>
    <lex disamb="1"><base>raz</base><ctag>subst:sg:loc:m3</ctag></lex>
   </tok>
   <tok>
    <orth>dobrze</orth>
    <lex disamb="1"><base>dobrze</base><ctag>adv:pos</ctag></lex>
   </tok>
   <ns/>
   <tok>
    <orth>.</orth>
    <lex disamb="1"><base>.</base><ctag>interp</ctag></lex>
   </tok>
  </sentence>
 </chunk>
 <chunk type="p" id="ch3">
  <sentence id="s3">
   <tok>
    <orth>Rośnie</orth>
    <lex disamb="1"><base>rośnie</base><ctag>adv:pos</ctag></lex>
    <ann chan="timex">0</ann>
   </tok>
   <tok>
    <orth>jak</orth>
    <lex disamb="1"><base>jak</base><ctag>conj</ctag></lex>
    <ann chan="timex">0</ann>
   </tok>
   <tok>
    <orth>na</orth>
    <lex disamb="1"><base>na</base><ctag>prep:acc</ctag></lex>
    <ann chan="timex">0</ann>
   </tok>
   <tok>
    <orth>drożdżach</orth>
    <lex disamb="1"><base>drożdże</base><ctag>subst:pl:loc:n</ctag></lex>
    <ann chan="timex">0</ann>
   </tok>
   <tok>
    <orth>:</orth>
    <lex disamb="1"><base>:</base><ctag>interp</ctag></lex>
    <ann chan="timex">0</ann>
   </tok>
   <ns/>
   <tok>
    <orth>-</orth>
    <lex disamb="1"><base>-</base><ctag>interp</ctag></lex>
    <ann chan="timex">0</ann>
   </tok>
   <ns/>
   <tok>
    <orth>)</orth>
    <lex disamb="1"><base>)</base><ctag>interp</ctag></lex>
    <ann chan="timex">0</ann>
   </tok>
   <tok>
    <orth>Modlę</orth>
    <lex disamb="1"><base>modlić</base><ctag>fin:sg:pri:imperf</ctag></lex>
    <ann chan="timex">0</ann>
   </tok>
   <tok>
    <orth>się</orth>
    <lex disamb="1"><base>się</base><ctag>qub</ctag></lex>
    <ann chan="timex">0</ann>
   </tok>
   <tok>
    <orth>codziennie</orth>
    <lex disamb="1"><base>codziennie</base><ctag>adv:pos</ctag></lex>
    <ann chan="timex">1</ann>
   </tok>
   <tok>
    <orth>żeby</orth>
    <lex disamb="1"><base>żeby</base><ctag>comp</ctag></lex>
    <ann chan="timex">0</ann>
   </tok>
   <tok>
    <orth>była</orth>
    <lex disamb="1"><base>była</base><ctag>subst:sg:nom:f</ctag></lex>
    <ann chan="timex">0</ann>
   </tok>
   <tok>
    <orth>zdrowa</orth>
    <lex disamb="1"><base>zdrowy</base><ctag>adj:sg:nom:f:pos</ctag></lex>
    <ann chan="timex">0</ann>
   </tok>
   <tok>
    <orth>i</orth>
    <lex disamb="1"><base>i</base><ctag>conj</ctag></lex>
    <ann chan="timex">0</ann>
   </tok>
   <tok>
    <orth>dobrze</orth>
    <lex disamb="1"><base>dobrze</base><ctag>adv:pos</ctag></lex>
    <ann chan="timex">0</ann>
   </tok>
   <tok>
    <orth>się</orth>
    <lex disamb="1"><base>się</base><ctag>qub</ctag></lex>
    <ann chan="timex">0</ann>
   </tok>
   <tok>
    <orth>rozwijała</orth>
    <lex disamb="1"><base>rozwijać</base><ctag>praet:sg:f:imperf</ctag></lex>
    <ann chan="timex">0</ann>
   </tok>
   <ns/>
   <tok>
    <orth>.</orth>
    <lex disamb="1"><base>.</base><ctag>interp</ctag></lex>
    <ann chan="timex">0</ann>
   </tok>
  </sentence>
 </chunk>
 <chunk type="p" id="ch4">
  <sentence id="s4">
   <tok>
    <orth>#</orth>
    <lex disamb="1"><base>#</base><ctag>interp</ctag></lex>
   </tok>
   <ns/>
   <tok>
    <orth>dziecko</orth>
    <lex disamb="1"><base>dziecko</base><ctag>subst:sg:nom:n</ctag></lex>
   </tok>
   <tok>
    <orth>#</orth>
    <lex disamb="1"><base>#</base><ctag>interp</ctag></lex>
   </tok>
   <ns/>
   <tok>
    <orth>oswiadczenie</orth>
    <lex disamb="1"><base>oswiadczenie</base><ctag>ign</ctag></lex>
   </tok>
  </sentence>
 </chunk>
</chunkList>