<?xml version="1.0" encoding="UTF-8"?>
<!DOCTYPE chunkList SYSTEM "ccl.dtd">
<chunkList>
 <chunk type="p" id="ch1">
  <sentence id="s1">
   <tok>
    <orth>Pracuję</orth>
    <lex disamb="1"><base>pracować</base><ctag>fin:sg:pri:imperf</ctag></lex>
   </tok>
   <tok>
    <orth>w</orth>
    <lex disamb="1"><base>w</base><ctag>prep:acc:nwok</ctag></lex>
   </tok>
   <tok>
    <orth>salonie</orth>
    <lex disamb="1"><base>salon</base><ctag>subst:sg:loc:m3</ctag></lex>
   </tok>
   <tok>
    <orth>sprzedaży</orth>
    <lex disamb="1"><base>sprzedaż</base><ctag>subst:sg:gen:f</ctag></lex>
   </tok>
   <tok>
    <orth>sieci</orth>
    <lex disamb="1"><base>sieć</base><ctag>subst:sg:gen:f</ctag></lex>
   </tok>
   <tok>
    <orth>komórkowej</orth>
    <lex disamb="1"><base>komórkowy</base><ctag>adj:sg:gen:f:pos</ctag></lex>
   </tok>
   <ns/>
   <tok>
    <orth>.</orth>
    <lex disamb="1"><base>.</base><ctag>interp</ctag></lex>
   </tok>
  </sentence>
 </chunk>
 <chunk type="p" id="ch2">
  <sentence id="s2">
   <tok>
    <orth>Przed</orth>
    <lex disamb="1"><base>przed</base><ctag>prep:acc:nwok</ctag></lex>
   </tok>
   <tok>
    <orth>chwilą</orth>
    <lex disamb="1"><base>chwila</base><ctag>subst:sg:inst:f</ctag></lex>
   </tok>
   <tok>
    <orth>był</orth>
    <lex disamb="1"><base>być</base><ctag>praet:sg:m1:imperf</ctag></lex>
   </tok>
   <tok>
    <orth>starszy</orth>
    <lex disamb="1"><base>starszy</base><ctag>subst:sg:nom:m1</ctag></lex>
   </tok>
   <tok>
    <orth>pan</orth>
    <lex disamb="1"><base>pan</base><ctag>subst:sg:nom:m1</ctag></lex>
   </tok>
   <ns/>
   <tok>
    <orth>,</orth>
    <lex disamb="1"><base>,</base><ctag>interp</ctag></lex>
   </tok>
   <tok>
    <orth>który</orth>
    <lex disamb="1"><base>który</base><ctag>adj:sg:nom:m1:pos</ctag></lex>
   </tok>
   <tok>
    <orth>chciał</orth>
    <lex disamb="1"><base>chcieć</base><ctag>praet:sg:m1:imperf</ctag></lex>
   </tok>
   <tok>
    <orth>najtańszy</orth>
    <lex disamb="1"><base>tani</base><ctag>adj:sg:nom:m1:sup</ctag></lex>
   </tok>
   <tok>
    <orth>abonament</orth>
    <lex disamb="1"><base>abonament</base><ctag>subst:sg:nom:m3</ctag></lex>
   </tok>
   <tok>
    <orth>z</orth>
    <lex disamb="1"><base>z</base><ctag>prep:gen:nwok</ctag></lex>
   </tok>
   <tok>
    <orth>internetem</orth>
    <lex disamb="1"><base>internet</base><ctag>subst:sg:inst:m3</ctag></lex>
   </tok>
   <tok>
    <orth>domowym</orth>
    <lex disamb="1"><base>domowy</base><ctag>adj:sg:inst:m1:pos</ctag></lex>
   </tok>
   <ns/>
   <tok>
    <orth>.</orth>
    <lex disamb="1"><base>.</base><ctag>interp</ctag></lex>
   </tok>
  </sentence>
 </chunk>
 <chunk type="p" id="ch3">
  <sentence id="s3">
   <tok>
    <orth>On</orth>
    <lex disamb="1"><base>on</base><ctag>ppron3:sg:nom:m1:ter:akc:npraep</ctag></lex>
   </tok>
   <tok>
    <orth>nie</orth>
    <lex disamb="1"><base>nie</base><ctag>conj</ctag></lex>
   </tok>
   <tok>
    <orth>korzysta</orth>
    <lex disamb="1"><base>korzystać</base><ctag>fin:sg:ter:imperf</ctag></lex>
   </tok>
   <tok>
    <orth>w</orth>
    <lex disamb="1"><base>w</base><ctag>prep:acc:nwok</ctag></lex>
   </tok>
   <tok>
    <orth>ogóle</orth>
    <lex disamb="1"><base>ogół</base><ctag>subst:sg:loc:m3</ctag></lex>
   </tok>
   <ns/>
   <tok>
    <orth>,</orth>
    <lex disamb="1"><base>,</base><ctag>interp</ctag></lex>
   </tok>
   <tok>
    <orth>ale</orth>
    <lex disamb="1"><base>ale</base><ctag>conj</ctag></lex>
   </tok>
   <tok>
    <orth>podobno</orth>
    <lex disamb="1"><base>podobno</base><ctag>qub</ctag></lex>
   </tok>
   <tok>
    <orth>jego</orth>
    <lex disamb="1"><base>on</base><ctag>ppron3:sg:gen:m1:ter:akc:npraep</ctag></lex>
   </tok>
   <tok>
    <orth>wnuczek</orth>
    <lex disamb="1"><base>wnuczek</base><ctag>subst:sg:nom:m1</ctag></lex>
   </tok>
   <tok>
    <orth>nie</orth>
    <lex disamb="1"><base>nie</base><ctag>conj</ctag></lex>
   </tok>
   <tok>
    <orth>chce</orth>
    <lex disamb="1"><base>chcieć</base><ctag>fin:sg:ter:imperf</ctag></lex>
   </tok>
   <tok>
    <orth>do</orth>
    <lex disamb="1"><base>do</base><ctag>prep:gen</ctag></lex>
   </tok>
   <tok>
    <orth>niego</orth>
    <lex disamb="1"><base>on</base><ctag>ppron3:sg:gen:m1:ter:akc:praep</ctag></lex>
   </tok>
   <tok>
    <orth>przychodzić</orth>
    <lex disamb="1"><base>przychodzić</base><ctag>inf:imperf</ctag></lex>
   </tok>
   <tok>
    <orth>bo</orth>
    <lex disamb="1"><base>bo</base><ctag>comp</ctag></lex>
   </tok>
   <tok>
    <orth>dziadek</orth>
    <lex disamb="1"><base>dziadek</base><ctag>subst:sg:nom:m1</ctag></lex>
   </tok>
   <tok>
    <orth>nie</orth>
    <lex disamb="1"><base>nie</base><ctag>conj</ctag></lex>
   </tok>
   <tok>
    <orth>ma</orth>
    <lex disamb="1"><base>mój</base><ctag>adj:sg:nom:f:pos</ctag></lex>
   </tok>
   <tok>
    <orth>internetu</orth>
    <lex disamb="1"><base>internet</base><ctag>subst:sg:gen:m3</ctag></lex>
   </tok>
   <ns/>
   <tok>
    <orth>,</orth>
    <lex disamb="1"><base>,</base><ctag>interp</ctag></lex>
   </tok>
   <tok>
    <orth>więc</orth>
    <lex disamb="1"><base>więc</base><ctag>conj</ctag></lex>
   </tok>
   <tok>
    <orth>po</orth>
    <lex disamb="1"><base>po</base><ctag>prep:acc</ctag></lex>
   </tok>
   <tok>
    <orth>co</orth>
    <lex disamb="1"><base>co</base><ctag>comp</ctag></lex>
   </tok>
   <tok>
    <orth>skoro</orth>
    <lex disamb="1"><base>skoro</base><ctag>comp</ctag></lex>
   </tok>
   <tok>
    <orth>nie</orth>
    <lex disamb="1"><base>nie</base><ctag>conj</ctag></lex>
   </tok>
   <tok>
    <orth>da</orth>
    <lex disamb="1"><base>dać</base><ctag>fin:sg:ter:perf</ctag></lex>
   </tok>
   <tok>
    <orth>się</orth>
    <lex disamb="1"><base>się</base><ctag>qub</ctag></lex>
   </tok>
   <tok>
    <orth>pograć</orth>
    <lex disamb="1"><base>pograć</base><ctag>inf:perf</ctag></lex>
   </tok>
   <ns/>
   <tok>
    <orth>.</orth>
    <lex disamb="1"><base>.</base><ctag>interp</ctag></lex>
   </tok>
  </sentence>
 </chunk>
 <chunk type="p" id="ch4">
  <sentence id="s4">
   <tok>
    <orth>I</orth>
    <lex disamb="1"><base>i</base><ctag>conj</ctag></lex>
   </tok>
   <tok>
    <orth>ten</orth>
    <lex disamb="1"><base>ten</base><ctag>adj:sg:nom:m1:pos</ctag></lex>
   </tok>
   <tok>
    <orth>smutek</orth>
    <lex disamb="1"><base>smutek</base><ctag>subst:sg:nom:m3</ctag></lex>
   </tok>
   <tok>
    <orth>w</orth>
    <lex disamb="1"><base>w</base><ctag>prep:acc:nwok</ctag></lex>
   </tok>
   <tok>
    <orth>oczach</orth>
    <lex disamb="1"><base>oko</base><ctag>subst:pl:loc:n</ctag></lex>
   </tok>
   <tok>
    <orth>pana</orth>
    <lex disamb="1"><base>pan</base><ctag>subst:sg:gen:m1</ctag></lex>
   </tok>
   <tok>
    <orth>dziadka</orth>
    <lex disamb="1"><base>dziadek</base><ctag>subst:sg:gen:m1</ctag></lex>
   </tok>
   <ns/>
   <tok>
    <orth>,</orth>
    <lex disamb="1"><base>,</base><ctag>interp</ctag></lex>
   </tok>
   <tok>
    <orth>gdy</orth>
    <lex disamb="1"><base>gdy</base><ctag>adv:pos</ctag></lex>
   </tok>
   <tok>
    <orth>o</orth>
    <lex disamb="1"><base>o</base><ctag>prep:acc</ctag></lex>
   </tok>
   <tok>
    <orth>tym</orth>
    <lex disamb="1"><base>tym</base><ctag>conj</ctag></lex>
   </tok>
   <tok>
    <orth>mówił</orth>
    <lex disamb="1"><base>mówić</base><ctag>praet:sg:m1:imperf</ctag></lex>
   </tok>
   <ns/>
   <tok>
    <orth>.</orth>
    <lex disamb="1"><base>.</base><ctag>interp</ctag></lex>
   </tok>
   <ns/>
   <tok>
    <orth>.</orth>
    <lex disamb="1"><base>.</base><ctag>interp</ctag></lex>
   </tok>
   <ns/>
   <tok>
    <orth>.</orth>
    <lex disamb="1"><base>.</base><ctag>interp</ctag></lex>
   </tok>
  </sentence>
 </chunk>
 <chunk type="p" id="ch5">
  <sentence id="s5">
   <tok>
    <orth>(</orth>
    <lex disamb="1"><base>(</base><ctag>interp</ctag></lex>
   </tok>
   <ns/>
   <tok>
    <orth>・</orth>
    <lex disamb="1"><base>・</base><ctag>interp</ctag></lex>
   </tok>
   <ns/>
   <tok>
    <orth>へ</orth>
    <lex disamb="1"><base>へ</base><ctag>ign</ctag></lex>
   </tok>
   <ns/>
   <tok>
    <orth>・</orth>
    <lex disamb="1"><base>・</base><ctag>interp</ctag></lex>
   </tok>
   <ns/>
   <tok>
    <orth>)</orth>
    <lex disamb="1"><base>)</base><ctag>interp</ctag></lex>
   </tok>
  </sentence>
 </chunk>
 <chunk type="p" id="ch6">
  <sentence id="s6">
   <tok>
    <orth>#</orth>
    <lex disamb="1"><base>#</base><ctag>interp</ctag></lex>
   </tok>
   <ns/>
   <tok>
    <orth>pracbaza</orth>
    <lex disamb="1"><base>pracbaza</base><ctag>ign</ctag></lex>
   </tok>
   <tok>
    <orth>#</orth>
    <lex disamb="1"><base>#</base><ctag>interp</ctag></lex>
   </tok>
   <ns/>
   <tok>
    <orth>feels</orth>
    <lex disamb="1"><base>feels</base><ctag>ign</ctag></lex>
   </tok>
  </sentence>
 </chunk>
</chunkList>