<?xml version="1.0" encoding="UTF-8"?>
<!DOCTYPE chunkList SYSTEM "ccl.dtd">
<chunkList>
 <chunk type="p" id="ch1">
  <sentence id="s1">
   <tok>
    <orth>Mój</orth>
    <lex disamb="1"><base>mój</base><ctag>subst:sg:nom:m1</ctag></lex>
   </tok>
   <tok>
    <orth>kot</orth>
    <lex disamb="1"><base>kot</base><ctag>subst:sg:nom:m1</ctag></lex>
   </tok>
   <tok>
    <orth>jest</orth>
    <lex disamb="1"><base>być</base><ctag>fin:sg:ter:imperf</ctag></lex>
   </tok>
   <tok>
    <orth>prostokotem</orth>
    <lex disamb="1"><base>prostokotem</base><ctag>ign</ctag></lex>
   </tok>
  </sentence>
 </chunk>
 <chunk type="p" id="ch2">
  <sentence id="s2">
   <tok>
    <orth>Kurła</orth>
    <lex disamb="1"><base>Kurła</base><ctag>ign</ctag></lex>
    <ann chan="timex">0</ann>
   </tok>
   <ns/>
   <tok>
    <orth>,</orth>
    <lex disamb="1"><base>,</base><ctag>interp</ctag></lex>
    <ann chan="timex">0</ann>
   </tok>
   <tok>
    <orth>na</orth>
    <lex disamb="1"><base>na</base><ctag>prep:acc</ctag></lex>
    <ann chan="timex">0</ann>
   </tok>
   <tok>
    <orth>zimę</orth>
    <lex disamb="1"><base>zima</base><ctag>subst:sg:acc:f</ctag></lex>
    <ann chan="timex">1</ann>
   </tok>
   <tok>
    <orth>mu</orth>
    <lex disamb="1"><base>on</base><ctag>ppron3:sg:dat:m1:ter:nakc:npraep</ctag></lex>
    <ann chan="timex">0</ann>
   </tok>
   <tok>
    <orth>sierść</orth>
    <lex disamb="1"><base>sierść</base><ctag>subst:sg:nom:f</ctag></lex>
    <ann chan="timex">0</ann>
   </tok>
   <tok>
    <orth>urosła</orth>
    <lex disamb="1"><base>urosnąć</base><ctag>praet:sg:f:perf</ctag></lex>
    <lex disamb="1"><base>urość</base><ctag>praet:sg:f:perf</ctag></lex>
    <ann chan="timex">0</ann>
   </tok>
   <tok>
    <orth>i</orth>
    <lex disamb="1"><base>i</base><ctag>conj</ctag></lex>
    <ann chan="timex">0</ann>
   </tok>
   <tok>
    <orth>nabrał</orth>
    <lex disamb="1"><base>nabrać</base><ctag>praet:sg:m1:perf</ctag></lex>
    <ann chan="timex">0</ann>
   </tok>
   <tok>
    <orth>tłuszczu</orth>
    <lex disamb="1"><base>tłuszcz</base><ctag>subst:sg:gen:m3</ctag></lex>
    <ann chan="timex">0</ann>
   </tok>
   <tok>
    <orth>xD</orth>
    <lex disamb="1"><base>xD</base><ctag>ign</ctag></lex>
    <ann chan="timex">0</ann>
   </tok>
  </sentence>
 </chunk>
 <chunk type="p" id="ch3">
  <sentence id="s3">
   <tok>
    <orth>#</orth>
    <lex disamb="1"><base>#</base><ctag>interp</ctag></lex>
   </tok>
   <ns/>
   <tok>
    <orth>pokazkota</orth>
    <lex disamb="1"><base>pokazkota</base><ctag>ign</ctag></lex>
   </tok>
   <tok>
    <orth>#</orth>
    <lex disamb="1"><base>#</base><ctag>interp</ctag></lex>
   </tok>
   <ns/>
   <tok>
    <orth>dziwnekotki</orth>
    <lex disamb="1"><base>dziwnekotki</base><ctag>ign</ctag></lex>
   </tok>
   <tok>
    <orth>#</orth>
    <lex disamb="1"><base>#</base><ctag>interp</ctag></lex>
   </tok>
   <ns/>
   <tok>
    <orth>smiesznekotki</orth>
    <lex disamb="1"><base>smiesznekotki</base><ctag>ign</ctag></lex>
   </tok>
   <tok>
    <orth>#</orth>
    <lex disamb="1"><base>#</base><ctag>interp</ctag></lex>
   </tok>
   <ns/>
   <tok>
    <orth>koty</orth>
    <lex disamb="1"><base>kot</base><ctag>subst:pl:nom:m2</ctag></lex>
   </tok>
  </sentence>
 </chunk>
</chunkList>