<?xml version="1.0" encoding="UTF-8"?>
<!DOCTYPE chunkList SYSTEM "ccl.dtd">
<chunkList>
 <chunk type="p" id="ch1">
  <sentence id="s1">
   <tok>
    <orth>Czemu</orth>
    <lex disamb="1"><base>czemu</base><ctag>adv:pos</ctag></lex>
   </tok>
   <tok>
    <orth>poniżacie</orth>
    <lex disamb="1"><base>poniżać</base><ctag>fin:pl:sec:imperf</ctag></lex>
   </tok>
   <tok>
    <orth>się</orth>
    <lex disamb="1"><base>się</base><ctag>qub</ctag></lex>
   </tok>
   <tok>
    <orth>i</orth>
    <lex disamb="1"><base>i</base><ctag>conj</ctag></lex>
   </tok>
   <tok>
    <orth>zabiegacie</orth>
    <lex disamb="1"><base>zabiegać</base><ctag>fin:pl:sec:imperf</ctag></lex>
   </tok>
   <tok>
    <orth>o</orth>
    <lex disamb="1"><base>o</base><ctag>prep:acc</ctag></lex>
   </tok>
   <tok>
    <orth>względy</orth>
    <lex disamb="1"><base>wzgląd</base><ctag>subst:pl:nom:m3</ctag></lex>
   </tok>
   <tok>
    <orth>#</orth>
    <lex disamb="1"><base>#</base><ctag>interp</ctag></lex>
   </tok>
   <ns/>
   <tok>
    <orth>rozowepaski</orth>
    <lex disamb="1"><base>rozowepaski</base><ctag>ign</ctag></lex>
   </tok>
   <tok>
    <orth>?</orth>
    <lex disamb="1"><base>?</base><ctag>interp</ctag></lex>
   </tok>
  </sentence>
 </chunk>
 <chunk type="p" id="ch2">
  <sentence id="s2">
   <tok>
    <orth>Przecież</orth>
    <lex disamb="1"><base>przecież</base><ctag>qub</ctag></lex>
   </tok>
   <tok>
    <orth>i</orth>
    <lex disamb="1"><base>i</base><ctag>conj</ctag></lex>
   </tok>
   <tok>
    <orth>tak</orth>
    <lex disamb="1"><base>tak</base><ctag>adv:pos</ctag></lex>
   </tok>
   <tok>
    <orth>nie</orth>
    <lex disamb="1"><base>nie</base><ctag>conj</ctag></lex>
   </tok>
   <tok>
    <orth>macie</orth>
    <lex disamb="1"><base>mat</base><ctag>subst:sg:loc:m1</ctag></lex>
   </tok>
   <tok>
    <orth>szans</orth>
    <lex disamb="1"><base>szansa</base><ctag>subst:pl:gen:f</ctag></lex>
   </tok>
   <tok>
    <orth>jak</orth>
    <lex disamb="1"><base>jak</base><ctag>conj</ctag></lex>
   </tok>
   <tok>
    <orth>nie</orth>
    <lex disamb="1"><base>nie</base><ctag>conj</ctag></lex>
   </tok>
   <tok>
    <orth>jesteście</orth>
    <lex disamb="1"><base>być</base><ctag>fin:pl:sec:imperf</ctag></lex>
   </tok>
   <tok>
    <orth>Chadami</orth>
    <lex disamb="1"><base>Chadami</base><ctag>ign</ctag></lex>
   </tok>
   <ns/>
   <tok>
    <orth>.</orth>
    <lex disamb="1"><base>.</base><ctag>interp</ctag></lex>
   </tok>
  </sentence>
 </chunk>
 <chunk type="p" id="ch3">
  <sentence id="s3">
   <tok>
    <orth>A</orth>
    <lex disamb="1"><base>a</base><ctag>conj</ctag></lex>
   </tok>
   <tok>
    <orth>nawet</orth>
    <lex disamb="1"><base>nawet</base><ctag>qub</ctag></lex>
   </tok>
   <tok>
    <orth>jak</orth>
    <lex disamb="1"><base>jak</base><ctag>conj</ctag></lex>
   </tok>
   <tok>
    <orth>jakąś</orth>
    <lex disamb="1"><base>jakiś</base><ctag>adj:sg:acc:f:pos</ctag></lex>
   </tok>
   <tok>
    <orth>cudem</orth>
    <lex disamb="1"><base>cud</base><ctag>subst:sg:inst:m3</ctag></lex>
   </tok>
   <tok>
    <orth>znajdziecie</orth>
    <lex disamb="1"><base>znajść</base><ctag>fin:pl:sec:perf</ctag></lex>
    <lex disamb="1"><base>znaleźć</base><ctag>fin:pl:sec:perf</ctag></lex>
   </tok>
   <tok>
    <orth>to</orth>
    <lex disamb="1"><base>to</base><ctag>conj</ctag></lex>
   </tok>
   <tok>
    <orth>i</orth>
    <lex disamb="1"><base>i</base><ctag>conj</ctag></lex>
   </tok>
   <tok>
    <orth>tak</orth>
    <lex disamb="1"><base>tak</base><ctag>adv:pos</ctag></lex>
   </tok>
   <tok>
    <orth>będą</orth>
    <lex disamb="1"><base>być</base><ctag>bedzie:pl:ter:imperf</ctag></lex>
   </tok>
   <tok>
    <orth>was</orth>
    <lex disamb="1"><base>wy</base><ctag>ppron12:pl:gen:m1:sec</ctag></lex>
   </tok>
   <tok>
    <orth>zdradzać</orth>
    <lex disamb="1"><base>zdradzać</base><ctag>inf:imperf</ctag></lex>
   </tok>
   <tok>
    <orth>z</orth>
    <lex disamb="1"><base>z</base><ctag>prep:gen:nwok</ctag></lex>
   </tok>
   <tok>
    <orth>erazmusami</orth>
    <lex disamb="1"><base>erazmusami</base><ctag>ign</ctag></lex>
   </tok>
   <ns/>
   <tok>
    <orth>.</orth>
    <lex disamb="1"><base>.</base><ctag>interp</ctag></lex>
   </tok>
  </sentence>
 </chunk>
 <chunk type="p" id="ch4">
  <sentence id="s4">
   <tok>
    <orth>Nie</orth>
    <lex disamb="1"><base>nie</base><ctag>conj</ctag></lex>
   </tok>
   <tok>
    <orth>ma</orth>
    <lex disamb="1"><base>mój</base><ctag>adj:sg:nom:f:pos</ctag></lex>
   </tok>
   <tok>
    <orth>to</orth>
    <lex disamb="1"><base>to</base><ctag>conj</ctag></lex>
   </tok>
   <tok>
    <orth>jak</orth>
    <lex disamb="1"><base>jak</base><ctag>conj</ctag></lex>
   </tok>
   <tok>
    <orth>prawdziwa</orth>
    <lex disamb="1"><base>prawdziwy</base><ctag>adj:sg:nom:f:pos</ctag></lex>
   </tok>
   <tok>
    <orth>męska</orth>
    <lex disamb="1"><base>męski</base><ctag>adj:sg:nom:f:pos</ctag></lex>
   </tok>
   <tok>
    <orth>SILNA</orth>
    <lex disamb="1"><base>silny</base><ctag>adj:sg:nom:f:pos</ctag></lex>
   </tok>
   <tok>
    <orth>miłość</orth>
    <lex disamb="1"><base>miłość</base><ctag>subst:sg:nom:f</ctag></lex>
   </tok>
   <ns/>
   <tok>
    <orth>.</orth>
    <lex disamb="1"><base>.</base><ctag>interp</ctag></lex>
   </tok>
  </sentence>
 </chunk>
 <chunk type="p" id="ch5">
  <sentence id="s5">
   <tok>
    <orth>#</orth>
    <lex disamb="1"><base>#</base><ctag>interp</ctag></lex>
   </tok>
   <ns/>
   <tok>
    <orth>zwiazki</orth>
    <lex disamb="1"><base>zwiazki</base><ctag>ign</ctag></lex>
   </tok>
   <tok>
    <orth>#</orth>
    <lex disamb="1"><base>#</base><ctag>interp</ctag></lex>
   </tok>
   <ns/>
   <tok>
    <orth>gachimuchi</orth>
    <lex disamb="1"><base>gachimuchi</base><ctag>ign</ctag></lex>
   </tok>
   <tok>
    <orth>#</orth>
    <lex disamb="1"><base>#</base><ctag>interp</ctag></lex>
   </tok>
   <ns/>
   <tok>
    <orth>logikarozowychpaskow</orth>
    <lex disamb="1"><base>logikarozowychpaskow</base><ctag>ign</ctag></lex>
   </tok>
   <tok>
    <orth>#</orth>
    <lex disamb="1"><base>#</base><ctag>interp</ctag></lex>
   </tok>
   <ns/>
   <tok>
    <orth>podrywajzwykopem</orth>
    <lex disamb="1"><base>podrywajzwykopem</base><ctag>ign</ctag></lex>
   </tok>
   <tok>
    <orth>#</orth>
    <lex disamb="1"><base>#</base><ctag>interp</ctag></lex>
   </tok>
   <ns/>
   <tok>
    <orth>nsfw</orth>
    <lex disamb="1"><base>nsfw</base><ctag>ign</ctag></lex>
   </tok>
  </sentence>
 </chunk>
</chunkList>