<?xml version="1.0" encoding="UTF-8"?>
<!DOCTYPE chunkList SYSTEM "ccl.dtd">
<chunkList>
 <chunk type="p" id="ch1">
  <sentence id="s1">
   <tok>
    <orth>chyba</orth>
    <lex disamb="1"><base>chyba</base><ctag>qub</ctag></lex>
   </tok>
   <tok>
    <orth>najlepsze</orth>
    <lex disamb="1"><base>dobry</base><ctag>adj:sg:nom:n:sup</ctag></lex>
   </tok>
   <tok>
    <orth>podsumowanie</orth>
    <lex disamb="1"><base>podsumowanie</base><ctag>subst:sg:nom:n</ctag></lex>
   </tok>
   <tok>
    <orth>zmiany</orth>
    <lex disamb="1"><base>zmiana</base><ctag>subst:sg:gen:f</ctag></lex>
   </tok>
   <tok>
    <orth>rafonixa</orth>
    <lex disamb="1"><base>rafonixa</base><ctag>ign</ctag></lex>
   </tok>
   <tok>
    <orth>xD</orth>
    <lex disamb="1"><base>xD</base><ctag>ign</ctag></lex>
   </tok>
   <ns/>
   <tok>
    <orth>.</orth>
    <lex disamb="1"><base>.</base><ctag>interp</ctag></lex>
   </tok>
  </sentence>
 </chunk>
 <chunk type="p" id="ch2">
  <sentence id="s2">
   <tok>
    <orth>a</orth>
    <lex disamb="1"><base>a</base><ctag>conj</ctag></lex>
    <ann chan="timex">0</ann>
    <ann chan="t3_date">0</ann>
   </tok>
   <tok>
    <orth>2018</orth>
    <lex disamb="1"><base>2018</base><ctag>num:pl:nom:m1:rec</ctag></lex>
    <ann chan="timex">1</ann>
    <ann chan="t3_date">1</ann>
   </tok>
   <tok>
    <orth>zapowiadał</orth>
    <lex disamb="1"><base>zapowiadać</base><ctag>praet:sg:m1:imperf</ctag></lex>
    <ann chan="timex">0</ann>
    <ann chan="t3_date">0</ann>
   </tok>
   <tok>
    <orth>sie</orth>
    <lex disamb="1"><base>si</base><ctag>adj:pl:nom:m2:pos</ctag></lex>
    <ann chan="timex">0</ann>
    <ann chan="t3_date">0</ann>
   </tok>
   <tok>
    <orth>tak</orth>
    <lex disamb="1"><base>tak</base><ctag>adv:pos</ctag></lex>
    <ann chan="timex">0</ann>
    <ann chan="t3_date">0</ann>
   </tok>
   <tok>
    <orth>dobrze</orth>
    <lex disamb="1"><base>dobrze</base><ctag>adv:pos</ctag></lex>
    <ann chan="timex">0</ann>
    <ann chan="t3_date">0</ann>
   </tok>
   <tok>
    <orth>(</orth>
    <lex disamb="1"><base>(</base><ctag>interp</ctag></lex>
    <ann chan="timex">0</ann>
    <ann chan="t3_date">0</ann>
   </tok>
   <ns/>
   <tok>
    <orth>╯</orth>
    <lex disamb="1"><base>╯</base><ctag>interp</ctag></lex>
    <ann chan="timex">0</ann>
    <ann chan="t3_date">0</ann>
   </tok>
   <ns/>
   <tok>
    <orth>︵</orth>
    <lex disamb="1"><base>︵</base><ctag>interp</ctag></lex>
    <ann chan="timex">0</ann>
    <ann chan="t3_date">0</ann>
   </tok>
   <ns/>
   <tok>
    <orth>╰</orth>
    <lex disamb="1"><base>╰</base><ctag>interp</ctag></lex>
    <ann chan="timex">0</ann>
    <ann chan="t3_date">0</ann>
   </tok>
   <ns/>
   <tok>
    <orth>,</orth>
    <lex disamb="1"><base>,</base><ctag>interp</ctag></lex>
    <ann chan="timex">0</ann>
    <ann chan="t3_date">0</ann>
   </tok>
   <ns/>
   <tok>
    <orth>)</orth>
    <lex disamb="1"><base>)</base><ctag>interp</ctag></lex>
    <ann chan="timex">0</ann>
    <ann chan="t3_date">0</ann>
   </tok>
   <tok>
    <orth>nierupcie</orth>
    <lex disamb="1"><base>nierupcie</base><ctag>ign</ctag></lex>
    <ann chan="timex">0</ann>
    <ann chan="t3_date">0</ann>
   </tok>
   <tok>
    <orth>lipy</orth>
    <lex disamb="1"><base>lipa</base><ctag>subst:sg:gen:f</ctag></lex>
    <ann chan="timex">0</ann>
    <ann chan="t3_date">0</ann>
   </tok>
  </sentence>
 </chunk>
 <chunk type="p" id="ch3">
  <sentence id="s3">
   <tok>
    <orth>#</orth>
    <lex disamb="1"><base>#</base><ctag>interp</ctag></lex>
   </tok>
   <ns/>
   <tok>
    <orth>danielmagical</orth>
    <lex disamb="1"><base>danielmagical</base><ctag>ign</ctag></lex>
   </tok>
   <tok>
    <orth>#</orth>
    <lex disamb="1"><base>#</base><ctag>interp</ctag></lex>
   </tok>
   <ns/>
   <tok>
    <orth>rafonix</orth>
    <lex disamb="1"><base>rafonix</base><ctag>ign</ctag></lex>
   </tok>
  </sentence>
 </chunk>
</chunkList>