<?xml version="1.0" encoding="UTF-8"?>
<!DOCTYPE chunkList SYSTEM "ccl.dtd">
<chunkList>
 <chunk type="p" id="ch1">
  <sentence id="s1">
   <tok>
    <orth>Siemka</orth>
    <lex disamb="1"><base>Siemka</base><ctag>ign</ctag></lex>
   </tok>
   <ns/>
   <tok>
    <orth>,</orth>
    <lex disamb="1"><base>,</base><ctag>interp</ctag></lex>
   </tok>
   <tok>
    <orth>kolejny</orth>
    <lex disamb="1"><base>kolejny</base><ctag>adj:sg:nom:m1:pos</ctag></lex>
   </tok>
   <tok>
    <orth>dzień</orth>
    <lex disamb="1"><base>dzienia</base><ctag>subst:pl:gen:f</ctag></lex>
   </tok>
   <tok>
    <orth>z</orth>
    <lex disamb="1"><base>z</base><ctag>prep:gen:nwok</ctag></lex>
   </tok>
   <tok>
    <orth>serii</orth>
    <lex disamb="1"><base>seria</base><ctag>subst:sg:gen:f</ctag></lex>
   </tok>
   <tok>
    <orth>naszego</orth>
    <lex disamb="1"><base>nasze</base><ctag>subst:sg:gen:n</ctag></lex>
   </tok>
   <tok>
    <orth>Pixelowego</orth>
    <lex disamb="1"><base>Pixelowego</base><ctag>ign</ctag></lex>
   </tok>
   <tok>
    <orth>#</orth>
    <lex disamb="1"><base>#</base><ctag>interp</ctag></lex>
   </tok>
   <ns/>
   <tok>
    <orth>rozdajo</orth>
    <lex disamb="1"><base>rozdajo</base><ctag>ign</ctag></lex>
   </tok>
   <tok>
    <orth>#</orth>
    <lex disamb="1"><base>#</base><ctag>interp</ctag></lex>
   </tok>
   <ns/>
   <tok>
    <orth>pixelxmas</orth>
    <lex disamb="1"><base>pixelxmas</base><ctag>ign</ctag></lex>
   </tok>
   <tok>
    <orth>Dzisiaj</orth>
    <lex disamb="1"><base>dzisiaj</base><ctag>adv:pos</ctag></lex>
   </tok>
   <tok>
    <orth>mamy</orth>
    <lex disamb="1"><base>mama</base><ctag>subst:sg:gen:f</ctag></lex>
   </tok>
   <tok>
    <orth>dla</orth>
    <lex disamb="1"><base>dla</base><ctag>prep:gen</ctag></lex>
   </tok>
   <tok>
    <orth>was</orth>
    <lex disamb="1"><base>wy</base><ctag>ppron12:pl:gen:m1:sec</ctag></lex>
   </tok>
   <tok>
    <orth>coś</orth>
    <lex disamb="1"><base>coś</base><ctag>qub</ctag></lex>
   </tok>
   <tok>
    <orth>związanego</orth>
    <lex disamb="1"><base>związać</base><ctag>ppas:sg:gen:m1:perf:aff</ctag></lex>
   </tok>
   <tok>
    <orth>z</orth>
    <lex disamb="1"><base>z</base><ctag>prep:gen:nwok</ctag></lex>
   </tok>
   <tok>
    <orth>#</orth>
    <lex disamb="1"><base>#</base><ctag>interp</ctag></lex>
   </tok>
   <ns/>
   <tok>
    <orth>pubg</orth>
    <lex disamb="1"><base>pubg</base><ctag>ign</ctag></lex>
   </tok>
   <tok>
    <orth>:</orth>
    <lex disamb="1"><base>:</base><ctag>interp</ctag></lex>
   </tok>
   <ns/>
   <tok>
    <orth>)</orth>
    <lex disamb="1"><base>)</base><ctag>interp</ctag></lex>
   </tok>
   <tok>
    <orth>Jest</orth>
    <lex disamb="1"><base>być</base><ctag>fin:sg:ter:imperf</ctag></lex>
   </tok>
   <tok>
    <orth>to</orth>
    <lex disamb="1"><base>to</base><ctag>conj</ctag></lex>
   </tok>
   <tok>
    <orth>patch</orth>
    <lex disamb="1"><base>patch</base><ctag>ign</ctag></lex>
   </tok>
   <tok>
    <orth>crate</orth>
    <lex disamb="1"><base>crate</base><ctag>ign</ctag></lex>
   </tok>
   <tok>
    <orth>w</orth>
    <lex disamb="1"><base>w</base><ctag>prep:acc:nwok</ctag></lex>
   </tok>
   <tok>
    <orth>którym</orth>
    <lex disamb="1"><base>który</base><ctag>adj:sg:inst:m1:pos</ctag></lex>
   </tok>
   <tok>
    <orth>możecie</orth>
    <lex disamb="1"><base>móc</base><ctag>fin:pl:sec:imperf</ctag></lex>
   </tok>
   <tok>
    <orth>wylosować</orth>
    <lex disamb="1"><base>wylosować</base><ctag>inf:perf</ctag></lex>
   </tok>
   <tok>
    <orth>naszywkę</orth>
    <lex disamb="1"><base>naszywka</base><ctag>subst:sg:acc:f</ctag></lex>
   </tok>
   <tok>
    <orth>na</orth>
    <lex disamb="1"><base>na</base><ctag>prep:acc</ctag></lex>
   </tok>
   <tok>
    <orth>rzep</orth>
    <lex disamb="1"><base>rzep</base><ctag>subst:sg:nom:m2</ctag></lex>
   </tok>
   <tok>
    <orth>która</orth>
    <lex disamb="1"><base>który</base><ctag>adj:sg:nom:f:pos</ctag></lex>
   </tok>
   <tok>
    <orth>przyczepicie</orth>
    <lex disamb="1"><base>przyczepić</base><ctag>fin:pl:sec:perf</ctag></lex>
   </tok>
   <tok>
    <orth>sobie</orth>
    <lex disamb="1"><base>siebie</base><ctag>siebie:dat</ctag></lex>
   </tok>
   <tok>
    <orth>do</orth>
    <lex disamb="1"><base>do</base><ctag>prep:gen</ctag></lex>
   </tok>
   <tok>
    <orth>plecaka</orth>
    <lex disamb="1"><base>plecak</base><ctag>subst:sg:gen:m3</ctag></lex>
   </tok>
   <ns/>
   <tok>
    <orth>,</orth>
    <lex disamb="1"><base>,</base><ctag>interp</ctag></lex>
   </tok>
   <tok>
    <orth>koszulki</orth>
    <lex disamb="1"><base>koszulka</base><ctag>subst:sg:gen:f</ctag></lex>
   </tok>
   <tok>
    <orth>albo</orth>
    <lex disamb="1"><base>albo</base><ctag>conj</ctag></lex>
   </tok>
   <tok>
    <orth>obojętnie</orth>
    <lex disamb="1"><base>obojętnie</base><ctag>adv:pos</ctag></lex>
   </tok>
   <tok>
    <orth>(</orth>
    <lex disamb="1"><base>(</base><ctag>interp</ctag></lex>
   </tok>
   <tok>
    <orth>͡</orth>
    <lex disamb="1"><base>͡</base><ctag>ign</ctag></lex>
   </tok>
   <ns/>
   <tok>
    <orth>°</orth>
    <lex disamb="1"><base>°</base><ctag>interp</ctag></lex>
   </tok>
   <tok>
    <orth>͜ʖ</orth>
    <lex disamb="1"><base>͜ʖ</base><ctag>ign</ctag></lex>
   </tok>
   <tok>
    <orth>͡</orth>
    <lex disamb="1"><base>͡</base><ctag>ign</ctag></lex>
   </tok>
   <ns/>
   <tok>
    <orth>°</orth>
    <lex disamb="1"><base>°</base><ctag>interp</ctag></lex>
   </tok>
   <ns/>
   <tok>
    <orth>)</orth>
    <lex disamb="1"><base>)</base><ctag>interp</ctag></lex>
   </tok>
   <tok>
    <orth>Standardowo</orth>
    <lex disamb="1"><base>standardowo</base><ctag>adv:pos</ctag></lex>
   </tok>
   <tok>
    <orth>wygrywa</orth>
    <lex disamb="1"><base>wygrywać</base><ctag>fin:sg:ter:imperf</ctag></lex>
   </tok>
   <tok>
    <orth>jedna</orth>
    <lex disamb="1"><base>jeden</base><ctag>adj:sg:nom:f:pos</ctag></lex>
   </tok>
   <tok>
    <orth>osoba</orth>
    <lex disamb="1"><base>osoba</base><ctag>subst:sg:nom:f</ctag></lex>
   </tok>
   <tok>
    <orth>spośród</orth>
    <lex disamb="1"><base>spośród</base><ctag>prep:gen</ctag></lex>
   </tok>
   <tok>
    <orth>wszystkich</orth>
    <lex disamb="1"><base>wszyscy</base><ctag>subst:pl:gen:m1</ctag></lex>
   </tok>
   <tok>
    <orth>pulsujących</orth>
    <lex disamb="1"><base>pulsujący</base><ctag>adj:pl:gen:m1:pos</ctag></lex>
   </tok>
   <tok>
    <orth>ale</orth>
    <lex disamb="1"><base>ale</base><ctag>conj</ctag></lex>
   </tok>
   <tok>
    <orth>możecie</orth>
    <lex disamb="1"><base>móc</base><ctag>fin:pl:sec:imperf</ctag></lex>
   </tok>
   <tok>
    <orth>zwiększyć</orth>
    <lex disamb="1"><base>zwiększyć</base><ctag>inf:perf</ctag></lex>
   </tok>
   <tok>
    <orth>swoją</orth>
    <lex disamb="1"><base>swój</base><ctag>adj:sg:acc:f:pos</ctag></lex>
   </tok>
   <tok>
    <orth>szanse</orth>
    <lex disamb="1"><base>szansa</base><ctag>subst:pl:nom:f</ctag></lex>
   </tok>
   <tok>
    <orth>wrzucając</orth>
    <lex disamb="1"><base>wrzucać</base><ctag>pcon:imperf</ctag></lex>
   </tok>
   <tok>
    <orth>#</orth>
    <lex disamb="1"><base>#</base><ctag>interp</ctag></lex>
   </tok>
   <ns/>
   <tok>
    <orth>humorobrazkowy</orth>
    <lex disamb="1"><base>humorobrazkowy</base><ctag>ign</ctag></lex>
   </tok>
   <tok>
    <orth>i</orth>
    <lex disamb="1"><base>i</base><ctag>conj</ctag></lex>
   </tok>
   <tok>
    <orth>#</orth>
    <lex disamb="1"><base>#</base><ctag>interp</ctag></lex>
   </tok>
   <ns/>
   <tok>
    <orth>heheszki</orth>
    <lex disamb="1"><base>heheszki</base><ctag>ign</ctag></lex>
   </tok>
   <tok>
    <orth>TYLKO</orth>
    <lex disamb="1"><base>tylko</base><ctag>conj</ctag></lex>
   </tok>
   <tok>
    <orth>związane</orth>
    <lex disamb="1"><base>związać</base><ctag>ppas:sg:nom:n:perf:aff</ctag></lex>
   </tok>
   <tok>
    <orth>z</orth>
    <lex disamb="1"><base>z</base><ctag>prep:gen:nwok</ctag></lex>
   </tok>
   <tok>
    <orth>#</orth>
    <lex disamb="1"><base>#</base><ctag>interp</ctag></lex>
   </tok>
   <ns/>
   <tok>
    <orth>pubg</orth>
    <lex disamb="1"><base>pubg</base><ctag>ign</ctag></lex>
   </tok>
   <tok>
    <orth>Obserwujcie</orth>
    <lex disamb="1"><base>obserwować</base><ctag>impt:pl:sec:imperf</ctag></lex>
   </tok>
   <tok>
    <orth>nasze</orth>
    <lex disamb="1"><base>nasze</base><ctag>subst:sg:nom:n</ctag></lex>
   </tok>
   <tok>
    <orth>tagi</orth>
    <lex disamb="1"><base>tag</base><ctag>subst:pl:nom:m3</ctag></lex>
   </tok>
   <ns/>
   <tok>
    <orth>:</orth>
    <lex disamb="1"><base>:</base><ctag>interp</ctag></lex>
   </tok>
   <tok>
    <orth>#</orth>
    <lex disamb="1"><base>#</base><ctag>interp</ctag></lex>
   </tok>
   <ns/>
   <tok>
    <orth>pixelday</orth>
    <lex disamb="1"><base>pixelday</base><ctag>ign</ctag></lex>
   </tok>
   <tok>
    <orth>-</orth>
    <lex disamb="1"><base>-</base><ctag>interp</ctag></lex>
   </tok>
   <tok>
    <orth>dużo</orth>
    <lex disamb="1"><base>dużo</base><ctag>adv:pos</ctag></lex>
   </tok>
   <tok>
    <orth>głupotę</orth>
    <lex disamb="1"><base>głupota</base><ctag>subst:sg:acc:f</ctag></lex>
   </tok>
   <tok>
    <orth>mniej</orth>
    <lex disamb="1"><base>mało</base><ctag>adv:pos</ctag></lex>
   </tok>
   <tok>
    <orth>lub</orth>
    <lex disamb="1"><base>lub</base><ctag>conj</ctag></lex>
   </tok>
   <tok>
    <orth>bardziej</orth>
    <lex disamb="1"><base>bardziej</base><ctag>adv:pos</ctag></lex>
   </tok>
   <tok>
    <orth>związanych</orth>
    <lex disamb="1"><base>związać</base><ctag>ppas:pl:gen:m1:perf:aff</ctag></lex>
   </tok>
   <tok>
    <orth>z</orth>
    <lex disamb="1"><base>z</base><ctag>prep:gen:nwok</ctag></lex>
   </tok>
   <tok>
    <orth>tematyka</orth>
    <lex disamb="1"><base>tematyka</base><ctag>subst:sg:nom:f</ctag></lex>
   </tok>
   <tok>
    <orth>popkulturowa</orth>
    <lex disamb="1"><base>popkulturowy</base><ctag>adj:sg:nom:f:pos</ctag></lex>
   </tok>
   <tok>
    <orth>i</orth>
    <lex disamb="1"><base>i</base><ctag>conj</ctag></lex>
   </tok>
   <tok>
    <orth>gamingową</orth>
    <lex disamb="1"><base>gamingową</base><ctag>ign</ctag></lex>
   </tok>
   <ns/>
   <tok>
    <orth>.</orth>
    <lex disamb="1"><base>.</base><ctag>interp</ctag></lex>
   </tok>
  </sentence>
 </chunk>
 <chunk type="p" id="ch2">
  <sentence id="s2">
   <tok>
    <orth>#</orth>
    <lex disamb="1"><base>#</base><ctag>interp</ctag></lex>
    <ann chan="timex">0</ann>
    <ann chan="t3_duration">0</ann>
    <ann chan="t3_set">0</ann>
   </tok>
   <ns/>
   <tok>
    <orth>pixelxmas</orth>
    <lex disamb="1"><base>pixelxmas</base><ctag>ign</ctag></lex>
    <ann chan="timex">0</ann>
    <ann chan="t3_duration">0</ann>
    <ann chan="t3_set">0</ann>
   </tok>
   <tok>
    <orth>-</orth>
    <lex disamb="1"><base>-</base><ctag>interp</ctag></lex>
    <ann chan="timex">0</ann>
    <ann chan="t3_duration">0</ann>
    <ann chan="t3_set">0</ann>
   </tok>
   <tok>
    <orth>przez</orth>
    <lex disamb="1"><base>przez</base><ctag>prep:acc:nwok</ctag></lex>
    <ann chan="timex">0</ann>
    <ann chan="t3_duration">0</ann>
    <ann chan="t3_set">0</ann>
   </tok>
   <tok>
    <orth>następne</orth>
    <lex disamb="1"><base>następna</base><ctag>subst:pl:nom:f</ctag></lex>
    <ann chan="timex">0</ann>
    <ann chan="t3_duration">0</ann>
    <ann chan="t3_set">0</ann>
   </tok>
   <tok>
    <orth>7</orth>
    <lex disamb="1"><base>7</base><ctag>num:pl:nom:m1:rec</ctag></lex>
    <ann chan="timex">1</ann>
    <ann chan="t3_duration">1</ann>
    <ann chan="t3_set">0</ann>
   </tok>
   <tok>
    <orth>dni</orth>
    <lex disamb="1"><base>dzień</base><ctag>subst:pl:nom:m3</ctag></lex>
    <ann chan="timex">1</ann>
    <ann chan="t3_duration">1</ann>
    <ann chan="t3_set">0</ann>
   </tok>
   <tok>
    <orth>codziennie</orth>
    <lex disamb="1"><base>codziennie</base><ctag>adv:pos</ctag></lex>
    <ann chan="timex">2</ann>
    <ann chan="t3_duration">0</ann>
    <ann chan="t3_set">1</ann>
   </tok>
   <tok>
    <orth>inna</orth>
    <lex disamb="1"><base>inny</base><ctag>adj:sg:nom:f:pos</ctag></lex>
    <ann chan="timex">0</ann>
    <ann chan="t3_duration">0</ann>
    <ann chan="t3_set">0</ann>
   </tok>
   <tok>
    <orth>rozdawka</orth>
    <lex disamb="1"><base>rozdawka</base><ctag>subst:sg:nom:f</ctag></lex>
    <ann chan="timex">0</ann>
    <ann chan="t3_duration">0</ann>
    <ann chan="t3_set">0</ann>
   </tok>
   <ns/>
   <tok>
    <orth>!</orth>
    <lex disamb="1"><base>!</base><ctag>interp</ctag></lex>
    <ann chan="timex">0</ann>
    <ann chan="t3_duration">0</ann>
    <ann chan="t3_set">0</ann>
   </tok>
  </sentence>
 </chunk>
 <chunk type="p" id="ch3">
  <sentence id="s3">
   <tok>
    <orth>Oraz</orth>
    <lex disamb="1"><base>oraz</base><ctag>conj</ctag></lex>
    <ann chan="nam">0</ann>
    <ann chan="nam_org">0</ann>
   </tok>
   <tok>
    <orth>obserwujcie</orth>
    <lex disamb="1"><base>obserwować</base><ctag>impt:pl:sec:imperf</ctag></lex>
    <ann chan="nam">0</ann>
    <ann chan="nam_org">0</ann>
   </tok>
   <tok>
    <orth>nasz</orth>
    <lex disamb="1"><base>nasz</base><ctag>adj:sg:nom:m1:pos</ctag></lex>
    <ann chan="nam">0</ann>
    <ann chan="nam_org">0</ann>
   </tok>
   <tok>
    <orth>profil</orth>
    <lex disamb="1"><base>profil</base><ctag>subst:sg:nom:m3</ctag></lex>
    <ann chan="nam">0</ann>
    <ann chan="nam_org">0</ann>
   </tok>
   <tok>
    <orth>na</orth>
    <lex disamb="1"><base>na</base><ctag>prep:acc</ctag></lex>
    <ann chan="nam">0</ann>
    <ann chan="nam_org">0</ann>
   </tok>
   <tok>
    <orth>wykopie</orth>
    <lex disamb="1"><base>wykop</base><ctag>subst:sg:loc:m3</ctag></lex>
    <ann chan="nam">0</ann>
    <ann chan="nam_org">0</ann>
   </tok>
   <tok>
    <orth>(</orth>
    <lex disamb="1"><base>(</base><ctag>interp</ctag></lex>
    <ann chan="nam">0</ann>
    <ann chan="nam_org">0</ann>
   </tok>
   <ns/>
   <tok>
    <orth>⌐</orth>
    <lex disamb="1"><base>⌐</base><ctag>interp</ctag></lex>
    <ann chan="nam">0</ann>
    <ann chan="nam_org">0</ann>
   </tok>
   <tok>
    <orth>͡</orth>
    <lex disamb="1"><base>͡</base><ctag>ign</ctag></lex>
    <ann chan="nam">0</ann>
    <ann chan="nam_org">0</ann>
   </tok>
   <ns/>
   <tok>
    <orth>■</orth>
    <lex disamb="1"><base>■</base><ctag>interp</ctag></lex>
    <ann chan="nam">0</ann>
    <ann chan="nam_org">0</ann>
   </tok>
   <tok>
    <orth>͜ʖ</orth>
    <lex disamb="1"><base>͜ʖ</base><ctag>ign</ctag></lex>
    <ann chan="nam">0</ann>
    <ann chan="nam_org">0</ann>
   </tok>
   <tok>
    <orth>͡</orth>
    <lex disamb="1"><base>͡</base><ctag>ign</ctag></lex>
    <ann chan="nam">0</ann>
    <ann chan="nam_org">0</ann>
   </tok>
   <ns/>
   <tok>
    <orth>■</orth>
    <lex disamb="1"><base>■</base><ctag>interp</ctag></lex>
    <ann chan="nam">0</ann>
    <ann chan="nam_org">0</ann>
   </tok>
   <ns/>
   <tok>
    <orth>)</orth>
    <lex disamb="1"><base>)</base><ctag>interp</ctag></lex>
    <ann chan="nam">0</ann>
    <ann chan="nam_org">0</ann>
   </tok>
   <tok>
    <orth>(</orth>
    <lex disamb="1"><base>(</base><ctag>interp</ctag></lex>
    <ann chan="nam">0</ann>
    <ann chan="nam_org">0</ann>
   </tok>
   <tok>
    <orth>͡</orth>
    <lex disamb="1"><base>͡</base><ctag>ign</ctag></lex>
    <ann chan="nam">0</ann>
    <ann chan="nam_org">0</ann>
   </tok>
   <ns/>
   <tok>
    <orth>°</orth>
    <lex disamb="1"><base>°</base><ctag>interp</ctag></lex>
    <ann chan="nam">0</ann>
    <ann chan="nam_org">0</ann>
   </tok>
   <tok>
    <orth>͜ʖ</orth>
    <lex disamb="1"><base>͜ʖ</base><ctag>ign</ctag></lex>
    <ann chan="nam">0</ann>
    <ann chan="nam_org">0</ann>
   </tok>
   <tok>
    <orth>͡</orth>
    <lex disamb="1"><base>͡</base><ctag>ign</ctag></lex>
    <ann chan="nam">0</ann>
    <ann chan="nam_org">0</ann>
   </tok>
   <ns/>
   <tok>
    <orth>°</orth>
    <lex disamb="1"><base>°</base><ctag>interp</ctag></lex>
    <ann chan="nam">0</ann>
    <ann chan="nam_org">0</ann>
   </tok>
   <ns/>
   <tok>
    <orth>)</orth>
    <lex disamb="1"><base>)</base><ctag>interp</ctag></lex>
    <ann chan="nam">0</ann>
    <ann chan="nam_org">0</ann>
   </tok>
   <ns/>
   <tok>
    <orth>ﾉ</orth>
    <lex disamb="1"><base>ﾉ</base><ctag>ign</ctag></lex>
    <ann chan="nam">0</ann>
    <ann chan="nam_org">0</ann>
   </tok>
   <ns/>
   <tok>
    <orth>⌐</orth>
    <lex disamb="1"><base>⌐</base><ctag>interp</ctag></lex>
    <ann chan="nam">0</ann>
    <ann chan="nam_org">0</ann>
   </tok>
   <ns/>
   <tok>
    <orth>■</orth>
    <lex disamb="1"><base>■</base><ctag>interp</ctag></lex>
    <ann chan="nam">0</ann>
    <ann chan="nam_org">0</ann>
   </tok>
   <ns/>
   <tok>
    <orth>-</orth>
    <lex disamb="1"><base>-</base><ctag>interp</ctag></lex>
    <ann chan="nam">0</ann>
    <ann chan="nam_org">0</ann>
   </tok>
   <ns/>
   <tok>
    <orth>■</orth>
    <lex disamb="1"><base>■</base><ctag>interp</ctag></lex>
    <ann chan="nam">0</ann>
    <ann chan="nam_org">0</ann>
   </tok>
   <tok>
    <orth>#</orth>
    <lex disamb="1"><base>#</base><ctag>interp</ctag></lex>
    <ann chan="nam">0</ann>
    <ann chan="nam_org">0</ann>
   </tok>
   <ns/>
   <tok>
    <orth>mikolajki</orth>
    <lex disamb="1"><base>mikolajki</base><ctag>ign</ctag></lex>
    <ann chan="nam">0</ann>
    <ann chan="nam_org">0</ann>
   </tok>
   <tok>
    <orth>#</orth>
    <lex disamb="1"><base>#</base><ctag>interp</ctag></lex>
    <ann chan="nam">0</ann>
    <ann chan="nam_org">0</ann>
   </tok>
   <ns/>
   <tok>
    <orth>pixelbox</orth>
    <lex disamb="1"><base>pixelbox</base><ctag>ign</ctag></lex>
    <ann chan="nam">0</ann>
    <ann chan="nam_org">0</ann>
   </tok>
   <tok>
    <orth>PS</orth>
    <lex disamb="1"><base>PS</base><ctag>subst:sg:nom:m3</ctag></lex>
    <ann chan="nam">1</ann>
    <ann chan="nam_org">1</ann>
   </tok>
   <ns/>
   <tok>
    <orth>.</orth>
    <lex disamb="1"><base>.</base><ctag>interp</ctag></lex>
    <ann chan="nam">0</ann>
    <ann chan="nam_org">0</ann>
   </tok>
  </sentence>
 </chunk>
 <chunk type="p" id="ch4">
  <sentence id="s4">
   <tok>
    <orth>W</orth>
    <lex disamb="1"><base>w</base><ctag>prep:acc:nwok</ctag></lex>
   </tok>
   <tok>
    <orth>komentarzu</orth>
    <lex disamb="1"><base>komentarz</base><ctag>subst:sg:loc:m3</ctag></lex>
   </tok>
   <tok>
    <orth>wrzucam</orth>
    <lex disamb="1"><base>wrzucać</base><ctag>fin:sg:pri:imperf</ctag></lex>
   </tok>
   <tok>
    <orth>zdjęcie</orth>
    <lex disamb="1"><base>zdjęcie</base><ctag>subst:sg:nom:n</ctag></lex>
   </tok>
   <tok>
    <orth>jakie</orth>
    <lex disamb="1"><base>jaki</base><ctag>adj:sg:nom:n:pos</ctag></lex>
   </tok>
   <tok>
    <orth>naszywki</orth>
    <lex disamb="1"><base>naszywka</base><ctag>subst:sg:gen:f</ctag></lex>
   </tok>
   <tok>
    <orth>można</orth>
    <lex disamb="1"><base>można</base><ctag>pred</ctag></lex>
   </tok>
   <tok>
    <orth>wylosować</orth>
    <lex disamb="1"><base>wylosować</base><ctag>inf:perf</ctag></lex>
   </tok>
  </sentence>
 </chunk>
</chunkList>