<?xml version="1.0" encoding="UTF-8"?>
<!DOCTYPE chunkList SYSTEM "ccl.dtd">
<chunkList>
 <chunk type="p" id="ch1">
  <sentence id="s1">
   <tok>
    <orth>Ogunie</orth>
    <lex disamb="1"><base>Ogunie</base><ctag>ign</ctag></lex>
   </tok>
   <tok>
    <orth>to</orth>
    <lex disamb="1"><base>to</base><ctag>conj</ctag></lex>
   </tok>
   <tok>
    <orth>nie</orth>
    <lex disamb="1"><base>nie</base><ctag>conj</ctag></lex>
   </tok>
   <tok>
    <orth>jestem</orth>
    <lex disamb="1"><base>być</base><ctag>fin:sg:pri:imperf</ctag></lex>
   </tok>
   <tok>
    <orth>juz</orth>
    <lex disamb="1"><base>juz</base><ctag>subst:sg:nom:m3</ctag></lex>
   </tok>
   <tok>
    <orth>zielonka</orth>
    <lex disamb="1"><base>zielonka</base><ctag>subst:sg:nom:f</ctag></lex>
   </tok>
   <ns/>
   <tok>
    <orth>,</orth>
    <lex disamb="1"><base>,</base><ctag>interp</ctag></lex>
   </tok>
   <tok>
    <orth>wiec</orth>
    <lex disamb="1"><base>wiec</base><ctag>subst:sg:nom:m3</ctag></lex>
   </tok>
   <tok>
    <orth>moge</orth>
    <lex disamb="1"><base>moge</base><ctag>ign</ctag></lex>
   </tok>
   <tok>
    <orth>robic</orth>
    <lex disamb="1"><base>robic</base><ctag>ign</ctag></lex>
   </tok>
   <tok>
    <orth>pokazmorde</orth>
    <lex disamb="1"><base>pokazmorde</base><ctag>ign</ctag></lex>
   </tok>
   <tok>
    <orth>legitnie</orth>
    <lex disamb="1"><base>legitnie</base><ctag>ign</ctag></lex>
   </tok>
   <ns/>
   <tok>
    <orth>.</orth>
    <lex disamb="1"><base>.</base><ctag>interp</ctag></lex>
   </tok>
  </sentence>
 </chunk>
 <chunk type="p" id="ch2">
  <sentence id="s2">
   <tok>
    <orth>Nietaguje</orth>
    <lex disamb="1"><base>Nietaguje</base><ctag>ign</ctag></lex>
    <ann chan="timex">0</ann>
    <ann chan="t3_date">0</ann>
   </tok>
   <tok>
    <orth>sie</orth>
    <lex disamb="1"><base>si</base><ctag>adj:pl:nom:m2:pos</ctag></lex>
    <ann chan="timex">0</ann>
    <ann chan="t3_date">0</ann>
   </tok>
   <tok>
    <orth>na</orth>
    <lex disamb="1"><base>na</base><ctag>prep:acc</ctag></lex>
    <ann chan="timex">0</ann>
    <ann chan="t3_date">0</ann>
   </tok>
   <tok>
    <orth>nocnej</orth>
    <lex disamb="1"><base>nocny</base><ctag>adj:sg:gen:f:pos</ctag></lex>
    <ann chan="timex">0</ann>
    <ann chan="t3_date">0</ann>
   </tok>
   <ns/>
   <tok>
    <orth>,</orth>
    <lex disamb="1"><base>,</base><ctag>interp</ctag></lex>
    <ann chan="timex">0</ann>
    <ann chan="t3_date">0</ann>
   </tok>
   <tok>
    <orth>ale</orth>
    <lex disamb="1"><base>ale</base><ctag>conj</ctag></lex>
    <ann chan="timex">0</ann>
    <ann chan="t3_date">0</ann>
   </tok>
   <tok>
    <orth>do</orth>
    <lex disamb="1"><base>do</base><ctag>prep:gen</ctag></lex>
    <ann chan="timex">0</ann>
    <ann chan="t3_date">0</ann>
   </tok>
   <tok>
    <orth>nocnej</orth>
    <lex disamb="1"><base>nocny</base><ctag>adj:sg:gen:f:pos</ctag></lex>
    <ann chan="timex">0</ann>
    <ann chan="t3_date">0</ann>
   </tok>
   <tok>
    <orth>niedosiedze</orth>
    <lex disamb="1"><base>niedosiedze</base><ctag>ign</ctag></lex>
    <ann chan="timex">0</ann>
    <ann chan="t3_date">0</ann>
   </tok>
   <tok>
    <orth>wiec</orth>
    <lex disamb="1"><base>wiec</base><ctag>subst:sg:nom:m3</ctag></lex>
    <ann chan="timex">0</ann>
    <ann chan="t3_date">0</ann>
   </tok>
   <tok>
    <orth>wrzucam</orth>
    <lex disamb="1"><base>wrzucać</base><ctag>fin:sg:pri:imperf</ctag></lex>
    <ann chan="timex">0</ann>
    <ann chan="t3_date">0</ann>
   </tok>
   <tok>
    <orth>teraz</orth>
    <lex disamb="1"><base>teraz</base><ctag>adv:pos</ctag></lex>
    <ann chan="timex">0</ann>
    <ann chan="t3_date">0</ann>
   </tok>
   <tok>
    <orth>bo</orth>
    <lex disamb="1"><base>bo</base><ctag>comp</ctag></lex>
    <ann chan="timex">0</ann>
    <ann chan="t3_date">0</ann>
   </tok>
   <tok>
    <orth>do</orth>
    <lex disamb="1"><base>do</base><ctag>prep:gen</ctag></lex>
    <ann chan="timex">0</ann>
    <ann chan="t3_date">0</ann>
   </tok>
   <tok>
    <orth>arbajtu</orth>
    <lex disamb="1"><base>arbajtu</base><ctag>ign</ctag></lex>
    <ann chan="timex">0</ann>
    <ann chan="t3_date">0</ann>
   </tok>
   <tok>
    <orth>jutro</orth>
    <lex disamb="1"><base>jutro</base><ctag>adv:pos</ctag></lex>
    <ann chan="timex">1</ann>
    <ann chan="t3_date">1</ann>
   </tok>
   <tok>
    <orth>na</orth>
    <lex disamb="1"><base>na</base><ctag>prep:acc</ctag></lex>
    <ann chan="timex">0</ann>
    <ann chan="t3_date">0</ann>
   </tok>
   <tok>
    <orth>8</orth>
    <lex disamb="1"><base>8</base><ctag>num:pl:nom:m1:rec</ctag></lex>
    <ann chan="timex">0</ann>
    <ann chan="t3_date">0</ann>
   </tok>
   <tok>
    <orth>trzeba</orth>
    <lex disamb="1"><base>trzeba</base><ctag>pred</ctag></lex>
    <ann chan="timex">0</ann>
    <ann chan="t3_date">0</ann>
   </tok>
   <tok>
    <orth>isc</orth>
    <lex disamb="1"><base>isc</base><ctag>ign</ctag></lex>
    <ann chan="timex">0</ann>
    <ann chan="t3_date">0</ann>
   </tok>
   <ns/>
   <tok>
    <orth>.</orth>
    <lex disamb="1"><base>.</base><ctag>interp</ctag></lex>
    <ann chan="timex">0</ann>
    <ann chan="t3_date">0</ann>
   </tok>
  </sentence>
 </chunk>
</chunkList>