<?xml version="1.0" encoding="UTF-8"?>
<!DOCTYPE chunkList SYSTEM "ccl.dtd">
<chunkList>
 <chunk type="p" id="ch1">
  <sentence id="s1">
   <tok>
    <orth>Chyba</orth>
    <lex disamb="1"><base>chyba</base><ctag>qub</ctag></lex>
    <ann chan="timex">0</ann>
    <ann chan="t3_duration">0</ann>
   </tok>
   <tok>
    <orth>najdłuższa</orth>
    <lex disamb="1"><base>długi</base><ctag>adj:sg:nom:f:sup</ctag></lex>
    <ann chan="timex">0</ann>
    <ann chan="t3_duration">0</ann>
   </tok>
   <tok>
    <orth>trasa</orth>
    <lex disamb="1"><base>trasa</base><ctag>subst:sg:nom:f</ctag></lex>
    <ann chan="timex">0</ann>
    <ann chan="t3_duration">0</ann>
   </tok>
   <tok>
    <orth>na</orth>
    <lex disamb="1"><base>na</base><ctag>prep:acc</ctag></lex>
    <ann chan="timex">0</ann>
    <ann chan="t3_duration">0</ann>
   </tok>
   <tok>
    <orth>piechotę</orth>
    <lex disamb="1"><base>piechota</base><ctag>subst:sg:acc:f</ctag></lex>
    <ann chan="timex">0</ann>
    <ann chan="t3_duration">0</ann>
   </tok>
   <ns/>
   <tok>
    <orth>,</orth>
    <lex disamb="1"><base>,</base><ctag>interp</ctag></lex>
    <ann chan="timex">0</ann>
    <ann chan="t3_duration">0</ann>
   </tok>
   <tok>
    <orth>jedyne</orth>
    <lex disamb="1"><base>jedyna</base><ctag>subst:pl:nom:f</ctag></lex>
    <ann chan="timex">1</ann>
    <ann chan="t3_duration">0</ann>
   </tok>
   <tok>
    <orth>14</orth>
    <lex disamb="1"><base>14</base><ctag>num:pl:nom:m1:rec</ctag></lex>
    <ann chan="timex">1</ann>
    <ann chan="t3_duration">1</ann>
   </tok>
   <tok>
    <orth>miesięcy</orth>
    <lex disamb="1"><base>miesiąc</base><ctag>subst:pl:gen:m3</ctag></lex>
    <ann chan="timex">1</ann>
    <ann chan="t3_duration">1</ann>
   </tok>
   <tok>
    <orth>podróży</orth>
    <lex disamb="1"><base>podróż</base><ctag>subst:sg:gen:f</ctag></lex>
    <lex disamb="1"><base>podróża</base><ctag>subst:sg:gen:f</ctag></lex>
    <ann chan="timex">0</ann>
    <ann chan="t3_duration">0</ann>
   </tok>
   <ns/>
   <tok>
    <orth>,</orth>
    <lex disamb="1"><base>,</base><ctag>interp</ctag></lex>
    <ann chan="timex">0</ann>
    <ann chan="t3_duration">0</ann>
   </tok>
   <tok>
    <orth>maszerując</orth>
    <lex disamb="1"><base>maszerować</base><ctag>pcon:imperf</ctag></lex>
    <ann chan="timex">0</ann>
    <ann chan="t3_duration">0</ann>
   </tok>
   <tok>
    <orth>jedyne</orth>
    <lex disamb="1"><base>jedyna</base><ctag>subst:pl:nom:f</ctag></lex>
    <ann chan="timex">0</ann>
    <ann chan="t3_duration">0</ann>
   </tok>
   <tok>
    <orth>10</orth>
    <lex disamb="1"><base>10</base><ctag>num:pl:nom:m1:rec</ctag></lex>
    <ann chan="timex">2</ann>
    <ann chan="t3_duration">2</ann>
   </tok>
   <tok>
    <orth>godzin</orth>
    <lex disamb="1"><base>godzina</base><ctag>subst:pl:gen:f</ctag></lex>
    <ann chan="timex">2</ann>
    <ann chan="t3_duration">2</ann>
   </tok>
   <tok>
    <orth>dziennie</orth>
    <lex disamb="1"><base>dziennie</base><ctag>adv:pos</ctag></lex>
    <ann chan="timex">2</ann>
    <ann chan="t3_duration">2</ann>
   </tok>
   <tok>
    <orth>#</orth>
    <lex disamb="1"><base>#</base><ctag>interp</ctag></lex>
    <ann chan="timex">0</ann>
    <ann chan="t3_duration">0</ann>
   </tok>
   <ns/>
   <tok>
    <orth>ciekawostki</orth>
    <lex disamb="1"><base>ciekawostka</base><ctag>subst:sg:gen:f</ctag></lex>
    <ann chan="timex">0</ann>
    <ann chan="t3_duration">0</ann>
   </tok>
   <tok>
    <orth>#</orth>
    <lex disamb="1"><base>#</base><ctag>interp</ctag></lex>
    <ann chan="timex">0</ann>
    <ann chan="t3_duration">0</ann>
   </tok>
   <ns/>
   <tok>
    <orth>mapy</orth>
    <lex disamb="1"><base>mapa</base><ctag>subst:sg:gen:f</ctag></lex>
    <ann chan="timex">0</ann>
    <ann chan="t3_duration">0</ann>
   </tok>
  </sentence>
 </chunk>
</chunkList>