<?xml version="1.0" encoding="UTF-8"?>
<!DOCTYPE chunkList SYSTEM "ccl.dtd">
<chunkList>
 <chunk type="p" id="ch1">
  <sentence id="s1">
   <tok>
    <orth>Dziękuję</orth>
    <lex disamb="1"><base>dziękować</base><ctag>fin:sg:pri:imperf</ctag></lex>
    <ann chan="nam">0</ann>
    <ann chan="nam_org_political_party">0</ann>
    <ann chan="nam_org">0</ann>
   </tok>
   <tok>
    <orth>serdecznie</orth>
    <lex disamb="1"><base>serdecznie</base><ctag>adv:pos</ctag></lex>
    <ann chan="nam">0</ann>
    <ann chan="nam_org_political_party">0</ann>
    <ann chan="nam_org">0</ann>
   </tok>
   <tok>
    <orth>za</orth>
    <lex disamb="1"><base>za</base><ctag>qub</ctag></lex>
    <ann chan="nam">0</ann>
    <ann chan="nam_org_political_party">0</ann>
    <ann chan="nam_org">0</ann>
   </tok>
   <tok>
    <orth>#</orth>
    <lex disamb="1"><base>#</base><ctag>interp</ctag></lex>
    <ann chan="nam">0</ann>
    <ann chan="nam_org_political_party">0</ann>
    <ann chan="nam_org">0</ann>
   </tok>
   <ns/>
   <tok>
    <orth>zakazhandlu</orth>
    <lex disamb="1"><base>zakazhandlu</base><ctag>ign</ctag></lex>
    <ann chan="nam">0</ann>
    <ann chan="nam_org_political_party">0</ann>
    <ann chan="nam_org">0</ann>
   </tok>
   <tok>
    <orth>panie</orth>
    <lex disamb="1"><base>pan</base><ctag>subst:sg:voc:m1</ctag></lex>
    <ann chan="nam">0</ann>
    <ann chan="nam_org_political_party">0</ann>
    <ann chan="nam_org">0</ann>
   </tok>
   <tok>
    <orth>PiS</orth>
    <lex disamb="1"><base>PiS</base><ctag>subst:sg:nom:m3</ctag></lex>
    <ann chan="nam">1</ann>
    <ann chan="nam_org_political_party">1</ann>
    <ann chan="nam_org">1</ann>
   </tok>
   <ns/>
   <tok>
    <orth>.</orth>
    <lex disamb="1"><base>.</base><ctag>interp</ctag></lex>
    <ann chan="nam">0</ann>
    <ann chan="nam_org_political_party">0</ann>
    <ann chan="nam_org">0</ann>
   </tok>
  </sentence>
 </chunk>
 <chunk type="p" id="ch2">
  <sentence id="s2">
   <tok>
    <orth>Konkubent</orth>
    <lex disamb="1"><base>konkubent</base><ctag>subst:sg:nom:m1</ctag></lex>
    <ann chan="timex">0</ann>
    <ann chan="t3_time">0</ann>
    <ann chan="t3_duration">0</ann>
   </tok>
   <tok>
    <orth>w</orth>
    <lex disamb="1"><base>w</base><ctag>prep:acc:nwok</ctag></lex>
    <ann chan="timex">0</ann>
    <ann chan="t3_time">0</ann>
    <ann chan="t3_duration">0</ann>
   </tok>
   <tok>
    <orth>nocy</orth>
    <lex disamb="1"><base>noc</base><ctag>subst:sg:gen:f</ctag></lex>
    <ann chan="timex">1</ann>
    <ann chan="t3_time">1</ann>
    <ann chan="t3_duration">0</ann>
   </tok>
   <tok>
    <orth>najebany</orth>
    <lex disamb="1"><base>najebać</base><ctag>ppas:sg:nom:m1:perf:aff</ctag></lex>
    <ann chan="timex">0</ann>
    <ann chan="t3_time">0</ann>
    <ann chan="t3_duration">0</ann>
   </tok>
   <tok>
    <orth>jak</orth>
    <lex disamb="1"><base>jak</base><ctag>conj</ctag></lex>
    <ann chan="timex">0</ann>
    <ann chan="t3_time">0</ann>
    <ann chan="t3_duration">0</ann>
   </tok>
   <tok>
    <orth>szpadel</orth>
    <lex disamb="1"><base>szpadel</base><ctag>subst:sg:nom:m3</ctag></lex>
    <ann chan="timex">0</ann>
    <ann chan="t3_time">0</ann>
    <ann chan="t3_duration">0</ann>
   </tok>
   <tok>
    <orth>swoim</orth>
    <lex disamb="1"><base>swoje</base><ctag>subst:sg:inst:n</ctag></lex>
    <ann chan="timex">0</ann>
    <ann chan="t3_time">0</ann>
    <ann chan="t3_duration">0</ann>
   </tok>
   <tok>
    <orth>dupskiem</orth>
    <lex disamb="1"><base>dupsko</base><ctag>subst:sg:inst:n</ctag></lex>
    <ann chan="timex">0</ann>
    <ann chan="t3_time">0</ann>
    <ann chan="t3_duration">0</ann>
   </tok>
   <tok>
    <orth>rozwalił</orth>
    <lex disamb="1"><base>rozwalić</base><ctag>praet:sg:m1:perf</ctag></lex>
    <ann chan="timex">0</ann>
    <ann chan="t3_time">0</ann>
    <ann chan="t3_duration">0</ann>
   </tok>
   <tok>
    <orth>deskę</orth>
    <lex disamb="1"><base>deska</base><ctag>subst:sg:acc:f</ctag></lex>
    <ann chan="timex">0</ann>
    <ann chan="t3_time">0</ann>
    <ann chan="t3_duration">0</ann>
   </tok>
   <tok>
    <orth>w</orth>
    <lex disamb="1"><base>w</base><ctag>prep:acc:nwok</ctag></lex>
    <ann chan="timex">0</ann>
    <ann chan="t3_time">0</ann>
    <ann chan="t3_duration">0</ann>
   </tok>
   <tok>
    <orth>kiblu</orth>
    <lex disamb="1"><base>kibel</base><ctag>subst:sg:loc:m3</ctag></lex>
    <ann chan="timex">0</ann>
    <ann chan="t3_time">0</ann>
    <ann chan="t3_duration">0</ann>
   </tok>
   <tok>
    <orth>i</orth>
    <lex disamb="1"><base>i</base><ctag>conj</ctag></lex>
    <ann chan="timex">0</ann>
    <ann chan="t3_time">0</ann>
    <ann chan="t3_duration">0</ann>
   </tok>
   <tok>
    <orth>czeka</orth>
    <lex disamb="1"><base>czekać</base><ctag>fin:sg:ter:imperf</ctag></lex>
    <ann chan="timex">0</ann>
    <ann chan="t3_time">0</ann>
    <ann chan="t3_duration">0</ann>
   </tok>
   <tok>
    <orth>mnie</orth>
    <lex disamb="1"><base>ja</base><ctag>ppron12:sg:gen:m1:pri:akc</ctag></lex>
    <ann chan="timex">0</ann>
    <ann chan="t3_time">0</ann>
    <ann chan="t3_duration">0</ann>
   </tok>
   <tok>
    <orth>co</orth>
    <lex disamb="1"><base>co</base><ctag>comp</ctag></lex>
    <ann chan="timex">0</ann>
    <ann chan="t3_time">0</ann>
    <ann chan="t3_duration">0</ann>
   </tok>
   <tok>
    <orth>najmniej</orth>
    <lex disamb="1"><base>mało</base><ctag>adv:pos</ctag></lex>
    <ann chan="timex">0</ann>
    <ann chan="t3_time">0</ann>
    <ann chan="t3_duration">0</ann>
   </tok>
   <tok>
    <orth>dwa</orth>
    <lex disamb="1"><base>dwa</base><ctag>num:pl:nom:m1:rec</ctag></lex>
    <lex disamb="1"><base>dwa</base><ctag>num:pl:nom:m1:rec</ctag></lex>
    <lex disamb="1"><base>dwa</base><ctag>num:pl:nom:m1:rec</ctag></lex>
    <lex disamb="1"><base>dwa</base><ctag>num:pl:nom:m1:rec</ctag></lex>
    <lex disamb="1"><base>dwa</base><ctag>num:pl:nom:m1:rec</ctag></lex>
    <lex disamb="1"><base>dwa</base><ctag>num:pl:nom:m1:rec</ctag></lex>
    <lex disamb="1"><base>dwa</base><ctag>num:pl:nom:m1:rec</ctag></lex>
    <lex disamb="1"><base>dwa</base><ctag>num:pl:nom:m1:rec</ctag></lex>
    <lex disamb="1"><base>dwa</base><ctag>num:pl:nom:m1:rec</ctag></lex>
    <ann chan="timex">2</ann>
    <ann chan="t3_time">0</ann>
    <ann chan="t3_duration">1</ann>
   </tok>
   <tok>
    <orth>dni</orth>
    <lex disamb="1"><base>dzień</base><ctag>subst:pl:nom:m3</ctag></lex>
    <ann chan="timex">2</ann>
    <ann chan="t3_time">0</ann>
    <ann chan="t3_duration">1</ann>
   </tok>
   <tok>
    <orth>kłucia</orth>
    <lex disamb="1"><base>kłucie</base><ctag>subst:sg:gen:n</ctag></lex>
    <ann chan="timex">0</ann>
    <ann chan="t3_time">0</ann>
    <ann chan="t3_duration">0</ann>
   </tok>
   <tok>
    <orth>w</orth>
    <lex disamb="1"><base>w</base><ctag>prep:acc:nwok</ctag></lex>
    <ann chan="timex">0</ann>
    <ann chan="t3_time">0</ann>
    <ann chan="t3_duration">0</ann>
   </tok>
   <tok>
    <orth>udo</orth>
    <lex disamb="1"><base>udo</base><ctag>subst:sg:nom:n</ctag></lex>
    <ann chan="timex">0</ann>
    <ann chan="t3_time">0</ann>
    <ann chan="t3_duration">0</ann>
   </tok>
   <tok>
    <orth>przy</orth>
    <lex disamb="1"><base>przy</base><ctag>prep:loc</ctag></lex>
    <ann chan="timex">0</ann>
    <ann chan="t3_time">0</ann>
    <ann chan="t3_duration">0</ann>
   </tok>
   <tok>
    <orth>każdym</orth>
    <lex disamb="1"><base>każdy</base><ctag>adj:sg:inst:m1:pos</ctag></lex>
    <ann chan="timex">0</ann>
    <ann chan="t3_time">0</ann>
    <ann chan="t3_duration">0</ann>
   </tok>
   <tok>
    <orth>siku</orth>
    <lex disamb="1"><base>siku</base><ctag>subst:sg:nom:n</ctag></lex>
    <ann chan="timex">0</ann>
    <ann chan="t3_time">0</ann>
    <ann chan="t3_duration">0</ann>
   </tok>
   <tok>
    <orth>i</orth>
    <lex disamb="1"><base>i</base><ctag>conj</ctag></lex>
    <ann chan="timex">0</ann>
    <ann chan="t3_time">0</ann>
    <ann chan="t3_duration">0</ann>
   </tok>
   <tok>
    <orth>kaka</orth>
    <lex disamb="1"><base>kakać</base><ctag>fin:sg:ter:imperf</ctag></lex>
    <ann chan="timex">0</ann>
    <ann chan="t3_time">0</ann>
    <ann chan="t3_duration">0</ann>
   </tok>
   <tok>
    <orth>(</orth>
    <lex disamb="1"><base>(</base><ctag>interp</ctag></lex>
    <ann chan="timex">0</ann>
    <ann chan="t3_time">0</ann>
    <ann chan="t3_duration">0</ann>
   </tok>
   <tok>
    <orth>͡</orth>
    <lex disamb="1"><base>͡</base><ctag>ign</ctag></lex>
    <ann chan="timex">0</ann>
    <ann chan="t3_time">0</ann>
    <ann chan="t3_duration">0</ann>
   </tok>
   <ns/>
   <tok>
    <orth>°</orth>
    <lex disamb="1"><base>°</base><ctag>interp</ctag></lex>
    <ann chan="timex">0</ann>
    <ann chan="t3_time">0</ann>
    <ann chan="t3_duration">0</ann>
   </tok>
   <tok>
    <orth>ʖ̯</orth>
    <lex disamb="1"><base>ʖ̯</base><ctag>ign</ctag></lex>
    <ann chan="timex">0</ann>
    <ann chan="t3_time">0</ann>
    <ann chan="t3_duration">0</ann>
   </tok>
   <tok>
    <orth>͡</orth>
    <lex disamb="1"><base>͡</base><ctag>ign</ctag></lex>
    <ann chan="timex">0</ann>
    <ann chan="t3_time">0</ann>
    <ann chan="t3_duration">0</ann>
   </tok>
   <ns/>
   <tok>
    <orth>°</orth>
    <lex disamb="1"><base>°</base><ctag>interp</ctag></lex>
    <ann chan="timex">0</ann>
    <ann chan="t3_time">0</ann>
    <ann chan="t3_duration">0</ann>
   </tok>
   <ns/>
   <tok>
    <orth>)</orth>
    <lex disamb="1"><base>)</base><ctag>interp</ctag></lex>
    <ann chan="timex">0</ann>
    <ann chan="t3_time">0</ann>
    <ann chan="t3_duration">0</ann>
   </tok>
   <tok>
    <orth>#</orth>
    <lex disamb="1"><base>#</base><ctag>interp</ctag></lex>
    <ann chan="timex">0</ann>
    <ann chan="t3_time">0</ann>
    <ann chan="t3_duration">0</ann>
   </tok>
   <ns/>
   <tok>
    <orth>zalesie</orth>
    <lex disamb="1"><base>zalesie</base><ctag>subst:sg:nom:n</ctag></lex>
    <ann chan="timex">0</ann>
    <ann chan="t3_time">0</ann>
    <ann chan="t3_duration">0</ann>
   </tok>
   <tok>
    <orth>#</orth>
    <lex disamb="1"><base>#</base><ctag>interp</ctag></lex>
    <ann chan="timex">0</ann>
    <ann chan="t3_time">0</ann>
    <ann chan="t3_duration">0</ann>
   </tok>
   <ns/>
   <tok>
    <orth>jakzyc</orth>
    <lex disamb="1"><base>jakzyc</base><ctag>ign</ctag></lex>
    <ann chan="timex">0</ann>
    <ann chan="t3_time">0</ann>
    <ann chan="t3_duration">0</ann>
   </tok>
   <tok>
    <orth>#</orth>
    <lex disamb="1"><base>#</base><ctag>interp</ctag></lex>
    <ann chan="timex">0</ann>
    <ann chan="t3_time">0</ann>
    <ann chan="t3_duration">0</ann>
   </tok>
   <ns/>
   <tok>
    <orth>niebieskiepaski</orth>
    <lex disamb="1"><base>niebieskiepaski</base><ctag>ign</ctag></lex>
    <ann chan="timex">0</ann>
    <ann chan="t3_time">0</ann>
    <ann chan="t3_duration">0</ann>
   </tok>
  </sentence>
 </chunk>
</chunkList>