<?xml version="1.0" encoding="UTF-8"?>
<!DOCTYPE chunkList SYSTEM "ccl.dtd">
<chunkList>
 <chunk type="p" id="ch1">
  <sentence id="s1">
   <tok>
    <orth>Kanter</orth>
    <lex disamb="1"><base>Kanter</base><ctag>ign</ctag></lex>
   </tok>
   <ns/>
   <tok>
    <orth>-</orth>
    <lex disamb="1"><base>-</base><ctag>interp</ctag></lex>
   </tok>
   <ns/>
   <tok>
    <orth>uOrkiestra</orth>
    <lex disamb="1"><base>uOrkiestra</base><ctag>ign</ctag></lex>
   </tok>
   <tok>
    <orth>win</orth>
    <lex disamb="1"><base>wina</base><ctag>subst:pl:gen:f</ctag></lex>
   </tok>
  </sentence>
 </chunk>
</chunkList>