<?xml version="1.0" encoding="UTF-8"?>
<!DOCTYPE chunkList SYSTEM "ccl.dtd">
<chunkList>
 <chunk type="p" id="ch1">
  <sentence id="s1">
   <tok>
    <orth>Dajcie</orth>
    <lex disamb="1"><base>dać</base><ctag>impt:pl:sec:perf</ctag></lex>
   </tok>
   <tok>
    <orth>plusa</orth>
    <lex disamb="1"><base>plus</base><ctag>subst:sg:gen:m2</ctag></lex>
   </tok>
   <tok>
    <orth>mirki</orth>
    <lex disamb="1"><base>Mirka</base><ctag>subst:sg:gen:f</ctag></lex>
   </tok>
   <tok>
    <orth>na</orth>
    <lex disamb="1"><base>na</base><ctag>prep:acc</ctag></lex>
   </tok>
   <tok>
    <orth>pocieszenie</orth>
    <lex disamb="1"><base>pocieszenie</base><ctag>subst:sg:nom:n</ctag></lex>
   </tok>
   <ns/>
   <tok>
    <orth>.</orth>
    <lex disamb="1"><base>.</base><ctag>interp</ctag></lex>
   </tok>
  </sentence>
 </chunk>
 <chunk type="p" id="ch2">
  <sentence id="s2">
   <tok>
    <orth>Dziś</orth>
    <lex disamb="1"><base>dziś</base><ctag>adv:pos</ctag></lex>
    <ann chan="timex">1</ann>
    <ann chan="t3_date">1</ann>
   </tok>
   <tok>
    <orth>odszedł</orth>
    <lex disamb="1"><base>odejść</base><ctag>praet:sg:m1:perf</ctag></lex>
    <ann chan="timex">0</ann>
    <ann chan="t3_date">0</ann>
   </tok>
   <tok>
    <orth>jeden</orth>
    <lex disamb="1"><base>jeden</base><ctag>subst:sg:nom:m2</ctag></lex>
    <ann chan="timex">0</ann>
    <ann chan="t3_date">0</ann>
   </tok>
   <tok>
    <orth>z</orth>
    <lex disamb="1"><base>z</base><ctag>prep:gen:nwok</ctag></lex>
    <ann chan="timex">0</ann>
    <ann chan="t3_date">0</ann>
   </tok>
   <tok>
    <orth>moich</orth>
    <lex disamb="1"><base>moi</base><ctag>subst:pl:gen:m1</ctag></lex>
    <lex disamb="1"><base>mój</base><ctag>subst:pl:gen:m1</ctag></lex>
    <ann chan="timex">0</ann>
    <ann chan="t3_date">0</ann>
   </tok>
   <tok>
    <orth>piesełów</orth>
    <lex disamb="1"><base>piesełów</base><ctag>ign</ctag></lex>
    <ann chan="timex">0</ann>
    <ann chan="t3_date">0</ann>
   </tok>
   <ns/>
   <tok>
    <orth>.</orth>
    <lex disamb="1"><base>.</base><ctag>interp</ctag></lex>
    <ann chan="timex">0</ann>
    <ann chan="t3_date">0</ann>
   </tok>
  </sentence>
 </chunk>
 <chunk type="p" id="ch3">
  <sentence id="s3">
   <tok>
    <orth>Nowotwór</orth>
    <lex disamb="1"><base>nowotwór</base><ctag>subst:sg:nom:m3</ctag></lex>
    <ann chan="timex">0</ann>
    <ann chan="t3_duration">0</ann>
   </tok>
   <tok>
    <orth>wykończył</orth>
    <lex disamb="1"><base>wykończyć</base><ctag>praet:sg:m1:perf</ctag></lex>
    <ann chan="timex">0</ann>
    <ann chan="t3_duration">0</ann>
   </tok>
   <tok>
    <orth>ją</orth>
    <lex disamb="1"><base>on</base><ctag>ppron3:sg:acc:f:ter:akc:npraep</ctag></lex>
    <ann chan="timex">0</ann>
    <ann chan="t3_duration">0</ann>
   </tok>
   <tok>
    <orth>w</orth>
    <lex disamb="1"><base>w</base><ctag>prep:acc:nwok</ctag></lex>
    <ann chan="timex">0</ann>
    <ann chan="t3_duration">0</ann>
   </tok>
   <tok>
    <orth>tydzień</orth>
    <lex disamb="1"><base>tydzień</base><ctag>subst:sg:nom:m3</ctag></lex>
    <ann chan="timex">1</ann>
    <ann chan="t3_duration">1</ann>
   </tok>
   <ns/>
   <tok>
    <orth>.</orth>
    <lex disamb="1"><base>.</base><ctag>interp</ctag></lex>
    <ann chan="timex">0</ann>
    <ann chan="t3_duration">0</ann>
   </tok>
  </sentence>
 </chunk>
 <chunk type="p" id="ch4">
  <sentence id="s4">
   <tok>
    <orth>Najgorsze</orth>
    <lex disamb="1"><base>zły</base><ctag>adj:sg:nom:n:sup</ctag></lex>
   </tok>
   <tok>
    <orth>kiedy</orth>
    <lex disamb="1"><base>kiedy</base><ctag>comp</ctag></lex>
   </tok>
   <tok>
    <orth>nie</orth>
    <lex disamb="1"><base>nie</base><ctag>conj</ctag></lex>
   </tok>
   <tok>
    <orth>mogli</orth>
    <lex disamb="1"><base>móc</base><ctag>praet:pl:m1:imperf</ctag></lex>
   </tok>
   <ns/>
   <tok>
    <orth>śmy</orth>
    <lex disamb="1"><base>być</base><ctag>aglt:pl:pri:imperf:nwok</ctag></lex>
   </tok>
   <tok>
    <orth>pomóc</orth>
    <lex disamb="1"><base>pomóc</base><ctag>inf:perf</ctag></lex>
   </tok>
   <tok>
    <orth>a</orth>
    <lex disamb="1"><base>a</base><ctag>conj</ctag></lex>
   </tok>
   <tok>
    <orth>drugi</orth>
    <lex disamb="1"><base>drugi</base><ctag>subst:sg:nom:m2</ctag></lex>
   </tok>
   <tok>
    <orth>pieseł</orth>
    <lex disamb="1"><base>pieseł</base><ctag>ign</ctag></lex>
   </tok>
   <tok>
    <orth>zaprowadzał</orth>
    <lex disamb="1"><base>zaprowadzać</base><ctag>praet:sg:m1:imperf</ctag></lex>
   </tok>
   <tok>
    <orth>każdego</orth>
    <lex disamb="1"><base>każdy</base><ctag>adj:sg:gen:m1:pos</ctag></lex>
   </tok>
   <tok>
    <orth>domownika</orth>
    <lex disamb="1"><base>domownik</base><ctag>subst:sg:gen:m1</ctag></lex>
   </tok>
   <tok>
    <orth>do</orth>
    <lex disamb="1"><base>do</base><ctag>prep:gen</ctag></lex>
   </tok>
   <tok>
    <orth>jej</orth>
    <lex disamb="1"><base>on</base><ctag>ppron3:sg:gen:f:ter:akc:npraep</ctag></lex>
   </tok>
   <tok>
    <orth>legowiska</orth>
    <lex disamb="1"><base>legowisko</base><ctag>subst:sg:gen:n</ctag></lex>
   </tok>
   <tok>
    <orth>żeby</orth>
    <lex disamb="1"><base>żeby</base><ctag>comp</ctag></lex>
   </tok>
   <tok>
    <orth>coś</orth>
    <lex disamb="1"><base>coś</base><ctag>qub</ctag></lex>
   </tok>
   <tok>
    <orth>zrobić</orth>
    <lex disamb="1"><base>zrobić</base><ctag>inf:perf</ctag></lex>
   </tok>
   <tok>
    <orth>(</orth>
    <lex disamb="1"><base>(</base><ctag>interp</ctag></lex>
   </tok>
   <ns/>
   <tok>
    <orth>╥</orth>
    <lex disamb="1"><base>╥</base><ctag>interp</ctag></lex>
   </tok>
   <ns/>
   <tok>
    <orth>﹏</orth>
    <lex disamb="1"><base>﹏</base><ctag>interp</ctag></lex>
   </tok>
   <ns/>
   <tok>
    <orth>╥</orth>
    <lex disamb="1"><base>╥</base><ctag>interp</ctag></lex>
   </tok>
   <ns/>
   <tok>
    <orth>)</orth>
    <lex disamb="1"><base>)</base><ctag>interp</ctag></lex>
   </tok>
  </sentence>
 </chunk>
 <chunk type="p" id="ch5">
  <sentence id="s5">
   <tok>
    <orth>#</orth>
    <lex disamb="1"><base>#</base><ctag>interp</ctag></lex>
   </tok>
   <ns/>
   <tok>
    <orth>psy</orth>
    <lex disamb="1"><base>pies</base><ctag>subst:pl:nom:m2</ctag></lex>
   </tok>
   <tok>
    <orth>#</orth>
    <lex disamb="1"><base>#</base><ctag>interp</ctag></lex>
   </tok>
   <ns/>
   <tok>
    <orth>smutnazaba</orth>
    <lex disamb="1"><base>smutnazaba</base><ctag>ign</ctag></lex>
   </tok>
   <tok>
    <orth>#</orth>
    <lex disamb="1"><base>#</base><ctag>interp</ctag></lex>
   </tok>
   <ns/>
   <tok>
    <orth>husky</orth>
    <lex disamb="1"><base>husky</base><ctag>subst:sg:nom:m2</ctag></lex>
   </tok>
  </sentence>
 </chunk>
</chunkList>