<?xml version="1.0" encoding="UTF-8"?>
<!DOCTYPE chunkList SYSTEM "ccl.dtd">
<chunkList>
 <chunk type="p" id="ch1">
  <sentence id="s1">
   <tok>
    <orth>DZIEŃ</orth>
    <lex disamb="1"><base>dzienia</base><ctag>subst:pl:gen:f</ctag></lex>
   </tok>
   <tok>
    <orth>86</orth>
    <lex disamb="1"><base>86</base><ctag>num:pl:nom:m1:rec</ctag></lex>
   </tok>
   <ns/>
   <tok>
    <orth>/</orth>
    <lex disamb="1"><base>/</base><ctag>interp</ctag></lex>
   </tok>
   <ns/>
   <tok>
    <orth>100</orth>
    <lex disamb="1"><base>100</base><ctag>num:pl:nom:m1:rec</ctag></lex>
   </tok>
  </sentence>
 </chunk>
 <chunk type="p" id="ch2">
  <sentence id="s2">
   <tok>
    <orth>Facet</orth>
    <lex disamb="1"><base>facet</base><ctag>subst:sg:nom:m1</ctag></lex>
    <ann chan="nam">0</ann>
    <ann chan="nam_org_company">0</ann>
    <ann chan="nam_org">1</ann>
   </tok>
   <tok>
    <orth>w</orth>
    <lex disamb="1"><base>w</base><ctag>prep:acc:nwok</ctag></lex>
    <ann chan="nam">0</ann>
    <ann chan="nam_org_company">0</ann>
    <ann chan="nam_org">0</ann>
   </tok>
   <tok>
    <orth>Ferrari</orth>
    <lex disamb="1"><base>ferrari</base><ctag>subst:sg:nom:m2</ctag></lex>
    <ann chan="nam">1</ann>
    <ann chan="nam_org_company">1</ann>
    <ann chan="nam_org">2</ann>
   </tok>
   <tok>
    <orth>pomyka</orth>
    <lex disamb="1"><base>pomyk</base><ctag>subst:sg:gen:m3</ctag></lex>
    <ann chan="nam">0</ann>
    <ann chan="nam_org_company">0</ann>
    <ann chan="nam_org">0</ann>
   </tok>
   <tok>
    <orth>sobie</orth>
    <lex disamb="1"><base>siebie</base><ctag>siebie:dat</ctag></lex>
    <ann chan="nam">0</ann>
    <ann chan="nam_org_company">0</ann>
    <ann chan="nam_org">0</ann>
   </tok>
   <tok>
    <orth>po</orth>
    <lex disamb="1"><base>po</base><ctag>prep:acc</ctag></lex>
    <ann chan="nam">0</ann>
    <ann chan="nam_org_company">0</ann>
    <ann chan="nam_org">0</ann>
   </tok>
   <tok>
    <orth>szosie</orth>
    <lex disamb="1"><base>szos</base><ctag>subst:sg:loc:m3</ctag></lex>
    <ann chan="nam">0</ann>
    <ann chan="nam_org_company">0</ann>
    <ann chan="nam_org">0</ann>
   </tok>
   <tok>
    <orth>z</orth>
    <lex disamb="1"><base>z</base><ctag>prep:gen:nwok</ctag></lex>
    <ann chan="nam">0</ann>
    <ann chan="nam_org_company">0</ann>
    <ann chan="nam_org">0</ann>
   </tok>
   <tok>
    <orth>łokciem</orth>
    <lex disamb="1"><base>łokieć</base><ctag>subst:sg:inst:m3</ctag></lex>
    <ann chan="nam">0</ann>
    <ann chan="nam_org_company">0</ann>
    <ann chan="nam_org">0</ann>
   </tok>
   <tok>
    <orth>za</orth>
    <lex disamb="1"><base>za</base><ctag>qub</ctag></lex>
    <ann chan="nam">0</ann>
    <ann chan="nam_org_company">0</ann>
    <ann chan="nam_org">0</ann>
   </tok>
   <tok>
    <orth>oknem</orth>
    <lex disamb="1"><base>okno</base><ctag>subst:sg:inst:n</ctag></lex>
    <ann chan="nam">0</ann>
    <ann chan="nam_org_company">0</ann>
    <ann chan="nam_org">0</ann>
   </tok>
   <ns/>
   <tok>
    <orth>,</orth>
    <lex disamb="1"><base>,</base><ctag>interp</ctag></lex>
    <ann chan="nam">0</ann>
    <ann chan="nam_org_company">0</ann>
    <ann chan="nam_org">0</ann>
   </tok>
   <tok>
    <orth>aż</orth>
    <lex disamb="1"><base>aż</base><ctag>comp</ctag></lex>
    <ann chan="nam">0</ann>
    <ann chan="nam_org_company">0</ann>
    <ann chan="nam_org">0</ann>
   </tok>
   <tok>
    <orth>wreszcie</orth>
    <lex disamb="1"><base>wreszcie</base><ctag>qub</ctag></lex>
    <ann chan="nam">0</ann>
    <ann chan="nam_org_company">0</ann>
    <ann chan="nam_org">0</ann>
   </tok>
   <tok>
    <orth>zatrzymał</orth>
    <lex disamb="1"><base>zatrzymać</base><ctag>praet:sg:m1:perf</ctag></lex>
    <ann chan="nam">0</ann>
    <ann chan="nam_org_company">0</ann>
    <ann chan="nam_org">0</ann>
   </tok>
   <tok>
    <orth>się</orth>
    <lex disamb="1"><base>się</base><ctag>qub</ctag></lex>
    <ann chan="nam">0</ann>
    <ann chan="nam_org_company">0</ann>
    <ann chan="nam_org">0</ann>
   </tok>
   <tok>
    <orth>przed</orth>
    <lex disamb="1"><base>przed</base><ctag>prep:acc:nwok</ctag></lex>
    <ann chan="nam">0</ann>
    <ann chan="nam_org_company">0</ann>
    <ann chan="nam_org">0</ann>
   </tok>
   <tok>
    <orth>przejazdem</orth>
    <lex disamb="1"><base>przejazd</base><ctag>subst:sg:inst:m3</ctag></lex>
    <ann chan="nam">0</ann>
    <ann chan="nam_org_company">0</ann>
    <ann chan="nam_org">0</ann>
   </tok>
   <tok>
    <orth>kolejowym</orth>
    <lex disamb="1"><base>kolejowy</base><ctag>adj:sg:inst:m1:pos</ctag></lex>
    <ann chan="nam">0</ann>
    <ann chan="nam_org_company">0</ann>
    <ann chan="nam_org">0</ann>
   </tok>
   <ns/>
   <tok>
    <orth>.</orth>
    <lex disamb="1"><base>.</base><ctag>interp</ctag></lex>
    <ann chan="nam">0</ann>
    <ann chan="nam_org_company">0</ann>
    <ann chan="nam_org">0</ann>
   </tok>
  </sentence>
 </chunk>
 <chunk type="p" id="ch3">
  <sentence id="s3">
   <tok>
    <orth>Obok</orth>
    <lex disamb="1"><base>obok</base><ctag>adv:pos</ctag></lex>
   </tok>
   <tok>
    <orth>niego</orth>
    <lex disamb="1"><base>on</base><ctag>ppron3:sg:gen:m1:ter:akc:praep</ctag></lex>
   </tok>
   <ns/>
   <tok>
    <orth>,</orth>
    <lex disamb="1"><base>,</base><ctag>interp</ctag></lex>
   </tok>
   <tok>
    <orth>pyrkoczącym</orth>
    <lex disamb="1"><base>pyrkotać</base><ctag>pact:sg:inst:m1:imperf:aff</ctag></lex>
   </tok>
   <tok>
    <orth>chaotycznie</orth>
    <lex disamb="1"><base>chaotycznie</base><ctag>adv:pos</ctag></lex>
   </tok>
   <tok>
    <orth>motorowerkiem</orth>
    <lex disamb="1"><base>motorowerkiem</base><ctag>ign</ctag></lex>
   </tok>
   <ns/>
   <tok>
    <orth>,</orth>
    <lex disamb="1"><base>,</base><ctag>interp</ctag></lex>
   </tok>
   <tok>
    <orth>zatrzymał</orth>
    <lex disamb="1"><base>zatrzymać</base><ctag>praet:sg:m1:perf</ctag></lex>
   </tok>
   <tok>
    <orth>się</orth>
    <lex disamb="1"><base>się</base><ctag>qub</ctag></lex>
   </tok>
   <tok>
    <orth>chłop</orth>
    <lex disamb="1"><base>chłop</base><ctag>subst:sg:nom:m1</ctag></lex>
   </tok>
   <tok>
    <orth>w</orth>
    <lex disamb="1"><base>w</base><ctag>prep:acc:nwok</ctag></lex>
   </tok>
   <tok>
    <orth>słomianym</orth>
    <lex disamb="1"><base>słomiany</base><ctag>adj:sg:inst:m1:pos</ctag></lex>
   </tok>
   <tok>
    <orth>kapeluszu</orth>
    <lex disamb="1"><base>kapelusz</base><ctag>subst:sg:loc:m3</ctag></lex>
   </tok>
   <tok>
    <orth>i</orth>
    <lex disamb="1"><base>i</base><ctag>conj</ctag></lex>
   </tok>
   <tok>
    <orth>połatanych</orth>
    <lex disamb="1"><base>połatać</base><ctag>ppas:pl:gen:m1:perf:aff</ctag></lex>
   </tok>
   <tok>
    <orth>portkach</orth>
    <lex disamb="1"><base>portki</base><ctag>subst:pl:loc:n</ctag></lex>
   </tok>
   <tok>
    <orth>na</orth>
    <lex disamb="1"><base>na</base><ctag>prep:acc</ctag></lex>
   </tok>
   <tok>
    <orth>szelkach</orth>
    <lex disamb="1"><base>szelka</base><ctag>subst:pl:loc:f</ctag></lex>
   </tok>
   <ns/>
   <tok>
    <orth>.</orth>
    <lex disamb="1"><base>.</base><ctag>interp</ctag></lex>
   </tok>
  </sentence>
 </chunk>
 <chunk type="p" id="ch4">
  <sentence id="s4">
   <tok>
    <orth>Chłop</orth>
    <lex disamb="1"><base>chłop</base><ctag>subst:sg:nom:m1</ctag></lex>
    <ann chan="nam">0</ann>
    <ann chan="nam_liv_god">0</ann>
    <ann chan="nam_liv">0</ann>
   </tok>
   <tok>
    <orth>z</orth>
    <lex disamb="1"><base>z</base><ctag>prep:gen:nwok</ctag></lex>
    <ann chan="nam">0</ann>
    <ann chan="nam_liv_god">0</ann>
    <ann chan="nam_liv">0</ann>
   </tok>
   <tok>
    <orth>podziwem</orth>
    <lex disamb="1"><base>podziw</base><ctag>subst:sg:inst:m3</ctag></lex>
    <ann chan="nam">0</ann>
    <ann chan="nam_liv_god">0</ann>
    <ann chan="nam_liv">0</ann>
   </tok>
   <tok>
    <orth>oglądając</orth>
    <lex disamb="1"><base>oglądać</base><ctag>pcon:imperf</ctag></lex>
    <ann chan="nam">0</ann>
    <ann chan="nam_liv_god">0</ann>
    <ann chan="nam_liv">0</ann>
   </tok>
   <tok>
    <orth>samochód</orth>
    <lex disamb="1"><base>samochód</base><ctag>subst:sg:nom:m3</ctag></lex>
    <ann chan="nam">0</ann>
    <ann chan="nam_liv_god">0</ann>
    <ann chan="nam_liv">0</ann>
   </tok>
   <tok>
    <orth>zagaja</orth>
    <lex disamb="1"><base>zagajać</base><ctag>fin:sg:ter:imperf</ctag></lex>
    <ann chan="nam">0</ann>
    <ann chan="nam_liv_god">0</ann>
    <ann chan="nam_liv">0</ann>
   </tok>
   <tok>
    <orth>do</orth>
    <lex disamb="1"><base>do</base><ctag>prep:gen</ctag></lex>
    <ann chan="nam">0</ann>
    <ann chan="nam_liv_god">0</ann>
    <ann chan="nam_liv">0</ann>
   </tok>
   <tok>
    <orth>mężczyzny</orth>
    <lex disamb="1"><base>mężczyzna</base><ctag>subst:sg:gen:m1</ctag></lex>
    <ann chan="nam">0</ann>
    <ann chan="nam_liv_god">0</ann>
    <ann chan="nam_liv">0</ann>
   </tok>
   <ns/>
   <tok>
    <orth>:</orth>
    <lex disamb="1"><base>:</base><ctag>interp</ctag></lex>
    <ann chan="nam">0</ann>
    <ann chan="nam_liv_god">0</ann>
    <ann chan="nam_liv">0</ann>
   </tok>
   <tok>
    <orth>-</orth>
    <lex disamb="1"><base>-</base><ctag>interp</ctag></lex>
    <ann chan="nam">0</ann>
    <ann chan="nam_liv_god">0</ann>
    <ann chan="nam_liv">0</ann>
   </tok>
   <tok>
    <orth>Panie</orth>
    <lex disamb="1"><base>Pan</base><ctag>subst:sg:loc:m1</ctag></lex>
    <ann chan="nam">1</ann>
    <ann chan="nam_liv_god">1</ann>
    <ann chan="nam_liv">1</ann>
   </tok>
   <ns/>
   <tok>
    <orth>,</orth>
    <lex disamb="1"><base>,</base><ctag>interp</ctag></lex>
    <ann chan="nam">0</ann>
    <ann chan="nam_liv_god">0</ann>
    <ann chan="nam_liv">0</ann>
   </tok>
   <tok>
    <orth>piękna</orth>
    <lex disamb="1"><base>piękno</base><ctag>subst:sg:gen:n</ctag></lex>
    <ann chan="nam">0</ann>
    <ann chan="nam_liv_god">0</ann>
    <ann chan="nam_liv">0</ann>
   </tok>
   <tok>
    <orth>fura</orth>
    <lex disamb="1"><base>fura</base><ctag>subst:sg:nom:f</ctag></lex>
    <ann chan="nam">0</ann>
    <ann chan="nam_liv_god">0</ann>
    <ann chan="nam_liv">0</ann>
   </tok>
   <ns/>
   <tok>
    <orth>!</orth>
    <lex disamb="1"><base>!</base><ctag>interp</ctag></lex>
    <ann chan="nam">0</ann>
    <ann chan="nam_liv_god">0</ann>
    <ann chan="nam_liv">0</ann>
   </tok>
  </sentence>
 </chunk>
 <chunk type="p" id="ch5">
  <sentence id="s5">
   <tok>
    <orth>Pewnie</orth>
    <lex disamb="1"><base>pewnie</base><ctag>adv:pos</ctag></lex>
   </tok>
   <tok>
    <orth>szybka</orth>
    <lex disamb="1"><base>szybka</base><ctag>subst:sg:nom:f</ctag></lex>
   </tok>
   <ns/>
   <tok>
    <orth>,</orth>
    <lex disamb="1"><base>,</base><ctag>interp</ctag></lex>
   </tok>
   <tok>
    <orth>co</orth>
    <lex disamb="1"><base>co</base><ctag>comp</ctag></lex>
   </tok>
   <ns/>
   <tok>
    <orth>?</orth>
    <lex disamb="1"><base>?</base><ctag>interp</ctag></lex>
   </tok>
  </sentence>
 </chunk>
 <chunk type="p" id="ch6">
  <sentence id="s6">
   <tok>
    <orth>-</orth>
    <lex disamb="1"><base>-</base><ctag>interp</ctag></lex>
   </tok>
   <tok>
    <orth>Widzisz</orth>
    <lex disamb="1"><base>widzieć</base><ctag>fin:sg:sec:imperf</ctag></lex>
   </tok>
   <tok>
    <orth>pan</orth>
    <lex disamb="1"><base>pan</base><ctag>subst:sg:nom:m1</ctag></lex>
   </tok>
   <tok>
    <orth>na</orth>
    <lex disamb="1"><base>na</base><ctag>prep:acc</ctag></lex>
   </tok>
   <tok>
    <orth>ten</orth>
    <lex disamb="1"><base>ten</base><ctag>adj:sg:nom:m1:pos</ctag></lex>
   </tok>
   <tok>
    <orth>zegar</orth>
    <lex disamb="1"><base>zegar</base><ctag>subst:sg:nom:m3</ctag></lex>
   </tok>
   <ns/>
   <tok>
    <orth>?</orth>
    <lex disamb="1"><base>?</base><ctag>interp</ctag></lex>
   </tok>
  </sentence>
 </chunk>
 <chunk type="p" id="ch7">
  <sentence id="s7">
   <tok>
    <orth>380</orth>
    <lex disamb="1"><base>380</base><ctag>num:pl:nom:m1:rec</ctag></lex>
   </tok>
   <tok>
    <orth>km</orth>
    <lex disamb="1"><base>km</base><ctag>subst:sg:nom:m3</ctag></lex>
   </tok>
   <ns/>
   <tok>
    <orth>/</orth>
    <lex disamb="1"><base>/</base><ctag>interp</ctag></lex>
   </tok>
   <ns/>
   <tok>
    <orth>h</orth>
    <lex disamb="1"><base>h</base><ctag>ign</ctag></lex>
   </tok>
   <tok>
    <orth>poleci</orth>
    <lex disamb="1"><base>polecie</base><ctag>subst:pl:gen:n</ctag></lex>
   </tok>
   <ns/>
   <tok>
    <orth>!</orth>
    <lex disamb="1"><base>!</base><ctag>interp</ctag></lex>
   </tok>
  </sentence>
 </chunk>
 <chunk type="p" id="ch8">
  <sentence id="s8">
   <tok>
    <orth>Zaciekawiony</orth>
    <lex disamb="1"><base>zaciekawić</base><ctag>ppas:sg:nom:m1:perf:aff</ctag></lex>
   </tok>
   <tok>
    <orth>chłop</orth>
    <lex disamb="1"><base>chłop</base><ctag>subst:sg:nom:m1</ctag></lex>
   </tok>
   <tok>
    <orth>ściągnął</orth>
    <lex disamb="1"><base>ściągnąć</base><ctag>praet:sg:m1:perf</ctag></lex>
   </tok>
   <tok>
    <orth>kapelusz</orth>
    <lex disamb="1"><base>kapelusz</base><ctag>subst:sg:nom:m3</ctag></lex>
   </tok>
   <tok>
    <orth>i</orth>
    <lex disamb="1"><base>i</base><ctag>conj</ctag></lex>
   </tok>
   <tok>
    <orth>zagląda</orth>
    <lex disamb="1"><base>zaglądać</base><ctag>fin:sg:ter:imperf</ctag></lex>
   </tok>
   <tok>
    <orth>do</orth>
    <lex disamb="1"><base>do</base><ctag>prep:gen</ctag></lex>
   </tok>
   <tok>
    <orth>szoferki</orth>
    <lex disamb="1"><base>szoferka</base><ctag>subst:sg:gen:f</ctag></lex>
   </tok>
   <ns/>
   <tok>
    <orth>:</orth>
    <lex disamb="1"><base>:</base><ctag>interp</ctag></lex>
   </tok>
   <tok>
    <orth>-</orth>
    <lex disamb="1"><base>-</base><ctag>interp</ctag></lex>
   </tok>
   <tok>
    <orth>Fiu</orth>
    <lex disamb="1"><base>fiu</base><ctag>interj</ctag></lex>
   </tok>
   <ns/>
   <tok>
    <orth>,</orth>
    <lex disamb="1"><base>,</base><ctag>interp</ctag></lex>
   </tok>
   <tok>
    <orth>fiu</orth>
    <lex disamb="1"><base>fiu</base><ctag>interj</ctag></lex>
   </tok>
   <ns/>
   <tok>
    <orth>!</orth>
    <lex disamb="1"><base>!</base><ctag>interp</ctag></lex>
   </tok>
  </sentence>
 </chunk>
 <chunk type="p" id="ch9">
  <sentence id="s9">
   <tok>
    <orth>Zegarów</orth>
    <lex disamb="1"><base>zegar</base><ctag>subst:pl:gen:m3</ctag></lex>
   </tok>
   <tok>
    <orth>tu</orth>
    <lex disamb="1"><base>tu</base><ctag>adv:pos</ctag></lex>
   </tok>
   <tok>
    <orth>jak</orth>
    <lex disamb="1"><base>jak</base><ctag>conj</ctag></lex>
   </tok>
   <tok>
    <orth>na</orth>
    <lex disamb="1"><base>na</base><ctag>prep:acc</ctag></lex>
   </tok>
   <tok>
    <orth>kombajnie</orth>
    <lex disamb="1"><base>kombajn</base><ctag>subst:sg:loc:m3</ctag></lex>
   </tok>
   <ns/>
   <tok>
    <orth>!</orth>
    <lex disamb="1"><base>!</base><ctag>interp</ctag></lex>
   </tok>
  </sentence>
 </chunk>
 <chunk type="p" id="ch10">
  <sentence id="s10">
   <tok>
    <orth>-</orth>
    <lex disamb="1"><base>-</base><ctag>interp</ctag></lex>
   </tok>
   <tok>
    <orth>Co</orth>
    <lex disamb="1"><base>co</base><ctag>comp</ctag></lex>
   </tok>
   <tok>
    <orth>tam</orth>
    <lex disamb="1"><base>tam</base><ctag>adv:pos</ctag></lex>
   </tok>
   <tok>
    <orth>kombajn</orth>
    <lex disamb="1"><base>kombajn</base><ctag>subst:sg:nom:m3</ctag></lex>
   </tok>
   <ns/>
   <tok>
    <orth>!</orth>
    <lex disamb="1"><base>!</base><ctag>interp</ctag></lex>
   </tok>
  </sentence>
 </chunk>
 <chunk type="p" id="ch11">
  <sentence id="s11">
   <tok>
    <orth>Popatrz</orth>
    <lex disamb="1"><base>popatrzeć</base><ctag>impt:sg:sec:perf</ctag></lex>
    <lex disamb="1"><base>popatrzyć</base><ctag>impt:sg:sec:perf</ctag></lex>
   </tok>
   <tok>
    <orth>pan</orth>
    <lex disamb="1"><base>pan</base><ctag>subst:sg:nom:m1</ctag></lex>
   </tok>
   <tok>
    <orth>jakie</orth>
    <lex disamb="1"><base>jaki</base><ctag>adj:sg:nom:n:pos</ctag></lex>
   </tok>
   <tok>
    <orth>ten</orth>
    <lex disamb="1"><base>ten</base><ctag>adj:sg:nom:m1:pos</ctag></lex>
   </tok>
   <tok>
    <orth>wóz</orth>
    <lex disamb="1"><base>wóz</base><ctag>subst:sg:nom:m3</ctag></lex>
   </tok>
   <tok>
    <orth>ma</orth>
    <lex disamb="1"><base>mój</base><ctag>adj:sg:nom:f:pos</ctag></lex>
   </tok>
   <tok>
    <orth>przyspieszenie</orth>
    <lex disamb="1"><base>przyspieszenie</base><ctag>subst:sg:nom:n</ctag></lex>
   </tok>
   <ns/>
   <tok>
    <orth>!</orth>
    <lex disamb="1"><base>!</base><ctag>interp</ctag></lex>
   </tok>
  </sentence>
 </chunk>
 <chunk type="p" id="ch12">
  <sentence id="s12">
   <tok>
    <orth>W</orth>
    <lex disamb="1"><base>w</base><ctag>prep:acc:nwok</ctag></lex>
   </tok>
   <tok>
    <orth>tym</orth>
    <lex disamb="1"><base>tym</base><ctag>conj</ctag></lex>
   </tok>
   <tok>
    <orth>momencie</orth>
    <lex disamb="1"><base>moment</base><ctag>subst:sg:loc:m3</ctag></lex>
   </tok>
   <tok>
    <orth>facet</orth>
    <lex disamb="1"><base>facet</base><ctag>subst:sg:nom:m1</ctag></lex>
   </tok>
   <tok>
    <orth>pognał</orth>
    <lex disamb="1"><base>pognać</base><ctag>praet:sg:m1:perf</ctag></lex>
   </tok>
   <tok>
    <orth>do</orth>
    <lex disamb="1"><base>do</base><ctag>prep:gen</ctag></lex>
   </tok>
   <tok>
    <orth>przodu</orth>
    <lex disamb="1"><base>przód</base><ctag>subst:sg:gen:m3</ctag></lex>
   </tok>
   <tok>
    <orth>paląc</orth>
    <lex disamb="1"><base>palić</base><ctag>pcon:imperf</ctag></lex>
   </tok>
   <tok>
    <orth>opony</orth>
    <lex disamb="1"><base>opona</base><ctag>subst:sg:gen:f</ctag></lex>
   </tok>
   <ns/>
   <tok>
    <orth>.</orth>
    <lex disamb="1"><base>.</base><ctag>interp</ctag></lex>
   </tok>
  </sentence>
 </chunk>
 <chunk type="p" id="ch13">
  <sentence id="s13">
   <tok>
    <orth>Na</orth>
    <lex disamb="1"><base>na</base><ctag>prep:acc</ctag></lex>
   </tok>
   <tok>
    <orth>liczniku</orth>
    <lex disamb="1"><base>licznik</base><ctag>subst:sg:loc:m3</ctag></lex>
   </tok>
   <tok>
    <orth>miga</orth>
    <lex disamb="1"><base>mig</base><ctag>subst:sg:gen:m2</ctag></lex>
   </tok>
   <tok>
    <orth>100</orth>
    <lex disamb="1"><base>100</base><ctag>num:pl:nom:m1:rec</ctag></lex>
   </tok>
   <ns/>
   <tok>
    <orth>,</orth>
    <lex disamb="1"><base>,</base><ctag>interp</ctag></lex>
   </tok>
   <tok>
    <orth>150</orth>
    <lex disamb="1"><base>150</base><ctag>num:pl:nom:m1:rec</ctag></lex>
   </tok>
   <ns/>
   <tok>
    <orth>,</orth>
    <lex disamb="1"><base>,</base><ctag>interp</ctag></lex>
   </tok>
   <tok>
    <orth>180</orth>
    <lex disamb="1"><base>180</base><ctag>num:pl:nom:m1:rec</ctag></lex>
   </tok>
   <ns/>
   <tok>
    <orth>,</orth>
    <lex disamb="1"><base>,</base><ctag>interp</ctag></lex>
   </tok>
   <tok>
    <orth>240</orth>
    <lex disamb="1"><base>240</base><ctag>num:pl:nom:m1:rec</ctag></lex>
   </tok>
   <ns/>
   <tok>
    <orth>,</orth>
    <lex disamb="1"><base>,</base><ctag>interp</ctag></lex>
   </tok>
   <tok>
    <orth>gościu</orth>
    <lex disamb="1"><base>gościa</base><ctag>subst:sg:voc:f</ctag></lex>
   </tok>
   <tok>
    <orth>zwolnił</orth>
    <lex disamb="1"><base>zwolnić</base><ctag>praet:sg:m1:perf</ctag></lex>
   </tok>
   <tok>
    <orth>do</orth>
    <lex disamb="1"><base>do</base><ctag>prep:gen</ctag></lex>
   </tok>
   <tok>
    <orth>200</orth>
    <lex disamb="1"><base>200</base><ctag>num:pl:nom:m1:rec</ctag></lex>
   </tok>
   <ns/>
   <tok>
    <orth>,</orth>
    <lex disamb="1"><base>,</base><ctag>interp</ctag></lex>
   </tok>
   <tok>
    <orth>patrzy</orth>
    <lex disamb="1"><base>pater</base><ctag>subst:pl:nom:m1</ctag></lex>
   </tok>
   <tok>
    <orth>w</orth>
    <lex disamb="1"><base>w</base><ctag>prep:acc:nwok</ctag></lex>
   </tok>
   <tok>
    <orth>lusterko</orth>
    <lex disamb="1"><base>lusterko</base><ctag>subst:sg:nom:n</ctag></lex>
   </tok>
   <ns/>
   <tok>
    <orth>,</orth>
    <lex disamb="1"><base>,</base><ctag>interp</ctag></lex>
   </tok>
   <tok>
    <orth>a</orth>
    <lex disamb="1"><base>a</base><ctag>conj</ctag></lex>
   </tok>
   <tok>
    <orth>za</orth>
    <lex disamb="1"><base>za</base><ctag>qub</ctag></lex>
   </tok>
   <tok>
    <orth>nim</orth>
    <lex disamb="1"><base>nim</base><ctag>comp</ctag></lex>
   </tok>
   <tok>
    <orth>pomyka</orth>
    <lex disamb="1"><base>pomyk</base><ctag>subst:sg:gen:m3</ctag></lex>
   </tok>
   <tok>
    <orth>jakiś</orth>
    <lex disamb="1"><base>jakiś</base><ctag>adj:sg:nom:m1:pos</ctag></lex>
   </tok>
   <tok>
    <orth>malutki</orth>
    <lex disamb="1"><base>malutki</base><ctag>adj:sg:nom:m1:pos</ctag></lex>
   </tok>
   <tok>
    <orth>punkcik</orth>
    <lex disamb="1"><base>punkcik</base><ctag>subst:sg:nom:m3</ctag></lex>
   </tok>
   <ns/>
   <tok>
    <orth>,</orth>
    <lex disamb="1"><base>,</base><ctag>interp</ctag></lex>
   </tok>
   <tok>
    <orth>z</orth>
    <lex disamb="1"><base>z</base><ctag>prep:gen:nwok</ctag></lex>
   </tok>
   <tok>
    <orth>każdą</orth>
    <lex disamb="1"><base>każdy</base><ctag>adj:sg:acc:f:pos</ctag></lex>
   </tok>
   <tok>
    <orth>chwilą</orth>
    <lex disamb="1"><base>chwila</base><ctag>subst:sg:inst:f</ctag></lex>
   </tok>
   <tok>
    <orth>coraz</orth>
    <lex disamb="1"><base>coraz</base><ctag>adv:pos</ctag></lex>
   </tok>
   <tok>
    <orth>większy</orth>
    <lex disamb="1"><base>duży</base><ctag>adj:sg:nom:m1:com</ctag></lex>
    <lex disamb="1"><base>wielki</base><ctag>adj:sg:nom:m1:com</ctag></lex>
   </tok>
   <ns/>
   <tok>
    <orth>.</orth>
    <lex disamb="1"><base>.</base><ctag>interp</ctag></lex>
   </tok>
  </sentence>
 </chunk>
 <chunk type="p" id="ch14">
  <sentence id="s14">
   <tok>
    <orth>Nagle</orth>
    <lex disamb="1"><base>nagle</base><ctag>adv:pos</ctag></lex>
    <ann chan="nam">0</ann>
    <ann chan="nam_org_company">0</ann>
    <ann chan="nam_loc">0</ann>
   </tok>
   <tok>
    <orth>coś</orth>
    <lex disamb="1"><base>coś</base><ctag>qub</ctag></lex>
    <ann chan="nam">0</ann>
    <ann chan="nam_org_company">0</ann>
    <ann chan="nam_loc">0</ann>
   </tok>
   <tok>
    <orth>ze</orth>
    <lex disamb="1"><base>z</base><ctag>prep:gen:wok</ctag></lex>
    <ann chan="nam">0</ann>
    <ann chan="nam_org_company">0</ann>
    <ann chan="nam_loc">0</ann>
   </tok>
   <tok>
    <orth>świstem</orth>
    <lex disamb="1"><base>świst</base><ctag>subst:sg:inst:m3</ctag></lex>
    <ann chan="nam">0</ann>
    <ann chan="nam_org_company">0</ann>
    <ann chan="nam_loc">0</ann>
   </tok>
   <tok>
    <orth>przeleciało</orth>
    <lex disamb="1"><base>przelecieć</base><ctag>praet:sg:n:perf</ctag></lex>
    <ann chan="nam">0</ann>
    <ann chan="nam_org_company">0</ann>
    <ann chan="nam_loc">0</ann>
   </tok>
   <tok>
    <orth>obok</orth>
    <lex disamb="1"><base>obok</base><ctag>adv:pos</ctag></lex>
    <ann chan="nam">0</ann>
    <ann chan="nam_org_company">0</ann>
    <ann chan="nam_loc">0</ann>
   </tok>
   <tok>
    <orth>Ferrari</orth>
    <lex disamb="1"><base>ferrari</base><ctag>subst:sg:nom:m2</ctag></lex>
    <ann chan="nam">1</ann>
    <ann chan="nam_org_company">1</ann>
    <ann chan="nam_loc">1</ann>
   </tok>
   <tok>
    <orth>i</orth>
    <lex disamb="1"><base>i</base><ctag>conj</ctag></lex>
    <ann chan="nam">0</ann>
    <ann chan="nam_org_company">0</ann>
    <ann chan="nam_loc">0</ann>
   </tok>
   <tok>
    <orth>zaczęło</orth>
    <lex disamb="1"><base>zacząć</base><ctag>praet:sg:n:perf</ctag></lex>
    <ann chan="nam">0</ann>
    <ann chan="nam_org_company">0</ann>
    <ann chan="nam_loc">0</ann>
   </tok>
   <tok>
    <orth>znikać</orth>
    <lex disamb="1"><base>znikać</base><ctag>inf:imperf</ctag></lex>
    <ann chan="nam">0</ann>
    <ann chan="nam_org_company">0</ann>
    <ann chan="nam_loc">0</ann>
   </tok>
   <tok>
    <orth>w</orth>
    <lex disamb="1"><base>w</base><ctag>prep:acc:nwok</ctag></lex>
    <ann chan="nam">0</ann>
    <ann chan="nam_org_company">0</ann>
    <ann chan="nam_loc">0</ann>
   </tok>
   <tok>
    <orth>perspektywie</orth>
    <lex disamb="1"><base>perspektywa</base><ctag>subst:sg:dat:f</ctag></lex>
    <ann chan="nam">0</ann>
    <ann chan="nam_org_company">0</ann>
    <ann chan="nam_loc">0</ann>
   </tok>
   <tok>
    <orth>drogi</orth>
    <lex disamb="1"><base>droga</base><ctag>subst:sg:gen:f</ctag></lex>
    <ann chan="nam">0</ann>
    <ann chan="nam_org_company">0</ann>
    <ann chan="nam_loc">0</ann>
   </tok>
   <ns/>
   <tok>
    <orth>.</orth>
    <lex disamb="1"><base>.</base><ctag>interp</ctag></lex>
    <ann chan="nam">0</ann>
    <ann chan="nam_org_company">0</ann>
    <ann chan="nam_loc">0</ann>
   </tok>
  </sentence>
 </chunk>
 <chunk type="p" id="ch15">
  <sentence id="s15">
   <tok>
    <orth>Facet</orth>
    <lex disamb="1"><base>facet</base><ctag>subst:sg:nom:m1</ctag></lex>
   </tok>
   <tok>
    <orth>nie</orth>
    <lex disamb="1"><base>nie</base><ctag>conj</ctag></lex>
   </tok>
   <tok>
    <orth>namyślając</orth>
    <lex disamb="1"><base>namyślać</base><ctag>pcon:imperf</ctag></lex>
   </tok>
   <tok>
    <orth>się</orth>
    <lex disamb="1"><base>się</base><ctag>qub</ctag></lex>
   </tok>
   <tok>
    <orth>wiele</orth>
    <lex disamb="1"><base>wiele</base><ctag>adv:pos</ctag></lex>
   </tok>
   <ns/>
   <tok>
    <orth>,</orth>
    <lex disamb="1"><base>,</base><ctag>interp</ctag></lex>
   </tok>
   <tok>
    <orth>wdepnął</orth>
    <lex disamb="1"><base>wdepnąć</base><ctag>praet:sg:m1:perf</ctag></lex>
   </tok>
   <tok>
    <orth>gaz</orth>
    <lex disamb="1"><base>gaz</base><ctag>subst:sg:nom:m3</ctag></lex>
   </tok>
   <tok>
    <orth>do</orth>
    <lex disamb="1"><base>do</base><ctag>prep:gen</ctag></lex>
   </tok>
   <tok>
    <orth>dechy</orth>
    <lex disamb="1"><base>decha</base><ctag>subst:sg:gen:f</ctag></lex>
   </tok>
   <tok>
    <orth>i</orth>
    <lex disamb="1"><base>i</base><ctag>conj</ctag></lex>
   </tok>
   <tok>
    <orth>leci</orth>
    <lex disamb="1"><base>lecieć</base><ctag>fin:sg:ter:imperf</ctag></lex>
   </tok>
   <tok>
    <orth>220</orth>
    <lex disamb="1"><base>220</base><ctag>num:pl:nom:m1:rec</ctag></lex>
   </tok>
   <ns/>
   <tok>
    <orth>,</orth>
    <lex disamb="1"><base>,</base><ctag>interp</ctag></lex>
   </tok>
   <tok>
    <orth>240</orth>
    <lex disamb="1"><base>240</base><ctag>num:pl:nom:m1:rec</ctag></lex>
   </tok>
   <ns/>
   <tok>
    <orth>,</orth>
    <lex disamb="1"><base>,</base><ctag>interp</ctag></lex>
   </tok>
   <tok>
    <orth>280</orth>
    <lex disamb="1"><base>280</base><ctag>num:pl:nom:m1:rec</ctag></lex>
   </tok>
   <ns/>
   <tok>
    <orth>,</orth>
    <lex disamb="1"><base>,</base><ctag>interp</ctag></lex>
   </tok>
   <tok>
    <orth>320</orth>
    <lex disamb="1"><base>320</base><ctag>num:pl:nom:m1:rec</ctag></lex>
   </tok>
   <ns/>
   <tok>
    <orth>,</orth>
    <lex disamb="1"><base>,</base><ctag>interp</ctag></lex>
   </tok>
   <tok>
    <orth>aż</orth>
    <lex disamb="1"><base>aż</base><ctag>comp</ctag></lex>
   </tok>
   <tok>
    <orth>wyprzedził</orth>
    <lex disamb="1"><base>wyprzedzić</base><ctag>praet:sg:m1:perf</ctag></lex>
   </tok>
   <tok>
    <orth>znikający</orth>
    <lex disamb="1"><base>znikać</base><ctag>pact:sg:nom:m1:imperf:aff</ctag></lex>
   </tok>
   <tok>
    <orth>punkt</orth>
    <lex disamb="1"><base>punkt</base><ctag>subst:sg:nom:m3</ctag></lex>
   </tok>
   <ns/>
   <tok>
    <orth>.</orth>
    <lex disamb="1"><base>.</base><ctag>interp</ctag></lex>
   </tok>
  </sentence>
 </chunk>
 <chunk type="p" id="ch16">
  <sentence id="s16">
   <tok>
    <orth>Znów</orth>
    <lex disamb="1"><base>znów</base><ctag>qub</ctag></lex>
   </tok>
   <tok>
    <orth>zwolnił</orth>
    <lex disamb="1"><base>zwolnić</base><ctag>praet:sg:m1:perf</ctag></lex>
   </tok>
   <tok>
    <orth>do</orth>
    <lex disamb="1"><base>do</base><ctag>prep:gen</ctag></lex>
   </tok>
   <tok>
    <orth>200</orth>
    <lex disamb="1"><base>200</base><ctag>num:pl:nom:m1:rec</ctag></lex>
   </tok>
   <tok>
    <orth>i</orth>
    <lex disamb="1"><base>i</base><ctag>conj</ctag></lex>
   </tok>
   <tok>
    <orth>z</orth>
    <lex disamb="1"><base>z</base><ctag>prep:gen:nwok</ctag></lex>
   </tok>
   <tok>
    <orth>niepokojem</orth>
    <lex disamb="1"><base>niepokój</base><ctag>subst:sg:inst:m3</ctag></lex>
   </tok>
   <tok>
    <orth>zerka</orth>
    <lex disamb="1"><base>zerkać</base><ctag>fin:sg:ter:imperf</ctag></lex>
   </tok>
   <tok>
    <orth>w</orth>
    <lex disamb="1"><base>w</base><ctag>prep:acc:nwok</ctag></lex>
   </tok>
   <tok>
    <orth>lusterko</orth>
    <lex disamb="1"><base>lusterko</base><ctag>subst:sg:nom:n</ctag></lex>
   </tok>
   <tok>
    <orth>i</orth>
    <lex disamb="1"><base>i</base><ctag>conj</ctag></lex>
   </tok>
   <tok>
    <orth>znowu</orth>
    <lex disamb="1"><base>znowu</base><ctag>qub</ctag></lex>
   </tok>
   <tok>
    <orth>widzi</orth>
    <lex disamb="1"><base>widzieć</base><ctag>fin:sg:ter:imperf</ctag></lex>
   </tok>
   <tok>
    <orth>malutki</orth>
    <lex disamb="1"><base>malutki</base><ctag>adj:sg:nom:m1:pos</ctag></lex>
   </tok>
   <tok>
    <orth>punkcik</orth>
    <lex disamb="1"><base>punkcik</base><ctag>subst:sg:nom:m3</ctag></lex>
   </tok>
   <tok>
    <orth>zbliżający</orth>
    <lex disamb="1"><base>zbliżać</base><ctag>pact:sg:nom:m1:imperf:aff</ctag></lex>
   </tok>
   <tok>
    <orth>się</orth>
    <lex disamb="1"><base>się</base><ctag>qub</ctag></lex>
   </tok>
   <tok>
    <orth>błyskawicznie</orth>
    <lex disamb="1"><base>błyskawicznie</base><ctag>adv:pos</ctag></lex>
   </tok>
   <ns/>
   <tok>
    <orth>.</orth>
    <lex disamb="1"><base>.</base><ctag>interp</ctag></lex>
   </tok>
  </sentence>
 </chunk>
 <chunk type="p" id="ch17">
  <sentence id="s17">
   <tok>
    <orth>Facet</orth>
    <lex disamb="1"><base>facet</base><ctag>subst:sg:nom:m1</ctag></lex>
   </tok>
   <tok>
    <orth>zaciekawiony</orth>
    <lex disamb="1"><base>zaciekawić</base><ctag>ppas:sg:nom:m1:perf:aff</ctag></lex>
   </tok>
   <tok>
    <orth>zatrzymał</orth>
    <lex disamb="1"><base>zatrzymać</base><ctag>praet:sg:m1:perf</ctag></lex>
   </tok>
   <tok>
    <orth>się</orth>
    <lex disamb="1"><base>się</base><ctag>qub</ctag></lex>
   </tok>
   <tok>
    <orth>na</orth>
    <lex disamb="1"><base>na</base><ctag>prep:acc</ctag></lex>
   </tok>
   <tok>
    <orth>poboczu</orth>
    <lex disamb="1"><base>pobocze</base><ctag>subst:sg:dat:n</ctag></lex>
   </tok>
   <tok>
    <orth>i</orth>
    <lex disamb="1"><base>i</base><ctag>conj</ctag></lex>
   </tok>
   <tok>
    <orth>czeka</orth>
    <lex disamb="1"><base>czekać</base><ctag>fin:sg:ter:imperf</ctag></lex>
   </tok>
   <ns/>
   <tok>
    <orth>.</orth>
    <lex disamb="1"><base>.</base><ctag>interp</ctag></lex>
   </tok>
  </sentence>
 </chunk>
 <chunk type="p" id="ch18">
  <sentence id="s18">
   <tok>
    <orth>Coś</orth>
    <lex disamb="1"><base>coś</base><ctag>qub</ctag></lex>
   </tok>
   <tok>
    <orth>przeleciało</orth>
    <lex disamb="1"><base>przelecieć</base><ctag>praet:sg:n:perf</ctag></lex>
   </tok>
   <tok>
    <orth>obok</orth>
    <lex disamb="1"><base>obok</base><ctag>adv:pos</ctag></lex>
   </tok>
   <tok>
    <orth>tak</orth>
    <lex disamb="1"><base>tak</base><ctag>adv:pos</ctag></lex>
   </tok>
   <tok>
    <orth>szybko</orth>
    <lex disamb="1"><base>szybko</base><ctag>adv:pos</ctag></lex>
   </tok>
   <ns/>
   <tok>
    <orth>,</orth>
    <lex disamb="1"><base>,</base><ctag>interp</ctag></lex>
   </tok>
   <tok>
    <orth>że</orth>
    <lex disamb="1"><base>że</base><ctag>comp</ctag></lex>
   </tok>
   <tok>
    <orth>zobaczył</orth>
    <lex disamb="1"><base>zobaczyć</base><ctag>praet:sg:m1:perf</ctag></lex>
   </tok>
   <tok>
    <orth>tylko</orth>
    <lex disamb="1"><base>tylko</base><ctag>conj</ctag></lex>
   </tok>
   <tok>
    <orth>samą</orth>
    <lex disamb="1"><base>sam</base><ctag>adj:sg:acc:f:pos</ctag></lex>
   </tok>
   <tok>
    <orth>smugę</orth>
    <lex disamb="1"><base>smuga</base><ctag>subst:sg:acc:f</ctag></lex>
   </tok>
   <ns/>
   <tok>
    <orth>,</orth>
    <lex disamb="1"><base>,</base><ctag>interp</ctag></lex>
   </tok>
   <tok>
    <orth>a</orth>
    <lex disamb="1"><base>a</base><ctag>conj</ctag></lex>
   </tok>
   <tok>
    <orth>kiedy</orth>
    <lex disamb="1"><base>kiedy</base><ctag>comp</ctag></lex>
   </tok>
   <tok>
    <orth>zmieniło</orth>
    <lex disamb="1"><base>zmienić</base><ctag>praet:sg:n:perf</ctag></lex>
   </tok>
   <tok>
    <orth>się</orth>
    <lex disamb="1"><base>się</base><ctag>qub</ctag></lex>
   </tok>
   <tok>
    <orth>w</orth>
    <lex disamb="1"><base>w</base><ctag>prep:acc:nwok</ctag></lex>
   </tok>
   <tok>
    <orth>odległy</orth>
    <lex disamb="1"><base>odległy</base><ctag>adj:sg:nom:m1:pos</ctag></lex>
   </tok>
   <tok>
    <orth>punkcik</orth>
    <lex disamb="1"><base>punkcik</base><ctag>subst:sg:nom:m3</ctag></lex>
   </tok>
   <tok>
    <orth>zaczęło</orth>
    <lex disamb="1"><base>zacząć</base><ctag>praet:sg:n:perf</ctag></lex>
   </tok>
   <tok>
    <orth>wracać</orth>
    <lex disamb="1"><base>wracać</base><ctag>inf:imperf</ctag></lex>
   </tok>
   <ns/>
   <tok>
    <orth>.</orth>
    <lex disamb="1"><base>.</base><ctag>interp</ctag></lex>
   </tok>
  </sentence>
 </chunk>
 <chunk type="p" id="ch19">
  <sentence id="s19">
   <tok>
    <orth>Znowu</orth>
    <lex disamb="1"><base>znowu</base><ctag>qub</ctag></lex>
    <ann chan="nam">0</ann>
    <ann chan="nam_org_company">0</ann>
    <ann chan="nam_pro">0</ann>
   </tok>
   <tok>
    <orth>przeleciało</orth>
    <lex disamb="1"><base>przelecieć</base><ctag>praet:sg:n:perf</ctag></lex>
    <ann chan="nam">0</ann>
    <ann chan="nam_org_company">0</ann>
    <ann chan="nam_pro">0</ann>
   </tok>
   <tok>
    <orth>obok</orth>
    <lex disamb="1"><base>obok</base><ctag>adv:pos</ctag></lex>
    <ann chan="nam">0</ann>
    <ann chan="nam_org_company">0</ann>
    <ann chan="nam_pro">0</ann>
   </tok>
   <ns/>
   <tok>
    <orth>,</orth>
    <lex disamb="1"><base>,</base><ctag>interp</ctag></lex>
    <ann chan="nam">0</ann>
    <ann chan="nam_org_company">0</ann>
    <ann chan="nam_pro">0</ann>
   </tok>
   <tok>
    <orth>a</orth>
    <lex disamb="1"><base>a</base><ctag>conj</ctag></lex>
    <ann chan="nam">0</ann>
    <ann chan="nam_org_company">0</ann>
    <ann chan="nam_pro">0</ann>
   </tok>
   <tok>
    <orth>po</orth>
    <lex disamb="1"><base>po</base><ctag>prep:acc</ctag></lex>
    <ann chan="nam">0</ann>
    <ann chan="nam_org_company">0</ann>
    <ann chan="nam_pro">0</ann>
   </tok>
   <tok>
    <orth>chwili</orth>
    <lex disamb="1"><base>chwila</base><ctag>subst:sg:gen:f</ctag></lex>
    <ann chan="nam">0</ann>
    <ann chan="nam_org_company">0</ann>
    <ann chan="nam_pro">0</ann>
   </tok>
   <tok>
    <orth>znowu</orth>
    <lex disamb="1"><base>znowu</base><ctag>qub</ctag></lex>
    <ann chan="nam">0</ann>
    <ann chan="nam_org_company">0</ann>
    <ann chan="nam_pro">0</ann>
   </tok>
   <tok>
    <orth>leciało</orth>
    <lex disamb="1"><base>lecieć</base><ctag>praet:sg:n:imperf</ctag></lex>
    <ann chan="nam">0</ann>
    <ann chan="nam_org_company">0</ann>
    <ann chan="nam_pro">0</ann>
   </tok>
   <tok>
    <orth>w</orth>
    <lex disamb="1"><base>w</base><ctag>prep:acc:nwok</ctag></lex>
    <ann chan="nam">0</ann>
    <ann chan="nam_org_company">0</ann>
    <ann chan="nam_pro">0</ann>
   </tok>
   <tok>
    <orth>stronę</orth>
    <lex disamb="1"><base>strona</base><ctag>subst:sg:acc:f</ctag></lex>
    <ann chan="nam">0</ann>
    <ann chan="nam_org_company">0</ann>
    <ann chan="nam_pro">0</ann>
   </tok>
   <tok>
    <orth>Ferrari</orth>
    <lex disamb="1"><base>ferrari</base><ctag>subst:sg:nom:m2</ctag></lex>
    <ann chan="nam">1</ann>
    <ann chan="nam_org_company">1</ann>
    <ann chan="nam_pro">1</ann>
   </tok>
   <ns/>
   <tok>
    <orth>,</orth>
    <lex disamb="1"><base>,</base><ctag>interp</ctag></lex>
    <ann chan="nam">0</ann>
    <ann chan="nam_org_company">0</ann>
    <ann chan="nam_pro">0</ann>
   </tok>
   <tok>
    <orth>aż</orth>
    <lex disamb="1"><base>aż</base><ctag>comp</ctag></lex>
    <ann chan="nam">0</ann>
    <ann chan="nam_org_company">0</ann>
    <ann chan="nam_pro">0</ann>
   </tok>
   <tok>
    <orth>wyrżnęło</orth>
    <lex disamb="1"><base>wyrżnąć</base><ctag>praet:sg:n:perf</ctag></lex>
    <ann chan="nam">0</ann>
    <ann chan="nam_org_company">0</ann>
    <ann chan="nam_pro">0</ann>
   </tok>
   <tok>
    <orth>z</orth>
    <lex disamb="1"><base>z</base><ctag>prep:gen:nwok</ctag></lex>
    <ann chan="nam">0</ann>
    <ann chan="nam_org_company">0</ann>
    <ann chan="nam_pro">0</ann>
   </tok>
   <tok>
    <orth>hukiem</orth>
    <lex disamb="1"><base>huk</base><ctag>subst:sg:inst:m3</ctag></lex>
    <ann chan="nam">0</ann>
    <ann chan="nam_org_company">0</ann>
    <ann chan="nam_pro">0</ann>
   </tok>
   <tok>
    <orth>w</orth>
    <lex disamb="1"><base>w</base><ctag>prep:acc:nwok</ctag></lex>
    <ann chan="nam">0</ann>
    <ann chan="nam_org_company">0</ann>
    <ann chan="nam_pro">0</ann>
   </tok>
   <tok>
    <orth>tylny</orth>
    <lex disamb="1"><base>tylny</base><ctag>adj:sg:nom:m1:pos</ctag></lex>
    <ann chan="nam">0</ann>
    <ann chan="nam_org_company">0</ann>
    <ann chan="nam_pro">0</ann>
   </tok>
   <tok>
    <orth>zderzak</orth>
    <lex disamb="1"><base>zderzak</base><ctag>subst:sg:nom:m3</ctag></lex>
    <ann chan="nam">0</ann>
    <ann chan="nam_org_company">0</ann>
    <ann chan="nam_pro">0</ann>
   </tok>
   <ns/>
   <tok>
    <orth>.</orth>
    <lex disamb="1"><base>.</base><ctag>interp</ctag></lex>
    <ann chan="nam">0</ann>
    <ann chan="nam_org_company">0</ann>
    <ann chan="nam_pro">0</ann>
   </tok>
  </sentence>
 </chunk>
 <chunk type="p" id="ch20">
  <sentence id="s20">
   <tok>
    <orth>Mężczyzna</orth>
    <lex disamb="1"><base>mężczyzna</base><ctag>subst:sg:nom:m1</ctag></lex>
   </tok>
   <tok>
    <orth>wyskoczył</orth>
    <lex disamb="1"><base>wyskoczyć</base><ctag>praet:sg:m1:perf</ctag></lex>
   </tok>
   <tok>
    <orth>z</orth>
    <lex disamb="1"><base>z</base><ctag>prep:gen:nwok</ctag></lex>
   </tok>
   <tok>
    <orth>wozu</orth>
    <lex disamb="1"><base>wóz</base><ctag>subst:sg:gen:m3</ctag></lex>
   </tok>
   <tok>
    <orth>i</orth>
    <lex disamb="1"><base>i</base><ctag>conj</ctag></lex>
   </tok>
   <tok>
    <orth>wkurwiony</orth>
    <lex disamb="1"><base>wkurwić</base><ctag>ppas:sg:nom:m1:perf:aff</ctag></lex>
   </tok>
   <tok>
    <orth>leci</orth>
    <lex disamb="1"><base>lecieć</base><ctag>fin:sg:ter:imperf</ctag></lex>
   </tok>
   <tok>
    <orth>oglądać</orth>
    <lex disamb="1"><base>oglądać</base><ctag>inf:imperf</ctag></lex>
   </tok>
   <tok>
    <orth>szkody</orth>
    <lex disamb="1"><base>szkoda</base><ctag>subst:sg:gen:f</ctag></lex>
   </tok>
   <ns/>
   <tok>
    <orth>.</orth>
    <lex disamb="1"><base>.</base><ctag>interp</ctag></lex>
   </tok>
  </sentence>
 </chunk>
 <chunk type="p" id="ch21">
  <sentence id="s21">
   <tok>
    <orth>Z</orth>
    <lex disamb="1"><base>z</base><ctag>prep:gen:nwok</ctag></lex>
   </tok>
   <tok>
    <orth>ziemi</orth>
    <lex disamb="1"><base>ziemia</base><ctag>subst:sg:gen:f</ctag></lex>
   </tok>
   <tok>
    <orth>podnosi</orth>
    <lex disamb="1"><base>podnosić</base><ctag>fin:sg:ter:imperf</ctag></lex>
   </tok>
   <tok>
    <orth>się</orth>
    <lex disamb="1"><base>się</base><ctag>qub</ctag></lex>
   </tok>
   <tok>
    <orth>mocno</orth>
    <lex disamb="1"><base>mocno</base><ctag>adv:pos</ctag></lex>
   </tok>
   <tok>
    <orth>potłuczony</orth>
    <lex disamb="1"><base>potłuc</base><ctag>ppas:sg:nom:m1:perf:aff</ctag></lex>
   </tok>
   <tok>
    <orth>chłop</orth>
    <lex disamb="1"><base>chłop</base><ctag>subst:sg:nom:m1</ctag></lex>
   </tok>
   <tok>
    <orth>z</orth>
    <lex disamb="1"><base>z</base><ctag>prep:gen:nwok</ctag></lex>
   </tok>
   <tok>
    <orth>uśmiechem</orth>
    <lex disamb="1"><base>uśmiech</base><ctag>subst:sg:inst:m3</ctag></lex>
   </tok>
   <tok>
    <orth>za</orth>
    <lex disamb="1"><base>za</base><ctag>qub</ctag></lex>
   </tok>
   <tok>
    <orth>uszami</orth>
    <lex disamb="1"><base>ucho</base><ctag>subst:pl:inst:n</ctag></lex>
   </tok>
   <tok>
    <orth>i</orth>
    <lex disamb="1"><base>i</base><ctag>conj</ctag></lex>
   </tok>
   <tok>
    <orth>obłędem</orth>
    <lex disamb="1"><base>obłęd</base><ctag>subst:sg:inst:m3</ctag></lex>
   </tok>
   <tok>
    <orth>w</orth>
    <lex disamb="1"><base>w</base><ctag>prep:acc:nwok</ctag></lex>
   </tok>
   <tok>
    <orth>oku</orth>
    <lex disamb="1"><base>oko</base><ctag>subst:sg:dat:n</ctag></lex>
   </tok>
   <ns/>
   <tok>
    <orth>.</orth>
    <lex disamb="1"><base>.</base><ctag>interp</ctag></lex>
   </tok>
  </sentence>
 </chunk>
 <chunk type="p" id="ch22">
  <sentence id="s22">
   <tok>
    <orth>Ten</orth>
    <lex disamb="1"><base>ten</base><ctag>adj:sg:nom:m1:pos</ctag></lex>
   </tok>
   <tok>
    <orth>sam</orth>
    <lex disamb="1"><base>sam</base><ctag>adv:pos</ctag></lex>
   </tok>
   <tok>
    <orth>którego</orth>
    <lex disamb="1"><base>który</base><ctag>adj:sg:gen:m1:pos</ctag></lex>
   </tok>
   <tok>
    <orth>spotkał</orth>
    <lex disamb="1"><base>spotkać</base><ctag>praet:sg:m1:perf</ctag></lex>
   </tok>
   <tok>
    <orth>na</orth>
    <lex disamb="1"><base>na</base><ctag>prep:acc</ctag></lex>
   </tok>
   <tok>
    <orth>przejeździe</orth>
    <lex disamb="1"><base>przejazd</base><ctag>subst:sg:loc:m3</ctag></lex>
   </tok>
   <tok>
    <orth>kolejowym</orth>
    <lex disamb="1"><base>kolejowy</base><ctag>adj:sg:inst:m1:pos</ctag></lex>
   </tok>
   <ns/>
   <tok>
    <orth>.</orth>
    <lex disamb="1"><base>.</base><ctag>interp</ctag></lex>
   </tok>
  </sentence>
 </chunk>
 <chunk type="p" id="ch23">
  <sentence id="s23">
   <tok>
    <orth>Kierowca</orth>
    <lex disamb="1"><base>kierowca</base><ctag>subst:sg:nom:m1</ctag></lex>
    <ann chan="nam">0</ann>
    <ann chan="nam_org">0</ann>
   </tok>
   <tok>
    <orth>Ferrari</orth>
    <lex disamb="1"><base>ferrari</base><ctag>subst:sg:nom:m2</ctag></lex>
    <ann chan="nam">1</ann>
    <ann chan="nam_org">1</ann>
   </tok>
   <tok>
    <orth>mocno</orth>
    <lex disamb="1"><base>mocno</base><ctag>adv:pos</ctag></lex>
    <ann chan="nam">0</ann>
    <ann chan="nam_org">0</ann>
   </tok>
   <tok>
    <orth>wystraszony</orth>
    <lex disamb="1"><base>wystraszyć</base><ctag>ppas:sg:nom:m1:perf:aff</ctag></lex>
    <ann chan="nam">0</ann>
    <ann chan="nam_org">0</ann>
   </tok>
   <ns/>
   <tok>
    <orth>,</orth>
    <lex disamb="1"><base>,</base><ctag>interp</ctag></lex>
    <ann chan="nam">0</ann>
    <ann chan="nam_org">0</ann>
   </tok>
   <tok>
    <orth>dotykając</orth>
    <lex disamb="1"><base>dotykać</base><ctag>pcon:imperf</ctag></lex>
    <ann chan="nam">0</ann>
    <ann chan="nam_org">0</ann>
   </tok>
   <tok>
    <orth>chłopa</orth>
    <lex disamb="1"><base>chłop</base><ctag>subst:sg:gen:m1</ctag></lex>
    <ann chan="nam">0</ann>
    <ann chan="nam_org">0</ann>
   </tok>
   <tok>
    <orth>po</orth>
    <lex disamb="1"><base>po</base><ctag>prep:acc</ctag></lex>
    <ann chan="nam">0</ann>
    <ann chan="nam_org">0</ann>
   </tok>
   <tok>
    <orth>ramionach</orth>
    <lex disamb="1"><base>ramię</base><ctag>subst:pl:loc:n</ctag></lex>
    <ann chan="nam">0</ann>
    <ann chan="nam_org">0</ann>
   </tok>
   <ns/>
   <tok>
    <orth>,</orth>
    <lex disamb="1"><base>,</base><ctag>interp</ctag></lex>
    <ann chan="nam">0</ann>
    <ann chan="nam_org">0</ann>
   </tok>
   <tok>
    <orth>pyta</orth>
    <lex disamb="1"><base>pyta</base><ctag>subst:sg:nom:f</ctag></lex>
    <ann chan="nam">0</ann>
    <ann chan="nam_org">0</ann>
   </tok>
   <ns/>
   <tok>
    <orth>:</orth>
    <lex disamb="1"><base>:</base><ctag>interp</ctag></lex>
    <ann chan="nam">0</ann>
    <ann chan="nam_org">0</ann>
   </tok>
   <tok>
    <orth>-</orth>
    <lex disamb="1"><base>-</base><ctag>interp</ctag></lex>
    <ann chan="nam">0</ann>
    <ann chan="nam_org">0</ann>
   </tok>
   <tok>
    <orth>Nic</orth>
    <lex disamb="1"><base>nic</base><ctag>subst:sg:nom:n</ctag></lex>
    <ann chan="nam">0</ann>
    <ann chan="nam_org">0</ann>
   </tok>
   <tok>
    <orth>się</orth>
    <lex disamb="1"><base>się</base><ctag>qub</ctag></lex>
    <ann chan="nam">0</ann>
    <ann chan="nam_org">0</ann>
   </tok>
   <tok>
    <orth>panu</orth>
    <lex disamb="1"><base>pan</base><ctag>subst:sg:dat:m1</ctag></lex>
    <ann chan="nam">0</ann>
    <ann chan="nam_org">0</ann>
   </tok>
   <tok>
    <orth>nie</orth>
    <lex disamb="1"><base>nie</base><ctag>conj</ctag></lex>
    <ann chan="nam">0</ann>
    <ann chan="nam_org">0</ann>
   </tok>
   <tok>
    <orth>stało</orth>
    <lex disamb="1"><base>stać</base><ctag>praet:sg:n:imperf</ctag></lex>
    <ann chan="nam">0</ann>
    <ann chan="nam_org">0</ann>
   </tok>
   <ns/>
   <tok>
    <orth>?</orth>
    <lex disamb="1"><base>?</base><ctag>interp</ctag></lex>
    <ann chan="nam">0</ann>
    <ann chan="nam_org">0</ann>
   </tok>
  </sentence>
 </chunk>
 <chunk type="p" id="ch24">
  <sentence id="s24">
   <tok>
    <orth>Może</orth>
    <lex disamb="1"><base>może</base><ctag>qub</ctag></lex>
   </tok>
   <tok>
    <orth>w</orth>
    <lex disamb="1"><base>w</base><ctag>prep:acc:nwok</ctag></lex>
   </tok>
   <tok>
    <orth>czymś</orth>
    <lex disamb="1"><base>coś</base><ctag>subst:sg:inst:n</ctag></lex>
   </tok>
   <tok>
    <orth>pomóc</orth>
    <lex disamb="1"><base>pomóc</base><ctag>inf:perf</ctag></lex>
   </tok>
   <ns/>
   <tok>
    <orth>?</orth>
    <lex disamb="1"><base>?</base><ctag>interp</ctag></lex>
   </tok>
  </sentence>
 </chunk>
 <chunk type="p" id="ch25">
  <sentence id="s25">
   <tok>
    <orth>Wezwę</orth>
    <lex disamb="1"><base>wezwa</base><ctag>subst:sg:acc:f</ctag></lex>
   </tok>
   <tok>
    <orth>pogotowie</orth>
    <lex disamb="1"><base>pogotowie</base><ctag>subst:sg:nom:n</ctag></lex>
   </tok>
   <ns/>
   <tok>
    <orth>!</orth>
    <lex disamb="1"><base>!</base><ctag>interp</ctag></lex>
   </tok>
  </sentence>
 </chunk>
 <chunk type="p" id="ch26">
  <sentence id="s26">
   <tok>
    <orth>-</orth>
    <lex disamb="1"><base>-</base><ctag>interp</ctag></lex>
   </tok>
   <tok>
    <orth>Nie</orth>
    <lex disamb="1"><base>nie</base><ctag>conj</ctag></lex>
   </tok>
   <ns/>
   <tok>
    <orth>,</orth>
    <lex disamb="1"><base>,</base><ctag>interp</ctag></lex>
   </tok>
   <tok>
    <orth>nie</orth>
    <lex disamb="1"><base>nie</base><ctag>conj</ctag></lex>
   </tok>
   <tok>
    <orth>trzeba</orth>
    <lex disamb="1"><base>trzeba</base><ctag>pred</ctag></lex>
   </tok>
   <ns/>
   <tok>
    <orth>.</orth>
    <lex disamb="1"><base>.</base><ctag>interp</ctag></lex>
   </tok>
  </sentence>
 </chunk>
 <chunk type="p" id="ch27">
  <sentence id="s27">
   <tok>
    <orth>Tylko</orth>
    <lex disamb="1"><base>tylko</base><ctag>conj</ctag></lex>
   </tok>
   <tok>
    <orth>szelki</orth>
    <lex disamb="1"><base>szelka</base><ctag>subst:sg:gen:f</ctag></lex>
   </tok>
   <tok>
    <orth>by</orth>
    <lex disamb="1"><base>by</base><ctag>comp</ctag></lex>
   </tok>
   <ns/>
   <tok>
    <orth>ś</orth>
    <lex disamb="1"><base>być</base><ctag>aglt:sg:sec:imperf:nwok</ctag></lex>
   </tok>
   <tok>
    <orth>mi</orth>
    <lex disamb="1"><base>mi</base><ctag>subst:sg:nom:n</ctag></lex>
   </tok>
   <tok>
    <orth>pan</orth>
    <lex disamb="1"><base>pan</base><ctag>subst:sg:nom:m1</ctag></lex>
   </tok>
   <tok>
    <orth>zdjął</orth>
    <lex disamb="1"><base>zdjąć</base><ctag>praet:sg:m1:perf</ctag></lex>
   </tok>
   <tok>
    <orth>ze</orth>
    <lex disamb="1"><base>z</base><ctag>prep:gen:wok</ctag></lex>
   </tok>
   <tok>
    <orth>swojego</orth>
    <lex disamb="1"><base>swoje</base><ctag>subst:sg:gen:n</ctag></lex>
   </tok>
   <tok>
    <orth>lusterka</orth>
    <lex disamb="1"><base>lusterko</base><ctag>subst:sg:gen:n</ctag></lex>
   </tok>
   <ns/>
   <tok>
    <orth>,</orth>
    <lex disamb="1"><base>,</base><ctag>interp</ctag></lex>
   </tok>
   <tok>
    <orth>dobrze</orth>
    <lex disamb="1"><base>dobrze</base><ctag>adv:pos</ctag></lex>
   </tok>
   <ns/>
   <tok>
    <orth>?</orth>
    <lex disamb="1"><base>?</base><ctag>interp</ctag></lex>
   </tok>
  </sentence>
 </chunk>
 <chunk type="p" id="ch28">
  <sentence id="s28">
   <tok>
    <orth>#</orth>
    <lex disamb="1"><base>#</base><ctag>interp</ctag></lex>
   </tok>
   <ns/>
   <tok>
    <orth>suchar</orth>
    <lex disamb="1"><base>suchar</base><ctag>subst:sg:nom:m1</ctag></lex>
   </tok>
   <tok>
    <orth>#</orth>
    <lex disamb="1"><base>#</base><ctag>interp</ctag></lex>
   </tok>
   <ns/>
   <tok>
    <orth>100dnisucharow</orth>
    <lex disamb="1"><base>100dnisucharow</base><ctag>ign</ctag></lex>
   </tok>
  </sentence>
 </chunk>
</chunkList>