<?xml version="1.0" encoding="UTF-8"?>
<!DOCTYPE chunkList SYSTEM "ccl.dtd">
<chunkList>
 <chunk type="p" id="ch1">
  <sentence id="s1">
   <tok>
    <orth>Rozpoczynam</orth>
    <lex disamb="1"><base>rozpoczynać</base><ctag>fin:sg:pri:imperf</ctag></lex>
   </tok>
   <tok>
    <orth>nowy</orth>
    <lex disamb="1"><base>nowy</base><ctag>subst:sg:nom:m1</ctag></lex>
   </tok>
   <tok>
    <orth>cykl</orth>
    <lex disamb="1"><base>cykl</base><ctag>subst:sg:nom:m3</ctag></lex>
   </tok>
   <tok>
    <orth>na</orth>
    <lex disamb="1"><base>na</base><ctag>prep:acc</ctag></lex>
   </tok>
   <tok>
    <orth>tagu</orth>
    <lex disamb="1"><base>tag</base><ctag>subst:sg:gen:m3</ctag></lex>
   </tok>
   <tok>
    <orth>#</orth>
    <lex disamb="1"><base>#</base><ctag>interp</ctag></lex>
   </tok>
   <ns/>
   <tok>
    <orth>tinder</orth>
    <lex disamb="1"><base>tinder</base><ctag>ign</ctag></lex>
   </tok>
   <ns/>
   <tok>
    <orth>,</orth>
    <lex disamb="1"><base>,</base><ctag>interp</ctag></lex>
   </tok>
   <tok>
    <orth>mianowicie</orth>
    <lex disamb="1"><base>mianowicie</base><ctag>conj</ctag></lex>
   </tok>
   <tok>
    <orth>#</orth>
    <lex disamb="1"><base>#</base><ctag>interp</ctag></lex>
   </tok>
   <ns/>
   <tok>
    <orth>chadstories</orth>
    <lex disamb="1"><base>chadstories</base><ctag>ign</ctag></lex>
   </tok>
   <tok>
    <orth>.</orth>
    <lex disamb="1"><base>.</base><ctag>interp</ctag></lex>
   </tok>
  </sentence>
 </chunk>
 <chunk type="p" id="ch2">
  <sentence id="s2">
   <tok>
    <orth>Będę</orth>
    <lex disamb="1"><base>być</base><ctag>bedzie:sg:pri:imperf</ctag></lex>
   </tok>
   <tok>
    <orth>publikował</orth>
    <lex disamb="1"><base>publikować</base><ctag>praet:sg:m1:imperf</ctag></lex>
   </tok>
   <tok>
    <orth>najciekawsze</orth>
    <lex disamb="1"><base>ciekawy</base><ctag>adj:sg:nom:n:sup</ctag></lex>
   </tok>
   <tok>
    <orth>rozmowy</orth>
    <lex disamb="1"><base>rozmowa</base><ctag>subst:sg:gen:f</ctag></lex>
   </tok>
   <ns/>
   <tok>
    <orth>,</orth>
    <lex disamb="1"><base>,</base><ctag>interp</ctag></lex>
   </tok>
   <tok>
    <orth>które</orth>
    <lex disamb="1"><base>który</base><ctag>adj:sg:nom:n:pos</ctag></lex>
   </tok>
   <tok>
    <orth>pokazują</orth>
    <lex disamb="1"><base>pokazować</base><ctag>fin:pl:ter:imperf</ctag></lex>
    <lex disamb="1"><base>pokazywać</base><ctag>fin:pl:ter:imperf</ctag></lex>
   </tok>
   <tok>
    <orth>najciemniejsze</orth>
    <lex disamb="1"><base>ciemny</base><ctag>adj:sg:nom:n:sup</ctag></lex>
   </tok>
   <tok>
    <orth>oblicza</orth>
    <lex disamb="1"><base>oblicze</base><ctag>subst:sg:gen:n</ctag></lex>
   </tok>
   <tok>
    <orth>waszych</orth>
    <lex disamb="1"><base>wasi</base><ctag>subst:pl:gen:m1</ctag></lex>
   </tok>
   <tok>
    <orth>#</orth>
    <lex disamb="1"><base>#</base><ctag>interp</ctag></lex>
   </tok>
   <ns/>
   <tok>
    <orth>p0lka</orth>
    <lex disamb="1"><base>p0lka</base><ctag>ign</ctag></lex>
   </tok>
  </sentence>
 </chunk>
</chunkList>