<?xml version="1.0" encoding="UTF-8"?>
<!DOCTYPE chunkList SYSTEM "ccl.dtd">
<chunkList>
 <chunk type="p" id="ch1">
  <sentence id="s1">
   <tok>
    <orth>DZIEŃ</orth>
    <lex disamb="1"><base>dzienia</base><ctag>subst:pl:gen:f</ctag></lex>
   </tok>
   <tok>
    <orth>91</orth>
    <lex disamb="1"><base>91</base><ctag>num:pl:nom:m1:rec</ctag></lex>
   </tok>
   <ns/>
   <tok>
    <orth>/</orth>
    <lex disamb="1"><base>/</base><ctag>interp</ctag></lex>
   </tok>
   <ns/>
   <tok>
    <orth>100</orth>
    <lex disamb="1"><base>100</base><ctag>num:pl:nom:m1:rec</ctag></lex>
   </tok>
  </sentence>
 </chunk>
 <chunk type="p" id="ch2">
  <sentence id="s2">
   <tok>
    <orth>Budzi</orth>
    <lex disamb="1"><base>budzić</base><ctag>fin:sg:ter:imperf</ctag></lex>
   </tok>
   <tok>
    <orth>się</orth>
    <lex disamb="1"><base>się</base><ctag>qub</ctag></lex>
   </tok>
   <tok>
    <orth>facet</orth>
    <lex disamb="1"><base>facet</base><ctag>subst:sg:nom:m1</ctag></lex>
   </tok>
   <tok>
    <orth>na</orth>
    <lex disamb="1"><base>na</base><ctag>prep:acc</ctag></lex>
   </tok>
   <tok>
    <orth>tylnym</orth>
    <lex disamb="1"><base>tylny</base><ctag>adj:sg:inst:m1:pos</ctag></lex>
   </tok>
   <tok>
    <orth>siedzeniu</orth>
    <lex disamb="1"><base>siedzenie</base><ctag>subst:sg:dat:n</ctag></lex>
   </tok>
   <tok>
    <orth>jadącego</orth>
    <lex disamb="1"><base>jechać</base><ctag>pact:sg:gen:m1:imperf:aff</ctag></lex>
   </tok>
   <tok>
    <orth>samochodu</orth>
    <lex disamb="1"><base>samochód</base><ctag>subst:sg:gen:m3</ctag></lex>
   </tok>
   <ns/>
   <tok>
    <orth>.</orth>
    <lex disamb="1"><base>.</base><ctag>interp</ctag></lex>
   </tok>
  </sentence>
 </chunk>
 <chunk type="p" id="ch3">
  <sentence id="s3">
   <tok>
    <orth>Spogląda</orth>
    <lex disamb="1"><base>spoglądać</base><ctag>fin:sg:ter:imperf</ctag></lex>
   </tok>
   <tok>
    <orth>na</orth>
    <lex disamb="1"><base>na</base><ctag>prep:acc</ctag></lex>
   </tok>
   <tok>
    <orth>siedzenie</orth>
    <lex disamb="1"><base>siedzenie</base><ctag>subst:sg:nom:n</ctag></lex>
   </tok>
   <tok>
    <orth>kierowcy</orth>
    <lex disamb="1"><base>kierowca</base><ctag>subst:sg:gen:m1</ctag></lex>
   </tok>
   <ns/>
   <tok>
    <orth>,</orth>
    <lex disamb="1"><base>,</base><ctag>interp</ctag></lex>
   </tok>
   <tok>
    <orth>a</orth>
    <lex disamb="1"><base>a</base><ctag>conj</ctag></lex>
   </tok>
   <tok>
    <orth>tam</orth>
    <lex disamb="1"><base>tam</base><ctag>adv:pos</ctag></lex>
   </tok>
   <tok>
    <orth>wielki</orth>
    <lex disamb="1"><base>wielki</base><ctag>subst:sg:nom:m1</ctag></lex>
   </tok>
   <ns/>
   <tok>
    <orth>,</orth>
    <lex disamb="1"><base>,</base><ctag>interp</ctag></lex>
   </tok>
   <tok>
    <orth>napakowany</orth>
    <lex disamb="1"><base>napakować</base><ctag>ppas:sg:nom:m1:perf:aff</ctag></lex>
   </tok>
   <tok>
    <orth>typ</orth>
    <lex disamb="1"><base>typ</base><ctag>subst:sg:nom:m1</ctag></lex>
   </tok>
   <tok>
    <orth>z</orth>
    <lex disamb="1"><base>z</base><ctag>prep:gen:nwok</ctag></lex>
   </tok>
   <tok>
    <orth>czerwoną</orth>
    <lex disamb="1"><base>czerwona</base><ctag>subst:sg:acc:f</ctag></lex>
   </tok>
   <tok>
    <orth>skórą</orth>
    <lex disamb="1"><base>skóra</base><ctag>subst:sg:inst:f</ctag></lex>
   </tok>
   <tok>
    <orth>i</orth>
    <lex disamb="1"><base>i</base><ctag>conj</ctag></lex>
   </tok>
   <tok>
    <orth>rogami</orth>
    <lex disamb="1"><base>róg</base><ctag>subst:pl:inst:m3</ctag></lex>
   </tok>
   <tok>
    <orth>na</orth>
    <lex disamb="1"><base>na</base><ctag>prep:acc</ctag></lex>
   </tok>
   <tok>
    <orth>głowie</orth>
    <lex disamb="1"><base>głowa</base><ctag>subst:sg:dat:f</ctag></lex>
   </tok>
   <ns/>
   <tok>
    <orth>.</orth>
    <lex disamb="1"><base>.</base><ctag>interp</ctag></lex>
   </tok>
  </sentence>
 </chunk>
 <chunk type="p" id="ch4">
  <sentence id="s4">
   <tok>
    <orth>-</orth>
    <lex disamb="1"><base>-</base><ctag>interp</ctag></lex>
   </tok>
   <tok>
    <orth>Co</orth>
    <lex disamb="1"><base>co</base><ctag>comp</ctag></lex>
   </tok>
   <tok>
    <orth>się</orth>
    <lex disamb="1"><base>się</base><ctag>qub</ctag></lex>
   </tok>
   <tok>
    <orth>dzieje</orth>
    <lex disamb="1"><base>dzieje</base><ctag>subst:pl:nom:n</ctag></lex>
   </tok>
   <ns/>
   <tok>
    <orth>?</orth>
    <lex disamb="1"><base>?</base><ctag>interp</ctag></lex>
   </tok>
  </sentence>
 </chunk>
 <chunk type="p" id="ch5">
  <sentence id="s5">
   <tok>
    <orth>Gdzie</orth>
    <lex disamb="1"><base>gdzie</base><ctag>adv:pos</ctag></lex>
   </tok>
   <tok>
    <orth>ja</orth>
    <lex disamb="1"><base>ja</base><ctag>ppron12:sg:nom:m1:pri</ctag></lex>
   </tok>
   <tok>
    <orth>jestem</orth>
    <lex disamb="1"><base>być</base><ctag>fin:sg:pri:imperf</ctag></lex>
   </tok>
   <ns/>
   <tok>
    <orth>?</orth>
    <lex disamb="1"><base>?</base><ctag>interp</ctag></lex>
   </tok>
   <ns/>
   <tok>
    <orth>!</orth>
    <lex disamb="1"><base>!</base><ctag>interp</ctag></lex>
   </tok>
   <tok>
    <orth>-</orth>
    <lex disamb="1"><base>-</base><ctag>interp</ctag></lex>
   </tok>
   <tok>
    <orth>pyta</orth>
    <lex disamb="1"><base>pyta</base><ctag>subst:sg:nom:f</ctag></lex>
   </tok>
   <tok>
    <orth>się</orth>
    <lex disamb="1"><base>się</base><ctag>qub</ctag></lex>
   </tok>
   <tok>
    <orth>kierowcy</orth>
    <lex disamb="1"><base>kierowca</base><ctag>subst:sg:gen:m1</ctag></lex>
   </tok>
   <ns/>
   <tok>
    <orth>.</orth>
    <lex disamb="1"><base>.</base><ctag>interp</ctag></lex>
   </tok>
  </sentence>
 </chunk>
 <chunk type="p" id="ch6">
  <sentence id="s6">
   <tok>
    <orth>-</orth>
    <lex disamb="1"><base>-</base><ctag>interp</ctag></lex>
   </tok>
   <tok>
    <orth>Umarł</orth>
    <lex disamb="1"><base>umrzeć</base><ctag>praet:sg:m1:perf</ctag></lex>
   </tok>
   <ns/>
   <tok>
    <orth>eś</orth>
    <lex disamb="1"><base>być</base><ctag>aglt:sg:sec:imperf:wok</ctag></lex>
   </tok>
   <ns/>
   <tok>
    <orth>.</orth>
    <lex disamb="1"><base>.</base><ctag>interp</ctag></lex>
   </tok>
  </sentence>
 </chunk>
 <chunk type="p" id="ch7">
  <sentence id="s7">
   <tok>
    <orth>Jestem</orth>
    <lex disamb="1"><base>być</base><ctag>fin:sg:pri:imperf</ctag></lex>
   </tok>
   <tok>
    <orth>diabłem</orth>
    <lex disamb="1"><base>diabeł</base><ctag>subst:sg:inst:m1</ctag></lex>
   </tok>
   <tok>
    <orth>i</orth>
    <lex disamb="1"><base>i</base><ctag>conj</ctag></lex>
   </tok>
   <tok>
    <orth>wiozę</orth>
    <lex disamb="1"><base>wieźć</base><ctag>fin:sg:pri:imperf</ctag></lex>
   </tok>
   <tok>
    <orth>cię</orth>
    <lex disamb="1"><base>ty</base><ctag>ppron12:sg:gen:m1:sec:nakc</ctag></lex>
   </tok>
   <tok>
    <orth>tam</orth>
    <lex disamb="1"><base>tam</base><ctag>adv:pos</ctag></lex>
   </tok>
   <ns/>
   <tok>
    <orth>,</orth>
    <lex disamb="1"><base>,</base><ctag>interp</ctag></lex>
   </tok>
   <tok>
    <orth>gdzie</orth>
    <lex disamb="1"><base>gdzie</base><ctag>adv:pos</ctag></lex>
   </tok>
   <tok>
    <orth>twoje</orth>
    <lex disamb="1"><base>twoja</base><ctag>subst:pl:nom:f</ctag></lex>
   </tok>
   <tok>
    <orth>miejsce</orth>
    <lex disamb="1"><base>miejsce</base><ctag>subst:sg:nom:n</ctag></lex>
   </tok>
   <ns/>
   <tok>
    <orth>.</orth>
    <lex disamb="1"><base>.</base><ctag>interp</ctag></lex>
   </tok>
  </sentence>
 </chunk>
 <chunk type="p" id="ch8">
  <sentence id="s8">
   <tok>
    <orth>Facet</orth>
    <lex disamb="1"><base>facet</base><ctag>subst:sg:nom:m1</ctag></lex>
   </tok>
   <tok>
    <orth>wygląda</orth>
    <lex disamb="1"><base>wyglądać</base><ctag>fin:sg:ter:imperf</ctag></lex>
   </tok>
   <tok>
    <orth>za</orth>
    <lex disamb="1"><base>za</base><ctag>qub</ctag></lex>
   </tok>
   <tok>
    <orth>okno</orth>
    <lex disamb="1"><base>okno</base><ctag>subst:sg:nom:n</ctag></lex>
   </tok>
   <tok>
    <orth>i</orth>
    <lex disamb="1"><base>i</base><ctag>conj</ctag></lex>
   </tok>
   <tok>
    <orth>blednie</orth>
    <lex disamb="1"><base>blednąć</base><ctag>fin:sg:ter:imperf</ctag></lex>
   </tok>
   <ns/>
   <tok>
    <orth>.</orth>
    <lex disamb="1"><base>.</base><ctag>interp</ctag></lex>
   </tok>
  </sentence>
 </chunk>
 <chunk type="p" id="ch9">
  <sentence id="s9">
   <tok>
    <orth>-</orth>
    <lex disamb="1"><base>-</base><ctag>interp</ctag></lex>
   </tok>
   <tok>
    <orth>Jak</orth>
    <lex disamb="1"><base>jak</base><ctag>conj</ctag></lex>
   </tok>
   <tok>
    <orth>tu</orth>
    <lex disamb="1"><base>tu</base><ctag>adv:pos</ctag></lex>
   </tok>
   <tok>
    <orth>strasznie</orth>
    <lex disamb="1"><base>strasznie</base><ctag>adv:pos</ctag></lex>
   </tok>
   <ns/>
   <tok>
    <orth>,</orth>
    <lex disamb="1"><base>,</base><ctag>interp</ctag></lex>
   </tok>
   <tok>
    <orth>brzydko</orth>
    <lex disamb="1"><base>brzydko</base><ctag>adv:pos</ctag></lex>
   </tok>
   <ns/>
   <tok>
    <orth>.</orth>
    <lex disamb="1"><base>.</base><ctag>interp</ctag></lex>
   </tok>
   <ns/>
   <tok>
    <orth>.</orth>
    <lex disamb="1"><base>.</base><ctag>interp</ctag></lex>
   </tok>
   <ns/>
   <tok>
    <orth>.</orth>
    <lex disamb="1"><base>.</base><ctag>interp</ctag></lex>
   </tok>
   <tok>
    <orth>i</orth>
    <lex disamb="1"><base>i</base><ctag>conj</ctag></lex>
   </tok>
   <tok>
    <orth>tak</orth>
    <lex disamb="1"><base>tak</base><ctag>adv:pos</ctag></lex>
   </tok>
   <tok>
    <orth>szaro</orth>
    <lex disamb="1"><base>szaro</base><ctag>adv:pos</ctag></lex>
   </tok>
   <ns/>
   <tok>
    <orth>,</orth>
    <lex disamb="1"><base>,</base><ctag>interp</ctag></lex>
   </tok>
   <tok>
    <orth>depresyjnie</orth>
    <lex disamb="1"><base>depresyjnie</base><ctag>adv:pos</ctag></lex>
   </tok>
   <ns/>
   <tok>
    <orth>.</orth>
    <lex disamb="1"><base>.</base><ctag>interp</ctag></lex>
   </tok>
  </sentence>
 </chunk>
 <chunk type="p" id="ch10">
  <sentence id="s10">
   <tok>
    <orth>-</orth>
    <lex disamb="1"><base>-</base><ctag>interp</ctag></lex>
   </tok>
   <tok>
    <orth>Zgadza</orth>
    <lex disamb="1"><base>zgadzać</base><ctag>fin:sg:ter:imperf</ctag></lex>
   </tok>
   <tok>
    <orth>się</orth>
    <lex disamb="1"><base>się</base><ctag>qub</ctag></lex>
   </tok>
   <tok>
    <orth>-</orth>
    <lex disamb="1"><base>-</base><ctag>interp</ctag></lex>
   </tok>
   <tok>
    <orth>mówi</orth>
    <lex disamb="1"><base>mówić</base><ctag>fin:sg:ter:imperf</ctag></lex>
   </tok>
   <tok>
    <orth>diabeł</orth>
    <lex disamb="1"><base>diabeł</base><ctag>subst:sg:nom:m1</ctag></lex>
   </tok>
   <ns/>
   <tok>
    <orth>.</orth>
    <lex disamb="1"><base>.</base><ctag>interp</ctag></lex>
   </tok>
  </sentence>
 </chunk>
 <chunk type="p" id="ch11">
  <sentence id="s11">
   <tok>
    <orth>-</orth>
    <lex disamb="1"><base>-</base><ctag>interp</ctag></lex>
   </tok>
   <tok>
    <orth>Te</orth>
    <lex disamb="1"><base>te</base><ctag>subst:sg:nom:n</ctag></lex>
   </tok>
   <tok>
    <orth>sypiące</orth>
    <lex disamb="1"><base>sypać</base><ctag>pact:sg:nom:n:imperf:aff</ctag></lex>
   </tok>
   <tok>
    <orth>się</orth>
    <lex disamb="1"><base>się</base><ctag>qub</ctag></lex>
   </tok>
   <tok>
    <orth>ruiny</orth>
    <lex disamb="1"><base>ruina</base><ctag>subst:sg:gen:f</ctag></lex>
   </tok>
   <ns/>
   <tok>
    <orth>,</orth>
    <lex disamb="1"><base>,</base><ctag>interp</ctag></lex>
   </tok>
   <tok>
    <orth>jak</orth>
    <lex disamb="1"><base>jak</base><ctag>conj</ctag></lex>
   </tok>
   <tok>
    <orth>po</orth>
    <lex disamb="1"><base>po</base><ctag>prep:acc</ctag></lex>
   </tok>
   <tok>
    <orth>zagładzie</orth>
    <lex disamb="1"><base>zagłada</base><ctag>subst:sg:dat:f</ctag></lex>
   </tok>
   <ns/>
   <tok>
    <orth>.</orth>
    <lex disamb="1"><base>.</base><ctag>interp</ctag></lex>
   </tok>
  </sentence>
 </chunk>
 <chunk type="p" id="ch12">
  <sentence id="s12">
   <tok>
    <orth>-</orth>
    <lex disamb="1"><base>-</base><ctag>interp</ctag></lex>
   </tok>
   <tok>
    <orth>Tak</orth>
    <lex disamb="1"><base>tak</base><ctag>adv:pos</ctag></lex>
   </tok>
   <ns/>
   <tok>
    <orth>.</orth>
    <lex disamb="1"><base>.</base><ctag>interp</ctag></lex>
   </tok>
  </sentence>
 </chunk>
 <chunk type="p" id="ch13">
  <sentence id="s13">
   <tok>
    <orth>-</orth>
    <lex disamb="1"><base>-</base><ctag>interp</ctag></lex>
   </tok>
   <tok>
    <orth>I</orth>
    <lex disamb="1"><base>i</base><ctag>conj</ctag></lex>
   </tok>
   <tok>
    <orth>ten</orth>
    <lex disamb="1"><base>ten</base><ctag>adj:sg:nom:m1:pos</ctag></lex>
   </tok>
   <tok>
    <orth>dym</orth>
    <lex disamb="1"><base>dym</base><ctag>subst:sg:nom:m3</ctag></lex>
   </tok>
   <ns/>
   <tok>
    <orth>,</orth>
    <lex disamb="1"><base>,</base><ctag>interp</ctag></lex>
   </tok>
   <tok>
    <orth>smog</orth>
    <lex disamb="1"><base>smog</base><ctag>subst:sg:nom:m3</ctag></lex>
   </tok>
   <ns/>
   <tok>
    <orth>.</orth>
    <lex disamb="1"><base>.</base><ctag>interp</ctag></lex>
   </tok>
   <ns/>
   <tok>
    <orth>.</orth>
    <lex disamb="1"><base>.</base><ctag>interp</ctag></lex>
   </tok>
   <ns/>
   <tok>
    <orth>.</orth>
    <lex disamb="1"><base>.</base><ctag>interp</ctag></lex>
   </tok>
   <tok>
    <orth>jak</orth>
    <lex disamb="1"><base>jak</base><ctag>conj</ctag></lex>
   </tok>
   <tok>
    <orth>tu</orth>
    <lex disamb="1"><base>tu</base><ctag>adv:pos</ctag></lex>
   </tok>
   <tok>
    <orth>śmierdzi</orth>
    <lex disamb="1"><base>śmierdzieć</base><ctag>fin:sg:ter:imperf</ctag></lex>
    <lex disamb="1"><base>śmierdzić</base><ctag>fin:sg:ter:imperf</ctag></lex>
   </tok>
   <ns/>
   <tok>
    <orth>,</orth>
    <lex disamb="1"><base>,</base><ctag>interp</ctag></lex>
   </tok>
   <tok>
    <orth>nie</orth>
    <lex disamb="1"><base>nie</base><ctag>conj</ctag></lex>
   </tok>
   <tok>
    <orth>ma</orth>
    <lex disamb="1"><base>mój</base><ctag>adj:sg:nom:f:pos</ctag></lex>
   </tok>
   <tok>
    <orth>czym</orth>
    <lex disamb="1"><base>czym</base><ctag>conj</ctag></lex>
   </tok>
   <tok>
    <orth>oddychać</orth>
    <lex disamb="1"><base>oddychać</base><ctag>inf:imperf</ctag></lex>
   </tok>
   <ns/>
   <tok>
    <orth>!</orth>
    <lex disamb="1"><base>!</base><ctag>interp</ctag></lex>
   </tok>
  </sentence>
 </chunk>
 <chunk type="p" id="ch14">
  <sentence id="s14">
   <tok>
    <orth>-</orth>
    <lex disamb="1"><base>-</base><ctag>interp</ctag></lex>
   </tok>
   <tok>
    <orth>To</orth>
    <lex disamb="1"><base>to</base><ctag>conj</ctag></lex>
   </tok>
   <tok>
    <orth>prawda</orth>
    <lex disamb="1"><base>prawda</base><ctag>subst:sg:nom:f</ctag></lex>
   </tok>
   <ns/>
   <tok>
    <orth>.</orth>
    <lex disamb="1"><base>.</base><ctag>interp</ctag></lex>
   </tok>
  </sentence>
 </chunk>
 <chunk type="p" id="ch15">
  <sentence id="s15">
   <tok>
    <orth>-</orth>
    <lex disamb="1"><base>-</base><ctag>interp</ctag></lex>
   </tok>
   <tok>
    <orth>To</orth>
    <lex disamb="1"><base>to</base><ctag>conj</ctag></lex>
   </tok>
   <tok>
    <orth>piekło</orth>
    <lex disamb="1"><base>piekło</base><ctag>subst:sg:nom:n</ctag></lex>
   </tok>
   <tok>
    <orth>jest</orth>
    <lex disamb="1"><base>być</base><ctag>fin:sg:ter:imperf</ctag></lex>
   </tok>
   <tok>
    <orth>straszne</orth>
    <lex disamb="1"><base>straszny</base><ctag>adj:sg:nom:n:pos</ctag></lex>
   </tok>
   <ns/>
   <tok>
    <orth>!</orth>
    <lex disamb="1"><base>!</base><ctag>interp</ctag></lex>
   </tok>
   <tok>
    <orth>-</orth>
    <lex disamb="1"><base>-</base><ctag>interp</ctag></lex>
   </tok>
   <tok>
    <orth>woła</orth>
    <lex disamb="1"><base>wół</base><ctag>subst:sg:gen:m2</ctag></lex>
   </tok>
   <tok>
    <orth>przerażony</orth>
    <lex disamb="1"><base>przerażony</base><ctag>adj:sg:nom:m1:pos</ctag></lex>
   </tok>
   <tok>
    <orth>pasażer</orth>
    <lex disamb="1"><base>pasażer</base><ctag>subst:sg:nom:m1</ctag></lex>
   </tok>
   <ns/>
   <tok>
    <orth>.</orth>
    <lex disamb="1"><base>.</base><ctag>interp</ctag></lex>
   </tok>
  </sentence>
 </chunk>
 <chunk type="p" id="ch16">
  <sentence id="s16">
   <tok>
    <orth>-</orth>
    <lex disamb="1"><base>-</base><ctag>interp</ctag></lex>
    <ann chan="nam">0</ann>
    <ann chan="nam_loc_gpe_city">0</ann>
    <ann chan="nam_loc">0</ann>
   </tok>
   <tok>
    <orth>Jakie</orth>
    <lex disamb="1"><base>jaki</base><ctag>adj:sg:nom:n:pos</ctag></lex>
    <ann chan="nam">0</ann>
    <ann chan="nam_loc_gpe_city">0</ann>
    <ann chan="nam_loc">0</ann>
   </tok>
   <tok>
    <orth>piekło</orth>
    <lex disamb="1"><base>piekło</base><ctag>subst:sg:nom:n</ctag></lex>
    <ann chan="nam">0</ann>
    <ann chan="nam_loc_gpe_city">0</ann>
    <ann chan="nam_loc">0</ann>
   </tok>
   <ns/>
   <tok>
    <orth>?</orth>
    <lex disamb="1"><base>?</base><ctag>interp</ctag></lex>
    <ann chan="nam">0</ann>
    <ann chan="nam_loc_gpe_city">0</ann>
    <ann chan="nam_loc">0</ann>
   </tok>
   <tok>
    <orth>-</orth>
    <lex disamb="1"><base>-</base><ctag>interp</ctag></lex>
    <ann chan="nam">0</ann>
    <ann chan="nam_loc_gpe_city">0</ann>
    <ann chan="nam_loc">0</ann>
   </tok>
   <tok>
    <orth>dziwi</orth>
    <lex disamb="1"><base>dziwy</base><ctag>adj:pl:nom:m1:pos</ctag></lex>
    <ann chan="nam">0</ann>
    <ann chan="nam_loc_gpe_city">0</ann>
    <ann chan="nam_loc">0</ann>
   </tok>
   <tok>
    <orth>się</orth>
    <lex disamb="1"><base>się</base><ctag>qub</ctag></lex>
    <ann chan="nam">0</ann>
    <ann chan="nam_loc_gpe_city">0</ann>
    <ann chan="nam_loc">0</ann>
   </tok>
   <tok>
    <orth>diabeł</orth>
    <lex disamb="1"><base>diabeł</base><ctag>subst:sg:nom:m1</ctag></lex>
    <ann chan="nam">0</ann>
    <ann chan="nam_loc_gpe_city">0</ann>
    <ann chan="nam_loc">0</ann>
   </tok>
   <tok>
    <orth>-</orth>
    <lex disamb="1"><base>-</base><ctag>interp</ctag></lex>
    <ann chan="nam">0</ann>
    <ann chan="nam_loc_gpe_city">0</ann>
    <ann chan="nam_loc">0</ann>
   </tok>
   <tok>
    <orth>jeszcze</orth>
    <lex disamb="1"><base>jeszcze</base><ctag>qub</ctag></lex>
    <ann chan="nam">0</ann>
    <ann chan="nam_loc_gpe_city">0</ann>
    <ann chan="nam_loc">0</ann>
   </tok>
   <tok>
    <orth>z</orth>
    <lex disamb="1"><base>z</base><ctag>prep:gen:nwok</ctag></lex>
    <ann chan="nam">0</ann>
    <ann chan="nam_loc_gpe_city">0</ann>
    <ann chan="nam_loc">0</ann>
   </tok>
   <tok>
    <orth>Krakowa</orth>
    <lex disamb="1"><base>Kraków</base><ctag>subst:sg:gen:m3</ctag></lex>
    <ann chan="nam">1</ann>
    <ann chan="nam_loc_gpe_city">1</ann>
    <ann chan="nam_loc">1</ann>
   </tok>
   <tok>
    <orth>nie</orth>
    <lex disamb="1"><base>nie</base><ctag>conj</ctag></lex>
    <ann chan="nam">0</ann>
    <ann chan="nam_loc_gpe_city">0</ann>
    <ann chan="nam_loc">0</ann>
   </tok>
   <tok>
    <orth>wyjechali</orth>
    <lex disamb="1"><base>wyjechać</base><ctag>praet:pl:m1:perf</ctag></lex>
    <ann chan="nam">0</ann>
    <ann chan="nam_loc_gpe_city">0</ann>
    <ann chan="nam_loc">0</ann>
   </tok>
   <ns/>
   <tok>
    <orth>śmy</orth>
    <lex disamb="1"><base>być</base><ctag>aglt:pl:pri:imperf:nwok</ctag></lex>
    <ann chan="nam">0</ann>
    <ann chan="nam_loc_gpe_city">0</ann>
    <ann chan="nam_loc">0</ann>
   </tok>
   <ns/>
   <tok>
    <orth>.</orth>
    <lex disamb="1"><base>.</base><ctag>interp</ctag></lex>
    <ann chan="nam">0</ann>
    <ann chan="nam_loc_gpe_city">0</ann>
    <ann chan="nam_loc">0</ann>
   </tok>
  </sentence>
 </chunk>
 <chunk type="p" id="ch17">
  <sentence id="s17">
   <tok>
    <orth>#</orth>
    <lex disamb="1"><base>#</base><ctag>interp</ctag></lex>
   </tok>
   <ns/>
   <tok>
    <orth>suchar</orth>
    <lex disamb="1"><base>suchar</base><ctag>subst:sg:nom:m1</ctag></lex>
   </tok>
   <tok>
    <orth>#</orth>
    <lex disamb="1"><base>#</base><ctag>interp</ctag></lex>
   </tok>
   <ns/>
   <tok>
    <orth>100dnisucharow</orth>
    <lex disamb="1"><base>100dnisucharow</base><ctag>ign</ctag></lex>
   </tok>
  </sentence>
 </chunk>
</chunkList>