<?xml version="1.0" encoding="UTF-8"?>
<!DOCTYPE chunkList SYSTEM "ccl.dtd">
<chunkList>
 <chunk type="p" id="ch1">
  <sentence id="s1">
   <tok>
    <orth>No</orth>
    <lex disamb="1"><base>no</base><ctag>qub</ctag></lex>
   </tok>
   <tok>
    <orth>dobra</orth>
    <lex disamb="1"><base>dobra</base><ctag>subst:pl:nom:n</ctag></lex>
    <lex disamb="1"><base>dobro</base><ctag>subst:pl:nom:n</ctag></lex>
   </tok>
   <tok>
    <orth>chłopcy</orth>
    <lex disamb="1"><base>chłopiec</base><ctag>subst:pl:nom:m1</ctag></lex>
   </tok>
   <tok>
    <orth>i</orth>
    <lex disamb="1"><base>i</base><ctag>conj</ctag></lex>
   </tok>
   <tok>
    <orth>dziewczęta</orth>
    <lex disamb="1"><base>dziewczę</base><ctag>subst:pl:nom:n</ctag></lex>
   </tok>
   <tok>
    <orth>z</orth>
    <lex disamb="1"><base>z</base><ctag>prep:gen:nwok</ctag></lex>
   </tok>
   <tok>
    <orth>racji</orth>
    <lex disamb="1"><base>racja</base><ctag>subst:sg:gen:f</ctag></lex>
   </tok>
   <tok>
    <orth>że</orth>
    <lex disamb="1"><base>że</base><ctag>comp</ctag></lex>
   </tok>
   <tok>
    <orth>zaraz</orth>
    <lex disamb="1"><base>zaraz</base><ctag>adv:pos</ctag></lex>
   </tok>
   <tok>
    <orth>są</orth>
    <lex disamb="1"><base>być</base><ctag>fin:pl:ter:imperf</ctag></lex>
   </tok>
   <tok>
    <orth>mikołajki</orth>
    <lex disamb="1"><base>mikołajek</base><ctag>subst:pl:nom:m2</ctag></lex>
   </tok>
   <tok>
    <orth>robimy</orth>
    <lex disamb="1"><base>robić</base><ctag>fin:pl:pri:imperf</ctag></lex>
   </tok>
   <tok>
    <orth>małe</orth>
    <lex disamb="1"><base>mała</base><ctag>subst:pl:nom:f</ctag></lex>
   </tok>
   <tok>
    <orth>#</orth>
    <lex disamb="1"><base>#</base><ctag>interp</ctag></lex>
   </tok>
   <ns/>
   <tok>
    <orth>rozdajo</orth>
    <lex disamb="1"><base>rozdajo</base><ctag>ign</ctag></lex>
   </tok>
   <ns/>
   <tok>
    <orth>.</orth>
    <lex disamb="1"><base>.</base><ctag>interp</ctag></lex>
   </tok>
  </sentence>
 </chunk>
 <chunk type="p" id="ch2">
  <sentence id="s2">
   <tok>
    <orth>Mam</orth>
    <lex disamb="1"><base>mama</base><ctag>subst:pl:gen:f</ctag></lex>
   </tok>
   <tok>
    <orth>do</orth>
    <lex disamb="1"><base>do</base><ctag>prep:gen</ctag></lex>
   </tok>
   <tok>
    <orth>rozdania</orth>
    <lex disamb="1"><base>rozdanie</base><ctag>subst:sg:gen:n</ctag></lex>
   </tok>
   <tok>
    <orth>świeżo</orth>
    <lex disamb="1"><base>świeżo</base><ctag>adv:pos</ctag></lex>
   </tok>
   <tok>
    <orth>tłoczone</orth>
    <lex disamb="1"><base>tłoczyć</base><ctag>ppas:sg:nom:n:imperf:aff</ctag></lex>
   </tok>
   <tok>
    <orth>soki</orth>
    <lex disamb="1"><base>sok</base><ctag>subst:pl:nom:m3</ctag></lex>
   </tok>
   <tok>
    <orth>ostatnie</orth>
    <lex disamb="1"><base>ostatnie</base><ctag>subst:sg:nom:n</ctag></lex>
   </tok>
   <tok>
    <orth>w</orth>
    <lex disamb="1"><base>w</base><ctag>prep:acc:nwok</ctag></lex>
   </tok>
   <tok>
    <orth>tym</orth>
    <lex disamb="1"><base>tym</base><ctag>conj</ctag></lex>
   </tok>
   <tok>
    <orth>sezonie</orth>
    <lex disamb="1"><base>sezon</base><ctag>subst:sg:loc:m3</ctag></lex>
   </tok>
   <ns/>
   <tok>
    <orth>.</orth>
    <lex disamb="1"><base>.</base><ctag>interp</ctag></lex>
   </tok>
  </sentence>
 </chunk>
 <chunk type="p" id="ch3">
  <sentence id="s3">
   <tok>
    <orth>Wsrod</orth>
    <lex disamb="1"><base>Wsrod</base><ctag>ign</ctag></lex>
    <ann chan="timex">0</ann>
    <ann chan="t3_date">0</ann>
    <ann chan="t3_time">0</ann>
   </tok>
   <tok>
    <orth>osób</orth>
    <lex disamb="1"><base>osoba</base><ctag>subst:pl:gen:f</ctag></lex>
    <ann chan="timex">0</ann>
    <ann chan="t3_date">0</ann>
    <ann chan="t3_time">0</ann>
   </tok>
   <tok>
    <orth>plusujacych</orth>
    <lex disamb="1"><base>plusujacych</base><ctag>ign</ctag></lex>
    <ann chan="timex">0</ann>
    <ann chan="t3_date">0</ann>
    <ann chan="t3_time">0</ann>
   </tok>
   <tok>
    <orth>wybiorę</orth>
    <lex disamb="1"><base>wybrać</base><ctag>fin:sg:pri:perf</ctag></lex>
    <ann chan="timex">0</ann>
    <ann chan="t3_date">0</ann>
    <ann chan="t3_time">0</ann>
   </tok>
   <tok>
    <orth>1</orth>
    <lex disamb="1"><base>1</base><ctag>num:pl:nom:m1:rec</ctag></lex>
    <ann chan="timex">0</ann>
    <ann chan="t3_date">0</ann>
    <ann chan="t3_time">0</ann>
   </tok>
   <tok>
    <orth>której</orth>
    <lex disamb="1"><base>który</base><ctag>adj:sg:gen:f:pos</ctag></lex>
    <ann chan="timex">0</ann>
    <ann chan="t3_date">0</ann>
    <ann chan="t3_time">0</ann>
   </tok>
   <tok>
    <orth>wyślę</orth>
    <lex disamb="1"><base>wysłać</base><ctag>fin:sg:pri:perf</ctag></lex>
    <ann chan="timex">0</ann>
    <ann chan="t3_date">0</ann>
    <ann chan="t3_time">0</ann>
   </tok>
   <tok>
    <orth>sok</orth>
    <lex disamb="1"><base>sok</base><ctag>subst:sg:nom:m3</ctag></lex>
    <ann chan="timex">0</ann>
    <ann chan="t3_date">0</ann>
    <ann chan="t3_time">0</ann>
   </tok>
   <tok>
    <orth>paczkomatem</orth>
    <lex disamb="1"><base>paczkomat</base><ctag>subst:sg:inst:m3</ctag></lex>
    <ann chan="timex">0</ann>
    <ann chan="t3_date">0</ann>
    <ann chan="t3_time">0</ann>
   </tok>
   <tok>
    <orth>na</orth>
    <lex disamb="1"><base>na</base><ctag>prep:acc</ctag></lex>
    <ann chan="timex">0</ann>
    <ann chan="t3_date">0</ann>
    <ann chan="t3_time">0</ann>
   </tok>
   <tok>
    <orth>wskazany</orth>
    <lex disamb="1"><base>wskazany</base><ctag>adj:sg:nom:m1:pos</ctag></lex>
    <ann chan="timex">0</ann>
    <ann chan="t3_date">0</ann>
    <ann chan="t3_time">0</ann>
   </tok>
   <tok>
    <orth>adres</orth>
    <lex disamb="1"><base>adres</base><ctag>subst:sg:nom:m3</ctag></lex>
    <ann chan="timex">0</ann>
    <ann chan="t3_date">0</ann>
    <ann chan="t3_time">0</ann>
   </tok>
   <tok>
    <orth>na</orth>
    <lex disamb="1"><base>na</base><ctag>prep:acc</ctag></lex>
    <ann chan="timex">0</ann>
    <ann chan="t3_date">0</ann>
    <ann chan="t3_time">0</ann>
   </tok>
   <tok>
    <orth>swój</orth>
    <lex disamb="1"><base>swój</base><ctag>adj:sg:nom:m1:pos</ctag></lex>
    <ann chan="timex">0</ann>
    <ann chan="t3_date">0</ann>
    <ann chan="t3_time">0</ann>
   </tok>
   <tok>
    <orth>koszt</orth>
    <lex disamb="1"><base>koszt</base><ctag>subst:sg:nom:m3</ctag></lex>
    <ann chan="timex">0</ann>
    <ann chan="t3_date">0</ann>
    <ann chan="t3_time">0</ann>
   </tok>
   <tok>
    <orth>jutro</orth>
    <lex disamb="1"><base>jutro</base><ctag>adv:pos</ctag></lex>
    <ann chan="timex">1</ann>
    <ann chan="t3_date">1</ann>
    <ann chan="t3_time">0</ann>
   </tok>
   <tok>
    <orth>do</orth>
    <lex disamb="1"><base>do</base><ctag>prep:gen</ctag></lex>
    <ann chan="timex">0</ann>
    <ann chan="t3_date">0</ann>
    <ann chan="t3_time">0</ann>
   </tok>
   <tok>
    <orth>godz</orth>
    <lex disamb="1"><base>godz</base><ctag>ign</ctag></lex>
    <ann chan="timex">2</ann>
    <ann chan="t3_date">0</ann>
    <ann chan="t3_time">1</ann>
   </tok>
   <tok>
    <orth>00</orth>
    <lex disamb="1"><base>00</base><ctag>num:pl:nom:m1:rec</ctag></lex>
    <ann chan="timex">2</ann>
    <ann chan="t3_date">0</ann>
    <ann chan="t3_time">1</ann>
   </tok>
   <ns/>
   <tok>
    <orth>:</orth>
    <lex disamb="1"><base>:</base><ctag>interp</ctag></lex>
    <ann chan="timex">2</ann>
    <ann chan="t3_date">0</ann>
    <ann chan="t3_time">1</ann>
   </tok>
   <ns/>
   <tok>
    <orth>00</orth>
    <lex disamb="1"><base>00</base><ctag>num:pl:nom:m1:rec</ctag></lex>
    <ann chan="timex">2</ann>
    <ann chan="t3_date">0</ann>
    <ann chan="t3_time">1</ann>
   </tok>
   <ns/>
   <tok>
    <orth>.</orth>
    <lex disamb="1"><base>.</base><ctag>interp</ctag></lex>
    <ann chan="timex">0</ann>
    <ann chan="t3_date">0</ann>
    <ann chan="t3_time">0</ann>
   </tok>
  </sentence>
 </chunk>
 <chunk type="p" id="ch4">
  <sentence id="s4">
   <tok>
    <orth>Sok</orth>
    <lex disamb="1"><base>sok</base><ctag>subst:sg:nom:m3</ctag></lex>
    <ann chan="timex">0</ann>
    <ann chan="t3_date">0</ann>
   </tok>
   <tok>
    <orth>5</orth>
    <lex disamb="1"><base>5</base><ctag>num:pl:nom:m1:rec</ctag></lex>
    <ann chan="timex">0</ann>
    <ann chan="t3_date">0</ann>
   </tok>
   <tok>
    <orth>Litrowy</orth>
    <lex disamb="1"><base>litrowy</base><ctag>adj:sg:nom:m1:pos</ctag></lex>
    <ann chan="timex">0</ann>
    <ann chan="t3_date">0</ann>
   </tok>
   <tok>
    <orth>zrobiony</orth>
    <lex disamb="1"><base>zrobić</base><ctag>ppas:sg:nom:m1:perf:aff</ctag></lex>
    <ann chan="timex">0</ann>
    <ann chan="t3_date">0</ann>
   </tok>
   <tok>
    <orth>z</orth>
    <lex disamb="1"><base>z</base><ctag>prep:gen:nwok</ctag></lex>
    <ann chan="timex">0</ann>
    <ann chan="t3_date">0</ann>
   </tok>
   <tok>
    <orth>własnych</orth>
    <lex disamb="1"><base>własne</base><ctag>subst:pl:gen:n</ctag></lex>
    <ann chan="timex">0</ann>
    <ann chan="t3_date">0</ann>
   </tok>
   <tok>
    <orth>owoców</orth>
    <lex disamb="1"><base>owoc</base><ctag>subst:pl:gen:m3</ctag></lex>
    <ann chan="timex">0</ann>
    <ann chan="t3_date">0</ann>
   </tok>
   <tok>
    <orth>w</orth>
    <lex disamb="1"><base>w</base><ctag>prep:acc:nwok</ctag></lex>
    <ann chan="timex">0</ann>
    <ann chan="t3_date">0</ann>
   </tok>
   <tok>
    <orth>tym</orth>
    <lex disamb="1"><base>tym</base><ctag>conj</ctag></lex>
    <ann chan="timex">1</ann>
    <ann chan="t3_date">1</ann>
   </tok>
   <tok>
    <orth>tygodniu</orth>
    <lex disamb="1"><base>tydzień</base><ctag>subst:sg:loc:m3</ctag></lex>
    <ann chan="timex">1</ann>
    <ann chan="t3_date">1</ann>
   </tok>
   <ns/>
   <tok>
    <orth>,</orth>
    <lex disamb="1"><base>,</base><ctag>interp</ctag></lex>
    <ann chan="timex">0</ann>
    <ann chan="t3_date">0</ann>
   </tok>
   <tok>
    <orth>sok</orth>
    <lex disamb="1"><base>sok</base><ctag>subst:sg:nom:m3</ctag></lex>
    <ann chan="timex">0</ann>
    <ann chan="t3_date">0</ann>
   </tok>
   <tok>
    <orth>o</orth>
    <lex disamb="1"><base>o</base><ctag>prep:acc</ctag></lex>
    <ann chan="timex">0</ann>
    <ann chan="t3_date">0</ann>
   </tok>
   <tok>
    <orth>wartości</orth>
    <lex disamb="1"><base>wartość</base><ctag>subst:sg:gen:f</ctag></lex>
    <ann chan="timex">0</ann>
    <ann chan="t3_date">0</ann>
   </tok>
   <tok>
    <orth>30zl</orth>
    <lex disamb="1"><base>30zl</base><ctag>ign</ctag></lex>
    <ann chan="timex">0</ann>
    <ann chan="t3_date">0</ann>
   </tok>
   <ns/>
   <tok>
    <orth>.</orth>
    <lex disamb="1"><base>.</base><ctag>interp</ctag></lex>
    <ann chan="timex">0</ann>
    <ann chan="t3_date">0</ann>
   </tok>
  </sentence>
 </chunk>
 <chunk type="p" id="ch5">
  <sentence id="s5">
   <tok>
    <orth>Do</orth>
    <lex disamb="1"><base>do</base><ctag>prep:gen</ctag></lex>
   </tok>
   <tok>
    <orth>wyboru</orth>
    <lex disamb="1"><base>wybór</base><ctag>subst:sg:gen:m3</ctag></lex>
   </tok>
   <ns/>
   <tok>
    <orth>:</orth>
    <lex disamb="1"><base>:</base><ctag>interp</ctag></lex>
   </tok>
   <tok>
    <orth>-</orth>
    <lex disamb="1"><base>-</base><ctag>interp</ctag></lex>
   </tok>
   <tok>
    <orth>sok</orth>
    <lex disamb="1"><base>sok</base><ctag>subst:sg:nom:m3</ctag></lex>
   </tok>
   <tok>
    <orth>jabłkowy</orth>
    <lex disamb="1"><base>jabłkowy</base><ctag>adj:sg:nom:m1:pos</ctag></lex>
   </tok>
   <tok>
    <orth>-</orth>
    <lex disamb="1"><base>-</base><ctag>interp</ctag></lex>
   </tok>
   <tok>
    <orth>sok</orth>
    <lex disamb="1"><base>sok</base><ctag>subst:sg:nom:m3</ctag></lex>
   </tok>
   <tok>
    <orth>porzeczkowo</orth>
    <lex disamb="1"><base>porzeczkowo</base><ctag>ign</ctag></lex>
   </tok>
   <tok>
    <orth>jabłkowy</orth>
    <lex disamb="1"><base>jabłkowy</base><ctag>adj:sg:nom:m1:pos</ctag></lex>
   </tok>
   <tok>
    <orth>-</orth>
    <lex disamb="1"><base>-</base><ctag>interp</ctag></lex>
   </tok>
   <tok>
    <orth>sok</orth>
    <lex disamb="1"><base>sok</base><ctag>subst:sg:nom:m3</ctag></lex>
   </tok>
   <tok>
    <orth>pomidorowy</orth>
    <lex disamb="1"><base>pomidorowy</base><ctag>adj:sg:nom:m1:pos</ctag></lex>
   </tok>
  </sentence>
 </chunk>
 <chunk type="p" id="ch6">
  <sentence id="s6">
   <tok>
    <orth>Zapraszam</orth>
    <lex disamb="1"><base>zapraszać</base><ctag>fin:sg:pri:imperf</ctag></lex>
    <ann chan="nam">0</ann>
    <ann chan="nam_pro_media_web">0</ann>
    <ann chan="nam_pro">0</ann>
   </tok>
   <tok>
    <orth>do</orth>
    <lex disamb="1"><base>do</base><ctag>prep:gen</ctag></lex>
    <ann chan="nam">0</ann>
    <ann chan="nam_pro_media_web">0</ann>
    <ann chan="nam_pro">0</ann>
   </tok>
   <tok>
    <orth>odwiedzenia</orth>
    <lex disamb="1"><base>odwiedzenie</base><ctag>subst:sg:gen:n</ctag></lex>
    <ann chan="nam">0</ann>
    <ann chan="nam_pro_media_web">0</ann>
    <ann chan="nam_pro">0</ann>
   </tok>
   <tok>
    <orth>Https://facebook.com/PolskiPomidor</orth>
    <lex disamb="1"><base>Https://facebook.com/PolskiPomidor</base><ctag>subst:sg:nom:m3</ctag></lex>
    <ann chan="nam">1</ann>
    <ann chan="nam_pro_media_web">1</ann>
    <ann chan="nam_pro">1</ann>
   </tok>
  </sentence>
 </chunk>
 <chunk type="p" id="ch7">
  <sentence id="s7">
   <tok>
    <orth>#</orth>
    <lex disamb="1"><base>#</base><ctag>interp</ctag></lex>
   </tok>
   <ns/>
   <tok>
    <orth>rozdajo</orth>
    <lex disamb="1"><base>rozdajo</base><ctag>ign</ctag></lex>
   </tok>
   <tok>
    <orth>#</orth>
    <lex disamb="1"><base>#</base><ctag>interp</ctag></lex>
   </tok>
   <ns/>
   <tok>
    <orth>zdrowie</orth>
    <lex disamb="1"><base>zdrowie</base><ctag>subst:sg:nom:n</ctag></lex>
   </tok>
   <tok>
    <orth>#</orth>
    <lex disamb="1"><base>#</base><ctag>interp</ctag></lex>
   </tok>
   <ns/>
   <tok>
    <orth>zadarmo</orth>
    <lex disamb="1"><base>zadarmo</base><ctag>ign</ctag></lex>
   </tok>
  </sentence>
 </chunk>
</chunkList>