<?xml version="1.0" encoding="UTF-8"?>
<!DOCTYPE chunkList SYSTEM "ccl.dtd">
<chunkList>
 <chunk type="p" id="ch1">
  <sentence id="s1">
   <tok>
    <orth>Pamiętacie</orth>
    <lex disamb="1"><base>pamiętać</base><ctag>fin:pl:sec:imperf</ctag></lex>
   </tok>
   <tok>
    <orth>atrapy</orth>
    <lex disamb="1"><base>atrapa</base><ctag>subst:sg:gen:f</ctag></lex>
   </tok>
   <tok>
    <orth>radiowozów</orth>
    <lex disamb="1"><base>radiowóz</base><ctag>subst:pl:gen:m3</ctag></lex>
   </tok>
   <ns/>
   <tok>
    <orth>,</orth>
    <lex disamb="1"><base>,</base><ctag>interp</ctag></lex>
   </tok>
   <tok>
    <orth>które</orth>
    <lex disamb="1"><base>który</base><ctag>adj:sg:nom:n:pos</ctag></lex>
   </tok>
   <tok>
    <orth>stały</orth>
    <lex disamb="1"><base>stały</base><ctag>adj:sg:nom:m1:pos</ctag></lex>
   </tok>
   <tok>
    <orth>kiedyś</orth>
    <lex disamb="1"><base>kiedyś</base><ctag>adv:pos</ctag></lex>
   </tok>
   <tok>
    <orth>przy</orth>
    <lex disamb="1"><base>przy</base><ctag>prep:loc</ctag></lex>
   </tok>
   <tok>
    <orth>drogach</orth>
    <lex disamb="1"><base>droga</base><ctag>subst:pl:loc:f</ctag></lex>
   </tok>
   <tok>
    <orth>krajowych</orth>
    <lex disamb="1"><base>krajowy</base><ctag>adj:pl:gen:m1:pos</ctag></lex>
   </tok>
   <ns/>
   <tok>
    <orth>?</orth>
    <lex disamb="1"><base>?</base><ctag>interp</ctag></lex>
   </tok>
  </sentence>
 </chunk>
 <chunk type="p" id="ch2">
  <sentence id="s2">
   <tok>
    <orth>#</orth>
    <lex disamb="1"><base>#</base><ctag>interp</ctag></lex>
   </tok>
   <ns/>
   <tok>
    <orth>polskiedrogi</orth>
    <lex disamb="1"><base>polskiedrogi</base><ctag>ign</ctag></lex>
   </tok>
   <tok>
    <orth>#</orth>
    <lex disamb="1"><base>#</base><ctag>interp</ctag></lex>
   </tok>
   <ns/>
   <tok>
    <orth>policja</orth>
    <lex disamb="1"><base>policja</base><ctag>subst:sg:nom:f</ctag></lex>
   </tok>
   <tok>
    <orth>#</orth>
    <lex disamb="1"><base>#</base><ctag>interp</ctag></lex>
   </tok>
   <ns/>
   <tok>
    <orth>kiedystobylo</orth>
    <lex disamb="1"><base>kiedystobylo</base><ctag>ign</ctag></lex>
   </tok>
   <tok>
    <orth>#</orth>
    <lex disamb="1"><base>#</base><ctag>interp</ctag></lex>
   </tok>
   <ns/>
   <tok>
    <orth>motoryzacja</orth>
    <lex disamb="1"><base>motoryzacja</base><ctag>subst:sg:nom:f</ctag></lex>
   </tok>
  </sentence>
 </chunk>
</chunkList>