<?xml version="1.0" encoding="UTF-8"?>
<!DOCTYPE chunkList SYSTEM "ccl.dtd">
<chunkList>
 <chunk type="p" id="ch1">
  <sentence id="s1">
   <tok>
    <orth>jakiś</orth>
    <lex disamb="1"><base>jakiś</base><ctag>adj:sg:nom:m1:pos</ctag></lex>
   </tok>
   <tok>
    <orth>najebany</orth>
    <lex disamb="1"><base>najebać</base><ctag>ppas:sg:nom:m1:perf:aff</ctag></lex>
   </tok>
   <tok>
    <orth>janusz</orth>
    <lex disamb="1"><base>Janusz</base><ctag>subst:sg:nom:m1</ctag></lex>
   </tok>
   <tok>
    <orth>obrzygał</orth>
    <lex disamb="1"><base>obrzygać</base><ctag>praet:sg:m1:perf</ctag></lex>
   </tok>
   <tok>
    <orth>Materle</orth>
    <lex disamb="1"><base>Materle</base><ctag>ign</ctag></lex>
   </tok>
   <tok>
    <orth>na</orth>
    <lex disamb="1"><base>na</base><ctag>prep:acc</ctag></lex>
   </tok>
   <tok>
    <orth>trybunach</orth>
    <lex disamb="1"><base>trybun</base><ctag>subst:pl:loc:m1</ctag></lex>
   </tok>
   <ns/>
   <tok>
    <orth>.</orth>
    <lex disamb="1"><base>.</base><ctag>interp</ctag></lex>
   </tok>
   <tok>
    <orth>niezły</orth>
    <lex disamb="1"><base>niezły</base><ctag>subst:sg:nom:m1</ctag></lex>
   </tok>
   <tok>
    <orth>dym</orth>
    <lex disamb="1"><base>dym</base><ctag>subst:sg:nom:m3</ctag></lex>
   </tok>
   <tok>
    <orth>się</orth>
    <lex disamb="1"><base>się</base><ctag>qub</ctag></lex>
   </tok>
   <tok>
    <orth>zrobił</orth>
    <lex disamb="1"><base>zrobić</base><ctag>praet:sg:m1:perf</ctag></lex>
   </tok>
   <ns/>
   <tok>
    <orth>.</orth>
    <lex disamb="1"><base>.</base><ctag>interp</ctag></lex>
   </tok>
  </sentence>
 </chunk>
 <chunk type="p" id="ch2">
  <sentence id="s2">
   <tok>
    <orth>zaraz</orth>
    <lex disamb="1"><base>zaraz</base><ctag>adv:pos</ctag></lex>
   </tok>
   <tok>
    <orth>wrzuce</orth>
    <lex disamb="1"><base>wrzuce</base><ctag>ign</ctag></lex>
   </tok>
   <tok>
    <orth>shota</orth>
    <lex disamb="1"><base>shota</base><ctag>ign</ctag></lex>
   </tok>
   <ns/>
   <tok>
    <orth>.</orth>
    <lex disamb="1"><base>.</base><ctag>interp</ctag></lex>
   </tok>
  </sentence>
 </chunk>
 <chunk type="p" id="ch3">
  <sentence id="s3">
   <tok>
    <orth>#</orth>
    <lex disamb="1"><base>#</base><ctag>interp</ctag></lex>
   </tok>
   <ns/>
   <tok>
    <orth>ksw</orth>
    <lex disamb="1"><base>ksw</base><ctag>ign</ctag></lex>
   </tok>
  </sentence>
 </chunk>
</chunkList>