<?xml version="1.0" encoding="UTF-8"?>
<!DOCTYPE chunkList SYSTEM "ccl.dtd">
<chunkList>
 <chunk type="p" id="ch1">
  <sentence id="s1">
   <tok>
    <orth>Pochwalę</orth>
    <lex disamb="1"><base>pochwalić</base><ctag>fin:sg:pri:perf</ctag></lex>
    <ann chan="timex">0</ann>
    <ann chan="t3_duration">0</ann>
   </tok>
   <tok>
    <orth>wam</orth>
    <lex disamb="1"><base>wy</base><ctag>ppron12:pl:dat:m1:sec</ctag></lex>
    <ann chan="timex">0</ann>
    <ann chan="t3_duration">0</ann>
   </tok>
   <tok>
    <orth>się</orth>
    <lex disamb="1"><base>się</base><ctag>qub</ctag></lex>
    <ann chan="timex">0</ann>
    <ann chan="t3_duration">0</ann>
   </tok>
   <tok>
    <orth>jaki</orth>
    <lex disamb="1"><base>jak</base><ctag>subst:pl:nom:m2</ctag></lex>
    <ann chan="timex">0</ann>
    <ann chan="t3_duration">0</ann>
   </tok>
   <tok>
    <orth>prezent</orth>
    <lex disamb="1"><base>prezent</base><ctag>subst:sg:nom:m3</ctag></lex>
    <ann chan="timex">0</ann>
    <ann chan="t3_duration">0</ann>
   </tok>
   <tok>
    <orth>kilka</orth>
    <lex disamb="1"><base>kilka</base><ctag>subst:sg:nom:f</ctag></lex>
    <ann chan="timex">1</ann>
    <ann chan="t3_duration">1</ann>
   </tok>
   <tok>
    <orth>lat</orth>
    <lex disamb="1"><base>lato</base><ctag>subst:pl:gen:n</ctag></lex>
    <ann chan="timex">1</ann>
    <ann chan="t3_duration">1</ann>
   </tok>
   <tok>
    <orth>temu</orth>
    <lex disamb="1"><base>temu</base><ctag>prep:acc</ctag></lex>
    <ann chan="timex">0</ann>
    <ann chan="t3_duration">0</ann>
   </tok>
   <tok>
    <orth>przygotował</orth>
    <lex disamb="1"><base>przygotować</base><ctag>praet:sg:m1:perf</ctag></lex>
    <ann chan="timex">0</ann>
    <ann chan="t3_duration">0</ann>
   </tok>
   <ns/>
   <tok>
    <orth>em</orth>
    <lex disamb="1"><base>być</base><ctag>aglt:sg:pri:imperf:wok</ctag></lex>
    <ann chan="timex">0</ann>
    <ann chan="t3_duration">0</ann>
   </tok>
   <tok>
    <orth>na</orth>
    <lex disamb="1"><base>na</base><ctag>prep:acc</ctag></lex>
    <ann chan="timex">0</ann>
    <ann chan="t3_duration">0</ann>
   </tok>
   <tok>
    <orth>18</orth>
    <lex disamb="1"><base>18</base><ctag>num:pl:nom:m1:rec</ctag></lex>
    <ann chan="timex">0</ann>
    <ann chan="t3_duration">0</ann>
   </tok>
   <tok>
    <orth>kumpla</orth>
    <lex disamb="1"><base>kumpel</base><ctag>subst:sg:gen:m1</ctag></lex>
    <ann chan="timex">0</ann>
    <ann chan="t3_duration">0</ann>
   </tok>
   <ns/>
   <tok>
    <orth>.</orth>
    <lex disamb="1"><base>.</base><ctag>interp</ctag></lex>
    <ann chan="timex">0</ann>
    <ann chan="t3_duration">0</ann>
   </tok>
  </sentence>
 </chunk>
 <chunk type="p" id="ch2">
  <sentence id="s2">
   <tok>
    <orth>Do</orth>
    <lex disamb="1"><base>do</base><ctag>prep:gen</ctag></lex>
   </tok>
   <tok>
    <orth>2</orth>
    <lex disamb="1"><base>2</base><ctag>num:pl:nom:m1:rec</ctag></lex>
   </tok>
   <tok>
    <orth>szklanych</orth>
    <lex disamb="1"><base>szklany</base><ctag>adj:pl:gen:m1:pos</ctag></lex>
   </tok>
   <tok>
    <orth>butelek</orth>
    <lex disamb="1"><base>butelka</base><ctag>subst:pl:gen:f</ctag></lex>
   </tok>
   <tok>
    <orth>nalał</orth>
    <lex disamb="1"><base>nalać</base><ctag>praet:sg:m1:perf</ctag></lex>
   </tok>
   <ns/>
   <tok>
    <orth>em</orth>
    <lex disamb="1"><base>być</base><ctag>aglt:sg:pri:imperf:wok</ctag></lex>
   </tok>
   <tok>
    <orth>wódki</orth>
    <lex disamb="1"><base>wódka</base><ctag>subst:sg:gen:f</ctag></lex>
   </tok>
   <tok>
    <orth>(</orth>
    <lex disamb="1"><base>(</base><ctag>interp</ctag></lex>
   </tok>
   <ns/>
   <tok>
    <orth>a</orth>
    <lex disamb="1"><base>a</base><ctag>conj</ctag></lex>
   </tok>
   <tok>
    <orth>jak</orth>
    <lex disamb="1"><base>jak</base><ctag>conj</ctag></lex>
   </tok>
   <tok>
    <orth>(</orth>
    <lex disamb="1"><base>(</base><ctag>interp</ctag></lex>
   </tok>
   <tok>
    <orth>͡</orth>
    <lex disamb="1"><base>͡</base><ctag>ign</ctag></lex>
   </tok>
   <ns/>
   <tok>
    <orth>°</orth>
    <lex disamb="1"><base>°</base><ctag>interp</ctag></lex>
   </tok>
   <tok>
    <orth>͜ʖ</orth>
    <lex disamb="1"><base>͜ʖ</base><ctag>ign</ctag></lex>
   </tok>
   <tok>
    <orth>͡</orth>
    <lex disamb="1"><base>͡</base><ctag>ign</ctag></lex>
   </tok>
   <ns/>
   <tok>
    <orth>°</orth>
    <lex disamb="1"><base>°</base><ctag>interp</ctag></lex>
   </tok>
   <ns/>
   <tok>
    <orth>)</orth>
    <lex disamb="1"><base>)</base><ctag>interp</ctag></lex>
   </tok>
   <tok>
    <orth>)</orth>
    <lex disamb="1"><base>)</base><ctag>interp</ctag></lex>
   </tok>
   <tok>
    <orth>z</orth>
    <lex disamb="1"><base>z</base><ctag>prep:gen:nwok</ctag></lex>
   </tok>
   <tok>
    <orth>barwnikiem</orth>
    <lex disamb="1"><base>barwnik</base><ctag>subst:sg:inst:m3</ctag></lex>
   </tok>
   <tok>
    <orth>spożywczym</orth>
    <lex disamb="1"><base>spożywczy</base><ctag>adj:sg:inst:m1:pos</ctag></lex>
   </tok>
   <tok>
    <orth>i</orth>
    <lex disamb="1"><base>i</base><ctag>conj</ctag></lex>
   </tok>
   <tok>
    <orth>nakleił</orth>
    <lex disamb="1"><base>nakleić</base><ctag>praet:sg:m1:perf</ctag></lex>
   </tok>
   <ns/>
   <tok>
    <orth>em</orth>
    <lex disamb="1"><base>być</base><ctag>aglt:sg:pri:imperf:wok</ctag></lex>
   </tok>
   <tok>
    <orth>czarodziejskie</orth>
    <lex disamb="1"><base>czarodziejski</base><ctag>adj:sg:nom:n:pos</ctag></lex>
   </tok>
   <tok>
    <orth>etykiety</orth>
    <lex disamb="1"><base>etykieta</base><ctag>subst:sg:gen:f</ctag></lex>
   </tok>
   <ns/>
   <tok>
    <orth>.</orth>
    <lex disamb="1"><base>.</base><ctag>interp</ctag></lex>
   </tok>
  </sentence>
 </chunk>
 <chunk type="p" id="ch3">
  <sentence id="s3">
   <tok>
    <orth>Efekt</orth>
    <lex disamb="1"><base>efekt</base><ctag>subst:sg:nom:m3</ctag></lex>
   </tok>
   <tok>
    <orth>wyszedł</orth>
    <lex disamb="1"><base>wyjść</base><ctag>praet:sg:m1:perf</ctag></lex>
    <lex disamb="1"><base>wynijść</base><ctag>praet:sg:m1:perf</ctag></lex>
    <lex disamb="1"><base>wyniść</base><ctag>praet:sg:m1:perf</ctag></lex>
   </tok>
   <tok>
    <orth>lepszy</orth>
    <lex disamb="1"><base>dobry</base><ctag>adj:sg:nom:m1:com</ctag></lex>
   </tok>
   <tok>
    <orth>niż</orth>
    <lex disamb="1"><base>niż</base><ctag>conj</ctag></lex>
   </tok>
   <tok>
    <orth>zakładał</orth>
    <lex disamb="1"><base>zakładać</base><ctag>praet:sg:m1:imperf</ctag></lex>
   </tok>
   <ns/>
   <tok>
    <orth>em</orth>
    <lex disamb="1"><base>być</base><ctag>aglt:sg:pri:imperf:wok</ctag></lex>
   </tok>
   <ns/>
   <tok>
    <orth>.</orth>
    <lex disamb="1"><base>.</base><ctag>interp</ctag></lex>
   </tok>
  </sentence>
 </chunk>
 <chunk type="p" id="ch4">
  <sentence id="s4">
   <tok>
    <orth>W</orth>
    <lex disamb="1"><base>w</base><ctag>prep:acc:nwok</ctag></lex>
   </tok>
   <tok>
    <orth>komentarzu</orth>
    <lex disamb="1"><base>komentarz</base><ctag>subst:sg:loc:m3</ctag></lex>
   </tok>
   <tok>
    <orth>etykieta</orth>
    <lex disamb="1"><base>etykieta</base><ctag>subst:sg:nom:f</ctag></lex>
   </tok>
   <tok>
    <orth>z</orth>
    <lex disamb="1"><base>z</base><ctag>prep:gen:nwok</ctag></lex>
   </tok>
   <tok>
    <orth>drugiej</orth>
    <lex disamb="1"><base>druga</base><ctag>subst:sg:gen:f</ctag></lex>
   </tok>
   <tok>
    <orth>strony</orth>
    <lex disamb="1"><base>strona</base><ctag>subst:sg:gen:f</ctag></lex>
   </tok>
  </sentence>
 </chunk>
 <chunk type="p" id="ch5">
  <sentence id="s5">
   <tok>
    <orth>#</orth>
    <lex disamb="1"><base>#</base><ctag>interp</ctag></lex>
   </tok>
   <ns/>
   <tok>
    <orth>heheszki</orth>
    <lex disamb="1"><base>heheszki</base><ctag>ign</ctag></lex>
   </tok>
   <tok>
    <orth>#</orth>
    <lex disamb="1"><base>#</base><ctag>interp</ctag></lex>
   </tok>
   <ns/>
   <tok>
    <orth>alkohol</orth>
    <lex disamb="1"><base>alkohol</base><ctag>subst:sg:nom:m3</ctag></lex>
   </tok>
   <tok>
    <orth>#</orth>
    <lex disamb="1"><base>#</base><ctag>interp</ctag></lex>
   </tok>
   <ns/>
   <tok>
    <orth>magia</orth>
    <lex disamb="1"><base>magia</base><ctag>subst:sg:nom:f</ctag></lex>
   </tok>
   <tok>
    <orth>#</orth>
    <lex disamb="1"><base>#</base><ctag>interp</ctag></lex>
   </tok>
   <ns/>
   <tok>
    <orth>czarnamagia</orth>
    <lex disamb="1"><base>czarnamagia</base><ctag>ign</ctag></lex>
   </tok>
   <tok>
    <orth>#</orth>
    <lex disamb="1"><base>#</base><ctag>interp</ctag></lex>
   </tok>
   <ns/>
   <tok>
    <orth>potiony</orth>
    <lex disamb="1"><base>potiony</base><ctag>ign</ctag></lex>
   </tok>
  </sentence>
 </chunk>
</chunkList>