<?xml version="1.0" encoding="UTF-8"?>
<!DOCTYPE chunkList SYSTEM "ccl.dtd">
<chunkList>
 <chunk type="p" id="ch1">
  <sentence id="s1">
   <tok>
    <orth>Bo</orth>
    <lex disamb="1"><base>bo</base><ctag>comp</ctag></lex>
   </tok>
   <tok>
    <orth>do</orth>
    <lex disamb="1"><base>do</base><ctag>prep:gen</ctag></lex>
   </tok>
   <tok>
    <orth>grania</orth>
    <lex disamb="1"><base>granie</base><ctag>subst:sg:gen:n</ctag></lex>
   </tok>
   <tok>
    <orth>trzeba</orth>
    <lex disamb="1"><base>trzeba</base><ctag>pred</ctag></lex>
   </tok>
   <tok>
    <orth>dwojga</orth>
    <lex disamb="1"><base>dwa</base><ctag>num:pl:nom:m1:rec</ctag></lex>
    <lex disamb="1"><base>dwa</base><ctag>num:pl:nom:m1:rec</ctag></lex>
   </tok>
   <ns/>
   <tok>
    <orth>.</orth>
    <lex disamb="1"><base>.</base><ctag>interp</ctag></lex>
   </tok>
   <ns/>
   <tok>
    <orth>.</orth>
    <lex disamb="1"><base>.</base><ctag>interp</ctag></lex>
   </tok>
   <ns/>
   <tok>
    <orth>.</orth>
    <lex disamb="1"><base>.</base><ctag>interp</ctag></lex>
   </tok>
   <ns/>
   <tok>
    <orth>.</orth>
    <lex disamb="1"><base>.</base><ctag>interp</ctag></lex>
   </tok>
  </sentence>
 </chunk>
</chunkList>