<?xml version="1.0" encoding="UTF-8"?>
<!DOCTYPE chunkList SYSTEM "ccl.dtd">
<chunkList>
 <chunk type="p" id="ch1">
  <sentence id="s1">
   <tok>
    <orth>Siema</orth>
    <lex disamb="1"><base>Siema</base><ctag>ign</ctag></lex>
   </tok>
   <tok>
    <orth>albo</orth>
    <lex disamb="1"><base>albo</base><ctag>conj</ctag></lex>
   </tok>
   <tok>
    <orth>sie</orth>
    <lex disamb="1"><base>si</base><ctag>adj:pl:nom:m2:pos</ctag></lex>
   </tok>
   <tok>
    <orth>nie</orth>
    <lex disamb="1"><base>nie</base><ctag>conj</ctag></lex>
   </tok>
   <tok>
    <orth>ma</orth>
    <lex disamb="1"><base>mój</base><ctag>adj:sg:nom:f:pos</ctag></lex>
   </tok>
   <ns/>
   <tok>
    <orth>!</orth>
    <lex disamb="1"><base>!</base><ctag>interp</ctag></lex>
   </tok>
  </sentence>
 </chunk>
 <chunk type="p" id="ch2">
  <sentence id="s2">
   <tok>
    <orth>Kolejne</orth>
    <lex disamb="1"><base>kolejny</base><ctag>adj:sg:nom:n:pos</ctag></lex>
    <ann chan="nam">0</ann>
    <ann chan="nam_liv_person">0</ann>
    <ann chan="nam_liv">0</ann>
   </tok>
   <tok>
    <orth>#</orth>
    <lex disamb="1"><base>#</base><ctag>interp</ctag></lex>
    <ann chan="nam">0</ann>
    <ann chan="nam_liv_person">0</ann>
    <ann chan="nam_liv">0</ann>
   </tok>
   <ns/>
   <tok>
    <orth>rozdajo</orth>
    <lex disamb="1"><base>rozdajo</base><ctag>ign</ctag></lex>
    <ann chan="nam">0</ann>
    <ann chan="nam_liv_person">0</ann>
    <ann chan="nam_liv">0</ann>
   </tok>
   <tok>
    <orth>z</orth>
    <lex disamb="1"><base>z</base><ctag>prep:gen:nwok</ctag></lex>
    <ann chan="nam">0</ann>
    <ann chan="nam_liv_person">0</ann>
    <ann chan="nam_liv">0</ann>
   </tok>
   <tok>
    <orth>okazji</orth>
    <lex disamb="1"><base>okazja</base><ctag>subst:sg:gen:f</ctag></lex>
    <ann chan="nam">0</ann>
    <ann chan="nam_liv_person">0</ann>
    <ann chan="nam_liv">0</ann>
   </tok>
   <tok>
    <orth>mikołajkowego</orth>
    <lex disamb="1"><base>mikołajkowy</base><ctag>adj:sg:gen:m1:pos</ctag></lex>
    <ann chan="nam">0</ann>
    <ann chan="nam_liv_person">0</ann>
    <ann chan="nam_liv">0</ann>
   </tok>
   <tok>
    <orth>#</orth>
    <lex disamb="1"><base>#</base><ctag>interp</ctag></lex>
    <ann chan="nam">0</ann>
    <ann chan="nam_liv_person">0</ann>
    <ann chan="nam_liv">0</ann>
   </tok>
   <ns/>
   <tok>
    <orth>pixelxmas</orth>
    <lex disamb="1"><base>pixelxmas</base><ctag>ign</ctag></lex>
    <ann chan="nam">0</ann>
    <ann chan="nam_liv_person">0</ann>
    <ann chan="nam_liv">0</ann>
   </tok>
   <tok>
    <orth>(</orth>
    <lex disamb="1"><base>(</base><ctag>interp</ctag></lex>
    <ann chan="nam">0</ann>
    <ann chan="nam_liv_person">0</ann>
    <ann chan="nam_liv">0</ann>
   </tok>
   <tok>
    <orth>͡</orth>
    <lex disamb="1"><base>͡</base><ctag>ign</ctag></lex>
    <ann chan="nam">0</ann>
    <ann chan="nam_liv_person">0</ann>
    <ann chan="nam_liv">0</ann>
   </tok>
   <ns/>
   <tok>
    <orth>°</orth>
    <lex disamb="1"><base>°</base><ctag>interp</ctag></lex>
    <ann chan="nam">0</ann>
    <ann chan="nam_liv_person">0</ann>
    <ann chan="nam_liv">0</ann>
   </tok>
   <tok>
    <orth>͜ʖ</orth>
    <lex disamb="1"><base>͜ʖ</base><ctag>ign</ctag></lex>
    <ann chan="nam">0</ann>
    <ann chan="nam_liv_person">0</ann>
    <ann chan="nam_liv">0</ann>
   </tok>
   <tok>
    <orth>͡</orth>
    <lex disamb="1"><base>͡</base><ctag>ign</ctag></lex>
    <ann chan="nam">0</ann>
    <ann chan="nam_liv_person">0</ann>
    <ann chan="nam_liv">0</ann>
   </tok>
   <ns/>
   <tok>
    <orth>°</orth>
    <lex disamb="1"><base>°</base><ctag>interp</ctag></lex>
    <ann chan="nam">0</ann>
    <ann chan="nam_liv_person">0</ann>
    <ann chan="nam_liv">0</ann>
   </tok>
   <ns/>
   <tok>
    <orth>)</orth>
    <lex disamb="1"><base>)</base><ctag>interp</ctag></lex>
    <ann chan="nam">0</ann>
    <ann chan="nam_liv_person">0</ann>
    <ann chan="nam_liv">0</ann>
   </tok>
   <tok>
    <orth>Dzisiaj</orth>
    <lex disamb="1"><base>dzisiaj</base><ctag>adv:pos</ctag></lex>
    <ann chan="nam">0</ann>
    <ann chan="nam_liv_person">0</ann>
    <ann chan="nam_liv">0</ann>
   </tok>
   <tok>
    <orth>niestety</orth>
    <lex disamb="1"><base>niestety</base><ctag>qub</ctag></lex>
    <ann chan="nam">0</ann>
    <ann chan="nam_liv_person">0</ann>
    <ann chan="nam_liv">0</ann>
   </tok>
   <tok>
    <orth>późno</orth>
    <lex disamb="1"><base>późno</base><ctag>adv:pos</ctag></lex>
    <ann chan="nam">0</ann>
    <ann chan="nam_liv_person">0</ann>
    <ann chan="nam_liv">0</ann>
   </tok>
   <tok>
    <orth>zaczynamy</orth>
    <lex disamb="1"><base>zaczynać</base><ctag>fin:pl:pri:imperf</ctag></lex>
    <ann chan="nam">0</ann>
    <ann chan="nam_liv_person">0</ann>
    <ann chan="nam_liv">0</ann>
   </tok>
   <tok>
    <orth>losowanie</orth>
    <lex disamb="1"><base>losowanie</base><ctag>subst:sg:nom:n</ctag></lex>
    <ann chan="nam">0</ann>
    <ann chan="nam_liv_person">0</ann>
    <ann chan="nam_liv">0</ann>
   </tok>
   <ns/>
   <tok>
    <orth>,</orth>
    <lex disamb="1"><base>,</base><ctag>interp</ctag></lex>
    <ann chan="nam">0</ann>
    <ann chan="nam_liv_person">0</ann>
    <ann chan="nam_liv">0</ann>
   </tok>
   <tok>
    <orth>ale</orth>
    <lex disamb="1"><base>ale</base><ctag>conj</ctag></lex>
    <ann chan="nam">0</ann>
    <ann chan="nam_liv_person">0</ann>
    <ann chan="nam_liv">0</ann>
   </tok>
   <tok>
    <orth>warto</orth>
    <lex disamb="1"><base>warto</base><ctag>pred</ctag></lex>
    <ann chan="nam">0</ann>
    <ann chan="nam_liv_person">0</ann>
    <ann chan="nam_liv">0</ann>
   </tok>
   <tok>
    <orth>było</orth>
    <lex disamb="1"><base>być</base><ctag>praet:sg:n:imperf</ctag></lex>
    <ann chan="nam">0</ann>
    <ann chan="nam_liv_person">0</ann>
    <ann chan="nam_liv">0</ann>
   </tok>
   <tok>
    <orth>czekać</orth>
    <lex disamb="1"><base>czekać</base><ctag>inf:imperf</ctag></lex>
    <ann chan="nam">0</ann>
    <ann chan="nam_liv_person">0</ann>
    <ann chan="nam_liv">0</ann>
   </tok>
   <ns/>
   <tok>
    <orth>,</orth>
    <lex disamb="1"><base>,</base><ctag>interp</ctag></lex>
    <ann chan="nam">0</ann>
    <ann chan="nam_liv_person">0</ann>
    <ann chan="nam_liv">0</ann>
   </tok>
   <tok>
    <orth>oj</orth>
    <lex disamb="1"><base>oj</base><ctag>interj</ctag></lex>
    <ann chan="nam">0</ann>
    <ann chan="nam_liv_person">0</ann>
    <ann chan="nam_liv">0</ann>
   </tok>
   <tok>
    <orth>warto</orth>
    <lex disamb="1"><base>warto</base><ctag>pred</ctag></lex>
    <ann chan="nam">0</ann>
    <ann chan="nam_liv_person">0</ann>
    <ann chan="nam_liv">0</ann>
   </tok>
   <tok>
    <orth>(</orth>
    <lex disamb="1"><base>(</base><ctag>interp</ctag></lex>
    <ann chan="nam">0</ann>
    <ann chan="nam_liv_person">0</ann>
    <ann chan="nam_liv">0</ann>
   </tok>
   <ns/>
   <tok>
    <orth>ʘ</orth>
    <lex disamb="1"><base>ʘ</base><ctag>ign</ctag></lex>
    <ann chan="nam">0</ann>
    <ann chan="nam_liv_person">0</ann>
    <ann chan="nam_liv">0</ann>
   </tok>
   <ns/>
   <tok>
    <orth>‿</orth>
    <lex disamb="1"><base>‿</base><ctag>interp</ctag></lex>
    <ann chan="nam">0</ann>
    <ann chan="nam_liv_person">0</ann>
    <ann chan="nam_liv">0</ann>
   </tok>
   <ns/>
   <tok>
    <orth>ʘ</orth>
    <lex disamb="1"><base>ʘ</base><ctag>ign</ctag></lex>
    <ann chan="nam">0</ann>
    <ann chan="nam_liv_person">0</ann>
    <ann chan="nam_liv">0</ann>
   </tok>
   <ns/>
   <tok>
    <orth>)</orth>
    <lex disamb="1"><base>)</base><ctag>interp</ctag></lex>
    <ann chan="nam">0</ann>
    <ann chan="nam_liv_person">0</ann>
    <ann chan="nam_liv">0</ann>
   </tok>
   <tok>
    <orth>Coś</orth>
    <lex disamb="1"><base>coś</base><ctag>qub</ctag></lex>
    <ann chan="nam">0</ann>
    <ann chan="nam_liv_person">0</ann>
    <ann chan="nam_liv">0</ann>
   </tok>
   <tok>
    <orth>dla</orth>
    <lex disamb="1"><base>dla</base><ctag>prep:gen</ctag></lex>
    <ann chan="nam">0</ann>
    <ann chan="nam_liv_person">0</ann>
    <ann chan="nam_liv">0</ann>
   </tok>
   <tok>
    <orth>fanów</orth>
    <lex disamb="1"><base>fan</base><ctag>subst:pl:gen:m1</ctag></lex>
    <ann chan="nam">0</ann>
    <ann chan="nam_liv_person">0</ann>
    <ann chan="nam_liv">0</ann>
   </tok>
   <tok>
    <orth>#</orth>
    <lex disamb="1"><base>#</base><ctag>interp</ctag></lex>
    <ann chan="nam">0</ann>
    <ann chan="nam_liv_person">0</ann>
    <ann chan="nam_liv">0</ann>
   </tok>
   <ns/>
   <tok>
    <orth>rickandmorty</orth>
    <lex disamb="1"><base>rickandmorty</base><ctag>ign</ctag></lex>
    <ann chan="nam">0</ann>
    <ann chan="nam_liv_person">0</ann>
    <ann chan="nam_liv">0</ann>
   </tok>
   <tok>
    <orth>(</orth>
    <lex disamb="1"><base>(</base><ctag>interp</ctag></lex>
    <ann chan="nam">0</ann>
    <ann chan="nam_liv_person">0</ann>
    <ann chan="nam_liv">0</ann>
   </tok>
   <ns/>
   <tok>
    <orth>ostatnio</orth>
    <lex disamb="1"><base>ostatnio</base><ctag>adv:pos</ctag></lex>
    <ann chan="nam">0</ann>
    <ann chan="nam_liv_person">0</ann>
    <ann chan="nam_liv">0</ann>
   </tok>
   <tok>
    <orth>strzelił</orth>
    <lex disamb="1"><base>strzelić</base><ctag>praet:sg:m1:perf</ctag></lex>
    <ann chan="nam">0</ann>
    <ann chan="nam_liv_person">0</ann>
    <ann chan="nam_liv">0</ann>
   </tok>
   <ns/>
   <tok>
    <orth>em</orth>
    <lex disamb="1"><base>być</base><ctag>aglt:sg:pri:imperf:wok</ctag></lex>
    <ann chan="nam">0</ann>
    <ann chan="nam_liv_person">0</ann>
    <ann chan="nam_liv">0</ann>
   </tok>
   <tok>
    <orth>Ricky</orth>
    <lex disamb="1"><base>Ricky</base><ctag>ign</ctag></lex>
    <ann chan="nam">1</ann>
    <ann chan="nam_liv_person">1</ann>
    <ann chan="nam_liv">1</ann>
   </tok>
   <tok>
    <orth>i</orth>
    <lex disamb="1"><base>i</base><ctag>conj</ctag></lex>
    <ann chan="nam">0</ann>
    <ann chan="nam_liv_person">0</ann>
    <ann chan="nam_liv">0</ann>
   </tok>
   <tok>
    <orth>Martina</orth>
    <lex disamb="1"><base>Martin</base><ctag>subst:sg:gen:m1</ctag></lex>
    <ann chan="nam">2</ann>
    <ann chan="nam_liv_person">2</ann>
    <ann chan="nam_liv">2</ann>
   </tok>
   <tok>
    <orth>(</orth>
    <lex disamb="1"><base>(</base><ctag>interp</ctag></lex>
    <ann chan="nam">0</ann>
    <ann chan="nam_liv_person">0</ann>
    <ann chan="nam_liv">0</ann>
   </tok>
   <tok>
    <orth>͡</orth>
    <lex disamb="1"><base>͡</base><ctag>ign</ctag></lex>
    <ann chan="nam">0</ann>
    <ann chan="nam_liv_person">0</ann>
    <ann chan="nam_liv">0</ann>
   </tok>
   <ns/>
   <tok>
    <orth>°</orth>
    <lex disamb="1"><base>°</base><ctag>interp</ctag></lex>
    <ann chan="nam">0</ann>
    <ann chan="nam_liv_person">0</ann>
    <ann chan="nam_liv">0</ann>
   </tok>
   <tok>
    <orth>͜ʖ</orth>
    <lex disamb="1"><base>͜ʖ</base><ctag>ign</ctag></lex>
    <ann chan="nam">0</ann>
    <ann chan="nam_liv_person">0</ann>
    <ann chan="nam_liv">0</ann>
   </tok>
   <tok>
    <orth>͡</orth>
    <lex disamb="1"><base>͡</base><ctag>ign</ctag></lex>
    <ann chan="nam">0</ann>
    <ann chan="nam_liv_person">0</ann>
    <ann chan="nam_liv">0</ann>
   </tok>
   <ns/>
   <tok>
    <orth>°</orth>
    <lex disamb="1"><base>°</base><ctag>interp</ctag></lex>
    <ann chan="nam">0</ann>
    <ann chan="nam_liv_person">0</ann>
    <ann chan="nam_liv">0</ann>
   </tok>
   <ns/>
   <tok>
    <orth>)</orth>
    <lex disamb="1"><base>)</base><ctag>interp</ctag></lex>
    <ann chan="nam">0</ann>
    <ann chan="nam_liv_person">0</ann>
    <ann chan="nam_liv">0</ann>
   </tok>
   <tok>
    <orth>)</orth>
    <lex disamb="1"><base>)</base><ctag>interp</ctag></lex>
    <ann chan="nam">0</ann>
    <ann chan="nam_liv_person">0</ann>
    <ann chan="nam_liv">0</ann>
   </tok>
   <tok>
    <orth>i</orth>
    <lex disamb="1"><base>i</base><ctag>conj</ctag></lex>
    <ann chan="nam">0</ann>
    <ann chan="nam_liv_person">0</ann>
    <ann chan="nam_liv">0</ann>
   </tok>
   <tok>
    <orth>dla</orth>
    <lex disamb="1"><base>dla</base><ctag>prep:gen</ctag></lex>
    <ann chan="nam">0</ann>
    <ann chan="nam_liv_person">0</ann>
    <ann chan="nam_liv">0</ann>
   </tok>
   <tok>
    <orth>fanatyków</orth>
    <lex disamb="1"><base>fanatyk</base><ctag>subst:pl:gen:m1</ctag></lex>
    <ann chan="nam">0</ann>
    <ann chan="nam_liv_person">0</ann>
    <ann chan="nam_liv">0</ann>
   </tok>
   <tok>
    <orth>#</orth>
    <lex disamb="1"><base>#</base><ctag>interp</ctag></lex>
    <ann chan="nam">0</ann>
    <ann chan="nam_liv_person">0</ann>
    <ann chan="nam_liv">0</ann>
   </tok>
   <ns/>
   <tok>
    <orth>puzzle</orth>
    <lex disamb="1"><base>puzzel</base><ctag>subst:pl:nom:m2</ctag></lex>
    <ann chan="nam">0</ann>
    <ann chan="nam_liv_person">0</ann>
    <ann chan="nam_liv">0</ann>
   </tok>
   <tok>
    <orth>300</orth>
    <lex disamb="1"><base>300</base><ctag>num:pl:nom:m1:rec</ctag></lex>
    <ann chan="nam">0</ann>
    <ann chan="nam_liv_person">0</ann>
    <ann chan="nam_liv">0</ann>
   </tok>
   <tok>
    <orth>elementów</orth>
    <lex disamb="1"><base>element</base><ctag>subst:pl:gen:m3</ctag></lex>
    <ann chan="nam">0</ann>
    <ann chan="nam_liv_person">0</ann>
    <ann chan="nam_liv">0</ann>
   </tok>
   <tok>
    <orth>czystego</orth>
    <lex disamb="1"><base>czysty</base><ctag>adj:sg:gen:m1:pos</ctag></lex>
    <ann chan="nam">0</ann>
    <ann chan="nam_liv_person">0</ann>
    <ann chan="nam_liv">0</ann>
   </tok>
   <tok>
    <orth>szczęścia</orth>
    <lex disamb="1"><base>szczęście</base><ctag>subst:sg:gen:n</ctag></lex>
    <ann chan="nam">0</ann>
    <ann chan="nam_liv_person">0</ann>
    <ann chan="nam_liv">0</ann>
   </tok>
   <ns/>
   <tok>
    <orth>,</orth>
    <lex disamb="1"><base>,</base><ctag>interp</ctag></lex>
    <ann chan="nam">0</ann>
    <ann chan="nam_liv_person">0</ann>
    <ann chan="nam_liv">0</ann>
   </tok>
   <tok>
    <orth>wubba</orth>
    <lex disamb="1"><base>wubba</base><ctag>ign</ctag></lex>
    <ann chan="nam">0</ann>
    <ann chan="nam_liv_person">0</ann>
    <ann chan="nam_liv">0</ann>
   </tok>
   <tok>
    <orth>lubba</orth>
    <lex disamb="1"><base>lubba</base><ctag>ign</ctag></lex>
    <ann chan="nam">0</ann>
    <ann chan="nam_liv_person">0</ann>
    <ann chan="nam_liv">0</ann>
   </tok>
   <tok>
    <orth>dub</orth>
    <lex disamb="1"><base>dub</base><ctag>ign</ctag></lex>
    <ann chan="nam">0</ann>
    <ann chan="nam_liv_person">0</ann>
    <ann chan="nam_liv">0</ann>
   </tok>
   <tok>
    <orth>dub</orth>
    <lex disamb="1"><base>dub</base><ctag>ign</ctag></lex>
    <ann chan="nam">0</ann>
    <ann chan="nam_liv_person">0</ann>
    <ann chan="nam_liv">0</ann>
   </tok>
   <tok>
    <orth>(</orth>
    <lex disamb="1"><base>(</base><ctag>interp</ctag></lex>
    <ann chan="nam">0</ann>
    <ann chan="nam_liv_person">0</ann>
    <ann chan="nam_liv">0</ann>
   </tok>
   <ns/>
   <tok>
    <orth>｡</orth>
    <lex disamb="1"><base>｡</base><ctag>interp</ctag></lex>
    <ann chan="nam">0</ann>
    <ann chan="nam_liv_person">0</ann>
    <ann chan="nam_liv">0</ann>
   </tok>
   <ns/>
   <tok>
    <orth>◕</orth>
    <lex disamb="1"><base>◕</base><ctag>interp</ctag></lex>
    <ann chan="nam">0</ann>
    <ann chan="nam_liv_person">0</ann>
    <ann chan="nam_liv">0</ann>
   </tok>
   <ns/>
   <tok>
    <orth>‿</orth>
    <lex disamb="1"><base>‿</base><ctag>interp</ctag></lex>
    <ann chan="nam">0</ann>
    <ann chan="nam_liv_person">0</ann>
    <ann chan="nam_liv">0</ann>
   </tok>
   <ns/>
   <tok>
    <orth>‿</orth>
    <lex disamb="1"><base>‿</base><ctag>interp</ctag></lex>
    <ann chan="nam">0</ann>
    <ann chan="nam_liv_person">0</ann>
    <ann chan="nam_liv">0</ann>
   </tok>
   <ns/>
   <tok>
    <orth>◕</orth>
    <lex disamb="1"><base>◕</base><ctag>interp</ctag></lex>
    <ann chan="nam">0</ann>
    <ann chan="nam_liv_person">0</ann>
    <ann chan="nam_liv">0</ann>
   </tok>
   <ns/>
   <tok>
    <orth>｡</orth>
    <lex disamb="1"><base>｡</base><ctag>interp</ctag></lex>
    <ann chan="nam">0</ann>
    <ann chan="nam_liv_person">0</ann>
    <ann chan="nam_liv">0</ann>
   </tok>
   <ns/>
   <tok>
    <orth>)</orth>
    <lex disamb="1"><base>)</base><ctag>interp</ctag></lex>
    <ann chan="nam">0</ann>
    <ann chan="nam_liv_person">0</ann>
    <ann chan="nam_liv">0</ann>
   </tok>
   <tok>
    <orth>!</orth>
    <lex disamb="1"><base>!</base><ctag>interp</ctag></lex>
    <ann chan="nam">0</ann>
    <ann chan="nam_liv_person">0</ann>
    <ann chan="nam_liv">0</ann>
   </tok>
   <ns/>
   <tok>
    <orth>!</orth>
    <lex disamb="1"><base>!</base><ctag>interp</ctag></lex>
    <ann chan="nam">0</ann>
    <ann chan="nam_liv_person">0</ann>
    <ann chan="nam_liv">0</ann>
   </tok>
  </sentence>
 </chunk>
 <chunk type="p" id="ch3">
  <sentence id="s3">
   <tok>
    <orth>Standardowo</orth>
    <lex disamb="1"><base>standardowo</base><ctag>adv:pos</ctag></lex>
   </tok>
   <tok>
    <orth>wygrywa</orth>
    <lex disamb="1"><base>wygrywać</base><ctag>fin:sg:ter:imperf</ctag></lex>
   </tok>
   <tok>
    <orth>jedna</orth>
    <lex disamb="1"><base>jeden</base><ctag>adj:sg:nom:f:pos</ctag></lex>
   </tok>
   <tok>
    <orth>osoba</orth>
    <lex disamb="1"><base>osoba</base><ctag>subst:sg:nom:f</ctag></lex>
   </tok>
   <tok>
    <orth>spośród</orth>
    <lex disamb="1"><base>spośród</base><ctag>prep:gen</ctag></lex>
   </tok>
   <tok>
    <orth>wszystkich</orth>
    <lex disamb="1"><base>wszyscy</base><ctag>subst:pl:gen:m1</ctag></lex>
   </tok>
   <tok>
    <orth>pulsujących</orth>
    <lex disamb="1"><base>pulsujący</base><ctag>adj:pl:gen:m1:pos</ctag></lex>
   </tok>
   <tok>
    <orth>ale</orth>
    <lex disamb="1"><base>ale</base><ctag>conj</ctag></lex>
   </tok>
   <tok>
    <orth>możecie</orth>
    <lex disamb="1"><base>móc</base><ctag>fin:pl:sec:imperf</ctag></lex>
   </tok>
   <tok>
    <orth>zwiększyć</orth>
    <lex disamb="1"><base>zwiększyć</base><ctag>inf:perf</ctag></lex>
   </tok>
   <tok>
    <orth>swoją</orth>
    <lex disamb="1"><base>swój</base><ctag>adj:sg:acc:f:pos</ctag></lex>
   </tok>
   <tok>
    <orth>szanse</orth>
    <lex disamb="1"><base>szansa</base><ctag>subst:pl:nom:f</ctag></lex>
   </tok>
   <tok>
    <orth>wrzucając</orth>
    <lex disamb="1"><base>wrzucać</base><ctag>pcon:imperf</ctag></lex>
   </tok>
   <tok>
    <orth>#</orth>
    <lex disamb="1"><base>#</base><ctag>interp</ctag></lex>
   </tok>
   <ns/>
   <tok>
    <orth>humorobrazkowy</orth>
    <lex disamb="1"><base>humorobrazkowy</base><ctag>ign</ctag></lex>
   </tok>
   <tok>
    <orth>i</orth>
    <lex disamb="1"><base>i</base><ctag>conj</ctag></lex>
   </tok>
   <tok>
    <orth>#</orth>
    <lex disamb="1"><base>#</base><ctag>interp</ctag></lex>
   </tok>
   <ns/>
   <tok>
    <orth>heheszki</orth>
    <lex disamb="1"><base>heheszki</base><ctag>ign</ctag></lex>
   </tok>
   <tok>
    <orth>TYLKO</orth>
    <lex disamb="1"><base>tylko</base><ctag>conj</ctag></lex>
   </tok>
   <tok>
    <orth>związane</orth>
    <lex disamb="1"><base>związać</base><ctag>ppas:sg:nom:n:perf:aff</ctag></lex>
   </tok>
   <tok>
    <orth>z</orth>
    <lex disamb="1"><base>z</base><ctag>prep:gen:nwok</ctag></lex>
   </tok>
   <tok>
    <orth>#</orth>
    <lex disamb="1"><base>#</base><ctag>interp</ctag></lex>
   </tok>
   <ns/>
   <tok>
    <orth>rickandmorty</orth>
    <lex disamb="1"><base>rickandmorty</base><ctag>ign</ctag></lex>
   </tok>
   <tok>
    <orth>Obserwujcie</orth>
    <lex disamb="1"><base>obserwować</base><ctag>impt:pl:sec:imperf</ctag></lex>
   </tok>
   <tok>
    <orth>nasze</orth>
    <lex disamb="1"><base>nasze</base><ctag>subst:sg:nom:n</ctag></lex>
   </tok>
   <tok>
    <orth>tagi</orth>
    <lex disamb="1"><base>tag</base><ctag>subst:pl:nom:m3</ctag></lex>
   </tok>
   <ns/>
   <tok>
    <orth>:</orth>
    <lex disamb="1"><base>:</base><ctag>interp</ctag></lex>
   </tok>
   <tok>
    <orth>#</orth>
    <lex disamb="1"><base>#</base><ctag>interp</ctag></lex>
   </tok>
   <ns/>
   <tok>
    <orth>pixelday</orth>
    <lex disamb="1"><base>pixelday</base><ctag>ign</ctag></lex>
   </tok>
   <tok>
    <orth>-</orth>
    <lex disamb="1"><base>-</base><ctag>interp</ctag></lex>
   </tok>
   <tok>
    <orth>dużo</orth>
    <lex disamb="1"><base>dużo</base><ctag>adv:pos</ctag></lex>
   </tok>
   <tok>
    <orth>głupotę</orth>
    <lex disamb="1"><base>głupota</base><ctag>subst:sg:acc:f</ctag></lex>
   </tok>
   <tok>
    <orth>mniej</orth>
    <lex disamb="1"><base>mało</base><ctag>adv:pos</ctag></lex>
   </tok>
   <tok>
    <orth>lub</orth>
    <lex disamb="1"><base>lub</base><ctag>conj</ctag></lex>
   </tok>
   <tok>
    <orth>bardziej</orth>
    <lex disamb="1"><base>bardziej</base><ctag>adv:pos</ctag></lex>
   </tok>
   <tok>
    <orth>związanych</orth>
    <lex disamb="1"><base>związać</base><ctag>ppas:pl:gen:m1:perf:aff</ctag></lex>
   </tok>
   <tok>
    <orth>z</orth>
    <lex disamb="1"><base>z</base><ctag>prep:gen:nwok</ctag></lex>
   </tok>
   <tok>
    <orth>tematyka</orth>
    <lex disamb="1"><base>tematyka</base><ctag>subst:sg:nom:f</ctag></lex>
   </tok>
   <tok>
    <orth>popkulturowa</orth>
    <lex disamb="1"><base>popkulturowy</base><ctag>adj:sg:nom:f:pos</ctag></lex>
   </tok>
   <tok>
    <orth>i</orth>
    <lex disamb="1"><base>i</base><ctag>conj</ctag></lex>
   </tok>
   <tok>
    <orth>gamingową</orth>
    <lex disamb="1"><base>gamingową</base><ctag>ign</ctag></lex>
   </tok>
   <ns/>
   <tok>
    <orth>.</orth>
    <lex disamb="1"><base>.</base><ctag>interp</ctag></lex>
   </tok>
  </sentence>
 </chunk>
 <chunk type="p" id="ch4">
  <sentence id="s4">
   <tok>
    <orth>#</orth>
    <lex disamb="1"><base>#</base><ctag>interp</ctag></lex>
    <ann chan="timex">0</ann>
    <ann chan="t3_duration">0</ann>
    <ann chan="t3_set">0</ann>
   </tok>
   <ns/>
   <tok>
    <orth>pixelxmas</orth>
    <lex disamb="1"><base>pixelxmas</base><ctag>ign</ctag></lex>
    <ann chan="timex">0</ann>
    <ann chan="t3_duration">0</ann>
    <ann chan="t3_set">0</ann>
   </tok>
   <tok>
    <orth>-</orth>
    <lex disamb="1"><base>-</base><ctag>interp</ctag></lex>
    <ann chan="timex">0</ann>
    <ann chan="t3_duration">0</ann>
    <ann chan="t3_set">0</ann>
   </tok>
   <tok>
    <orth>przez</orth>
    <lex disamb="1"><base>przez</base><ctag>prep:acc:nwok</ctag></lex>
    <ann chan="timex">0</ann>
    <ann chan="t3_duration">0</ann>
    <ann chan="t3_set">0</ann>
   </tok>
   <tok>
    <orth>następne</orth>
    <lex disamb="1"><base>następna</base><ctag>subst:pl:nom:f</ctag></lex>
    <ann chan="timex">0</ann>
    <ann chan="t3_duration">0</ann>
    <ann chan="t3_set">0</ann>
   </tok>
   <tok>
    <orth>7</orth>
    <lex disamb="1"><base>7</base><ctag>num:pl:nom:m1:rec</ctag></lex>
    <ann chan="timex">1</ann>
    <ann chan="t3_duration">1</ann>
    <ann chan="t3_set">0</ann>
   </tok>
   <tok>
    <orth>dni</orth>
    <lex disamb="1"><base>dzień</base><ctag>subst:pl:nom:m3</ctag></lex>
    <ann chan="timex">1</ann>
    <ann chan="t3_duration">1</ann>
    <ann chan="t3_set">0</ann>
   </tok>
   <tok>
    <orth>codziennie</orth>
    <lex disamb="1"><base>codziennie</base><ctag>adv:pos</ctag></lex>
    <ann chan="timex">2</ann>
    <ann chan="t3_duration">0</ann>
    <ann chan="t3_set">1</ann>
   </tok>
   <tok>
    <orth>inna</orth>
    <lex disamb="1"><base>inny</base><ctag>adj:sg:nom:f:pos</ctag></lex>
    <ann chan="timex">0</ann>
    <ann chan="t3_duration">0</ann>
    <ann chan="t3_set">0</ann>
   </tok>
   <tok>
    <orth>rozdawka</orth>
    <lex disamb="1"><base>rozdawka</base><ctag>subst:sg:nom:f</ctag></lex>
    <ann chan="timex">0</ann>
    <ann chan="t3_duration">0</ann>
    <ann chan="t3_set">0</ann>
   </tok>
   <ns/>
   <tok>
    <orth>!</orth>
    <lex disamb="1"><base>!</base><ctag>interp</ctag></lex>
    <ann chan="timex">0</ann>
    <ann chan="t3_duration">0</ann>
    <ann chan="t3_set">0</ann>
   </tok>
  </sentence>
 </chunk>
 <chunk type="p" id="ch5">
  <sentence id="s5">
   <tok>
    <orth>Oraz</orth>
    <lex disamb="1"><base>oraz</base><ctag>conj</ctag></lex>
   </tok>
   <tok>
    <orth>obserwujcie</orth>
    <lex disamb="1"><base>obserwować</base><ctag>impt:pl:sec:imperf</ctag></lex>
   </tok>
   <tok>
    <orth>nasz</orth>
    <lex disamb="1"><base>nasz</base><ctag>adj:sg:nom:m1:pos</ctag></lex>
   </tok>
   <tok>
    <orth>profil</orth>
    <lex disamb="1"><base>profil</base><ctag>subst:sg:nom:m3</ctag></lex>
   </tok>
   <tok>
    <orth>na</orth>
    <lex disamb="1"><base>na</base><ctag>prep:acc</ctag></lex>
   </tok>
   <tok>
    <orth>wykopie</orth>
    <lex disamb="1"><base>wykop</base><ctag>subst:sg:loc:m3</ctag></lex>
   </tok>
   <tok>
    <orth>(</orth>
    <lex disamb="1"><base>(</base><ctag>interp</ctag></lex>
   </tok>
   <ns/>
   <tok>
    <orth>⌐</orth>
    <lex disamb="1"><base>⌐</base><ctag>interp</ctag></lex>
   </tok>
   <tok>
    <orth>͡</orth>
    <lex disamb="1"><base>͡</base><ctag>ign</ctag></lex>
   </tok>
   <ns/>
   <tok>
    <orth>■</orth>
    <lex disamb="1"><base>■</base><ctag>interp</ctag></lex>
   </tok>
   <tok>
    <orth>͜ʖ</orth>
    <lex disamb="1"><base>͜ʖ</base><ctag>ign</ctag></lex>
   </tok>
   <tok>
    <orth>͡</orth>
    <lex disamb="1"><base>͡</base><ctag>ign</ctag></lex>
   </tok>
   <ns/>
   <tok>
    <orth>■</orth>
    <lex disamb="1"><base>■</base><ctag>interp</ctag></lex>
   </tok>
   <ns/>
   <tok>
    <orth>)</orth>
    <lex disamb="1"><base>)</base><ctag>interp</ctag></lex>
   </tok>
   <tok>
    <orth>(</orth>
    <lex disamb="1"><base>(</base><ctag>interp</ctag></lex>
   </tok>
   <tok>
    <orth>͡</orth>
    <lex disamb="1"><base>͡</base><ctag>ign</ctag></lex>
   </tok>
   <ns/>
   <tok>
    <orth>°</orth>
    <lex disamb="1"><base>°</base><ctag>interp</ctag></lex>
   </tok>
   <tok>
    <orth>͜ʖ</orth>
    <lex disamb="1"><base>͜ʖ</base><ctag>ign</ctag></lex>
   </tok>
   <tok>
    <orth>͡</orth>
    <lex disamb="1"><base>͡</base><ctag>ign</ctag></lex>
   </tok>
   <ns/>
   <tok>
    <orth>°</orth>
    <lex disamb="1"><base>°</base><ctag>interp</ctag></lex>
   </tok>
   <ns/>
   <tok>
    <orth>)</orth>
    <lex disamb="1"><base>)</base><ctag>interp</ctag></lex>
   </tok>
   <ns/>
   <tok>
    <orth>ﾉ</orth>
    <lex disamb="1"><base>ﾉ</base><ctag>ign</ctag></lex>
   </tok>
   <ns/>
   <tok>
    <orth>⌐</orth>
    <lex disamb="1"><base>⌐</base><ctag>interp</ctag></lex>
   </tok>
   <ns/>
   <tok>
    <orth>■</orth>
    <lex disamb="1"><base>■</base><ctag>interp</ctag></lex>
   </tok>
   <ns/>
   <tok>
    <orth>-</orth>
    <lex disamb="1"><base>-</base><ctag>interp</ctag></lex>
   </tok>
   <ns/>
   <tok>
    <orth>■</orth>
    <lex disamb="1"><base>■</base><ctag>interp</ctag></lex>
   </tok>
   <tok>
    <orth>#</orth>
    <lex disamb="1"><base>#</base><ctag>interp</ctag></lex>
   </tok>
   <ns/>
   <tok>
    <orth>mikolajki</orth>
    <lex disamb="1"><base>mikolajki</base><ctag>ign</ctag></lex>
   </tok>
   <tok>
    <orth>#</orth>
    <lex disamb="1"><base>#</base><ctag>interp</ctag></lex>
   </tok>
   <ns/>
   <tok>
    <orth>pixelbox</orth>
    <lex disamb="1"><base>pixelbox</base><ctag>ign</ctag></lex>
   </tok>
  </sentence>
 </chunk>
</chunkList>