<?xml version="1.0" encoding="UTF-8"?>
<!DOCTYPE chunkList SYSTEM "ccl.dtd">
<chunkList>
 <chunk type="p" id="ch1">
  <sentence id="s1">
   <tok>
    <orth>Leżę</orth>
    <lex disamb="1"><base>leża</base><ctag>subst:sg:acc:f</ctag></lex>
   </tok>
   <tok>
    <orth>sb</orth>
    <lex disamb="1"><base>SB</base><ctag>subst:sg:nom:f</ctag></lex>
   </tok>
   <tok>
    <orth>i</orth>
    <lex disamb="1"><base>i</base><ctag>conj</ctag></lex>
   </tok>
   <tok>
    <orth>potężnie</orth>
    <lex disamb="1"><base>potężnie</base><ctag>adv:pos</ctag></lex>
   </tok>
   <tok>
    <orth>chce</orth>
    <lex disamb="1"><base>chcieć</base><ctag>fin:sg:ter:imperf</ctag></lex>
   </tok>
   <tok>
    <orth>mi</orth>
    <lex disamb="1"><base>mi</base><ctag>subst:sg:nom:n</ctag></lex>
   </tok>
   <tok>
    <orth>się</orth>
    <lex disamb="1"><base>się</base><ctag>qub</ctag></lex>
   </tok>
   <tok>
    <orth>ruchać</orth>
    <lex disamb="1"><base>ruchać</base><ctag>inf:imperf</ctag></lex>
   </tok>
   <tok>
    <orth>bo</orth>
    <lex disamb="1"><base>bo</base><ctag>comp</ctag></lex>
   </tok>
   <tok>
    <orth>mam</orth>
    <lex disamb="1"><base>mama</base><ctag>subst:pl:gen:f</ctag></lex>
   </tok>
   <tok>
    <orth>kaca</orth>
    <lex disamb="1"><base>kac</base><ctag>subst:sg:gen:m2</ctag></lex>
   </tok>
  </sentence>
 </chunk>
</chunkList>