<?xml version="1.0" encoding="UTF-8"?>
<!DOCTYPE chunkList SYSTEM "ccl.dtd">
<chunkList>
 <chunk type="p" id="ch1">
  <sentence id="s1">
   <tok>
    <orth>Kilka</orth>
    <lex disamb="1"><base>kilka</base><ctag>subst:sg:nom:f</ctag></lex>
   </tok>
   <tok>
    <orth>osób</orth>
    <lex disamb="1"><base>osoba</base><ctag>subst:pl:gen:f</ctag></lex>
   </tok>
   <tok>
    <orth>się</orth>
    <lex disamb="1"><base>się</base><ctag>qub</ctag></lex>
   </tok>
   <tok>
    <orth>mnie</orth>
    <lex disamb="1"><base>ja</base><ctag>ppron12:sg:gen:m1:pri:akc</ctag></lex>
   </tok>
   <tok>
    <orth>zapytało</orth>
    <lex disamb="1"><base>zapytać</base><ctag>praet:sg:n:perf</ctag></lex>
   </tok>
   <tok>
    <orth>jak</orth>
    <lex disamb="1"><base>jak</base><ctag>conj</ctag></lex>
   </tok>
   <tok>
    <orth>teraz</orth>
    <lex disamb="1"><base>teraz</base><ctag>adv:pos</ctag></lex>
   </tok>
   <tok>
    <orth>wyglądam</orth>
    <lex disamb="1"><base>wyglądać</base><ctag>fin:sg:pri:imperf</ctag></lex>
   </tok>
   <tok>
    <orth>więc</orth>
    <lex disamb="1"><base>więc</base><ctag>conj</ctag></lex>
   </tok>
   <tok>
    <orth>robie</orth>
    <lex disamb="1"><base>roba</base><ctag>subst:sg:dat:f</ctag></lex>
   </tok>
   <tok>
    <orth>#</orth>
    <lex disamb="1"><base>#</base><ctag>interp</ctag></lex>
   </tok>
   <ns/>
   <tok>
    <orth>pokazforme</orth>
    <lex disamb="1"><base>pokazforme</base><ctag>ign</ctag></lex>
   </tok>
  </sentence>
 </chunk>
 <chunk type="p" id="ch2">
  <sentence id="s2">
   <tok>
    <orth>Wymiary</orth>
    <lex disamb="1"><base>wymiar</base><ctag>subst:pl:nom:m3</ctag></lex>
    <ann chan="timex">0</ann>
   </tok>
   <ns/>
   <tok>
    <orth>:</orth>
    <lex disamb="1"><base>:</base><ctag>interp</ctag></lex>
    <ann chan="timex">0</ann>
   </tok>
   <tok>
    <orth>84</orth>
    <lex disamb="1"><base>84</base><ctag>num:pl:nom:m1:rec</ctag></lex>
    <ann chan="timex">0</ann>
   </tok>
   <ns/>
   <tok>
    <orth>.</orth>
    <lex disamb="1"><base>.</base><ctag>interp</ctag></lex>
    <ann chan="timex">0</ann>
   </tok>
   <ns/>
   <tok>
    <orth>5</orth>
    <lex disamb="1"><base>5</base><ctag>num:pl:nom:m1:rec</ctag></lex>
    <ann chan="timex">0</ann>
   </tok>
   <tok>
    <orth>kg</orth>
    <lex disamb="1"><base>kilogram</base><ctag>brev:npun</ctag></lex>
    <ann chan="timex">0</ann>
   </tok>
   <tok>
    <orth>193</orth>
    <lex disamb="1"><base>193</base><ctag>num:pl:nom:m1:rec</ctag></lex>
    <ann chan="timex">1</ann>
   </tok>
   <tok>
    <orth>cm</orth>
    <lex disamb="1"><base>centymetr</base><ctag>brev:npun</ctag></lex>
    <ann chan="timex">0</ann>
   </tok>
   <tok>
    <orth>wzrostu</orth>
    <lex disamb="1"><base>wzrost</base><ctag>subst:sg:gen:m3</ctag></lex>
    <ann chan="timex">0</ann>
   </tok>
   <tok>
    <orth>37</orth>
    <lex disamb="1"><base>37</base><ctag>num:pl:nom:m1:rec</ctag></lex>
    <ann chan="timex">0</ann>
   </tok>
   <tok>
    <orth>cm</orth>
    <lex disamb="1"><base>centymetr</base><ctag>brev:npun</ctag></lex>
    <ann chan="timex">0</ann>
   </tok>
   <tok>
    <orth>w</orth>
    <lex disamb="1"><base>w</base><ctag>prep:acc:nwok</ctag></lex>
    <ann chan="timex">0</ann>
   </tok>
   <tok>
    <orth>łapie</orth>
    <lex disamb="1"><base>łapa</base><ctag>subst:sg:dat:f</ctag></lex>
    <ann chan="timex">0</ann>
   </tok>
   <tok>
    <orth>ok</orth>
    <lex disamb="1"><base>oko</base><ctag>subst:pl:gen:n</ctag></lex>
    <ann chan="timex">0</ann>
   </tok>
   <tok>
    <orth>9</orth>
    <lex disamb="1"><base>9</base><ctag>num:pl:nom:m1:rec</ctag></lex>
    <ann chan="timex">0</ann>
   </tok>
   <ns/>
   <tok>
    <orth>%</orth>
    <lex disamb="1"><base>%</base><ctag>interp</ctag></lex>
    <ann chan="timex">0</ann>
   </tok>
   <tok>
    <orth>bf</orth>
    <lex disamb="1"><base>bf</base><ctag>ign</ctag></lex>
    <ann chan="timex">0</ann>
   </tok>
  </sentence>
 </chunk>
 <chunk type="p" id="ch3">
  <sentence id="s3">
   <tok>
    <orth>Staż</orth>
    <lex disamb="1"><base>staż</base><ctag>subst:sg:nom:m3</ctag></lex>
    <ann chan="timex">0</ann>
    <ann chan="t3_duration">0</ann>
    <ann chan="t3_set">0</ann>
   </tok>
   <tok>
    <orth>około</orth>
    <lex disamb="1"><base>około</base><ctag>qub</ctag></lex>
    <ann chan="timex">1</ann>
    <ann chan="t3_duration">1</ann>
    <ann chan="t3_set">0</ann>
   </tok>
   <tok>
    <orth>2</orth>
    <lex disamb="1"><base>2</base><ctag>num:pl:nom:m1:rec</ctag></lex>
    <ann chan="timex">1</ann>
    <ann chan="t3_duration">1</ann>
    <ann chan="t3_set">0</ann>
   </tok>
   <tok>
    <orth>lata</orth>
    <lex disamb="1"><base>lato</base><ctag>subst:sg:gen:n</ctag></lex>
    <ann chan="timex">1</ann>
    <ann chan="t3_duration">1</ann>
    <ann chan="t3_set">0</ann>
   </tok>
   <tok>
    <orth>Zamienilem</orth>
    <lex disamb="1"><base>Zamienilem</base><ctag>ign</ctag></lex>
    <ann chan="timex">0</ann>
    <ann chan="t3_duration">0</ann>
    <ann chan="t3_set">0</ann>
   </tok>
   <tok>
    <orth>trening</orth>
    <lex disamb="1"><base>trening</base><ctag>subst:sg:nom:m3</ctag></lex>
    <ann chan="timex">0</ann>
    <ann chan="t3_duration">0</ann>
    <ann chan="t3_set">0</ann>
   </tok>
   <tok>
    <orth>fbw</orth>
    <lex disamb="1"><base>fbw</base><ctag>ign</ctag></lex>
    <ann chan="timex">0</ann>
    <ann chan="t3_duration">0</ann>
    <ann chan="t3_set">0</ann>
   </tok>
   <tok>
    <orth>3</orth>
    <lex disamb="1"><base>3</base><ctag>num:pl:nom:m1:rec</ctag></lex>
    <ann chan="timex">2</ann>
    <ann chan="t3_duration">0</ann>
    <ann chan="t3_set">1</ann>
   </tok>
   <tok>
    <orth>razy</orth>
    <lex disamb="1"><base>raz</base><ctag>subst:pl:nom:m3</ctag></lex>
    <ann chan="timex">2</ann>
    <ann chan="t3_duration">0</ann>
    <ann chan="t3_set">1</ann>
   </tok>
   <tok>
    <orth>w</orth>
    <lex disamb="1"><base>w</base><ctag>prep:acc:nwok</ctag></lex>
    <ann chan="timex">2</ann>
    <ann chan="t3_duration">0</ann>
    <ann chan="t3_set">1</ann>
   </tok>
   <tok>
    <orth>tygodniu</orth>
    <lex disamb="1"><base>tydzień</base><ctag>subst:sg:loc:m3</ctag></lex>
    <ann chan="timex">2</ann>
    <ann chan="t3_duration">0</ann>
    <ann chan="t3_set">1</ann>
   </tok>
   <tok>
    <orth>na</orth>
    <lex disamb="1"><base>na</base><ctag>prep:acc</ctag></lex>
    <ann chan="timex">0</ann>
    <ann chan="t3_duration">0</ann>
    <ann chan="t3_set">1</ann>
   </tok>
   <tok>
    <orth>phul</orth>
    <lex disamb="1"><base>phul</base><ctag>ign</ctag></lex>
    <ann chan="timex">0</ann>
    <ann chan="t3_duration">0</ann>
    <ann chan="t3_set">1</ann>
   </tok>
   <tok>
    <orth>5</orth>
    <lex disamb="1"><base>5</base><ctag>num:pl:nom:m1:rec</ctag></lex>
    <ann chan="timex">3</ann>
    <ann chan="t3_duration">0</ann>
    <ann chan="t3_set">1</ann>
   </tok>
   <tok>
    <orth>razy</orth>
    <lex disamb="1"><base>raz</base><ctag>subst:pl:nom:m3</ctag></lex>
    <ann chan="timex">3</ann>
    <ann chan="t3_duration">0</ann>
    <ann chan="t3_set">1</ann>
   </tok>
   <tok>
    <orth>w</orth>
    <lex disamb="1"><base>w</base><ctag>prep:acc:nwok</ctag></lex>
    <ann chan="timex">3</ann>
    <ann chan="t3_duration">0</ann>
    <ann chan="t3_set">1</ann>
   </tok>
   <tok>
    <orth>tygodniu</orth>
    <lex disamb="1"><base>tydzień</base><ctag>subst:sg:loc:m3</ctag></lex>
    <ann chan="timex">3</ann>
    <ann chan="t3_duration">0</ann>
    <ann chan="t3_set">1</ann>
   </tok>
   <tok>
    <orth>(</orth>
    <lex disamb="1"><base>(</base><ctag>interp</ctag></lex>
    <ann chan="timex">0</ann>
    <ann chan="t3_duration">0</ann>
    <ann chan="t3_set">0</ann>
   </tok>
   <ns/>
   <tok>
    <orth>na</orth>
    <lex disamb="1"><base>na</base><ctag>prep:acc</ctag></lex>
    <ann chan="timex">0</ann>
    <ann chan="t3_duration">0</ann>
    <ann chan="t3_set">0</ann>
   </tok>
   <tok>
    <orth>fbw</orth>
    <lex disamb="1"><base>fbw</base><ctag>ign</ctag></lex>
    <ann chan="timex">0</ann>
    <ann chan="t3_duration">0</ann>
    <ann chan="t3_set">0</ann>
   </tok>
   <tok>
    <orth>juz</orth>
    <lex disamb="1"><base>juz</base><ctag>subst:sg:nom:m3</ctag></lex>
    <ann chan="timex">0</ann>
    <ann chan="t3_duration">0</ann>
    <ann chan="t3_set">0</ann>
   </tok>
   <tok>
    <orth>przestał</orth>
    <lex disamb="1"><base>przestać</base><ctag>praet:sg:m1:perf</ctag></lex>
    <ann chan="timex">0</ann>
    <ann chan="t3_duration">0</ann>
    <ann chan="t3_set">0</ann>
   </tok>
   <ns/>
   <tok>
    <orth>em</orth>
    <lex disamb="1"><base>być</base><ctag>aglt:sg:pri:imperf:wok</ctag></lex>
    <ann chan="timex">0</ann>
    <ann chan="t3_duration">0</ann>
    <ann chan="t3_set">0</ann>
   </tok>
   <tok>
    <orth>progresować</orth>
    <lex disamb="1"><base>progresować</base><ctag>ign</ctag></lex>
    <ann chan="timex">0</ann>
    <ann chan="t3_duration">0</ann>
    <ann chan="t3_set">0</ann>
   </tok>
   <ns/>
   <tok>
    <orth>)</orth>
    <lex disamb="1"><base>)</base><ctag>interp</ctag></lex>
    <ann chan="timex">0</ann>
    <ann chan="t3_duration">0</ann>
    <ann chan="t3_set">0</ann>
   </tok>
  </sentence>
 </chunk>
 <chunk type="p" id="ch4">
  <sentence id="s4">
   <tok>
    <orth>Obecnie</orth>
    <lex disamb="1"><base>obecnie</base><ctag>adv:pos</ctag></lex>
   </tok>
   <tok>
    <orth>nie</orth>
    <lex disamb="1"><base>nie</base><ctag>conj</ctag></lex>
   </tok>
   <tok>
    <orth>suplementuje</orth>
    <lex disamb="1"><base>suplementować</base><ctag>fin:sg:ter:imperf</ctag></lex>
   </tok>
   <tok>
    <orth>nic</orth>
    <lex disamb="1"><base>nic</base><ctag>subst:sg:nom:n</ctag></lex>
   </tok>
   <tok>
    <orth>ale</orth>
    <lex disamb="1"><base>ale</base><ctag>conj</ctag></lex>
   </tok>
   <tok>
    <orth>do</orth>
    <lex disamb="1"><base>do</base><ctag>prep:gen</ctag></lex>
   </tok>
   <tok>
    <orth>niedawna</orth>
    <lex disamb="1"><base>niedawny</base><ctag>adj:sg:nom:f:pos</ctag></lex>
   </tok>
   <tok>
    <orth>brał</orth>
    <lex disamb="1"><base>brać</base><ctag>praet:sg:m1:imperf</ctag></lex>
   </tok>
   <ns/>
   <tok>
    <orth>em</orth>
    <lex disamb="1"><base>być</base><ctag>aglt:sg:pri:imperf:wok</ctag></lex>
   </tok>
   <tok>
    <orth>kreatyne</orth>
    <lex disamb="1"><base>kreatyne</base><ctag>ign</ctag></lex>
   </tok>
   <tok>
    <orth>mono</orth>
    <lex disamb="1"><base>mono</base><ctag>adv:pos</ctag></lex>
   </tok>
  </sentence>
 </chunk>
 <chunk type="p" id="ch5">
  <sentence id="s5">
   <tok>
    <orth>Jem</orth>
    <lex disamb="1"><base>jeść</base><ctag>fin:sg:pri:imperf</ctag></lex>
    <ann chan="timex">0</ann>
    <ann chan="t3_date">0</ann>
   </tok>
   <tok>
    <orth>od</orth>
    <lex disamb="1"><base>od</base><ctag>prep:gen:nwok</ctag></lex>
    <ann chan="timex">0</ann>
    <ann chan="t3_date">0</ann>
   </tok>
   <tok>
    <orth>3</orth>
    <lex disamb="1"><base>3</base><ctag>num:pl:nom:m1:rec</ctag></lex>
    <ann chan="timex">0</ann>
    <ann chan="t3_date">0</ann>
   </tok>
   <ns/>
   <tok>
    <orth>.</orth>
    <lex disamb="1"><base>.</base><ctag>interp</ctag></lex>
    <ann chan="timex">0</ann>
    <ann chan="t3_date">0</ann>
   </tok>
   <ns/>
   <tok>
    <orth>5k</orth>
    <lex disamb="1"><base>5k</base><ctag>ign</ctag></lex>
    <ann chan="timex">0</ann>
    <ann chan="t3_date">0</ann>
   </tok>
   <tok>
    <orth>do</orth>
    <lex disamb="1"><base>do</base><ctag>prep:gen</ctag></lex>
    <ann chan="timex">0</ann>
    <ann chan="t3_date">0</ann>
   </tok>
   <tok>
    <orth>4k</orth>
    <lex disamb="1"><base>4k</base><ctag>ign</ctag></lex>
    <ann chan="timex">0</ann>
    <ann chan="t3_date">0</ann>
   </tok>
   <tok>
    <orth>kcal</orth>
    <lex disamb="1"><base>kilokaloria</base><ctag>brev:npun</ctag></lex>
    <ann chan="timex">0</ann>
    <ann chan="t3_date">0</ann>
   </tok>
   <tok>
    <orth>dziennie</orth>
    <lex disamb="1"><base>dziennie</base><ctag>adv:pos</ctag></lex>
    <ann chan="timex">1</ann>
    <ann chan="t3_date">1</ann>
   </tok>
   <tok>
    <orth>2g</orth>
    <lex disamb="1"><base>2g</base><ctag>ign</ctag></lex>
    <ann chan="timex">0</ann>
    <ann chan="t3_date">0</ann>
   </tok>
   <tok>
    <orth>białka</orth>
    <lex disamb="1"><base>białek</base><ctag>subst:sg:gen:m3</ctag></lex>
    <ann chan="timex">0</ann>
    <ann chan="t3_date">0</ann>
   </tok>
   <tok>
    <orth>na</orth>
    <lex disamb="1"><base>na</base><ctag>prep:acc</ctag></lex>
    <ann chan="timex">0</ann>
    <ann chan="t3_date">0</ann>
   </tok>
   <tok>
    <orth>kg</orth>
    <lex disamb="1"><base>kilogram</base><ctag>brev:npun</ctag></lex>
    <ann chan="timex">0</ann>
    <ann chan="t3_date">0</ann>
   </tok>
   <tok>
    <orth>masy</orth>
    <lex disamb="1"><base>masa</base><ctag>subst:sg:gen:f</ctag></lex>
    <ann chan="timex">0</ann>
    <ann chan="t3_date">0</ann>
   </tok>
   <tok>
    <orth>ciała</orth>
    <lex disamb="1"><base>ciało</base><ctag>subst:sg:gen:n</ctag></lex>
    <ann chan="timex">0</ann>
    <ann chan="t3_date">0</ann>
   </tok>
   <ns/>
   <tok>
    <orth>.</orth>
    <lex disamb="1"><base>.</base><ctag>interp</ctag></lex>
    <ann chan="timex">0</ann>
    <ann chan="t3_date">0</ann>
   </tok>
  </sentence>
 </chunk>
 <chunk type="p" id="ch6">
  <sentence id="s6">
   <tok>
    <orth>Tłuszczy</orth>
    <lex disamb="1"><base>tłuszcz</base><ctag>subst:pl:gen:m3</ctag></lex>
   </tok>
   <tok>
    <orth>i</orth>
    <lex disamb="1"><base>i</base><ctag>conj</ctag></lex>
   </tok>
   <tok>
    <orth>węgli</orth>
    <lex disamb="1"><base>węgiel</base><ctag>subst:pl:gen:m3</ctag></lex>
   </tok>
   <tok>
    <orth>jem</orth>
    <lex disamb="1"><base>jeść</base><ctag>fin:sg:pri:imperf</ctag></lex>
   </tok>
   <tok>
    <orth>tyle</orth>
    <lex disamb="1"><base>tyle</base><ctag>adv:pos</ctag></lex>
   </tok>
   <tok>
    <orth>ile</orth>
    <lex disamb="1"><base>ile</base><ctag>adv:pos</ctag></lex>
   </tok>
   <tok>
    <orth>mi</orth>
    <lex disamb="1"><base>mi</base><ctag>subst:sg:nom:n</ctag></lex>
   </tok>
   <tok>
    <orth>sie</orth>
    <lex disamb="1"><base>si</base><ctag>adj:pl:nom:m2:pos</ctag></lex>
   </tok>
   <tok>
    <orth>sypnie</orth>
    <lex disamb="1"><base>sypnąć</base><ctag>fin:sg:ter:perf</ctag></lex>
   </tok>
   <ns/>
   <tok>
    <orth>,</orth>
    <lex disamb="1"><base>,</base><ctag>interp</ctag></lex>
   </tok>
   <tok>
    <orth>byle</orth>
    <lex disamb="1"><base>byle</base><ctag>comp</ctag></lex>
   </tok>
   <tok>
    <orth>dobić</orth>
    <lex disamb="1"><base>dobić</base><ctag>inf:perf</ctag></lex>
   </tok>
   <tok>
    <orth>kcal</orth>
    <lex disamb="1"><base>kilokaloria</base><ctag>brev:npun</ctag></lex>
   </tok>
  </sentence>
 </chunk>
 <chunk type="p" id="ch7">
  <sentence id="s7">
   <tok>
    <orth>#</orth>
    <lex disamb="1"><base>#</base><ctag>interp</ctag></lex>
   </tok>
   <ns/>
   <tok>
    <orth>mikrokoksy</orth>
    <lex disamb="1"><base>mikrokoks</base><ctag>subst:pl:nom:m3</ctag></lex>
   </tok>
   <tok>
    <orth>#</orth>
    <lex disamb="1"><base>#</base><ctag>interp</ctag></lex>
   </tok>
   <ns/>
   <tok>
    <orth>silownia</orth>
    <lex disamb="1"><base>silownia</base><ctag>ign</ctag></lex>
   </tok>
   <tok>
    <orth>#</orth>
    <lex disamb="1"><base>#</base><ctag>interp</ctag></lex>
   </tok>
   <ns/>
   <tok>
    <orth>nsfw</orth>
    <lex disamb="1"><base>nsfw</base><ctag>ign</ctag></lex>
   </tok>
  </sentence>
 </chunk>
</chunkList>