<?xml version="1.0" encoding="UTF-8"?>
<!DOCTYPE chunkList SYSTEM "ccl.dtd">
<chunkList>
 <chunk type="p" id="ch1">
  <sentence id="s1">
   <tok>
    <orth>Tak</orth>
    <lex disamb="1"><base>tak</base><ctag>adv:pos</ctag></lex>
   </tok>
   <tok>
    <orth>to</orth>
    <lex disamb="1"><base>to</base><ctag>conj</ctag></lex>
   </tok>
   <tok>
    <orth>właśnie</orth>
    <lex disamb="1"><base>właśnie</base><ctag>adv:pos</ctag></lex>
   </tok>
   <tok>
    <orth>będzie</orth>
    <lex disamb="1"><base>być</base><ctag>bedzie:sg:ter:imperf</ctag></lex>
   </tok>
   <tok>
    <orth>z</orth>
    <lex disamb="1"><base>z</base><ctag>prep:gen:nwok</ctag></lex>
   </tok>
   <tok>
    <orth>rodziną</orth>
    <lex disamb="1"><base>rodzina</base><ctag>subst:sg:inst:f</ctag></lex>
   </tok>
   <tok>
    <orth>przy</orth>
    <lex disamb="1"><base>przy</base><ctag>prep:loc</ctag></lex>
   </tok>
   <tok>
    <orth>stole</orth>
    <lex disamb="1"><base>stola</base><ctag>subst:pl:nom:f</ctag></lex>
   </tok>
   <tok>
    <orth>wigilijnym</orth>
    <lex disamb="1"><base>wigilijny</base><ctag>adj:sg:inst:m1:pos</ctag></lex>
   </tok>
   <ns/>
   <tok>
    <orth>.</orth>
    <lex disamb="1"><base>.</base><ctag>interp</ctag></lex>
   </tok>
   <ns/>
   <tok>
    <orth>(</orth>
    <lex disamb="1"><base>(</base><ctag>interp</ctag></lex>
   </tok>
   <tok>
    <orth>͡º</orth>
    <lex disamb="1"><base>͡º</base><ctag>ign</ctag></lex>
   </tok>
   <tok>
    <orth>͜ʖ͡º</orth>
    <lex disamb="1"><base>͜ʖ͡º</base><ctag>ign</ctag></lex>
   </tok>
   <ns/>
   <tok>
    <orth>)</orth>
    <lex disamb="1"><base>)</base><ctag>interp</ctag></lex>
   </tok>
   <tok>
    <orth>#</orth>
    <lex disamb="1"><base>#</base><ctag>interp</ctag></lex>
   </tok>
   <ns/>
   <tok>
    <orth>bitcoin</orth>
    <lex disamb="1"><base>bitcoin</base><ctag>ign</ctag></lex>
   </tok>
   <tok>
    <orth>#</orth>
    <lex disamb="1"><base>#</base><ctag>interp</ctag></lex>
   </tok>
   <ns/>
   <tok>
    <orth>kryptowaluty</orth>
    <lex disamb="1"><base>kryptowaluta</base><ctag>subst:sg:gen:f</ctag></lex>
   </tok>
  </sentence>
 </chunk>
</chunkList>