<?xml version="1.0" encoding="UTF-8"?>
<!DOCTYPE chunkList SYSTEM "ccl.dtd">
<chunkList>
 <chunk type="p" id="ch1">
  <sentence id="s1">
   <tok>
    <orth>Pokażmy</orth>
    <lex disamb="1"><base>pokazać</base><ctag>impt:pl:pri:perf</ctag></lex>
   </tok>
   <tok>
    <orth>ile</orth>
    <lex disamb="1"><base>ile</base><ctag>adv:pos</ctag></lex>
   </tok>
   <tok>
    <orth>nas</orth>
    <lex disamb="1"><base>my</base><ctag>ppron12:pl:gen:m1:pri</ctag></lex>
   </tok>
   <tok>
    <orth>było</orth>
    <lex disamb="1"><base>być</base><ctag>praet:sg:n:imperf</ctag></lex>
   </tok>
   <tok>
    <orth>(</orth>
    <lex disamb="1"><base>(</base><ctag>interp</ctag></lex>
   </tok>
   <tok>
    <orth>͡º</orth>
    <lex disamb="1"><base>͡º</base><ctag>ign</ctag></lex>
   </tok>
   <tok>
    <orth>͜ʖ͡º</orth>
    <lex disamb="1"><base>͜ʖ͡º</base><ctag>ign</ctag></lex>
   </tok>
   <ns/>
   <tok>
    <orth>)</orth>
    <lex disamb="1"><base>)</base><ctag>interp</ctag></lex>
   </tok>
  </sentence>
 </chunk>
 <chunk type="p" id="ch2">
  <sentence id="s2">
   <tok>
    <orth>Do</orth>
    <lex disamb="1"><base>do</base><ctag>prep:gen</ctag></lex>
   </tok>
   <tok>
    <orth>następnego</orth>
    <lex disamb="1"><base>następny</base><ctag>subst:sg:gen:m1</ctag></lex>
   </tok>
   <tok>
    <orth>sezonu</orth>
    <lex disamb="1"><base>sezon</base><ctag>subst:sg:gen:m3</ctag></lex>
   </tok>
   <tok>
    <orth>kc</orth>
    <lex disamb="1"><base>KC</base><ctag>subst:sg:nom:m3</ctag></lex>
   </tok>
   <tok>
    <orth>was</orth>
    <lex disamb="1"><base>wy</base><ctag>ppron12:pl:gen:m1:sec</ctag></lex>
   </tok>
   <tok>
    <orth>(</orth>
    <lex disamb="1"><base>(</base><ctag>interp</ctag></lex>
   </tok>
   <tok>
    <orth>͡º</orth>
    <lex disamb="1"><base>͡º</base><ctag>ign</ctag></lex>
   </tok>
   <tok>
    <orth>͜ʖ͡º</orth>
    <lex disamb="1"><base>͜ʖ͡º</base><ctag>ign</ctag></lex>
   </tok>
   <ns/>
   <tok>
    <orth>)</orth>
    <lex disamb="1"><base>)</base><ctag>interp</ctag></lex>
   </tok>
   <ns/>
   <tok>
    <orth>(</orth>
    <lex disamb="1"><base>(</base><ctag>interp</ctag></lex>
   </tok>
   <tok>
    <orth>͡º</orth>
    <lex disamb="1"><base>͡º</base><ctag>ign</ctag></lex>
   </tok>
   <tok>
    <orth>͜ʖ͡º</orth>
    <lex disamb="1"><base>͜ʖ͡º</base><ctag>ign</ctag></lex>
   </tok>
   <ns/>
   <tok>
    <orth>)</orth>
    <lex disamb="1"><base>)</base><ctag>interp</ctag></lex>
   </tok>
  </sentence>
 </chunk>
 <chunk type="p" id="ch3">
  <sentence id="s3">
   <tok>
    <orth>#</orth>
    <lex disamb="1"><base>#</base><ctag>interp</ctag></lex>
   </tok>
   <ns/>
   <tok>
    <orth>rolnikszukazony</orth>
    <lex disamb="1"><base>rolnikszukazony</base><ctag>ign</ctag></lex>
   </tok>
  </sentence>
 </chunk>
</chunkList>