<?xml version="1.0" encoding="UTF-8"?>
<!DOCTYPE chunkList SYSTEM "ccl.dtd">
<chunkList>
 <chunk type="p" id="ch1">
  <sentence id="s1">
   <tok>
    <orth>Wczoraj</orth>
    <lex disamb="1"><base>wczoraj</base><ctag>adv:pos</ctag></lex>
    <ann chan="timex">1</ann>
    <ann chan="t3_date">1</ann>
   </tok>
   <tok>
    <orth>miałem</orth>
    <lex disamb="1"><base>miał</base><ctag>subst:sg:inst:m3</ctag></lex>
    <ann chan="timex">0</ann>
    <ann chan="t3_date">0</ann>
   </tok>
   <tok>
    <orth>imprezę</orth>
    <lex disamb="1"><base>impreza</base><ctag>subst:sg:acc:f</ctag></lex>
    <ann chan="timex">0</ann>
    <ann chan="t3_date">0</ann>
   </tok>
   <tok>
    <orth>firmową</orth>
    <lex disamb="1"><base>firmowy</base><ctag>adj:sg:acc:f:pos</ctag></lex>
    <ann chan="timex">0</ann>
    <ann chan="t3_date">0</ann>
   </tok>
   <ns/>
   <tok>
    <orth>,</orth>
    <lex disamb="1"><base>,</base><ctag>interp</ctag></lex>
    <ann chan="timex">0</ann>
    <ann chan="t3_date">0</ann>
   </tok>
   <tok>
    <orth>to</orth>
    <lex disamb="1"><base>to</base><ctag>conj</ctag></lex>
    <ann chan="timex">0</ann>
    <ann chan="t3_date">0</ann>
   </tok>
   <tok>
    <orth>i</orth>
    <lex disamb="1"><base>i</base><ctag>conj</ctag></lex>
    <ann chan="timex">0</ann>
    <ann chan="t3_date">0</ann>
   </tok>
   <tok>
    <orth>wyglądać</orth>
    <lex disamb="1"><base>wyglądać</base><ctag>inf:imperf</ctag></lex>
    <ann chan="timex">0</ann>
    <ann chan="t3_date">0</ann>
   </tok>
   <tok>
    <orth>trzeba</orth>
    <lex disamb="1"><base>trzeba</base><ctag>pred</ctag></lex>
    <ann chan="timex">0</ann>
    <ann chan="t3_date">0</ann>
   </tok>
   <tok>
    <orth>było</orth>
    <lex disamb="1"><base>być</base><ctag>praet:sg:n:imperf</ctag></lex>
    <ann chan="timex">0</ann>
    <ann chan="t3_date">0</ann>
   </tok>
   <ns/>
   <tok>
    <orth>.</orth>
    <lex disamb="1"><base>.</base><ctag>interp</ctag></lex>
    <ann chan="timex">0</ann>
    <ann chan="t3_date">0</ann>
   </tok>
  </sentence>
 </chunk>
 <chunk type="p" id="ch2">
  <sentence id="s2">
   <tok>
    <orth>#</orth>
    <lex disamb="1"><base>#</base><ctag>interp</ctag></lex>
   </tok>
   <ns/>
   <tok>
    <orth>pokazmorde</orth>
    <lex disamb="1"><base>pokazmorde</base><ctag>ign</ctag></lex>
   </tok>
   <tok>
    <orth>#</orth>
    <lex disamb="1"><base>#</base><ctag>interp</ctag></lex>
   </tok>
   <ns/>
   <tok>
    <orth>pokazwasa</orth>
    <lex disamb="1"><base>pokazwasa</base><ctag>ign</ctag></lex>
   </tok>
   <tok>
    <orth>#</orth>
    <lex disamb="1"><base>#</base><ctag>interp</ctag></lex>
   </tok>
   <ns/>
   <tok>
    <orth>was</orth>
    <lex disamb="1"><base>wy</base><ctag>ppron12:pl:gen:m1:sec</ctag></lex>
   </tok>
   <tok>
    <orth>#</orth>
    <lex disamb="1"><base>#</base><ctag>interp</ctag></lex>
   </tok>
   <ns/>
   <tok>
    <orth>broda</orth>
    <lex disamb="1"><base>broda</base><ctag>subst:sg:nom:f</ctag></lex>
   </tok>
   <tok>
    <orth>#</orth>
    <lex disamb="1"><base>#</base><ctag>interp</ctag></lex>
   </tok>
   <ns/>
   <tok>
    <orth>pokazbrode</orth>
    <lex disamb="1"><base>pokazbrode</base><ctag>ign</ctag></lex>
   </tok>
  </sentence>
 </chunk>
</chunkList>