<?xml version="1.0" encoding="UTF-8"?>
<!DOCTYPE chunkList SYSTEM "ccl.dtd">
<chunkList>
 <chunk type="p" id="ch1">
  <sentence id="s1">
   <tok>
    <orth>Jak</orth>
    <lex disamb="1"><base>jak</base><ctag>conj</ctag></lex>
    <ann chan="nam">0</ann>
    <ann chan="nam_loc_gpe_country">0</ann>
    <ann chan="nam_loc">0</ann>
   </tok>
   <tok>
    <orth>zwykle</orth>
    <lex disamb="1"><base>zwykle</base><ctag>adv:pos</ctag></lex>
    <ann chan="nam">0</ann>
    <ann chan="nam_loc_gpe_country">0</ann>
    <ann chan="nam_loc">0</ann>
   </tok>
   <tok>
    <orth>Polska</orth>
    <lex disamb="1"><base>Polska</base><ctag>subst:sg:nom:f</ctag></lex>
    <ann chan="nam">1</ann>
    <ann chan="nam_loc_gpe_country">1</ann>
    <ann chan="nam_loc">1</ann>
   </tok>
   <tok>
    <orth>w</orth>
    <lex disamb="1"><base>w</base><ctag>prep:acc:nwok</ctag></lex>
    <ann chan="nam">0</ann>
    <ann chan="nam_loc_gpe_country">0</ann>
    <ann chan="nam_loc">0</ann>
   </tok>
   <tok>
    <orth>tyle</orth>
    <lex disamb="1"><base>tyle</base><ctag>adv:pos</ctag></lex>
    <ann chan="nam">0</ann>
    <ann chan="nam_loc_gpe_country">0</ann>
    <ann chan="nam_loc">0</ann>
   </tok>
   <tok>
    <orth>za</orth>
    <lex disamb="1"><base>za</base><ctag>qub</ctag></lex>
    <ann chan="nam">0</ann>
    <ann chan="nam_loc_gpe_country">0</ann>
    <ann chan="nam_loc">0</ann>
   </tok>
   <tok>
    <orth>rozwiniętymi</orth>
    <lex disamb="1"><base>rozwinięta</base><ctag>subst:pl:inst:f</ctag></lex>
    <ann chan="nam">0</ann>
    <ann chan="nam_loc_gpe_country">0</ann>
    <ann chan="nam_loc">0</ann>
   </tok>
   <tok>
    <orth>i</orth>
    <lex disamb="1"><base>i</base><ctag>conj</ctag></lex>
    <ann chan="nam">0</ann>
    <ann chan="nam_loc_gpe_country">0</ann>
    <ann chan="nam_loc">0</ann>
   </tok>
   <tok>
    <orth>pełnymi</orth>
    <lex disamb="1"><base>pełny</base><ctag>adj:pl:inst:m1:pos</ctag></lex>
    <ann chan="nam">0</ann>
    <ann chan="nam_loc_gpe_country">0</ann>
    <ann chan="nam_loc">0</ann>
   </tok>
   <tok>
    <orth>demokracji</orth>
    <lex disamb="1"><base>demokracja</base><ctag>subst:sg:gen:f</ctag></lex>
    <ann chan="nam">0</ann>
    <ann chan="nam_loc_gpe_country">0</ann>
    <ann chan="nam_loc">0</ann>
   </tok>
   <tok>
    <orth>krajami</orth>
    <lex disamb="1"><base>kraj</base><ctag>subst:pl:inst:m3</ctag></lex>
    <ann chan="nam">0</ann>
    <ann chan="nam_loc_gpe_country">0</ann>
    <ann chan="nam_loc">0</ann>
   </tok>
   <ns/>
   <tok>
    <orth>.</orth>
    <lex disamb="1"><base>.</base><ctag>interp</ctag></lex>
    <ann chan="nam">0</ann>
    <ann chan="nam_loc_gpe_country">0</ann>
    <ann chan="nam_loc">0</ann>
   </tok>
  </sentence>
 </chunk>
 <chunk type="p" id="ch2">
  <sentence id="s2">
   <tok>
    <orth>Eh</orth>
    <lex disamb="1"><base>eh</base><ctag>interj</ctag></lex>
   </tok>
   <tok>
    <orth>zaścianek</orth>
    <lex disamb="1"><base>zaścianek</base><ctag>subst:sg:nom:m3</ctag></lex>
   </tok>
   <ns/>
   <tok>
    <orth>.</orth>
    <lex disamb="1"><base>.</base><ctag>interp</ctag></lex>
   </tok>
  </sentence>
 </chunk>
 <chunk type="p" id="ch3">
  <sentence id="s3">
   <tok>
    <orth>#</orth>
    <lex disamb="1"><base>#</base><ctag>interp</ctag></lex>
   </tok>
   <ns/>
   <tok>
    <orth>bekazlewactwa</orth>
    <lex disamb="1"><base>bekazlewactwa</base><ctag>ign</ctag></lex>
   </tok>
   <tok>
    <orth>#</orth>
    <lex disamb="1"><base>#</base><ctag>interp</ctag></lex>
   </tok>
   <ns/>
   <tok>
    <orth>neuropa</orth>
    <lex disamb="1"><base>neuropa</base><ctag>ign</ctag></lex>
   </tok>
   <ns/>
   <tok>
    <orth>.</orth>
    <lex disamb="1"><base>.</base><ctag>interp</ctag></lex>
   </tok>
   <ns/>
   <tok>
    <orth>de</orth>
    <lex disamb="1"><base>de</base><ctag>subst:sg:nom:n</ctag></lex>
   </tok>
   <tok>
    <orth>#</orth>
    <lex disamb="1"><base>#</base><ctag>interp</ctag></lex>
   </tok>
   <ns/>
   <tok>
    <orth>4konserwy</orth>
    <lex disamb="1"><base>4konserwy</base><ctag>ign</ctag></lex>
   </tok>
  </sentence>
 </chunk>
</chunkList>