<?xml version="1.0" encoding="UTF-8"?>
<!DOCTYPE chunkList SYSTEM "ccl.dtd">
<chunkList>
 <chunk type="p" id="ch1">
  <sentence id="s1">
   <tok>
    <orth>Niegłupi</orth>
    <lex disamb="1"><base>niegłupi</base><ctag>subst:sg:nom:m1</ctag></lex>
   </tok>
   <tok>
    <orth>pomysł</orth>
    <lex disamb="1"><base>pomysł</base><ctag>subst:sg:nom:m3</ctag></lex>
   </tok>
   <tok>
    <orth>na</orth>
    <lex disamb="1"><base>na</base><ctag>prep:acc</ctag></lex>
   </tok>
   <tok>
    <orth>uprzykrzenie</orth>
    <lex disamb="1"><base>uprzykrzenie</base><ctag>adv:pos</ctag></lex>
   </tok>
   <tok>
    <orth>życia</orth>
    <lex disamb="1"><base>życie</base><ctag>subst:sg:gen:n</ctag></lex>
   </tok>
   <tok>
    <orth>upierdliwemu</orth>
    <lex disamb="1"><base>upierdliwy</base><ctag>adj:sg:dat:m1:pos</ctag></lex>
   </tok>
   <tok>
    <orth>sąsiadowi</orth>
    <lex disamb="1"><base>sąsiad</base><ctag>subst:sg:dat:m1</ctag></lex>
   </tok>
   <tok>
    <orth>xDDDDDDDDDDDDDDDDD</orth>
    <lex disamb="1"><base>xDDDDDDDDDDDDDDDDD</base><ctag>ign</ctag></lex>
   </tok>
   <tok>
    <orth>#</orth>
    <lex disamb="1"><base>#</base><ctag>interp</ctag></lex>
   </tok>
   <ns/>
   <tok>
    <orth>heheszki</orth>
    <lex disamb="1"><base>heheszki</base><ctag>ign</ctag></lex>
   </tok>
   <tok>
    <orth>#</orth>
    <lex disamb="1"><base>#</base><ctag>interp</ctag></lex>
   </tok>
   <ns/>
   <tok>
    <orth>4chan</orth>
    <lex disamb="1"><base>4chan</base><ctag>ign</ctag></lex>
   </tok>
   <tok>
    <orth>#</orth>
    <lex disamb="1"><base>#</base><ctag>interp</ctag></lex>
   </tok>
   <ns/>
   <tok>
    <orth>humor</orth>
    <lex disamb="1"><base>humor</base><ctag>subst:sg:nom:m3</ctag></lex>
   </tok>
  </sentence>
 </chunk>
</chunkList>