<?xml version="1.0" encoding="UTF-8"?>
<!DOCTYPE chunkList SYSTEM "ccl.dtd">
<chunkList>
 <chunk type="p" id="ch1">
  <sentence id="s1">
   <tok>
    <orth>Czy</orth>
    <lex disamb="1"><base>czy</base><ctag>conj</ctag></lex>
    <ann chan="nam">0</ann>
    <ann chan="nam_liv_person">0</ann>
    <ann chan="nam_liv">0</ann>
   </tok>
   <tok>
    <orth>Mirabelki</orth>
    <lex disamb="1"><base>mirabelka</base><ctag>subst:sg:gen:f</ctag></lex>
    <ann chan="nam">1</ann>
    <ann chan="nam_liv_person">1</ann>
    <ann chan="nam_liv">1</ann>
   </tok>
   <tok>
    <orth>i</orth>
    <lex disamb="1"><base>i</base><ctag>conj</ctag></lex>
    <ann chan="nam">0</ann>
    <ann chan="nam_liv_person">0</ann>
    <ann chan="nam_liv">0</ann>
   </tok>
   <tok>
    <orth>Mircy</orth>
    <lex disamb="1"><base>Mircy</base><ctag>ign</ctag></lex>
    <ann chan="nam">2</ann>
    <ann chan="nam_liv_person">0</ann>
    <ann chan="nam_liv">0</ann>
   </tok>
   <tok>
    <orth>byli</orth>
    <lex disamb="1"><base>być</base><ctag>praet:pl:m1:imperf</ctag></lex>
    <ann chan="nam">0</ann>
    <ann chan="nam_liv_person">0</ann>
    <ann chan="nam_liv">0</ann>
   </tok>
   <ns/>
   <tok>
    <orth>by</orth>
    <lex disamb="1"><base>by</base><ctag>qub</ctag></lex>
    <ann chan="nam">0</ann>
    <ann chan="nam_liv_person">0</ann>
    <ann chan="nam_liv">0</ann>
   </tok>
   <tok>
    <orth>zainteresowani</orth>
    <lex disamb="1"><base>zainteresowany</base><ctag>subst:pl:nom:m1</ctag></lex>
    <ann chan="nam">0</ann>
    <ann chan="nam_liv_person">0</ann>
    <ann chan="nam_liv">0</ann>
   </tok>
   <tok>
    <orth>serią</orth>
    <lex disamb="1"><base>seria</base><ctag>subst:sg:inst:f</ctag></lex>
    <ann chan="nam">0</ann>
    <ann chan="nam_liv_person">0</ann>
    <ann chan="nam_liv">0</ann>
   </tok>
   <tok>
    <orth>100</orth>
    <lex disamb="1"><base>100</base><ctag>num:pl:nom:m1:rec</ctag></lex>
    <ann chan="nam">0</ann>
    <ann chan="nam_liv_person">0</ann>
    <ann chan="nam_liv">0</ann>
   </tok>
   <tok>
    <orth>ciekawostek</orth>
    <lex disamb="1"><base>ciekawostka</base><ctag>subst:pl:gen:f</ctag></lex>
    <ann chan="nam">0</ann>
    <ann chan="nam_liv_person">0</ann>
    <ann chan="nam_liv">0</ann>
   </tok>
   <tok>
    <orth>o</orth>
    <lex disamb="1"><base>o</base><ctag>prep:acc</ctag></lex>
    <ann chan="nam">0</ann>
    <ann chan="nam_liv_person">0</ann>
    <ann chan="nam_liv">0</ann>
   </tok>
   <tok>
    <orth>lekach</orth>
    <lex disamb="1"><base>lek</base><ctag>subst:pl:loc:m2</ctag></lex>
    <ann chan="nam">0</ann>
    <ann chan="nam_liv_person">0</ann>
    <ann chan="nam_liv">0</ann>
   </tok>
   <tok>
    <orth>/</orth>
    <lex disamb="1"><base>/</base><ctag>interp</ctag></lex>
    <ann chan="nam">0</ann>
    <ann chan="nam_liv_person">0</ann>
    <ann chan="nam_liv">0</ann>
   </tok>
   <tok>
    <orth>farmacji</orth>
    <lex disamb="1"><base>farmacja</base><ctag>subst:sg:gen:f</ctag></lex>
    <ann chan="nam">0</ann>
    <ann chan="nam_liv_person">0</ann>
    <ann chan="nam_liv">0</ann>
   </tok>
   <tok>
    <orth>/</orth>
    <lex disamb="1"><base>/</base><ctag>interp</ctag></lex>
    <ann chan="nam">0</ann>
    <ann chan="nam_liv_person">0</ann>
    <ann chan="nam_liv">0</ann>
   </tok>
   <tok>
    <orth>historii</orth>
    <lex disamb="1"><base>historia</base><ctag>subst:sg:gen:f</ctag></lex>
    <ann chan="nam">0</ann>
    <ann chan="nam_liv_person">0</ann>
    <ann chan="nam_liv">0</ann>
   </tok>
   <tok>
    <orth>narkotyków</orth>
    <lex disamb="1"><base>narkotyk</base><ctag>subst:pl:gen:m3</ctag></lex>
    <ann chan="nam">0</ann>
    <ann chan="nam_liv_person">0</ann>
    <ann chan="nam_liv">0</ann>
   </tok>
   <tok>
    <orth>/</orth>
    <lex disamb="1"><base>/</base><ctag>interp</ctag></lex>
    <ann chan="nam">0</ann>
    <ann chan="nam_liv_person">0</ann>
    <ann chan="nam_liv">0</ann>
   </tok>
   <tok>
    <orth>badaniach</orth>
    <lex disamb="1"><base>badanie</base><ctag>subst:pl:loc:n</ctag></lex>
    <ann chan="nam">0</ann>
    <ann chan="nam_liv_person">0</ann>
    <ann chan="nam_liv">0</ann>
   </tok>
   <tok>
    <orth>klinicznych</orth>
    <lex disamb="1"><base>kliniczny</base><ctag>adj:pl:gen:m1:pos</ctag></lex>
    <ann chan="nam">0</ann>
    <ann chan="nam_liv_person">0</ann>
    <ann chan="nam_liv">0</ann>
   </tok>
   <ns/>
   <tok>
    <orth>?</orth>
    <lex disamb="1"><base>?</base><ctag>interp</ctag></lex>
    <ann chan="nam">0</ann>
    <ann chan="nam_liv_person">0</ann>
    <ann chan="nam_liv">0</ann>
   </tok>
  </sentence>
 </chunk>
 <chunk type="p" id="ch2">
  <sentence id="s2">
   <tok>
    <orth>Nie</orth>
    <lex disamb="1"><base>nie</base><ctag>conj</ctag></lex>
    <ann chan="timex">0</ann>
    <ann chan="t3_date">0</ann>
   </tok>
   <tok>
    <orth>będzie</orth>
    <lex disamb="1"><base>być</base><ctag>bedzie:sg:ter:imperf</ctag></lex>
    <ann chan="timex">0</ann>
    <ann chan="t3_date">0</ann>
   </tok>
   <tok>
    <orth>to</orth>
    <lex disamb="1"><base>to</base><ctag>conj</ctag></lex>
    <ann chan="timex">0</ann>
    <ann chan="t3_date">0</ann>
   </tok>
   <tok>
    <orth>poziom</orth>
    <lex disamb="1"><base>poziom</base><ctag>subst:sg:nom:m3</ctag></lex>
    <ann chan="timex">0</ann>
    <ann chan="t3_date">0</ann>
   </tok>
   <tok>
    <orth>Damianowski</orth>
    <lex disamb="1"><base>Damianowski</base><ctag>ign</ctag></lex>
    <ann chan="timex">0</ann>
    <ann chan="t3_date">0</ann>
   </tok>
   <tok>
    <orth>challenge</orth>
    <lex disamb="1"><base>challenge</base><ctag>subst:sg:nom:m3</ctag></lex>
    <ann chan="timex">0</ann>
    <ann chan="t3_date">0</ann>
   </tok>
   <ns/>
   <tok>
    <orth>,</orth>
    <lex disamb="1"><base>,</base><ctag>interp</ctag></lex>
    <ann chan="timex">0</ann>
    <ann chan="t3_date">0</ann>
   </tok>
   <tok>
    <orth>nie</orth>
    <lex disamb="1"><base>nie</base><ctag>conj</ctag></lex>
    <ann chan="timex">0</ann>
    <ann chan="t3_date">0</ann>
   </tok>
   <tok>
    <orth>wyrobię</orth>
    <lex disamb="1"><base>wyrobić</base><ctag>fin:sg:pri:perf</ctag></lex>
    <ann chan="timex">0</ann>
    <ann chan="t3_date">0</ann>
   </tok>
   <tok>
    <orth>się</orth>
    <lex disamb="1"><base>się</base><ctag>qub</ctag></lex>
    <ann chan="timex">0</ann>
    <ann chan="t3_date">0</ann>
   </tok>
   <tok>
    <orth>w</orth>
    <lex disamb="1"><base>w</base><ctag>prep:acc:nwok</ctag></lex>
    <ann chan="timex">0</ann>
    <ann chan="t3_date">0</ann>
   </tok>
   <tok>
    <orth>czasie</orth>
    <lex disamb="1"><base>czas</base><ctag>subst:sg:loc:m3</ctag></lex>
    <ann chan="timex">0</ann>
    <ann chan="t3_date">0</ann>
   </tok>
   <tok>
    <orth>(</orth>
    <lex disamb="1"><base>(</base><ctag>interp</ctag></lex>
    <ann chan="timex">0</ann>
    <ann chan="t3_date">0</ann>
   </tok>
   <ns/>
   <tok>
    <orth>i</orth>
    <lex disamb="1"><base>i</base><ctag>conj</ctag></lex>
    <ann chan="timex">0</ann>
    <ann chan="t3_date">0</ann>
   </tok>
   <tok>
    <orth>przestrzeni</orth>
    <lex disamb="1"><base>przestrzeń</base><ctag>subst:sg:gen:f</ctag></lex>
    <ann chan="timex">0</ann>
    <ann chan="t3_date">0</ann>
   </tok>
   <ns/>
   <tok>
    <orth>)</orth>
    <lex disamb="1"><base>)</base><ctag>interp</ctag></lex>
    <ann chan="timex">0</ann>
    <ann chan="t3_date">0</ann>
   </tok>
   <tok>
    <orth>w</orth>
    <lex disamb="1"><base>w</base><ctag>prep:acc:nwok</ctag></lex>
    <ann chan="timex">0</ann>
    <ann chan="t3_date">0</ann>
   </tok>
   <tok>
    <orth>tempie</orth>
    <lex disamb="1"><base>temp</base><ctag>subst:sg:loc:m3</ctag></lex>
    <ann chan="timex">0</ann>
    <ann chan="t3_date">0</ann>
   </tok>
   <tok>
    <orth>1</orth>
    <lex disamb="1"><base>1</base><ctag>num:pl:nom:m1:rec</ctag></lex>
    <ann chan="timex">0</ann>
    <ann chan="t3_date">0</ann>
   </tok>
   <ns/>
   <tok>
    <orth>/</orth>
    <lex disamb="1"><base>/</base><ctag>interp</ctag></lex>
    <ann chan="timex">0</ann>
    <ann chan="t3_date">0</ann>
   </tok>
   <ns/>
   <tok>
    <orth>dzień</orth>
    <lex disamb="1"><base>dzienia</base><ctag>subst:pl:gen:f</ctag></lex>
    <ann chan="timex">0</ann>
    <ann chan="t3_date">0</ann>
   </tok>
   <ns/>
   <tok>
    <orth>,</orth>
    <lex disamb="1"><base>,</base><ctag>interp</ctag></lex>
    <ann chan="timex">0</ann>
    <ann chan="t3_date">0</ann>
   </tok>
   <tok>
    <orth>ale</orth>
    <lex disamb="1"><base>ale</base><ctag>conj</ctag></lex>
    <ann chan="timex">0</ann>
    <ann chan="t3_date">0</ann>
   </tok>
   <tok>
    <orth>myślę</orth>
    <lex disamb="1"><base>myśleć</base><ctag>fin:sg:pri:imperf</ctag></lex>
    <lex disamb="1"><base>myślić</base><ctag>fin:sg:pri:imperf</ctag></lex>
    <ann chan="timex">0</ann>
    <ann chan="t3_date">0</ann>
   </tok>
   <ns/>
   <tok>
    <orth>,</orth>
    <lex disamb="1"><base>,</base><ctag>interp</ctag></lex>
    <ann chan="timex">0</ann>
    <ann chan="t3_date">0</ann>
   </tok>
   <tok>
    <orth>że</orth>
    <lex disamb="1"><base>że</base><ctag>comp</ctag></lex>
    <ann chan="timex">0</ann>
    <ann chan="t3_date">0</ann>
   </tok>
   <tok>
    <orth>mieli</orth>
    <lex disamb="1"><base>mieć</base><ctag>praet:pl:m1:imperf</ctag></lex>
    <ann chan="timex">0</ann>
    <ann chan="t3_date">0</ann>
   </tok>
   <ns/>
   <tok>
    <orth>by</orth>
    <lex disamb="1"><base>by</base><ctag>qub</ctag></lex>
    <ann chan="timex">0</ann>
    <ann chan="t3_date">0</ann>
   </tok>
   <ns/>
   <tok>
    <orth>ście</orth>
    <lex disamb="1"><base>być</base><ctag>aglt:pl:sec:imperf:nwok</ctag></lex>
    <ann chan="timex">0</ann>
    <ann chan="t3_date">0</ann>
   </tok>
   <tok>
    <orth>okazję</orth>
    <lex disamb="1"><base>okazja</base><ctag>subst:sg:acc:f</ctag></lex>
    <ann chan="timex">0</ann>
    <ann chan="t3_date">0</ann>
   </tok>
   <tok>
    <orth>dowiedzieć</orth>
    <lex disamb="1"><base>dowiedzieć</base><ctag>inf:perf</ctag></lex>
    <ann chan="timex">0</ann>
    <ann chan="t3_date">0</ann>
   </tok>
   <tok>
    <orth>się</orth>
    <lex disamb="1"><base>się</base><ctag>qub</ctag></lex>
    <ann chan="timex">0</ann>
    <ann chan="t3_date">0</ann>
   </tok>
   <tok>
    <orth>wielu</orth>
    <lex disamb="1"><base>wiele</base><ctag>num:pl:nom:m1:rec</ctag></lex>
    <lex disamb="1"><base>wiele</base><ctag>num:pl:nom:m1:rec</ctag></lex>
    <lex disamb="1"><base>wiele</base><ctag>num:pl:nom:m1:rec</ctag></lex>
    <lex disamb="1"><base>wiele</base><ctag>num:pl:nom:m1:rec</ctag></lex>
    <lex disamb="1"><base>wiele</base><ctag>num:pl:nom:m1:rec</ctag></lex>
    <lex disamb="1"><base>wiele</base><ctag>num:pl:nom:m1:rec</ctag></lex>
    <lex disamb="1"><base>wiele</base><ctag>num:pl:nom:m1:rec</ctag></lex>
    <lex disamb="1"><base>wiele</base><ctag>num:pl:nom:m1:rec</ctag></lex>
    <lex disamb="1"><base>wiele</base><ctag>num:pl:nom:m1:rec</ctag></lex>
    <lex disamb="1"><base>wiele</base><ctag>num:pl:nom:m1:rec</ctag></lex>
    <lex disamb="1"><base>wiele</base><ctag>num:pl:nom:m1:rec</ctag></lex>
    <lex disamb="1"><base>wiele</base><ctag>num:pl:nom:m1:rec</ctag></lex>
    <lex disamb="1"><base>wiele</base><ctag>num:pl:nom:m1:rec</ctag></lex>
    <lex disamb="1"><base>wiele</base><ctag>num:pl:nom:m1:rec</ctag></lex>
    <lex disamb="1"><base>wiele</base><ctag>num:pl:nom:m1:rec</ctag></lex>
    <lex disamb="1"><base>wiele</base><ctag>num:pl:nom:m1:rec</ctag></lex>
    <lex disamb="1"><base>wiele</base><ctag>num:pl:nom:m1:rec</ctag></lex>
    <lex disamb="1"><base>wiele</base><ctag>num:pl:nom:m1:rec</ctag></lex>
    <lex disamb="1"><base>wiele</base><ctag>num:pl:nom:m1:rec</ctag></lex>
    <lex disamb="1"><base>wiele</base><ctag>num:pl:nom:m1:rec</ctag></lex>
    <lex disamb="1"><base>wiele</base><ctag>num:pl:nom:m1:rec</ctag></lex>
    <lex disamb="1"><base>wiele</base><ctag>num:pl:nom:m1:rec</ctag></lex>
    <lex disamb="1"><base>wiele</base><ctag>num:pl:nom:m1:rec</ctag></lex>
    <ann chan="timex">0</ann>
    <ann chan="t3_date">0</ann>
   </tok>
   <tok>
    <orth>fajnych</orth>
    <lex disamb="1"><base>fajny</base><ctag>adj:pl:gen:m1:pos</ctag></lex>
    <ann chan="timex">0</ann>
    <ann chan="t3_date">0</ann>
   </tok>
   <tok>
    <orth>rzeczy</orth>
    <lex disamb="1"><base>rzecz</base><ctag>subst:sg:gen:f</ctag></lex>
    <ann chan="timex">0</ann>
    <ann chan="t3_date">0</ann>
   </tok>
   <tok>
    <orth>w</orth>
    <lex disamb="1"><base>w</base><ctag>prep:acc:nwok</ctag></lex>
    <ann chan="timex">0</ann>
    <ann chan="t3_date">0</ann>
   </tok>
   <tok>
    <orth>najbliższych</orth>
    <lex disamb="1"><base>bliski</base><ctag>adj:pl:gen:m1:sup</ctag></lex>
    <ann chan="timex">1</ann>
    <ann chan="t3_date">1</ann>
   </tok>
   <tok>
    <orth>tygodniach</orth>
    <lex disamb="1"><base>tydzień</base><ctag>subst:pl:loc:m3</ctag></lex>
    <ann chan="timex">1</ann>
    <ann chan="t3_date">1</ann>
   </tok>
   <ns/>
   <tok>
    <orth>.</orth>
    <lex disamb="1"><base>.</base><ctag>interp</ctag></lex>
    <ann chan="timex">0</ann>
    <ann chan="t3_date">0</ann>
   </tok>
  </sentence>
 </chunk>
 <chunk type="p" id="ch3">
  <sentence id="s3">
   <tok>
    <orth>Nie</orth>
    <lex disamb="1"><base>nie</base><ctag>conj</ctag></lex>
   </tok>
   <tok>
    <orth>będzie</orth>
    <lex disamb="1"><base>być</base><ctag>bedzie:sg:ter:imperf</ctag></lex>
   </tok>
   <tok>
    <orth>to</orth>
    <lex disamb="1"><base>to</base><ctag>conj</ctag></lex>
   </tok>
   <tok>
    <orth>też</orth>
    <lex disamb="1"><base>też</base><ctag>qub</ctag></lex>
   </tok>
   <tok>
    <orth>frytusiacontent</orth>
    <lex disamb="1"><base>frytusiacontent</base><ctag>ign</ctag></lex>
   </tok>
   <ns/>
   <tok>
    <orth>,</orth>
    <lex disamb="1"><base>,</base><ctag>interp</ctag></lex>
   </tok>
   <tok>
    <orth>nie</orth>
    <lex disamb="1"><base>nie</base><ctag>conj</ctag></lex>
   </tok>
   <tok>
    <orth>mamy</orth>
    <lex disamb="1"><base>mama</base><ctag>subst:sg:gen:f</ctag></lex>
   </tok>
   <tok>
    <orth>takich</orth>
    <lex disamb="1"><base>taki</base><ctag>adj:pl:gen:m1:pos</ctag></lex>
   </tok>
   <tok>
    <orth>fajnych</orth>
    <lex disamb="1"><base>fajny</base><ctag>adj:pl:gen:m1:pos</ctag></lex>
   </tok>
   <tok>
    <orth>psiaków</orth>
    <lex disamb="1"><base>psiak</base><ctag>subst:pl:gen:m2</ctag></lex>
   </tok>
   <tok>
    <orth>(</orth>
    <lex disamb="1"><base>(</base><ctag>interp</ctag></lex>
   </tok>
   <ns/>
   <tok>
    <orth>i</orth>
    <lex disamb="1"><base>i</base><ctag>conj</ctag></lex>
   </tok>
   <tok>
    <orth>dzieci</orth>
    <lex disamb="1"><base>dziecko</base><ctag>subst:pl:nom:n</ctag></lex>
   </tok>
   <ns/>
   <tok>
    <orth>)</orth>
    <lex disamb="1"><base>)</base><ctag>interp</ctag></lex>
   </tok>
   <tok>
    <orth>w</orth>
    <lex disamb="1"><base>w</base><ctag>prep:acc:nwok</ctag></lex>
   </tok>
   <tok>
    <orth>pracy</orth>
    <lex disamb="1"><base>praca</base><ctag>subst:sg:gen:f</ctag></lex>
   </tok>
   <ns/>
   <tok>
    <orth>.</orth>
    <lex disamb="1"><base>.</base><ctag>interp</ctag></lex>
   </tok>
  </sentence>
 </chunk>
 <chunk type="p" id="ch4">
  <sentence id="s4">
   <tok>
    <orth>(</orth>
    <lex disamb="1"><base>(</base><ctag>interp</ctag></lex>
   </tok>
   <tok>
    <orth>͡</orth>
    <lex disamb="1"><base>͡</base><ctag>ign</ctag></lex>
   </tok>
   <ns/>
   <tok>
    <orth>°</orth>
    <lex disamb="1"><base>°</base><ctag>interp</ctag></lex>
   </tok>
   <tok>
    <orth>͜ʖ</orth>
    <lex disamb="1"><base>͜ʖ</base><ctag>ign</ctag></lex>
   </tok>
   <tok>
    <orth>͡</orth>
    <lex disamb="1"><base>͡</base><ctag>ign</ctag></lex>
   </tok>
   <ns/>
   <tok>
    <orth>°</orth>
    <lex disamb="1"><base>°</base><ctag>interp</ctag></lex>
   </tok>
   <ns/>
   <tok>
    <orth>)</orth>
    <lex disamb="1"><base>)</base><ctag>interp</ctag></lex>
   </tok>
  </sentence>
 </chunk>
 <chunk type="p" id="ch5">
  <sentence id="s5">
   <tok>
    <orth>Z</orth>
    <lex disamb="1"><base>z</base><ctag>prep:gen:nwok</ctag></lex>
    <ann chan="nam">0</ann>
    <ann chan="nam_pro">0</ann>
   </tok>
   <tok>
    <orth>góry</orth>
    <lex disamb="1"><base>góra</base><ctag>subst:sg:gen:f</ctag></lex>
    <ann chan="nam">0</ann>
    <ann chan="nam_pro">0</ann>
   </tok>
   <tok>
    <orth>zaznaczam</orth>
    <lex disamb="1"><base>zaznaczać</base><ctag>fin:sg:pri:imperf</ctag></lex>
    <ann chan="nam">0</ann>
    <ann chan="nam_pro">0</ann>
   </tok>
   <ns/>
   <tok>
    <orth>,</orth>
    <lex disamb="1"><base>,</base><ctag>interp</ctag></lex>
    <ann chan="nam">0</ann>
    <ann chan="nam_pro">0</ann>
   </tok>
   <tok>
    <orth>że</orth>
    <lex disamb="1"><base>że</base><ctag>comp</ctag></lex>
    <ann chan="nam">0</ann>
    <ann chan="nam_pro">0</ann>
   </tok>
   <tok>
    <orth>kobyły</orth>
    <lex disamb="1"><base>kobyła</base><ctag>subst:sg:gen:f</ctag></lex>
    <ann chan="nam">0</ann>
    <ann chan="nam_pro">0</ann>
   </tok>
   <tok>
    <orth>pokroju</orth>
    <lex disamb="1"><base>pokrój</base><ctag>subst:sg:gen:m3</ctag></lex>
    <ann chan="nam">0</ann>
    <ann chan="nam_pro">0</ann>
   </tok>
   <tok>
    <orth>LSD</orth>
    <lex disamb="1"><base>LSD</base><ctag>subst:sg:nom:n</ctag></lex>
    <ann chan="nam">1</ann>
    <ann chan="nam_pro">1</ann>
   </tok>
   <tok>
    <orth>czy</orth>
    <lex disamb="1"><base>czy</base><ctag>conj</ctag></lex>
    <ann chan="nam">0</ann>
    <ann chan="nam_pro">0</ann>
   </tok>
   <tok>
    <orth>aspiryny</orth>
    <lex disamb="1"><base>aspiryna</base><ctag>subst:sg:gen:f</ctag></lex>
    <ann chan="nam">0</ann>
    <ann chan="nam_pro">0</ann>
   </tok>
   <tok>
    <orth>nie</orth>
    <lex disamb="1"><base>nie</base><ctag>conj</ctag></lex>
    <ann chan="nam">0</ann>
    <ann chan="nam_pro">0</ann>
   </tok>
   <tok>
    <orth>znajdą</orth>
    <lex disamb="1"><base>znajda</base><ctag>subst:sg:inst:m1</ctag></lex>
    <ann chan="nam">0</ann>
    <ann chan="nam_pro">0</ann>
   </tok>
   <tok>
    <orth>się</orth>
    <lex disamb="1"><base>się</base><ctag>qub</ctag></lex>
    <ann chan="nam">0</ann>
    <ann chan="nam_pro">0</ann>
   </tok>
   <tok>
    <orth>w</orth>
    <lex disamb="1"><base>w</base><ctag>prep:acc:nwok</ctag></lex>
    <ann chan="nam">0</ann>
    <ann chan="nam_pro">0</ann>
   </tok>
   <tok>
    <orth>zbiorze</orth>
    <lex disamb="1"><base>zbiór</base><ctag>subst:sg:loc:m3</ctag></lex>
    <ann chan="nam">0</ann>
    <ann chan="nam_pro">0</ann>
   </tok>
   <ns/>
   <tok>
    <orth>,</orth>
    <lex disamb="1"><base>,</base><ctag>interp</ctag></lex>
    <ann chan="nam">0</ann>
    <ann chan="nam_pro">0</ann>
   </tok>
   <tok>
    <orth>gdyż</orth>
    <lex disamb="1"><base>gdyż</base><ctag>comp</ctag></lex>
    <ann chan="nam">0</ann>
    <ann chan="nam_pro">0</ann>
   </tok>
   <tok>
    <orth>książek</orth>
    <lex disamb="1"><base>książka</base><ctag>subst:pl:gen:f</ctag></lex>
    <ann chan="nam">0</ann>
    <ann chan="nam_pro">0</ann>
   </tok>
   <tok>
    <orth>traktujących</orth>
    <lex disamb="1"><base>traktować</base><ctag>pact:pl:gen:m1:imperf:aff</ctag></lex>
    <ann chan="nam">0</ann>
    <ann chan="nam_pro">0</ann>
   </tok>
   <tok>
    <orth>o</orth>
    <lex disamb="1"><base>o</base><ctag>prep:acc</ctag></lex>
    <ann chan="nam">0</ann>
    <ann chan="nam_pro">0</ann>
   </tok>
   <tok>
    <orth>tych</orth>
    <lex disamb="1"><base>ten</base><ctag>adj:pl:gen:m1:pos</ctag></lex>
    <ann chan="nam">0</ann>
    <ann chan="nam_pro">0</ann>
   </tok>
   <tok>
    <orth>substancjach</orth>
    <lex disamb="1"><base>substancja</base><ctag>subst:pl:loc:f</ctag></lex>
    <ann chan="nam">0</ann>
    <ann chan="nam_pro">0</ann>
   </tok>
   <tok>
    <orth>naprawdę</orth>
    <lex disamb="1"><base>naprawdę</base><ctag>qub</ctag></lex>
    <ann chan="nam">0</ann>
    <ann chan="nam_pro">0</ann>
   </tok>
   <tok>
    <orth>nie</orth>
    <lex disamb="1"><base>nie</base><ctag>conj</ctag></lex>
    <ann chan="nam">0</ann>
    <ann chan="nam_pro">0</ann>
   </tok>
   <tok>
    <orth>brakuje</orth>
    <lex disamb="1"><base>brakować</base><ctag>fin:sg:ter:imperf</ctag></lex>
    <ann chan="nam">0</ann>
    <ann chan="nam_pro">0</ann>
   </tok>
   <ns/>
   <tok>
    <orth>.</orth>
    <lex disamb="1"><base>.</base><ctag>interp</ctag></lex>
    <ann chan="nam">0</ann>
    <ann chan="nam_pro">0</ann>
   </tok>
  </sentence>
 </chunk>
 <chunk type="p" id="ch6">
  <sentence id="s6">
   <tok>
    <orth>Może</orth>
    <lex disamb="1"><base>może</base><ctag>qub</ctag></lex>
    <ann chan="nam">0</ann>
    <ann chan="nam_loc">0</ann>
   </tok>
   <tok>
    <orth>uda</orth>
    <lex disamb="1"><base>udo</base><ctag>subst:sg:gen:n</ctag></lex>
    <ann chan="nam">0</ann>
    <ann chan="nam_loc">0</ann>
   </tok>
   <tok>
    <orth>się</orth>
    <lex disamb="1"><base>się</base><ctag>qub</ctag></lex>
    <ann chan="nam">0</ann>
    <ann chan="nam_loc">0</ann>
   </tok>
   <tok>
    <orth>zbiorczo</orth>
    <lex disamb="1"><base>zbiorczo</base><ctag>adv:pos</ctag></lex>
    <ann chan="nam">0</ann>
    <ann chan="nam_loc">0</ann>
   </tok>
   <tok>
    <orth>przedstawić</orth>
    <lex disamb="1"><base>przedstawić</base><ctag>inf:perf</ctag></lex>
    <ann chan="nam">0</ann>
    <ann chan="nam_loc">0</ann>
   </tok>
   <tok>
    <orth>w</orth>
    <lex disamb="1"><base>w</base><ctag>prep:acc:nwok</ctag></lex>
    <ann chan="nam">0</ann>
    <ann chan="nam_loc">0</ann>
   </tok>
   <tok>
    <orth>którymś</orth>
    <lex disamb="1"><base>któryś</base><ctag>adj:sg:inst:m1:pos</ctag></lex>
    <ann chan="nam">0</ann>
    <ann chan="nam_loc">0</ann>
   </tok>
   <tok>
    <orth>wpisie</orth>
    <lex disamb="1"><base>wpis</base><ctag>subst:sg:loc:m3</ctag></lex>
    <ann chan="nam">0</ann>
    <ann chan="nam_loc">0</ann>
   </tok>
   <tok>
    <orth>ogólną</orth>
    <lex disamb="1"><base>ogólny</base><ctag>adj:sg:acc:f:pos</ctag></lex>
    <ann chan="nam">0</ann>
    <ann chan="nam_loc">0</ann>
   </tok>
   <tok>
    <orth>dynamikę</orth>
    <lex disamb="1"><base>dynamika</base><ctag>subst:sg:acc:f</ctag></lex>
    <ann chan="nam">0</ann>
    <ann chan="nam_loc">0</ann>
   </tok>
   <tok>
    <orth>relacji</orth>
    <lex disamb="1"><base>relacja</base><ctag>subst:sg:gen:f</ctag></lex>
    <ann chan="nam">0</ann>
    <ann chan="nam_loc">0</ann>
   </tok>
   <tok>
    <orth>lekarz</orth>
    <lex disamb="1"><base>lekarz</base><ctag>subst:sg:nom:m1</ctag></lex>
    <ann chan="nam">0</ann>
    <ann chan="nam_loc">0</ann>
   </tok>
   <ns/>
   <tok>
    <orth>-</orth>
    <lex disamb="1"><base>-</base><ctag>interp</ctag></lex>
    <ann chan="nam">0</ann>
    <ann chan="nam_loc">0</ann>
   </tok>
   <ns/>
   <tok>
    <orth>farmaceuta</orth>
    <lex disamb="1"><base>farmaceuta</base><ctag>subst:sg:nom:m1</ctag></lex>
    <ann chan="nam">0</ann>
    <ann chan="nam_loc">0</ann>
   </tok>
   <ns/>
   <tok>
    <orth>,</orth>
    <lex disamb="1"><base>,</base><ctag>interp</ctag></lex>
    <ann chan="nam">0</ann>
    <ann chan="nam_loc">0</ann>
   </tok>
   <tok>
    <orth>farmaceuta</orth>
    <lex disamb="1"><base>farmaceuta</base><ctag>subst:sg:nom:m1</ctag></lex>
    <ann chan="nam">0</ann>
    <ann chan="nam_loc">0</ann>
   </tok>
   <ns/>
   <tok>
    <orth>-</orth>
    <lex disamb="1"><base>-</base><ctag>interp</ctag></lex>
    <ann chan="nam">0</ann>
    <ann chan="nam_loc">0</ann>
   </tok>
   <ns/>
   <tok>
    <orth>pacjent</orth>
    <lex disamb="1"><base>pacjent</base><ctag>subst:sg:nom:m1</ctag></lex>
    <ann chan="nam">0</ann>
    <ann chan="nam_loc">0</ann>
   </tok>
   <tok>
    <orth>w</orth>
    <lex disamb="1"><base>w</base><ctag>prep:acc:nwok</ctag></lex>
    <ann chan="nam">0</ann>
    <ann chan="nam_loc">0</ann>
   </tok>
   <tok>
    <orth>aptece</orth>
    <lex disamb="1"><base>apteka</base><ctag>subst:sg:dat:f</ctag></lex>
    <ann chan="nam">0</ann>
    <ann chan="nam_loc">0</ann>
   </tok>
   <ns/>
   <tok>
    <orth>,</orth>
    <lex disamb="1"><base>,</base><ctag>interp</ctag></lex>
    <ann chan="nam">0</ann>
    <ann chan="nam_loc">0</ann>
   </tok>
   <tok>
    <orth>ale</orth>
    <lex disamb="1"><base>ale</base><ctag>conj</ctag></lex>
    <ann chan="nam">0</ann>
    <ann chan="nam_loc">0</ann>
   </tok>
   <tok>
    <orth>nie</orth>
    <lex disamb="1"><base>nie</base><ctag>conj</ctag></lex>
    <ann chan="nam">0</ann>
    <ann chan="nam_loc">0</ann>
   </tok>
   <tok>
    <orth>będzie</orth>
    <lex disamb="1"><base>być</base><ctag>bedzie:sg:ter:imperf</ctag></lex>
    <ann chan="nam">0</ann>
    <ann chan="nam_loc">0</ann>
   </tok>
   <tok>
    <orth>też</orth>
    <lex disamb="1"><base>też</base><ctag>qub</ctag></lex>
    <ann chan="nam">0</ann>
    <ann chan="nam_loc">0</ann>
   </tok>
   <tok>
    <orth>stricte</orth>
    <lex disamb="1"><base>stricte</base><ctag>burk</ctag></lex>
    <ann chan="nam">0</ann>
    <ann chan="nam_loc">0</ann>
   </tok>
   <tok>
    <orth>o</orth>
    <lex disamb="1"><base>o</base><ctag>prep:acc</ctag></lex>
    <ann chan="nam">0</ann>
    <ann chan="nam_loc">0</ann>
   </tok>
   <tok>
    <orth>wadach</orth>
    <lex disamb="1"><base>wad</base><ctag>subst:pl:loc:m3</ctag></lex>
    <ann chan="nam">0</ann>
    <ann chan="nam_loc">0</ann>
   </tok>
   <tok>
    <orth>pacjentów</orth>
    <lex disamb="1"><base>pacjent</base><ctag>subst:pl:gen:m1</ctag></lex>
    <ann chan="nam">0</ann>
    <ann chan="nam_loc">0</ann>
   </tok>
   <tok>
    <orth>przychodzących</orth>
    <lex disamb="1"><base>przychodzić</base><ctag>pact:pl:gen:m1:imperf:aff</ctag></lex>
    <ann chan="nam">0</ann>
    <ann chan="nam_loc">0</ann>
   </tok>
   <tok>
    <orth>do</orth>
    <lex disamb="1"><base>do</base><ctag>prep:gen</ctag></lex>
    <ann chan="nam">0</ann>
    <ann chan="nam_loc">0</ann>
   </tok>
   <tok>
    <orth>aptek</orth>
    <lex disamb="1"><base>apteka</base><ctag>subst:pl:gen:f</ctag></lex>
    <ann chan="nam">0</ann>
    <ann chan="nam_loc">0</ann>
   </tok>
   <tok>
    <orth>-</orth>
    <lex disamb="1"><base>-</base><ctag>interp</ctag></lex>
    <ann chan="nam">0</ann>
    <ann chan="nam_loc">0</ann>
   </tok>
   <tok>
    <orth>mimo</orth>
    <lex disamb="1"><base>mimo</base><ctag>adv:pos</ctag></lex>
    <ann chan="nam">0</ann>
    <ann chan="nam_loc">0</ann>
   </tok>
   <tok>
    <orth>że</orth>
    <lex disamb="1"><base>że</base><ctag>comp</ctag></lex>
    <ann chan="nam">0</ann>
    <ann chan="nam_loc">0</ann>
   </tok>
   <tok>
    <orth>to</orth>
    <lex disamb="1"><base>to</base><ctag>conj</ctag></lex>
    <ann chan="nam">0</ann>
    <ann chan="nam_loc">0</ann>
   </tok>
   <tok>
    <orth>materiał</orth>
    <lex disamb="1"><base>materiał</base><ctag>subst:sg:nom:m3</ctag></lex>
    <ann chan="nam">0</ann>
    <ann chan="nam_loc">0</ann>
   </tok>
   <tok>
    <orth>na</orth>
    <lex disamb="1"><base>na</base><ctag>prep:acc</ctag></lex>
    <ann chan="nam">0</ann>
    <ann chan="nam_loc">0</ann>
   </tok>
   <tok>
    <orth>film</orth>
    <lex disamb="1"><base>film</base><ctag>subst:sg:nom:m3</ctag></lex>
    <ann chan="nam">0</ann>
    <ann chan="nam_loc">0</ann>
   </tok>
   <tok>
    <orth>Vegi</orth>
    <lex disamb="1"><base>Vega</base><ctag>subst:sg:gen:m1</ctag></lex>
    <ann chan="nam">1</ann>
    <ann chan="nam_loc">1</ann>
   </tok>
   <tok>
    <orth>lub</orth>
    <lex disamb="1"><base>lub</base><ctag>conj</ctag></lex>
    <ann chan="nam">0</ann>
    <ann chan="nam_loc">0</ann>
   </tok>
   <tok>
    <orth>książkę</orth>
    <lex disamb="1"><base>książka</base><ctag>subst:sg:acc:f</ctag></lex>
    <ann chan="nam">0</ann>
    <ann chan="nam_loc">0</ann>
   </tok>
   <tok>
    <orth>Żulczyka</orth>
    <lex disamb="1"><base>Żulczyka</base><ctag>ign</ctag></lex>
    <ann chan="nam">0</ann>
    <ann chan="nam_loc">0</ann>
   </tok>
   <ns/>
   <tok>
    <orth>.</orth>
    <lex disamb="1"><base>.</base><ctag>interp</ctag></lex>
    <ann chan="nam">0</ann>
    <ann chan="nam_loc">0</ann>
   </tok>
  </sentence>
 </chunk>
 <chunk type="p" id="ch7">
  <sentence id="s7">
   <tok>
    <orth>Małpki</orth>
    <lex disamb="1"><base>małpka</base><ctag>subst:sg:gen:f</ctag></lex>
   </tok>
   <tok>
    <orth>z</orth>
    <lex disamb="1"><base>z</base><ctag>prep:gen:nwok</ctag></lex>
   </tok>
   <tok>
    <orth>borneo</orth>
    <lex disamb="1"><base>Borneo</base><ctag>subst:sg:nom:n</ctag></lex>
   </tok>
   <tok>
    <orth>zdarzają</orth>
    <lex disamb="1"><base>zdarzać</base><ctag>fin:pl:ter:imperf</ctag></lex>
   </tok>
   <tok>
    <orth>się</orth>
    <lex disamb="1"><base>się</base><ctag>qub</ctag></lex>
   </tok>
   <tok>
    <orth>w</orth>
    <lex disamb="1"><base>w</base><ctag>prep:acc:nwok</ctag></lex>
   </tok>
   <tok>
    <orth>każdej</orth>
    <lex disamb="1"><base>każdy</base><ctag>adj:sg:gen:f:pos</ctag></lex>
   </tok>
   <tok>
    <orth>branży</orth>
    <lex disamb="1"><base>branża</base><ctag>subst:sg:gen:f</ctag></lex>
   </tok>
   <ns/>
   <tok>
    <orth>,</orth>
    <lex disamb="1"><base>,</base><ctag>interp</ctag></lex>
   </tok>
   <tok>
    <orth>ale</orth>
    <lex disamb="1"><base>ale</base><ctag>conj</ctag></lex>
   </tok>
   <tok>
    <orth>psioczenie</orth>
    <lex disamb="1"><base>psioczyć</base><ctag>ger:sg:nom:n:imperf:aff</ctag></lex>
   </tok>
   <tok>
    <orth>na</orth>
    <lex disamb="1"><base>na</base><ctag>prep:acc</ctag></lex>
   </tok>
   <tok>
    <orth>ludzi</orth>
    <lex disamb="1"><base>człowiek</base><ctag>subst:pl:gen:m1</ctag></lex>
    <lex disamb="1"><base>ludzie</base><ctag>subst:pl:gen:m1</ctag></lex>
   </tok>
   <tok>
    <orth>w</orth>
    <lex disamb="1"><base>w</base><ctag>prep:acc:nwok</ctag></lex>
   </tok>
   <tok>
    <orth>niczym</orth>
    <lex disamb="1"><base>niczym</base><ctag>conj</ctag></lex>
   </tok>
   <tok>
    <orth>nie</orth>
    <lex disamb="1"><base>nie</base><ctag>conj</ctag></lex>
   </tok>
   <tok>
    <orth>pomoże</orth>
    <lex disamb="1"><base>pomóc</base><ctag>fin:sg:ter:perf</ctag></lex>
   </tok>
   <ns/>
   <tok>
    <orth>.</orth>
    <lex disamb="1"><base>.</base><ctag>interp</ctag></lex>
   </tok>
  </sentence>
 </chunk>
 <chunk type="p" id="ch8">
  <sentence id="s8">
   <tok>
    <orth>(</orth>
    <lex disamb="1"><base>(</base><ctag>interp</ctag></lex>
   </tok>
   <tok>
    <orth>͡</orth>
    <lex disamb="1"><base>͡</base><ctag>ign</ctag></lex>
   </tok>
   <ns/>
   <tok>
    <orth>°</orth>
    <lex disamb="1"><base>°</base><ctag>interp</ctag></lex>
   </tok>
   <tok>
    <orth>͜ʖ</orth>
    <lex disamb="1"><base>͜ʖ</base><ctag>ign</ctag></lex>
   </tok>
   <tok>
    <orth>͡</orth>
    <lex disamb="1"><base>͡</base><ctag>ign</ctag></lex>
   </tok>
   <ns/>
   <tok>
    <orth>°</orth>
    <lex disamb="1"><base>°</base><ctag>interp</ctag></lex>
   </tok>
   <ns/>
   <tok>
    <orth>)</orth>
    <lex disamb="1"><base>)</base><ctag>interp</ctag></lex>
   </tok>
  </sentence>
 </chunk>
 <chunk type="p" id="ch9">
  <sentence id="s9">
   <tok>
    <orth>W</orth>
    <lex disamb="1"><base>w</base><ctag>prep:acc:nwok</ctag></lex>
   </tok>
   <tok>
    <orth>każdym</orth>
    <lex disamb="1"><base>każdy</base><ctag>adj:sg:inst:m1:pos</ctag></lex>
   </tok>
   <tok>
    <orth>razie</orth>
    <lex disamb="1"><base>raz</base><ctag>subst:sg:loc:m3</ctag></lex>
   </tok>
   <tok>
    <orth>nie</orth>
    <lex disamb="1"><base>nie</base><ctag>conj</ctag></lex>
   </tok>
   <tok>
    <orth>przepadam</orth>
    <lex disamb="1"><base>przepadać</base><ctag>fin:sg:pri:imperf</ctag></lex>
   </tok>
   <tok>
    <orth>za</orth>
    <lex disamb="1"><base>za</base><ctag>qub</ctag></lex>
   </tok>
   <tok>
    <orth>opisywaniem</orth>
    <lex disamb="1"><base>opisywać</base><ctag>ger:sg:inst:n:imperf:aff</ctag></lex>
   </tok>
   <tok>
    <orth>perypetii</orth>
    <lex disamb="1"><base>perypetia</base><ctag>subst:sg:gen:f</ctag></lex>
   </tok>
   <tok>
    <orth>z</orth>
    <lex disamb="1"><base>z</base><ctag>prep:gen:nwok</ctag></lex>
   </tok>
   <tok>
    <orth>pracy</orth>
    <lex disamb="1"><base>praca</base><ctag>subst:sg:gen:f</ctag></lex>
   </tok>
   <ns/>
   <tok>
    <orth>,</orth>
    <lex disamb="1"><base>,</base><ctag>interp</ctag></lex>
   </tok>
   <tok>
    <orth>pacjenci</orth>
    <lex disamb="1"><base>pacjent</base><ctag>subst:pl:nom:m1</ctag></lex>
   </tok>
   <tok>
    <orth>są</orth>
    <lex disamb="1"><base>być</base><ctag>fin:pl:ter:imperf</ctag></lex>
   </tok>
   <tok>
    <orth>w</orth>
    <lex disamb="1"><base>w</base><ctag>prep:acc:nwok</ctag></lex>
   </tok>
   <tok>
    <orth>różnych</orth>
    <lex disamb="1"><base>różny</base><ctag>adj:pl:gen:m1:pos</ctag></lex>
   </tok>
   <tok>
    <orth>sytuacjach</orth>
    <lex disamb="1"><base>sytuacja</base><ctag>subst:pl:loc:f</ctag></lex>
   </tok>
   <tok>
    <orth>życiowych</orth>
    <lex disamb="1"><base>życiowy</base><ctag>adj:pl:gen:m1:pos</ctag></lex>
   </tok>
   <tok>
    <orth>i</orth>
    <lex disamb="1"><base>i</base><ctag>conj</ctag></lex>
   </tok>
   <tok>
    <orth>rozumiem</orth>
    <lex disamb="1"><base>rozumieć</base><ctag>fin:sg:pri:imperf</ctag></lex>
   </tok>
   <tok>
    <orth>lub</orth>
    <lex disamb="1"><base>lub</base><ctag>conj</ctag></lex>
   </tok>
   <tok>
    <orth>staram</orth>
    <lex disamb="1"><base>starać</base><ctag>fin:sg:pri:imperf</ctag></lex>
   </tok>
   <tok>
    <orth>się</orth>
    <lex disamb="1"><base>się</base><ctag>qub</ctag></lex>
   </tok>
   <tok>
    <orth>zrozumieć</orth>
    <lex disamb="1"><base>zrozumieć</base><ctag>inf:perf</ctag></lex>
   </tok>
   <ns/>
   <tok>
    <orth>,</orth>
    <lex disamb="1"><base>,</base><ctag>interp</ctag></lex>
   </tok>
   <tok>
    <orth>kiedy</orth>
    <lex disamb="1"><base>kiedy</base><ctag>comp</ctag></lex>
   </tok>
   <tok>
    <orth>im</orth>
    <lex disamb="1"><base>im</base><ctag>comp</ctag></lex>
   </tok>
   <tok>
    <orth>odwala</orth>
    <lex disamb="1"><base>odwalać</base><ctag>fin:sg:ter:imperf</ctag></lex>
   </tok>
   <tok>
    <orth>przy</orth>
    <lex disamb="1"><base>przy</base><ctag>prep:loc</ctag></lex>
   </tok>
   <tok>
    <orth>trywialnych</orth>
    <lex disamb="1"><base>trywialny</base><ctag>adj:pl:gen:m1:pos</ctag></lex>
   </tok>
   <tok>
    <orth>rzeczach</orth>
    <lex disamb="1"><base>rzecz</base><ctag>subst:pl:loc:f</ctag></lex>
   </tok>
   <ns/>
   <tok>
    <orth>.</orth>
    <lex disamb="1"><base>.</base><ctag>interp</ctag></lex>
   </tok>
  </sentence>
 </chunk>
 <chunk type="p" id="ch10">
  <sentence id="s10">
   <tok>
    <orth>Czytając</orth>
    <lex disamb="1"><base>czytać</base><ctag>pcon:imperf</ctag></lex>
   </tok>
   <tok>
    <orth>wpisy</orth>
    <lex disamb="1"><base>wpis</base><ctag>subst:pl:nom:m3</ctag></lex>
   </tok>
   <tok>
    <orth>x</orth>
    <lex disamb="1"><base>X</base><ctag>num:pl:nom:m1:rec</ctag></lex>
   </tok>
   <tok>
    <orth>lat</orth>
    <lex disamb="1"><base>lato</base><ctag>subst:pl:gen:n</ctag></lex>
   </tok>
   <tok>
    <orth>nigdy</orth>
    <lex disamb="1"><base>nigdy</base><ctag>adv:pos</ctag></lex>
   </tok>
   <tok>
    <orth>nie</orth>
    <lex disamb="1"><base>nie</base><ctag>conj</ctag></lex>
   </tok>
   <tok>
    <orth>lubił</orth>
    <lex disamb="1"><base>lubić</base><ctag>praet:sg:m1:imperf</ctag></lex>
   </tok>
   <ns/>
   <tok>
    <orth>em</orth>
    <lex disamb="1"><base>być</base><ctag>aglt:sg:pri:imperf:wok</ctag></lex>
   </tok>
   <tok>
    <orth>zwiastunów</orth>
    <lex disamb="1"><base>zwiastun</base><ctag>subst:pl:gen:m1</ctag></lex>
   </tok>
   <tok>
    <orth>wpisów</orth>
    <lex disamb="1"><base>wpis</base><ctag>subst:pl:gen:m3</ctag></lex>
   </tok>
   <tok>
    <orth>lub</orth>
    <lex disamb="1"><base>lub</base><ctag>conj</ctag></lex>
   </tok>
   <tok>
    <orth>wpisów</orth>
    <lex disamb="1"><base>wpis</base><ctag>subst:pl:gen:m3</ctag></lex>
   </tok>
   <tok>
    <orth>jak</orth>
    <lex disamb="1"><base>jak</base><ctag>conj</ctag></lex>
   </tok>
   <tok>
    <orth>wrócę</orth>
    <lex disamb="1"><base>wrócić</base><ctag>fin:sg:pri:perf</ctag></lex>
   </tok>
   <tok>
    <orth>do</orth>
    <lex disamb="1"><base>do</base><ctag>prep:gen</ctag></lex>
   </tok>
   <tok>
    <orth>domu</orth>
    <lex disamb="1"><base>dom</base><ctag>subst:sg:gen:m3</ctag></lex>
   </tok>
   <tok>
    <orth>to</orth>
    <lex disamb="1"><base>to</base><ctag>conj</ctag></lex>
   </tok>
   <tok>
    <orth>coś</orth>
    <lex disamb="1"><base>coś</base><ctag>qub</ctag></lex>
   </tok>
   <tok>
    <orth>opiszę</orth>
    <lex disamb="1"><base>opisać</base><ctag>fin:sg:pri:perf</ctag></lex>
   </tok>
   <ns/>
   <tok>
    <orth>,</orth>
    <lex disamb="1"><base>,</base><ctag>interp</ctag></lex>
   </tok>
   <tok>
    <orth>ale</orth>
    <lex disamb="1"><base>ale</base><ctag>conj</ctag></lex>
   </tok>
   <tok>
    <orth>chcę</orth>
    <lex disamb="1"><base>chcieć</base><ctag>fin:sg:pri:imperf</ctag></lex>
   </tok>
   <tok>
    <orth>po</orth>
    <lex disamb="1"><base>po</base><ctag>prep:acc</ctag></lex>
   </tok>
   <tok>
    <orth>prostu</orth>
    <lex disamb="1"><base>prosty</base><ctag>adjp</ctag></lex>
   </tok>
   <tok>
    <orth>rozeznać</orth>
    <lex disamb="1"><base>rozeznać</base><ctag>inf:perf</ctag></lex>
   </tok>
   <tok>
    <orth>się</orth>
    <lex disamb="1"><base>się</base><ctag>qub</ctag></lex>
   </tok>
   <tok>
    <orth>w</orth>
    <lex disamb="1"><base>w</base><ctag>prep:acc:nwok</ctag></lex>
   </tok>
   <tok>
    <orth>tym</orth>
    <lex disamb="1"><base>tym</base><ctag>conj</ctag></lex>
   </tok>
   <tok>
    <orth>czy</orth>
    <lex disamb="1"><base>czy</base><ctag>conj</ctag></lex>
   </tok>
   <tok>
    <orth>warto</orth>
    <lex disamb="1"><base>warto</base><ctag>pred</ctag></lex>
   </tok>
   <tok>
    <orth>będzie</orth>
    <lex disamb="1"><base>być</base><ctag>bedzie:sg:ter:imperf</ctag></lex>
   </tok>
   <tok>
    <orth>poświęcać</orth>
    <lex disamb="1"><base>poświęcać</base><ctag>inf:imperf</ctag></lex>
   </tok>
   <tok>
    <orth>trochę</orth>
    <lex disamb="1"><base>trochę</base><ctag>adv:pos</ctag></lex>
   </tok>
   <tok>
    <orth>życia</orth>
    <lex disamb="1"><base>życie</base><ctag>subst:sg:gen:n</ctag></lex>
   </tok>
   <tok>
    <orth>prywatnego</orth>
    <lex disamb="1"><base>prywatny</base><ctag>subst:sg:gen:m1</ctag></lex>
   </tok>
   <tok>
    <orth>na</orth>
    <lex disamb="1"><base>na</base><ctag>prep:acc</ctag></lex>
   </tok>
   <tok>
    <orth>przygotowanie</orth>
    <lex disamb="1"><base>przygotowanie</base><ctag>subst:sg:nom:n</ctag></lex>
   </tok>
   <tok>
    <orth>materiału</orth>
    <lex disamb="1"><base>materiał</base><ctag>subst:sg:gen:m3</ctag></lex>
   </tok>
   <tok>
    <orth>i</orth>
    <lex disamb="1"><base>i</base><ctag>conj</ctag></lex>
   </tok>
   <tok>
    <orth>opisania</orth>
    <lex disamb="1"><base>opisać</base><ctag>ger:sg:gen:n:perf:aff</ctag></lex>
   </tok>
   <tok>
    <orth>tego</orth>
    <lex disamb="1"><base>to</base><ctag>subst:sg:gen:n</ctag></lex>
   </tok>
   <tok>
    <orth>jako</orth>
    <lex disamb="1"><base>jako</base><ctag>conj</ctag></lex>
   </tok>
   <tok>
    <orth>ciekawostkowe</orth>
    <lex disamb="1"><base>ciekawostkowy</base><ctag>adj:sg:nom:n:pos</ctag></lex>
   </tok>
   <tok>
    <orth>wpisy</orth>
    <lex disamb="1"><base>wpis</base><ctag>subst:pl:nom:m3</ctag></lex>
   </tok>
   <tok>
    <orth>(</orth>
    <lex disamb="1"><base>(</base><ctag>interp</ctag></lex>
   </tok>
   <ns/>
   <tok>
    <orth>każdy</orth>
    <lex disamb="1"><base>każdy</base><ctag>adj:sg:nom:m1:pos</ctag></lex>
   </tok>
   <tok>
    <orth>wpis</orth>
    <lex disamb="1"><base>wpis</base><ctag>subst:sg:nom:m3</ctag></lex>
   </tok>
   <tok>
    <orth>zamierzam</orth>
    <lex disamb="1"><base>zamierzać</base><ctag>fin:sg:pri:imperf</ctag></lex>
   </tok>
   <tok>
    <orth>zaopatrzyć</orth>
    <lex disamb="1"><base>zaopatrzyć</base><ctag>inf:perf</ctag></lex>
   </tok>
   <tok>
    <orth>w</orth>
    <lex disamb="1"><base>w</base><ctag>prep:acc:nwok</ctag></lex>
   </tok>
   <tok>
    <orth>źródła</orth>
    <lex disamb="1"><base>źródło</base><ctag>subst:sg:gen:n</ctag></lex>
   </tok>
   <tok>
    <orth>do</orth>
    <lex disamb="1"><base>do</base><ctag>prep:gen</ctag></lex>
   </tok>
   <tok>
    <orth>publikacji</orth>
    <lex disamb="1"><base>publikacja</base><ctag>subst:sg:gen:f</ctag></lex>
   </tok>
   <ns/>
   <tok>
    <orth>,</orth>
    <lex disamb="1"><base>,</base><ctag>interp</ctag></lex>
   </tok>
   <tok>
    <orth>twarde</orth>
    <lex disamb="1"><base>twardy</base><ctag>adj:sg:nom:n:pos</ctag></lex>
   </tok>
   <tok>
    <orth>fakty</orth>
    <lex disamb="1"><base>fakt</base><ctag>subst:pl:nom:m3</ctag></lex>
   </tok>
   <ns/>
   <tok>
    <orth>,</orth>
    <lex disamb="1"><base>,</base><ctag>interp</ctag></lex>
   </tok>
   <tok>
    <orth>a</orth>
    <lex disamb="1"><base>a</base><ctag>conj</ctag></lex>
   </tok>
   <tok>
    <orth>nie</orth>
    <lex disamb="1"><base>nie</base><ctag>conj</ctag></lex>
   </tok>
   <tok>
    <orth>miejskie</orth>
    <lex disamb="1"><base>miejski</base><ctag>adj:sg:nom:n:pos</ctag></lex>
   </tok>
   <tok>
    <orth>legendy</orth>
    <lex disamb="1"><base>legenda</base><ctag>subst:sg:gen:f</ctag></lex>
   </tok>
   <ns/>
   <tok>
    <orth>)</orth>
    <lex disamb="1"><base>)</base><ctag>interp</ctag></lex>
   </tok>
   <ns/>
   <tok>
    <orth>.</orth>
    <lex disamb="1"><base>.</base><ctag>interp</ctag></lex>
   </tok>
  </sentence>
 </chunk>
 <chunk type="p" id="ch11">
  <sentence id="s11">
   <tok>
    <orth>#</orth>
    <lex disamb="1"><base>#</base><ctag>interp</ctag></lex>
   </tok>
   <ns/>
   <tok>
    <orth>ciekawostki</orth>
    <lex disamb="1"><base>ciekawostka</base><ctag>subst:sg:gen:f</ctag></lex>
   </tok>
   <tok>
    <orth>#</orth>
    <lex disamb="1"><base>#</base><ctag>interp</ctag></lex>
   </tok>
   <ns/>
   <tok>
    <orth>medycyna</orth>
    <lex disamb="1"><base>medycyna</base><ctag>subst:sg:nom:f</ctag></lex>
   </tok>
   <tok>
    <orth>#</orth>
    <lex disamb="1"><base>#</base><ctag>interp</ctag></lex>
   </tok>
   <ns/>
   <tok>
    <orth>leki</orth>
    <lex disamb="1"><base>lek</base><ctag>subst:pl:nom:m2</ctag></lex>
   </tok>
   <tok>
    <orth>#</orth>
    <lex disamb="1"><base>#</base><ctag>interp</ctag></lex>
   </tok>
   <ns/>
   <tok>
    <orth>farmacja</orth>
    <lex disamb="1"><base>farmacja</base><ctag>subst:sg:nom:f</ctag></lex>
   </tok>
   <tok>
    <orth>#</orth>
    <lex disamb="1"><base>#</base><ctag>interp</ctag></lex>
   </tok>
   <ns/>
   <tok>
    <orth>narkotykizawszespoko</orth>
    <lex disamb="1"><base>narkotykizawszespoko</base><ctag>ign</ctag></lex>
   </tok>
  </sentence>
 </chunk>
</chunkList>