<?xml version="1.0" encoding="UTF-8"?>
<!DOCTYPE chunkList SYSTEM "ccl.dtd">
<chunkList>
 <chunk type="p" id="ch1">
  <sentence id="s1">
   <tok>
    <orth>Cieć</orth>
    <lex disamb="1"><base>cieć</base><ctag>subst:sg:nom:m1</ctag></lex>
   </tok>
   <tok>
    <orth>-</orth>
    <lex disamb="1"><base>-</base><ctag>interp</ctag></lex>
   </tok>
   <tok>
    <orth>druga</orth>
    <lex disamb="1"><base>druga</base><ctag>subst:sg:nom:f</ctag></lex>
   </tok>
   <tok>
    <orth>najważniejsza</orth>
    <lex disamb="1"><base>ważny</base><ctag>adj:sg:nom:f:sup</ctag></lex>
   </tok>
   <tok>
    <orth>osoba</orth>
    <lex disamb="1"><base>osoba</base><ctag>subst:sg:nom:f</ctag></lex>
   </tok>
   <tok>
    <orth>w</orth>
    <lex disamb="1"><base>w</base><ctag>prep:acc:nwok</ctag></lex>
   </tok>
   <tok>
    <orth>firmie</orth>
    <lex disamb="1"><base>firma</base><ctag>subst:sg:dat:f</ctag></lex>
   </tok>
   <tok>
    <orth>zaraz</orth>
    <lex disamb="1"><base>zaraz</base><ctag>adv:pos</ctag></lex>
   </tok>
   <tok>
    <orth>po</orth>
    <lex disamb="1"><base>po</base><ctag>prep:acc</ctag></lex>
   </tok>
   <tok>
    <orth>prezesie</orth>
    <lex disamb="1"><base>prezes</base><ctag>subst:sg:loc:m1</ctag></lex>
   </tok>
   <tok>
    <orth>xD</orth>
    <lex disamb="1"><base>xD</base><ctag>ign</ctag></lex>
   </tok>
   <tok>
    <orth>#</orth>
    <lex disamb="1"><base>#</base><ctag>interp</ctag></lex>
   </tok>
   <ns/>
   <tok>
    <orth>heheszki</orth>
    <lex disamb="1"><base>heheszki</base><ctag>ign</ctag></lex>
   </tok>
   <tok>
    <orth>#</orth>
    <lex disamb="1"><base>#</base><ctag>interp</ctag></lex>
   </tok>
   <ns/>
   <tok>
    <orth>bekaztransa</orth>
    <lex disamb="1"><base>bekaztransa</base><ctag>ign</ctag></lex>
   </tok>
   <tok>
    <orth>#</orth>
    <lex disamb="1"><base>#</base><ctag>interp</ctag></lex>
   </tok>
   <ns/>
   <tok>
    <orth>humorobrazkowy</orth>
    <lex disamb="1"><base>humorobrazkowy</base><ctag>ign</ctag></lex>
   </tok>
   <tok>
    <orth>#</orth>
    <lex disamb="1"><base>#</base><ctag>interp</ctag></lex>
   </tok>
   <ns/>
   <tok>
    <orth>transport</orth>
    <lex disamb="1"><base>transport</base><ctag>subst:sg:nom:m3</ctag></lex>
   </tok>
  </sentence>
 </chunk>
</chunkList>