<?xml version="1.0" encoding="UTF-8"?>
<!DOCTYPE chunkList SYSTEM "ccl.dtd">
<chunkList>
 <chunk type="p" id="ch1">
  <sentence id="s1">
   <tok>
    <orth>Pnącza</orth>
    <lex disamb="1"><base>pnącz</base><ctag>subst:sg:gen:m3</ctag></lex>
   </tok>
   <tok>
    <orth>odpadły</orth>
    <lex disamb="1"><base>odpadły</base><ctag>adj:sg:nom:m1:pos</ctag></lex>
   </tok>
   <tok>
    <orth>od</orth>
    <lex disamb="1"><base>od</base><ctag>prep:gen:nwok</ctag></lex>
   </tok>
   <tok>
    <orth>ściany</orth>
    <lex disamb="1"><base>ścian</base><ctag>subst:pl:nom:m3</ctag></lex>
   </tok>
   <tok>
    <orth>budynku</orth>
    <lex disamb="1"><base>budynek</base><ctag>subst:sg:gen:m3</ctag></lex>
   </tok>
   <tok>
    <orth>pod</orth>
    <lex disamb="1"><base>pod</base><ctag>prep:acc:nwok</ctag></lex>
   </tok>
   <tok>
    <orth>własnym</orth>
    <lex disamb="1"><base>własne</base><ctag>subst:sg:inst:n</ctag></lex>
   </tok>
   <tok>
    <orth>ciężarem</orth>
    <lex disamb="1"><base>ciężar</base><ctag>subst:sg:inst:m3</ctag></lex>
   </tok>
   <tok>
    <orth>#</orth>
    <lex disamb="1"><base>#</base><ctag>interp</ctag></lex>
   </tok>
   <ns/>
   <tok>
    <orth>estetyczneobrazki</orth>
    <lex disamb="1"><base>estetyczneobrazki</base><ctag>ign</ctag></lex>
   </tok>
   <tok>
    <orth>#</orth>
    <lex disamb="1"><base>#</base><ctag>interp</ctag></lex>
   </tok>
   <ns/>
   <tok>
    <orth>nieboperfekcjonistow</orth>
    <lex disamb="1"><base>nieboperfekcjonistow</base><ctag>ign</ctag></lex>
   </tok>
   <tok>
    <orth>#</orth>
    <lex disamb="1"><base>#</base><ctag>interp</ctag></lex>
   </tok>
   <ns/>
   <tok>
    <orth>architektura</orth>
    <lex disamb="1"><base>architektura</base><ctag>subst:sg:nom:f</ctag></lex>
   </tok>
  </sentence>
 </chunk>
</chunkList>