<?xml version="1.0" encoding="UTF-8"?>
<!DOCTYPE chunkList SYSTEM "ccl.dtd">
<chunkList>
 <chunk type="p" id="ch1">
  <sentence id="s1">
   <tok>
    <orth>Jakim</orth>
    <lex disamb="1"><base>jaki</base><ctag>adj:sg:inst:m1:pos</ctag></lex>
    <ann chan="nam">0</ann>
   </tok>
   <tok>
    <orth>kosmitom</orth>
    <lex disamb="1"><base>kosmita</base><ctag>subst:pl:dat:m1</ctag></lex>
    <ann chan="nam">0</ann>
   </tok>
   <tok>
    <orth>był</orth>
    <lex disamb="1"><base>być</base><ctag>praet:sg:m1:imperf</ctag></lex>
    <ann chan="nam">0</ann>
   </tok>
   <ns/>
   <tok>
    <orth>by</orth>
    <lex disamb="1"><base>by</base><ctag>qub</ctag></lex>
    <ann chan="nam">0</ann>
   </tok>
   <ns/>
   <tok>
    <orth>ś</orth>
    <lex disamb="1"><base>być</base><ctag>aglt:sg:sec:imperf:nwok</ctag></lex>
    <ann chan="nam">0</ann>
   </tok>
   <tok>
    <orth>w</orth>
    <lex disamb="1"><base>w</base><ctag>prep:acc:nwok</ctag></lex>
    <ann chan="nam">0</ann>
   </tok>
   <tok>
    <orth>uniwersum</orth>
    <lex disamb="1"><base>uniwersum</base><ctag>subst:sg:nom:n</ctag></lex>
    <ann chan="nam">0</ann>
   </tok>
   <tok>
    <orth>Kapitana</orth>
    <lex disamb="1"><base>kapitan</base><ctag>subst:sg:gen:m1</ctag></lex>
    <ann chan="nam">1</ann>
   </tok>
   <tok>
    <orth>Bomby</orth>
    <lex disamb="1"><base>bomba</base><ctag>subst:sg:gen:f</ctag></lex>
    <ann chan="nam">1</ann>
   </tok>
   <tok>
    <orth>ostatnia</orth>
    <lex disamb="1"><base>ostatni</base><ctag>adj:sg:nom:f:pos</ctag></lex>
    <ann chan="nam">0</ann>
   </tok>
   <tok>
    <orth>cyfra</orth>
    <lex disamb="1"><base>cyfra</base><ctag>subst:sg:nom:f</ctag></lex>
    <ann chan="nam">0</ann>
   </tok>
   <tok>
    <orth>w</orth>
    <lex disamb="1"><base>w</base><ctag>prep:acc:nwok</ctag></lex>
    <ann chan="nam">0</ann>
   </tok>
   <tok>
    <orth>liczbie</orth>
    <lex disamb="1"><base>liczba</base><ctag>subst:sg:dat:f</ctag></lex>
    <ann chan="nam">0</ann>
   </tok>
   <tok>
    <orth>plusów</orth>
    <lex disamb="1"><base>plus</base><ctag>subst:pl:gen:m2</ctag></lex>
    <ann chan="nam">0</ann>
   </tok>
   <tok>
    <orth>prawdę</orth>
    <lex disamb="1"><base>prawda</base><ctag>subst:sg:acc:f</ctag></lex>
    <ann chan="nam">0</ann>
   </tok>
   <tok>
    <orth>ci</orth>
    <lex disamb="1"><base>ci</base><ctag>qub</ctag></lex>
    <ann chan="nam">0</ann>
   </tok>
   <tok>
    <orth>powie</orth>
    <lex disamb="1"><base>powiedzieć</base><ctag>fin:sg:ter:perf</ctag></lex>
    <ann chan="nam">0</ann>
   </tok>
   <ns/>
   <tok>
    <orth>.</orth>
    <lex disamb="1"><base>.</base><ctag>interp</ctag></lex>
    <ann chan="nam">0</ann>
   </tok>
   <ns/>
   <tok>
    <orth>.</orth>
    <lex disamb="1"><base>.</base><ctag>interp</ctag></lex>
    <ann chan="nam">0</ann>
   </tok>
   <ns/>
   <tok>
    <orth>.</orth>
    <lex disamb="1"><base>.</base><ctag>interp</ctag></lex>
    <ann chan="nam">0</ann>
   </tok>
  </sentence>
 </chunk>
 <chunk type="p" id="ch2">
  <sentence id="s2">
   <tok>
    <orth>1</orth>
    <lex disamb="1"><base>1</base><ctag>num:pl:nom:m1:rec</ctag></lex>
   </tok>
   <ns/>
   <tok>
    <orth>.</orth>
    <lex disamb="1"><base>.</base><ctag>interp</ctag></lex>
   </tok>
   <ns/>
  </sentence>
 </chunk>
 <chunk type="p" id="ch3">
  <sentence id="s3">
   <tok>
    <orth>Kurvinox</orth>
    <lex disamb="1"><base>Kurvinox</base><ctag>ign</ctag></lex>
   </tok>
   <tok>
    <orth>link</orth>
    <lex disamb="1"><base>link</base><ctag>subst:sg:nom:m2</ctag></lex>
   </tok>
   <tok>
    <orth>2</orth>
    <lex disamb="1"><base>2</base><ctag>num:pl:nom:m1:rec</ctag></lex>
   </tok>
   <ns/>
   <tok>
    <orth>.</orth>
    <lex disamb="1"><base>.</base><ctag>interp</ctag></lex>
   </tok>
   <ns/>
  </sentence>
 </chunk>
 <chunk type="p" id="ch4">
  <sentence id="s4">
   <tok>
    <orth>C'Qrwozaur</orth>
    <lex disamb="1"><base>C'Qrwozaur</base><ctag>ign</ctag></lex>
   </tok>
   <tok>
    <orth>link</orth>
    <lex disamb="1"><base>link</base><ctag>subst:sg:nom:m2</ctag></lex>
   </tok>
   <tok>
    <orth>3</orth>
    <lex disamb="1"><base>3</base><ctag>num:pl:nom:m1:rec</ctag></lex>
   </tok>
   <ns/>
   <tok>
    <orth>.</orth>
    <lex disamb="1"><base>.</base><ctag>interp</ctag></lex>
   </tok>
   <ns/>
  </sentence>
 </chunk>
 <chunk type="p" id="ch5">
  <sentence id="s5">
   <tok>
    <orth>Zdupydomordyzaur</orth>
    <lex disamb="1"><base>Zdupydomordyzaur</base><ctag>ign</ctag></lex>
   </tok>
   <tok>
    <orth>link</orth>
    <lex disamb="1"><base>link</base><ctag>subst:sg:nom:m2</ctag></lex>
   </tok>
   <tok>
    <orth>4</orth>
    <lex disamb="1"><base>4</base><ctag>num:pl:nom:m1:rec</ctag></lex>
   </tok>
   <ns/>
   <tok>
    <orth>.</orth>
    <lex disamb="1"><base>.</base><ctag>interp</ctag></lex>
   </tok>
   <ns/>
  </sentence>
 </chunk>
 <chunk type="p" id="ch6">
  <sentence id="s6">
   <tok>
    <orth>Dodupyzaur</orth>
    <lex disamb="1"><base>Dodupyzaur</base><ctag>ign</ctag></lex>
   </tok>
   <tok>
    <orth>link</orth>
    <lex disamb="1"><base>link</base><ctag>subst:sg:nom:m2</ctag></lex>
   </tok>
   <tok>
    <orth>5</orth>
    <lex disamb="1"><base>5</base><ctag>num:pl:nom:m1:rec</ctag></lex>
   </tok>
   <ns/>
   <tok>
    <orth>.</orth>
    <lex disamb="1"><base>.</base><ctag>interp</ctag></lex>
   </tok>
   <ns/>
  </sentence>
 </chunk>
 <chunk type="p" id="ch7">
  <sentence id="s7">
   <tok>
    <orth>Kutanoid</orth>
    <lex disamb="1"><base>Kutanoid</base><ctag>ign</ctag></lex>
   </tok>
   <tok>
    <orth>link</orth>
    <lex disamb="1"><base>link</base><ctag>subst:sg:nom:m2</ctag></lex>
   </tok>
   <tok>
    <orth>6</orth>
    <lex disamb="1"><base>6</base><ctag>num:pl:nom:m1:rec</ctag></lex>
   </tok>
   <ns/>
   <tok>
    <orth>.</orth>
    <lex disamb="1"><base>.</base><ctag>interp</ctag></lex>
   </tok>
   <ns/>
  </sentence>
 </chunk>
 <chunk type="p" id="ch8">
  <sentence id="s8">
   <tok>
    <orth>Kutnapletes</orth>
    <lex disamb="1"><base>Kutnapletes</base><ctag>ign</ctag></lex>
   </tok>
   <tok>
    <orth>link</orth>
    <lex disamb="1"><base>link</base><ctag>subst:sg:nom:m2</ctag></lex>
   </tok>
   <tok>
    <orth>7</orth>
    <lex disamb="1"><base>7</base><ctag>num:pl:nom:m1:rec</ctag></lex>
   </tok>
   <ns/>
   <tok>
    <orth>.</orth>
    <lex disamb="1"><base>.</base><ctag>interp</ctag></lex>
   </tok>
   <ns/>
  </sentence>
 </chunk>
 <chunk type="p" id="ch9">
  <sentence id="s9">
   <tok>
    <orth>Skurwol</orth>
    <lex disamb="1"><base>Skurwol</base><ctag>ign</ctag></lex>
   </tok>
   <tok>
    <orth>link</orth>
    <lex disamb="1"><base>link</base><ctag>subst:sg:nom:m2</ctag></lex>
   </tok>
   <tok>
    <orth>8</orth>
    <lex disamb="1"><base>8</base><ctag>num:pl:nom:m1:rec</ctag></lex>
   </tok>
   <ns/>
   <tok>
    <orth>.</orth>
    <lex disamb="1"><base>.</base><ctag>interp</ctag></lex>
   </tok>
   <ns/>
  </sentence>
 </chunk>
 <chunk type="p" id="ch10">
  <sentence id="s10">
   <tok>
    <orth>Skurwodaktyl</orth>
    <lex disamb="1"><base>Skurwodaktyl</base><ctag>ign</ctag></lex>
   </tok>
   <tok>
    <orth>link</orth>
    <lex disamb="1"><base>link</base><ctag>subst:sg:nom:m2</ctag></lex>
   </tok>
   <tok>
    <orth>9</orth>
    <lex disamb="1"><base>9</base><ctag>num:pl:nom:m1:rec</ctag></lex>
   </tok>
   <ns/>
   <tok>
    <orth>.</orth>
    <lex disamb="1"><base>.</base><ctag>interp</ctag></lex>
   </tok>
   <ns/>
  </sentence>
 </chunk>
 <chunk type="p" id="ch11">
  <sentence id="s11">
   <tok>
    <orth>Chujew</orth>
    <lex disamb="1"><base>Chujew</base><ctag>ign</ctag></lex>
   </tok>
   <tok>
    <orth>link</orth>
    <lex disamb="1"><base>link</base><ctag>subst:sg:nom:m2</ctag></lex>
   </tok>
   <tok>
    <orth>0</orth>
    <lex disamb="1"><base>0</base><ctag>num:pl:nom:m1:rec</ctag></lex>
   </tok>
   <ns/>
   <tok>
    <orth>.</orth>
    <lex disamb="1"><base>.</base><ctag>interp</ctag></lex>
   </tok>
   <ns/>
  </sentence>
 </chunk>
 <chunk type="p" id="ch12">
  <sentence id="s12">
   <tok>
    <orth>Lichuj</orth>
    <lex disamb="1"><base>Lichuj</base><ctag>ign</ctag></lex>
   </tok>
   <tok>
    <orth>link</orth>
    <lex disamb="1"><base>link</base><ctag>subst:sg:nom:m2</ctag></lex>
   </tok>
  </sentence>
 </chunk>
 <chunk type="p" id="ch13">
  <sentence id="s13">
   <tok>
    <orth>#</orth>
    <lex disamb="1"><base>#</base><ctag>interp</ctag></lex>
   </tok>
   <ns/>
   <tok>
    <orth>glupiewykopowezabawy</orth>
    <lex disamb="1"><base>glupiewykopowezabawy</base><ctag>ign</ctag></lex>
   </tok>
   <tok>
    <orth>#</orth>
    <lex disamb="1"><base>#</base><ctag>interp</ctag></lex>
   </tok>
   <ns/>
   <tok>
    <orth>kapitanbomba</orth>
    <lex disamb="1"><base>kapitanbomba</base><ctag>ign</ctag></lex>
   </tok>
  </sentence>
 </chunk>
</chunkList>