<?xml version="1.0" encoding="UTF-8"?>
<!DOCTYPE chunkList SYSTEM "ccl.dtd">
<chunkList>
 <chunk type="p" id="ch1">
  <sentence id="s1">
   <tok>
    <orth>1</orth>
    <lex disamb="1"><base>1</base><ctag>num:pl:nom:m1:rec</ctag></lex>
    <ann chan="timex">0</ann>
    <ann chan="t3_date">0</ann>
   </tok>
   <ns/>
   <tok>
    <orth>.</orth>
    <lex disamb="1"><base>.</base><ctag>interp</ctag></lex>
    <ann chan="timex">0</ann>
    <ann chan="t3_date">0</ann>
   </tok>
   <tok>
    <orth>nie</orth>
    <lex disamb="1"><base>nie</base><ctag>conj</ctag></lex>
    <ann chan="timex">0</ann>
    <ann chan="t3_date">0</ann>
   </tok>
   <tok>
    <orth>dostań</orth>
    <lex disamb="1"><base>dostać</base><ctag>ger:pl:gen:n:perf:aff</ctag></lex>
    <ann chan="timex">0</ann>
    <ann chan="t3_date">0</ann>
   </tok>
   <tok>
    <orth>podwyżki</orth>
    <lex disamb="1"><base>podwyżka</base><ctag>subst:sg:gen:f</ctag></lex>
    <ann chan="timex">0</ann>
    <ann chan="t3_date">0</ann>
   </tok>
   <tok>
    <orth>i</orth>
    <lex disamb="1"><base>i</base><ctag>conj</ctag></lex>
    <ann chan="timex">0</ann>
    <ann chan="t3_date">0</ann>
   </tok>
   <tok>
    <orth>umowy</orth>
    <lex disamb="1"><base>umowa</base><ctag>subst:sg:gen:f</ctag></lex>
    <ann chan="timex">0</ann>
    <ann chan="t3_date">0</ann>
   </tok>
   <tok>
    <orth>na</orth>
    <lex disamb="1"><base>na</base><ctag>prep:acc</ctag></lex>
    <ann chan="timex">0</ann>
    <ann chan="t3_date">0</ann>
   </tok>
   <tok>
    <orth>nieokreślony</orth>
    <lex disamb="1"><base>nieokreślony</base><ctag>adj:sg:nom:m1:pos</ctag></lex>
    <ann chan="timex">0</ann>
    <ann chan="t3_date">0</ann>
   </tok>
   <ns/>
   <tok>
    <orth>,</orth>
    <lex disamb="1"><base>,</base><ctag>interp</ctag></lex>
    <ann chan="timex">0</ann>
    <ann chan="t3_date">0</ann>
   </tok>
   <tok>
    <orth>bo</orth>
    <lex disamb="1"><base>bo</base><ctag>comp</ctag></lex>
    <ann chan="timex">0</ann>
    <ann chan="t3_date">0</ann>
   </tok>
   <tok>
    <orth>&apos;</orth>
    <lex disamb="1"><base>&apos;</base><ctag>interp</ctag></lex>
    <ann chan="timex">0</ann>
    <ann chan="t3_date">0</ann>
   </tok>
   <ns/>
   <tok>
    <orth>sie</orth>
    <lex disamb="1"><base>si</base><ctag>adj:pl:nom:m2:pos</ctag></lex>
    <ann chan="timex">0</ann>
    <ann chan="t3_date">0</ann>
   </tok>
   <tok>
    <orth>hehe</orth>
    <lex disamb="1"><base>hehe</base><ctag>ign</ctag></lex>
    <ann chan="timex">0</ann>
    <ann chan="t3_date">0</ann>
   </tok>
   <tok>
    <orth>nie</orth>
    <lex disamb="1"><base>nie</base><ctag>conj</ctag></lex>
    <ann chan="timex">0</ann>
    <ann chan="t3_date">0</ann>
   </tok>
   <tok>
    <orth>angażujesz</orth>
    <lex disamb="1"><base>angażować</base><ctag>fin:sg:sec:imperf</ctag></lex>
    <ann chan="timex">0</ann>
    <ann chan="t3_date">0</ann>
   </tok>
   <tok>
    <orth>i</orth>
    <lex disamb="1"><base>i</base><ctag>conj</ctag></lex>
    <ann chan="timex">0</ann>
    <ann chan="t3_date">0</ann>
   </tok>
   <tok>
    <orth>wiadomka</orth>
    <lex disamb="1"><base>wiadomka</base><ctag>ign</ctag></lex>
    <ann chan="timex">0</ann>
    <ann chan="t3_date">0</ann>
   </tok>
   <ns/>
   <tok>
    <orth>-</orth>
    <lex disamb="1"><base>-</base><ctag>interp</ctag></lex>
    <ann chan="timex">0</ann>
    <ann chan="t3_date">0</ann>
   </tok>
   <tok>
    <orth>masz</orth>
    <lex disamb="1"><base>mieć</base><ctag>fin:sg:sec:imperf</ctag></lex>
    <ann chan="timex">0</ann>
    <ann chan="t3_date">0</ann>
   </tok>
   <tok>
    <orth>braki</orth>
    <lex disamb="1"><base>brak</base><ctag>subst:pl:nom:m3</ctag></lex>
    <ann chan="timex">0</ann>
    <ann chan="t3_date">0</ann>
   </tok>
   <tok>
    <orth>i</orth>
    <lex disamb="1"><base>i</base><ctag>conj</ctag></lex>
    <ann chan="timex">0</ann>
    <ann chan="t3_date">0</ann>
   </tok>
   <tok>
    <orth>nic</orth>
    <lex disamb="1"><base>nic</base><ctag>subst:sg:nom:n</ctag></lex>
    <ann chan="timex">0</ann>
    <ann chan="t3_date">0</ann>
   </tok>
   <tok>
    <orth>nie</orth>
    <lex disamb="1"><base>nie</base><ctag>conj</ctag></lex>
    <ann chan="timex">0</ann>
    <ann chan="t3_date">0</ann>
   </tok>
   <tok>
    <orth>umiesz</orth>
    <lex disamb="1"><base>umieć</base><ctag>fin:sg:sec:imperf</ctag></lex>
    <ann chan="timex">0</ann>
    <ann chan="t3_date">0</ann>
   </tok>
   <ns/>
   <tok>
    <orth>,</orth>
    <lex disamb="1"><base>,</base><ctag>interp</ctag></lex>
    <ann chan="timex">0</ann>
    <ann chan="t3_date">0</ann>
   </tok>
   <tok>
    <orth>a</orth>
    <lex disamb="1"><base>a</base><ctag>conj</ctag></lex>
    <ann chan="timex">0</ann>
    <ann chan="t3_date">0</ann>
   </tok>
   <tok>
    <orth>poza</orth>
    <lex disamb="1"><base>poza</base><ctag>prep:acc</ctag></lex>
    <ann chan="timex">0</ann>
    <ann chan="t3_date">0</ann>
   </tok>
   <tok>
    <orth>tym</orth>
    <lex disamb="1"><base>tym</base><ctag>conj</ctag></lex>
    <ann chan="timex">0</ann>
    <ann chan="t3_date">0</ann>
   </tok>
   <tok>
    <orth>to</orth>
    <lex disamb="1"><base>to</base><ctag>conj</ctag></lex>
    <ann chan="timex">0</ann>
    <ann chan="t3_date">0</ann>
   </tok>
   <tok>
    <orth>się</orth>
    <lex disamb="1"><base>się</base><ctag>qub</ctag></lex>
    <ann chan="timex">0</ann>
    <ann chan="t3_date">0</ann>
   </tok>
   <tok>
    <orth>młody</orth>
    <lex disamb="1"><base>młody</base><ctag>subst:sg:nom:m1</ctag></lex>
    <ann chan="timex">0</ann>
    <ann chan="t3_date">0</ann>
   </tok>
   <tok>
    <orth>ciesz</orth>
    <lex disamb="1"><base>ciesać</base><ctag>impt:sg:sec:imperf</ctag></lex>
    <lex disamb="1"><base>cieszyć</base><ctag>impt:sg:sec:imperf</ctag></lex>
    <lex disamb="1"><base>ciosać</base><ctag>impt:sg:sec:imperf</ctag></lex>
    <ann chan="timex">0</ann>
    <ann chan="t3_date">0</ann>
   </tok>
   <tok>
    <orth>ze</orth>
    <lex disamb="1"><base>z</base><ctag>prep:gen:wok</ctag></lex>
    <ann chan="timex">0</ann>
    <ann chan="t3_date">0</ann>
   </tok>
   <tok>
    <orth>robotę</orth>
    <lex disamb="1"><base>robota</base><ctag>subst:sg:acc:f</ctag></lex>
    <ann chan="timex">0</ann>
    <ann chan="t3_date">0</ann>
   </tok>
   <tok>
    <orth>masz</orth>
    <lex disamb="1"><base>mieć</base><ctag>fin:sg:sec:imperf</ctag></lex>
    <ann chan="timex">0</ann>
    <ann chan="t3_date">0</ann>
   </tok>
   <ns/>
   <tok>
    <orth>&apos;</orth>
    <lex disamb="1"><base>&apos;</base><ctag>interp</ctag></lex>
    <ann chan="timex">0</ann>
    <ann chan="t3_date">0</ann>
   </tok>
   <tok>
    <orth>2</orth>
    <lex disamb="1"><base>2</base><ctag>num:pl:nom:m1:rec</ctag></lex>
    <ann chan="timex">0</ann>
    <ann chan="t3_date">0</ann>
   </tok>
   <ns/>
   <tok>
    <orth>.</orth>
    <lex disamb="1"><base>.</base><ctag>interp</ctag></lex>
    <ann chan="timex">0</ann>
    <ann chan="t3_date">0</ann>
   </tok>
   <tok>
    <orth>twój</orth>
    <lex disamb="1"><base>twój</base><ctag>subst:sg:nom:m1</ctag></lex>
    <ann chan="timex">0</ann>
    <ann chan="t3_date">0</ann>
   </tok>
   <tok>
    <orth>nowy</orth>
    <lex disamb="1"><base>nowy</base><ctag>subst:sg:nom:m1</ctag></lex>
    <ann chan="timex">0</ann>
    <ann chan="t3_date">0</ann>
   </tok>
   <tok>
    <orth>pracodawca</orth>
    <lex disamb="1"><base>pracodawca</base><ctag>subst:sg:nom:m1</ctag></lex>
    <ann chan="timex">0</ann>
    <ann chan="t3_date">0</ann>
   </tok>
   <tok>
    <orth>u</orth>
    <lex disamb="1"><base>u</base><ctag>prep:gen</ctag></lex>
    <ann chan="timex">0</ann>
    <ann chan="t3_date">0</ann>
   </tok>
   <tok>
    <orth>którego</orth>
    <lex disamb="1"><base>który</base><ctag>adj:sg:gen:m1:pos</ctag></lex>
    <ann chan="timex">0</ann>
    <ann chan="t3_date">0</ann>
   </tok>
   <tok>
    <orth>zaczynasz</orth>
    <lex disamb="1"><base>zaczynać</base><ctag>fin:sg:sec:imperf</ctag></lex>
    <ann chan="timex">0</ann>
    <ann chan="t3_date">0</ann>
   </tok>
   <tok>
    <orth>w</orth>
    <lex disamb="1"><base>w</base><ctag>prep:acc:nwok</ctag></lex>
    <ann chan="timex">0</ann>
    <ann chan="t3_date">0</ann>
   </tok>
   <tok>
    <orth>poniedziałek</orth>
    <lex disamb="1"><base>poniedziałek</base><ctag>subst:sg:nom:m3</ctag></lex>
    <ann chan="timex">1</ann>
    <ann chan="t3_date">1</ann>
   </tok>
   <tok>
    <orth>delikatnie</orth>
    <lex disamb="1"><base>delikatnie</base><ctag>adv:pos</ctag></lex>
    <ann chan="timex">0</ann>
    <ann chan="t3_date">0</ann>
   </tok>
   <tok>
    <orth>mówiąc</orth>
    <lex disamb="1"><base>mówić</base><ctag>pcon:imperf</ctag></lex>
    <ann chan="timex">0</ann>
    <ann chan="t3_date">0</ann>
   </tok>
   <tok>
    <orth>nie</orth>
    <lex disamb="1"><base>nie</base><ctag>conj</ctag></lex>
    <ann chan="timex">0</ann>
    <ann chan="t3_date">0</ann>
   </tok>
   <tok>
    <orth>podziela</orth>
    <lex disamb="1"><base>podzielać</base><ctag>fin:sg:ter:imperf</ctag></lex>
    <ann chan="timex">0</ann>
    <ann chan="t3_date">0</ann>
   </tok>
   <tok>
    <orth>zdania</orth>
    <lex disamb="1"><base>zdanie</base><ctag>subst:sg:gen:n</ctag></lex>
    <ann chan="timex">0</ann>
    <ann chan="t3_date">0</ann>
   </tok>
   <tok>
    <orth>poprzedniego</orth>
    <lex disamb="1"><base>poprzedni</base><ctag>adj:sg:gen:m1:pos</ctag></lex>
    <ann chan="timex">0</ann>
    <ann chan="t3_date">0</ann>
   </tok>
   <tok>
    <orth>3</orth>
    <lex disamb="1"><base>3</base><ctag>num:pl:nom:m1:rec</ctag></lex>
    <ann chan="timex">0</ann>
    <ann chan="t3_date">2</ann>
   </tok>
   <ns/>
   <tok>
    <orth>.</orth>
    <lex disamb="1"><base>.</base><ctag>interp</ctag></lex>
    <ann chan="timex">0</ann>
    <ann chan="t3_date">2</ann>
   </tok>
   <tok>
    <orth>ostatni</orth>
    <lex disamb="1"><base>ostatni</base><ctag>subst:sg:nom:m1</ctag></lex>
    <ann chan="timex">0</ann>
    <ann chan="t3_date">2</ann>
   </tok>
   <tok>
    <orth>dzień</orth>
    <lex disamb="1"><base>dzienia</base><ctag>subst:pl:gen:f</ctag></lex>
    <ann chan="timex">0</ann>
    <ann chan="t3_date">2</ann>
   </tok>
   <tok>
    <orth>w</orth>
    <lex disamb="1"><base>w</base><ctag>prep:acc:nwok</ctag></lex>
    <ann chan="timex">0</ann>
    <ann chan="t3_date">0</ann>
   </tok>
   <tok>
    <orth>starej</orth>
    <lex disamb="1"><base>stara</base><ctag>subst:sg:gen:f</ctag></lex>
    <ann chan="timex">0</ann>
    <ann chan="t3_date">0</ann>
   </tok>
   <tok>
    <orth>robocie</orth>
    <lex disamb="1"><base>robot</base><ctag>subst:sg:loc:m2</ctag></lex>
    <ann chan="timex">0</ann>
    <ann chan="t3_date">0</ann>
   </tok>
   <tok>
    <orth>żeby</orth>
    <lex disamb="1"><base>żeby</base><ctag>comp</ctag></lex>
    <ann chan="timex">0</ann>
    <ann chan="t3_date">0</ann>
   </tok>
   <tok>
    <orth>dopiąć</orth>
    <lex disamb="1"><base>dopiąć</base><ctag>inf:perf</ctag></lex>
    <ann chan="timex">0</ann>
    <ann chan="t3_date">0</ann>
   </tok>
   <tok>
    <orth>formalności</orth>
    <lex disamb="1"><base>formalność</base><ctag>subst:sg:gen:f</ctag></lex>
    <ann chan="timex">0</ann>
    <ann chan="t3_date">0</ann>
   </tok>
   <tok>
    <orth>i</orth>
    <lex disamb="1"><base>i</base><ctag>conj</ctag></lex>
    <ann chan="timex">0</ann>
    <ann chan="t3_date">0</ann>
   </tok>
   <tok>
    <orth>pożegnać</orth>
    <lex disamb="1"><base>pożegnać</base><ctag>inf:perf</ctag></lex>
    <ann chan="timex">0</ann>
    <ann chan="t3_date">0</ann>
   </tok>
   <tok>
    <orth>się</orth>
    <lex disamb="1"><base>się</base><ctag>qub</ctag></lex>
    <ann chan="timex">0</ann>
    <ann chan="t3_date">0</ann>
   </tok>
   <tok>
    <orth>z</orth>
    <lex disamb="1"><base>z</base><ctag>prep:gen:nwok</ctag></lex>
    <ann chan="timex">0</ann>
    <ann chan="t3_date">0</ann>
   </tok>
   <tok>
    <orth>ludźmi</orth>
    <lex disamb="1"><base>człowiek</base><ctag>subst:pl:inst:m1</ctag></lex>
    <lex disamb="1"><base>ludzie</base><ctag>subst:pl:inst:m1</ctag></lex>
    <ann chan="timex">0</ann>
    <ann chan="t3_date">0</ann>
   </tok>
   <tok>
    <orth>4</orth>
    <lex disamb="1"><base>4</base><ctag>num:pl:nom:m1:rec</ctag></lex>
    <ann chan="timex">0</ann>
    <ann chan="t3_date">0</ann>
   </tok>
   <ns/>
   <tok>
    <orth>.</orth>
    <lex disamb="1"><base>.</base><ctag>interp</ctag></lex>
    <ann chan="timex">0</ann>
    <ann chan="t3_date">0</ann>
   </tok>
   <tok>
    <orth>przełożony</orth>
    <lex disamb="1"><base>przełożony</base><ctag>subst:sg:nom:m1</ctag></lex>
    <ann chan="timex">0</ann>
    <ann chan="t3_date">0</ann>
   </tok>
   <tok>
    <orth>ci</orth>
    <lex disamb="1"><base>ci</base><ctag>qub</ctag></lex>
    <ann chan="timex">0</ann>
    <ann chan="t3_date">0</ann>
   </tok>
   <tok>
    <orth>oznajmia</orth>
    <lex disamb="1"><base>oznajmiać</base><ctag>fin:sg:ter:imperf</ctag></lex>
    <ann chan="timex">0</ann>
    <ann chan="t3_date">0</ann>
   </tok>
   <ns/>
   <tok>
    <orth>,</orth>
    <lex disamb="1"><base>,</base><ctag>interp</ctag></lex>
    <ann chan="timex">0</ann>
    <ann chan="t3_date">0</ann>
   </tok>
   <tok>
    <orth>że</orth>
    <lex disamb="1"><base>że</base><ctag>comp</ctag></lex>
    <ann chan="timex">0</ann>
    <ann chan="t3_date">0</ann>
   </tok>
   <tok>
    <orth>mimo</orth>
    <lex disamb="1"><base>mimo</base><ctag>adv:pos</ctag></lex>
    <ann chan="timex">0</ann>
    <ann chan="t3_date">0</ann>
   </tok>
   <tok>
    <orth>nowej</orth>
    <lex disamb="1"><base>nowa</base><ctag>subst:sg:gen:f</ctag></lex>
    <ann chan="timex">0</ann>
    <ann chan="t3_date">0</ann>
   </tok>
   <tok>
    <orth>pracy</orth>
    <lex disamb="1"><base>praca</base><ctag>subst:sg:gen:f</ctag></lex>
    <ann chan="timex">0</ann>
    <ann chan="t3_date">0</ann>
   </tok>
   <ns/>
   <tok>
    <orth>,</orth>
    <lex disamb="1"><base>,</base><ctag>interp</ctag></lex>
    <ann chan="timex">0</ann>
    <ann chan="t3_date">0</ann>
   </tok>
   <tok>
    <orth>ma</orth>
    <lex disamb="1"><base>mój</base><ctag>adj:sg:nom:f:pos</ctag></lex>
    <ann chan="timex">0</ann>
    <ann chan="t3_date">0</ann>
   </tok>
   <tok>
    <orth>nadzieje</orth>
    <lex disamb="1"><base>nadzieja</base><ctag>subst:pl:nom:f</ctag></lex>
    <ann chan="timex">0</ann>
    <ann chan="t3_date">0</ann>
   </tok>
   <ns/>
   <tok>
    <orth>,</orth>
    <lex disamb="1"><base>,</base><ctag>interp</ctag></lex>
    <ann chan="timex">0</ann>
    <ann chan="t3_date">0</ann>
   </tok>
   <tok>
    <orth>że</orth>
    <lex disamb="1"><base>że</base><ctag>comp</ctag></lex>
    <ann chan="timex">0</ann>
    <ann chan="t3_date">0</ann>
   </tok>
   <tok>
    <orth>jak</orth>
    <lex disamb="1"><base>jak</base><ctag>conj</ctag></lex>
    <ann chan="timex">0</ann>
    <ann chan="t3_date">0</ann>
   </tok>
   <tok>
    <orth>zadzwoni</orth>
    <lex disamb="1"><base>zadzwonić</base><ctag>fin:sg:ter:perf</ctag></lex>
    <ann chan="timex">0</ann>
    <ann chan="t3_date">0</ann>
   </tok>
   <tok>
    <orth>to</orth>
    <lex disamb="1"><base>to</base><ctag>conj</ctag></lex>
    <ann chan="timex">0</ann>
    <ann chan="t3_date">0</ann>
   </tok>
   <tok>
    <orth>przyjdziesz</orth>
    <lex disamb="1"><base>przyjść</base><ctag>fin:sg:sec:perf</ctag></lex>
    <ann chan="timex">0</ann>
    <ann chan="t3_date">0</ann>
   </tok>
   <tok>
    <orth>i</orth>
    <lex disamb="1"><base>i</base><ctag>conj</ctag></lex>
    <ann chan="timex">0</ann>
    <ann chan="t3_date">0</ann>
   </tok>
   <tok>
    <orth>im</orth>
    <lex disamb="1"><base>im</base><ctag>comp</ctag></lex>
    <ann chan="timex">0</ann>
    <ann chan="t3_date">0</ann>
   </tok>
   <tok>
    <orth>pomożesz</orth>
    <lex disamb="1"><base>pomóc</base><ctag>fin:sg:sec:perf</ctag></lex>
    <ann chan="timex">0</ann>
    <ann chan="t3_date">0</ann>
   </tok>
   <tok>
    <orth>z</orth>
    <lex disamb="1"><base>z</base><ctag>prep:gen:nwok</ctag></lex>
    <ann chan="timex">0</ann>
    <ann chan="t3_date">0</ann>
   </tok>
   <tok>
    <orth>dokumentami</orth>
    <lex disamb="1"><base>dokument</base><ctag>subst:pl:inst:m3</ctag></lex>
    <ann chan="timex">0</ann>
    <ann chan="t3_date">0</ann>
   </tok>
   <tok>
    <orth>i</orth>
    <lex disamb="1"><base>i</base><ctag>conj</ctag></lex>
    <ann chan="timex">0</ann>
    <ann chan="t3_date">0</ann>
   </tok>
   <tok>
    <orth>pismami</orth>
    <lex disamb="1"><base>pismo</base><ctag>subst:pl:inst:n</ctag></lex>
    <ann chan="timex">0</ann>
    <ann chan="t3_date">0</ann>
   </tok>
   <tok>
    <orth>bo</orth>
    <lex disamb="1"><base>bo</base><ctag>comp</ctag></lex>
    <ann chan="timex">0</ann>
    <ann chan="t3_date">0</ann>
   </tok>
   <tok>
    <orth>jako</orth>
    <lex disamb="1"><base>jako</base><ctag>conj</ctag></lex>
    <ann chan="timex">0</ann>
    <ann chan="t3_date">0</ann>
   </tok>
   <tok>
    <orth>jedyny</orth>
    <lex disamb="1"><base>jedyny</base><ctag>subst:sg:nom:m1</ctag></lex>
    <ann chan="timex">0</ann>
    <ann chan="t3_date">0</ann>
   </tok>
   <tok>
    <orth>ogarniasz</orth>
    <lex disamb="1"><base>ogarniać</base><ctag>fin:sg:sec:imperf</ctag></lex>
    <ann chan="timex">0</ann>
    <ann chan="t3_date">0</ann>
   </tok>
   <tok>
    <orth>te</orth>
    <lex disamb="1"><base>te</base><ctag>subst:sg:nom:n</ctag></lex>
    <ann chan="timex">0</ann>
    <ann chan="t3_date">0</ann>
   </tok>
   <tok>
    <orth>tematy</orth>
    <lex disamb="1"><base>temat</base><ctag>subst:pl:nom:m3</ctag></lex>
    <ann chan="timex">0</ann>
    <ann chan="t3_date">0</ann>
   </tok>
   <tok>
    <orth>5</orth>
    <lex disamb="1"><base>5</base><ctag>num:pl:nom:m1:rec</ctag></lex>
    <ann chan="timex">0</ann>
    <ann chan="t3_date">0</ann>
   </tok>
   <ns/>
   <tok>
    <orth>.</orth>
    <lex disamb="1"><base>.</base><ctag>interp</ctag></lex>
    <ann chan="timex">0</ann>
    <ann chan="t3_date">0</ann>
   </tok>
   <tok>
    <orth>daj</orth>
    <lex disamb="1"><base>dać</base><ctag>impt:sg:sec:perf</ctag></lex>
    <ann chan="timex">0</ann>
    <ann chan="t3_date">0</ann>
   </tok>
   <tok>
    <orth>mu</orth>
    <lex disamb="1"><base>on</base><ctag>ppron3:sg:dat:m1:ter:nakc:npraep</ctag></lex>
    <ann chan="timex">0</ann>
    <ann chan="t3_date">0</ann>
   </tok>
   <tok>
    <orth>chujowego</orth>
    <lex disamb="1"><base>chujowy</base><ctag>adj:sg:gen:m1:pos</ctag></lex>
    <ann chan="timex">0</ann>
    <ann chan="t3_date">0</ann>
   </tok>
   <tok>
    <orth>bajecznego</orth>
    <lex disamb="1"><base>bajeczny</base><ctag>adj:sg:gen:m1:pos</ctag></lex>
    <ann chan="timex">0</ann>
    <ann chan="t3_date">0</ann>
   </tok>
   <tok>
    <orth>-</orth>
    <lex disamb="1"><base>-</base><ctag>interp</ctag></lex>
    <ann chan="timex">0</ann>
    <ann chan="t3_date">0</ann>
   </tok>
   <ns/>
   <tok>
    <orth>którego</orth>
    <lex disamb="1"><base>który</base><ctag>adj:sg:gen:m1:pos</ctag></lex>
    <ann chan="timex">0</ann>
    <ann chan="t3_date">0</ann>
   </tok>
   <tok>
    <orth>nie</orth>
    <lex disamb="1"><base>nie</base><ctag>conj</ctag></lex>
    <ann chan="timex">0</ann>
    <ann chan="t3_date">0</ann>
   </tok>
   <tok>
    <orth>lubisz</orth>
    <lex disamb="1"><base>lubić</base><ctag>fin:sg:sec:imperf</ctag></lex>
    <ann chan="timex">0</ann>
    <ann chan="t3_date">0</ann>
   </tok>
   <ns/>
   <tok>
    <orth>-</orth>
    <lex disamb="1"><base>-</base><ctag>interp</ctag></lex>
    <ann chan="timex">0</ann>
    <ann chan="t3_date">0</ann>
   </tok>
   <tok>
    <orth>z</orth>
    <lex disamb="1"><base>z</base><ctag>prep:gen:nwok</ctag></lex>
    <ann chan="timex">0</ann>
    <ann chan="t3_date">0</ann>
   </tok>
   <tok>
    <orth>mieszanki</orth>
    <lex disamb="1"><base>mieszanka</base><ctag>subst:sg:gen:f</ctag></lex>
    <ann chan="timex">0</ann>
    <ann chan="t3_date">0</ann>
   </tok>
   <tok>
    <orth>wedlowskiej</orth>
    <lex disamb="1"><base>wedlowski</base><ctag>adj:sg:gen:f:pos</ctag></lex>
    <ann chan="timex">0</ann>
    <ann chan="t3_date">0</ann>
   </tok>
   <tok>
    <orth>jaką</orth>
    <lex disamb="1"><base>jaka</base><ctag>subst:sg:inst:f</ctag></lex>
    <ann chan="timex">0</ann>
    <ann chan="t3_date">0</ann>
   </tok>
   <tok>
    <orth>przyniosł</orth>
    <lex disamb="1"><base>przynieść</base><ctag>praet:sg:m1:perf:agl</ctag></lex>
    <ann chan="timex">0</ann>
    <ann chan="t3_date">0</ann>
   </tok>
   <ns/>
   <tok>
    <orth>eś</orth>
    <lex disamb="1"><base>być</base><ctag>aglt:sg:sec:imperf:wok</ctag></lex>
    <ann chan="timex">0</ann>
    <ann chan="t3_date">0</ann>
   </tok>
   <tok>
    <orth>i</orth>
    <lex disamb="1"><base>i</base><ctag>conj</ctag></lex>
    <ann chan="timex">0</ann>
    <ann chan="t3_date">0</ann>
   </tok>
   <tok>
    <orth>wyjdź</orth>
    <lex disamb="1"><base>wyjść</base><ctag>impt:sg:sec:perf</ctag></lex>
    <ann chan="timex">0</ann>
    <ann chan="t3_date">0</ann>
   </tok>
   <tok>
    <orth>nic</orth>
    <lex disamb="1"><base>nic</base><ctag>subst:sg:nom:n</ctag></lex>
    <ann chan="timex">0</ann>
    <ann chan="t3_date">0</ann>
   </tok>
   <tok>
    <orth>nie</orth>
    <lex disamb="1"><base>nie</base><ctag>conj</ctag></lex>
    <ann chan="timex">0</ann>
    <ann chan="t3_date">0</ann>
   </tok>
   <tok>
    <orth>mówiąc</orth>
    <lex disamb="1"><base>mówić</base><ctag>pcon:imperf</ctag></lex>
    <ann chan="timex">0</ann>
    <ann chan="t3_date">0</ann>
   </tok>
  </sentence>
 </chunk>
 <chunk type="p" id="ch2">
  <sentence id="s2">
   <tok>
    <orth>kurwa</orth>
    <lex disamb="1"><base>kurwa</base><ctag>subst:sg:nom:f</ctag></lex>
   </tok>
   <tok>
    <orth>brak</orth>
    <lex disamb="1"><base>brak</base><ctag>pred</ctag></lex>
   </tok>
   <tok>
    <orth>mi</orth>
    <lex disamb="1"><base>mi</base><ctag>subst:sg:nom:n</ctag></lex>
   </tok>
   <tok>
    <orth>słów</orth>
    <lex disamb="1"><base>słowo</base><ctag>subst:pl:gen:n</ctag></lex>
   </tok>
   <tok>
    <orth>na</orth>
    <lex disamb="1"><base>na</base><ctag>prep:acc</ctag></lex>
   </tok>
   <tok>
    <orth>ten</orth>
    <lex disamb="1"><base>ten</base><ctag>adj:sg:nom:m1:pos</ctag></lex>
   </tok>
   <tok>
    <orth>nierealny</orth>
    <lex disamb="1"><base>nierealny</base><ctag>adj:sg:nom:m1:pos</ctag></lex>
   </tok>
   <tok>
    <orth>stan</orth>
    <lex disamb="1"><base>stan</base><ctag>subst:sg:nom:m3</ctag></lex>
   </tok>
   <tok>
    <orth>zdzbanienia</orth>
    <lex disamb="1"><base>zdzbanienia</base><ctag>ign</ctag></lex>
   </tok>
   <tok>
    <orth>umysłowego</orth>
    <lex disamb="1"><base>umysłowy</base><ctag>adj:sg:gen:m1:pos</ctag></lex>
   </tok>
   <tok>
    <orth>xDDDDDDDDDDD</orth>
    <lex disamb="1"><base>xDDDDDDDDDDD</base><ctag>ign</ctag></lex>
   </tok>
  </sentence>
 </chunk>
 <chunk type="p" id="ch3">
  <sentence id="s3">
   <tok>
    <orth>#</orth>
    <lex disamb="1"><base>#</base><ctag>interp</ctag></lex>
   </tok>
   <ns/>
   <tok>
    <orth>pracbaza</orth>
    <lex disamb="1"><base>pracbaza</base><ctag>ign</ctag></lex>
   </tok>
   <tok>
    <orth>#</orth>
    <lex disamb="1"><base>#</base><ctag>interp</ctag></lex>
   </tok>
   <ns/>
   <tok>
    <orth>heheszki</orth>
    <lex disamb="1"><base>heheszki</base><ctag>ign</ctag></lex>
   </tok>
  </sentence>
 </chunk>
</chunkList>