<?xml version="1.0" encoding="UTF-8"?>
<!DOCTYPE chunkList SYSTEM "ccl.dtd">
<chunkList>
 <chunk type="p" id="ch1">
  <sentence id="s1">
   <tok>
    <orth>Pokazuje</orth>
    <lex disamb="1"><base>pokazować</base><ctag>fin:sg:ter:imperf</ctag></lex>
    <lex disamb="1"><base>pokazywać</base><ctag>fin:sg:ter:imperf</ctag></lex>
   </tok>
   <tok>
    <orth>wam</orth>
    <lex disamb="1"><base>wy</base><ctag>ppron12:pl:dat:m1:sec</ctag></lex>
   </tok>
   <tok>
    <orth>moje</orth>
    <lex disamb="1"><base>moja</base><ctag>subst:pl:nom:f</ctag></lex>
   </tok>
   <tok>
    <orth>stracone</orth>
    <lex disamb="1"><base>stracona</base><ctag>subst:pl:nom:f</ctag></lex>
   </tok>
   <tok>
    <orth>marzenia</orth>
    <lex disamb="1"><base>marzenia</base><ctag>subst:pl:nom:n</ctag></lex>
    <lex disamb="1"><base>marzenie</base><ctag>subst:pl:nom:n</ctag></lex>
   </tok>
   <tok>
    <orth>i</orth>
    <lex disamb="1"><base>i</base><ctag>conj</ctag></lex>
   </tok>
   <tok>
    <orth>naiwne</orth>
    <lex disamb="1"><base>naiwny</base><ctag>adj:sg:nom:n:pos</ctag></lex>
   </tok>
   <tok>
    <orth>czasy</orth>
    <lex disamb="1"><base>czas</base><ctag>subst:pl:nom:m3</ctag></lex>
   </tok>
   <tok>
    <orth>xD</orth>
    <lex disamb="1"><base>xD</base><ctag>ign</ctag></lex>
   </tok>
  </sentence>
 </chunk>
 <chunk type="p" id="ch2">
  <sentence id="s2">
   <tok>
    <orth>http://megamodels.pl/agata_k.html#</orth>
    <lex disamb="1"><base>http://megamodels.pl/agata_k.html#</base><ctag>subst:sg:nom:m3</ctag></lex>
   </tok>
  </sentence>
 </chunk>
 <chunk type="p" id="ch3">
  <sentence id="s3">
   <tok>
    <orth>#</orth>
    <lex disamb="1"><base>#</base><ctag>interp</ctag></lex>
   </tok>
   <ns/>
   <tok>
    <orth>pokazmorde</orth>
    <lex disamb="1"><base>pokazmorde</base><ctag>ign</ctag></lex>
   </tok>
   <tok>
    <orth>#</orth>
    <lex disamb="1"><base>#</base><ctag>interp</ctag></lex>
   </tok>
   <ns/>
   <tok>
    <orth>rozowepaski</orth>
    <lex disamb="1"><base>rozowepaski</base><ctag>ign</ctag></lex>
   </tok>
   <tok>
    <orth>#</orth>
    <lex disamb="1"><base>#</base><ctag>interp</ctag></lex>
   </tok>
   <ns/>
   <tok>
    <orth>atencyjnyrozowypasek</orth>
    <lex disamb="1"><base>atencyjnyrozowypasek</base><ctag>ign</ctag></lex>
   </tok>
  </sentence>
 </chunk>
</chunkList>