<?xml version="1.0" encoding="UTF-8"?>
<!DOCTYPE chunkList SYSTEM "ccl.dtd">
<chunkList>
 <chunk type="p" id="ch1">
  <sentence id="s1">
   <tok>
    <orth>zrobili</orth>
    <lex disamb="1"><base>zrobić</base><ctag>praet:pl:m1:perf</ctag></lex>
   </tok>
   <tok>
    <orth>nowom</orth>
    <lex disamb="1"><base>nowom</base><ctag>ign</ctag></lex>
   </tok>
   <tok>
    <orth>wersje</orth>
    <lex disamb="1"><base>wersja</base><ctag>subst:pl:nom:f</ctag></lex>
   </tok>
   <tok>
    <orth>mojego</orth>
    <lex disamb="1"><base>moje</base><ctag>subst:sg:gen:n</ctag></lex>
   </tok>
   <tok>
    <orth>ulubionego</orth>
    <lex disamb="1"><base>ulubiony</base><ctag>subst:sg:gen:m1</ctag></lex>
   </tok>
   <tok>
    <orth>mema</orth>
    <lex disamb="1"><base>mema</base><ctag>ign</ctag></lex>
   </tok>
   <tok>
    <orth>aaaaaa</orth>
    <lex disamb="1"><base>aaaaaa</base><ctag>ign</ctag></lex>
   </tok>
  </sentence>
 </chunk>
</chunkList>