<?xml version="1.0" encoding="UTF-8"?>
<!DOCTYPE chunkList SYSTEM "ccl.dtd">
<chunkList>
 <chunk type="p" id="ch1">
  <sentence id="s1">
   <tok>
    <orth>#</orth>
    <lex disamb="1"><base>#</base><ctag>interp</ctag></lex>
    <ann chan="nam">0</ann>
    <ann chan="nam_org_institution">0</ann>
    <ann chan="nam_org">0</ann>
   </tok>
   <ns/>
   <tok>
    <orth>anonimowemirkowyznania</orth>
    <lex disamb="1"><base>anonimowemirkowyznania</base><ctag>ign</ctag></lex>
    <ann chan="nam">0</ann>
    <ann chan="nam_org_institution">0</ann>
    <ann chan="nam_org">0</ann>
   </tok>
   <tok>
    <orth>ŻONA</orth>
    <lex disamb="1"><base>żona</base><ctag>subst:sg:nom:f</ctag></lex>
    <ann chan="nam">0</ann>
    <ann chan="nam_org_institution">0</ann>
    <ann chan="nam_org">0</ann>
   </tok>
   <tok>
    <orth>jednego</orth>
    <lex disamb="1"><base>jeden</base><ctag>subst:sg:gen:m2</ctag></lex>
    <ann chan="nam">0</ann>
    <ann chan="nam_org_institution">0</ann>
    <ann chan="nam_org">0</ann>
   </tok>
   <tok>
    <orth>z</orth>
    <lex disamb="1"><base>z</base><ctag>prep:gen:nwok</ctag></lex>
    <ann chan="nam">0</ann>
    <ann chan="nam_org_institution">0</ann>
    <ann chan="nam_org">0</ann>
   </tok>
   <tok>
    <orth>MIRKÓW</orth>
    <lex disamb="1"><base>Mirek</base><ctag>subst:pl:gen:m1</ctag></lex>
    <ann chan="nam">1</ann>
    <ann chan="nam_org_institution">1</ann>
    <ann chan="nam_org">1</ann>
   </tok>
   <tok>
    <orth>zdradza</orth>
    <lex disamb="1"><base>zdradzać</base><ctag>fin:sg:ter:imperf</ctag></lex>
    <ann chan="nam">0</ann>
    <ann chan="nam_org_institution">0</ann>
    <ann chan="nam_org">0</ann>
   </tok>
   <tok>
    <orth>go</orth>
    <lex disamb="1"><base>go</base><ctag>subst:sg:nom:n</ctag></lex>
    <ann chan="nam">0</ann>
    <ann chan="nam_org_institution">0</ann>
    <ann chan="nam_org">0</ann>
   </tok>
   <tok>
    <orth>z</orth>
    <lex disamb="1"><base>z</base><ctag>prep:gen:nwok</ctag></lex>
    <ann chan="nam">0</ann>
    <ann chan="nam_org_institution">0</ann>
    <ann chan="nam_org">0</ann>
   </tok>
   <tok>
    <orth>kilkoma</orth>
    <lex disamb="1"><base>kilka</base><ctag>num:pl:nom:m1:rec</ctag></lex>
    <lex disamb="1"><base>kilka</base><ctag>num:pl:nom:m1:rec</ctag></lex>
    <lex disamb="1"><base>kilka</base><ctag>num:pl:nom:m1:rec</ctag></lex>
    <lex disamb="1"><base>kilka</base><ctag>num:pl:nom:m1:rec</ctag></lex>
    <lex disamb="1"><base>kilka</base><ctag>num:pl:nom:m1:rec</ctag></lex>
    <ann chan="nam">0</ann>
    <ann chan="nam_org_institution">0</ann>
    <ann chan="nam_org">0</ann>
   </tok>
   <tok>
    <orth>osobami</orth>
    <lex disamb="1"><base>osoba</base><ctag>subst:pl:inst:f</ctag></lex>
    <ann chan="nam">0</ann>
    <ann chan="nam_org_institution">0</ann>
    <ann chan="nam_org">0</ann>
   </tok>
   <tok>
    <orth>jednocześcnie</orth>
    <lex disamb="1"><base>jednocześcnie</base><ctag>ign</ctag></lex>
    <ann chan="nam">0</ann>
    <ann chan="nam_org_institution">0</ann>
    <ann chan="nam_org">0</ann>
   </tok>
   <ns/>
   <tok>
    <orth>.</orth>
    <lex disamb="1"><base>.</base><ctag>interp</ctag></lex>
    <ann chan="nam">0</ann>
    <ann chan="nam_org_institution">0</ann>
    <ann chan="nam_org">0</ann>
   </tok>
  </sentence>
 </chunk>
 <chunk type="p" id="ch2">
  <sentence id="s2">
   <tok>
    <orth>#</orth>
    <lex disamb="1"><base>#</base><ctag>interp</ctag></lex>
   </tok>
   <ns/>
   <tok>
    <orth>bolecnaboku</orth>
    <lex disamb="1"><base>bolecnaboku</base><ctag>ign</ctag></lex>
   </tok>
   <tok>
    <orth>#</orth>
    <lex disamb="1"><base>#</base><ctag>interp</ctag></lex>
   </tok>
   <ns/>
   <tok>
    <orth>zdrada</orth>
    <lex disamb="1"><base>zdrada</base><ctag>subst:sg:nom:f</ctag></lex>
   </tok>
   <tok>
    <orth>Pomóżcie</orth>
    <lex disamb="1"><base>pomóc</base><ctag>impt:pl:sec:perf</ctag></lex>
   </tok>
   <tok>
    <orth>proszę</orth>
    <lex disamb="1"><base>prosić</base><ctag>fin:sg:pri:imperf</ctag></lex>
   </tok>
   <tok>
    <orth>uwolnić</orth>
    <lex disamb="1"><base>uwolnić</base><ctag>inf:perf</ctag></lex>
   </tok>
   <tok>
    <orth>się</orth>
    <lex disamb="1"><base>się</base><ctag>qub</ctag></lex>
   </tok>
   <tok>
    <orth>z</orth>
    <lex disamb="1"><base>z</base><ctag>prep:gen:nwok</ctag></lex>
   </tok>
   <tok>
    <orth>tego</orth>
    <lex disamb="1"><base>to</base><ctag>subst:sg:gen:n</ctag></lex>
   </tok>
   <tok>
    <orth>toksycznego</orth>
    <lex disamb="1"><base>toksyczny</base><ctag>adj:sg:gen:m1:pos</ctag></lex>
   </tok>
   <tok>
    <orth>związku</orth>
    <lex disamb="1"><base>związek</base><ctag>subst:sg:gen:m3</ctag></lex>
   </tok>
   <ns/>
   <tok>
    <orth>.</orth>
    <lex disamb="1"><base>.</base><ctag>interp</ctag></lex>
   </tok>
  </sentence>
 </chunk>
 <chunk type="p" id="ch3">
  <sentence id="s3">
   <tok>
    <orth>Jeden</orth>
    <lex disamb="1"><base>jeden</base><ctag>subst:sg:nom:m2</ctag></lex>
    <ann chan="nam">0</ann>
    <ann chan="nam_pro">0</ann>
    <ann chan="timex">0</ann>
    <ann chan="t3_duration">0</ann>
    <ann chan="t3_date">0</ann>
   </tok>
   <tok>
    <orth>z</orth>
    <lex disamb="1"><base>z</base><ctag>prep:gen:nwok</ctag></lex>
    <ann chan="nam">0</ann>
    <ann chan="nam_pro">0</ann>
    <ann chan="timex">0</ann>
    <ann chan="t3_duration">0</ann>
    <ann chan="t3_date">0</ann>
   </tok>
   <tok>
    <orth>regularnych</orth>
    <lex disamb="1"><base>regularny</base><ctag>adj:pl:gen:m1:pos</ctag></lex>
    <ann chan="nam">0</ann>
    <ann chan="nam_pro">0</ann>
    <ann chan="timex">0</ann>
    <ann chan="t3_duration">0</ann>
    <ann chan="t3_date">0</ann>
   </tok>
   <tok>
    <orth>użytkowników</orth>
    <lex disamb="1"><base>użytkownik</base><ctag>subst:pl:gen:m1</ctag></lex>
    <ann chan="nam">0</ann>
    <ann chan="nam_pro">0</ann>
    <ann chan="timex">0</ann>
    <ann chan="t3_duration">0</ann>
    <ann chan="t3_date">0</ann>
   </tok>
   <tok>
    <orth>Wykopu</orth>
    <lex disamb="1"><base>wykop</base><ctag>subst:sg:gen:m3</ctag></lex>
    <ann chan="nam">1</ann>
    <ann chan="nam_pro">1</ann>
    <ann chan="timex">0</ann>
    <ann chan="t3_duration">0</ann>
    <ann chan="t3_date">0</ann>
   </tok>
   <tok>
    <orth>o</orth>
    <lex disamb="1"><base>o</base><ctag>prep:acc</ctag></lex>
    <ann chan="nam">0</ann>
    <ann chan="nam_pro">0</ann>
    <ann chan="timex">0</ann>
    <ann chan="t3_duration">0</ann>
    <ann chan="t3_date">0</ann>
   </tok>
   <tok>
    <orth>stażu</orth>
    <lex disamb="1"><base>staż</base><ctag>subst:sg:gen:m3</ctag></lex>
    <ann chan="nam">0</ann>
    <ann chan="nam_pro">0</ann>
    <ann chan="timex">0</ann>
    <ann chan="t3_duration">0</ann>
    <ann chan="t3_date">0</ann>
   </tok>
   <tok>
    <orth>prawie</orth>
    <lex disamb="1"><base>prawie</base><ctag>qub</ctag></lex>
    <ann chan="nam">0</ann>
    <ann chan="nam_pro">0</ann>
    <ann chan="timex">0</ann>
    <ann chan="t3_duration">0</ann>
    <ann chan="t3_date">0</ann>
   </tok>
   <tok>
    <orth>4</orth>
    <lex disamb="1"><base>4</base><ctag>num:pl:nom:m1:rec</ctag></lex>
    <ann chan="nam">0</ann>
    <ann chan="nam_pro">0</ann>
    <ann chan="timex">1</ann>
    <ann chan="t3_duration">1</ann>
    <ann chan="t3_date">0</ann>
   </tok>
   <tok>
    <orth>lata</orth>
    <lex disamb="1"><base>lato</base><ctag>subst:sg:gen:n</ctag></lex>
    <ann chan="nam">0</ann>
    <ann chan="nam_pro">0</ann>
    <ann chan="timex">1</ann>
    <ann chan="t3_duration">1</ann>
    <ann chan="t3_date">0</ann>
   </tok>
   <tok>
    <orth>jest</orth>
    <lex disamb="1"><base>być</base><ctag>fin:sg:ter:imperf</ctag></lex>
    <ann chan="nam">0</ann>
    <ann chan="nam_pro">0</ann>
    <ann chan="timex">0</ann>
    <ann chan="t3_duration">0</ann>
    <ann chan="t3_date">0</ann>
   </tok>
   <tok>
    <orth>zdradzany</orth>
    <lex disamb="1"><base>zdradzać</base><ctag>ppas:sg:nom:m1:imperf:aff</ctag></lex>
    <ann chan="nam">0</ann>
    <ann chan="nam_pro">0</ann>
    <ann chan="timex">0</ann>
    <ann chan="t3_duration">0</ann>
    <ann chan="t3_date">0</ann>
   </tok>
   <tok>
    <orth>notorycznie</orth>
    <lex disamb="1"><base>notorycznie</base><ctag>adv:pos</ctag></lex>
    <ann chan="nam">0</ann>
    <ann chan="nam_pro">0</ann>
    <ann chan="timex">0</ann>
    <ann chan="t3_duration">0</ann>
    <ann chan="t3_date">0</ann>
   </tok>
   <tok>
    <orth>od</orth>
    <lex disamb="1"><base>od</base><ctag>prep:gen:nwok</ctag></lex>
    <ann chan="nam">0</ann>
    <ann chan="nam_pro">0</ann>
    <ann chan="timex">0</ann>
    <ann chan="t3_duration">0</ann>
    <ann chan="t3_date">0</ann>
   </tok>
   <tok>
    <orth>grudnia</orth>
    <lex disamb="1"><base>grudzień</base><ctag>subst:sg:gen:m3</ctag></lex>
    <ann chan="nam">0</ann>
    <ann chan="nam_pro">0</ann>
    <ann chan="timex">2</ann>
    <ann chan="t3_duration">0</ann>
    <ann chan="t3_date">1</ann>
   </tok>
   <tok>
    <orth>2016</orth>
    <lex disamb="1"><base>2016</base><ctag>num:pl:nom:m1:rec</ctag></lex>
    <ann chan="nam">0</ann>
    <ann chan="nam_pro">0</ann>
    <ann chan="timex">2</ann>
    <ann chan="t3_duration">0</ann>
    <ann chan="t3_date">1</ann>
   </tok>
   <tok>
    <orth>roku</orth>
    <lex disamb="1"><base>rok</base><ctag>subst:sg:gen:m3</ctag></lex>
    <ann chan="nam">0</ann>
    <ann chan="nam_pro">0</ann>
    <ann chan="timex">2</ann>
    <ann chan="t3_duration">0</ann>
    <ann chan="t3_date">1</ann>
   </tok>
   <tok>
    <orth>(</orth>
    <lex disamb="1"><base>(</base><ctag>interp</ctag></lex>
    <ann chan="nam">0</ann>
    <ann chan="nam_pro">0</ann>
    <ann chan="timex">0</ann>
    <ann chan="t3_duration">0</ann>
    <ann chan="t3_date">0</ann>
   </tok>
   <ns/>
   <tok>
    <orth>2</orth>
    <lex disamb="1"><base>2</base><ctag>num:pl:nom:m1:rec</ctag></lex>
    <ann chan="nam">0</ann>
    <ann chan="nam_pro">0</ann>
    <ann chan="timex">3</ann>
    <ann chan="t3_duration">0</ann>
    <ann chan="t3_date">0</ann>
   </tok>
   <tok>
    <orth>lat</orth>
    <lex disamb="1"><base>lato</base><ctag>subst:pl:gen:n</ctag></lex>
    <ann chan="nam">0</ann>
    <ann chan="nam_pro">0</ann>
    <ann chan="timex">3</ann>
    <ann chan="t3_duration">0</ann>
    <ann chan="t3_date">0</ann>
   </tok>
   <ns/>
   <tok>
    <orth>)</orth>
    <lex disamb="1"><base>)</base><ctag>interp</ctag></lex>
    <ann chan="nam">0</ann>
    <ann chan="nam_pro">0</ann>
    <ann chan="timex">0</ann>
    <ann chan="t3_duration">0</ann>
    <ann chan="t3_date">0</ann>
   </tok>
   <tok>
    <orth>przez</orth>
    <lex disamb="1"><base>przez</base><ctag>prep:acc:nwok</ctag></lex>
    <ann chan="nam">0</ann>
    <ann chan="nam_pro">0</ann>
    <ann chan="timex">0</ann>
    <ann chan="t3_duration">0</ann>
    <ann chan="t3_date">0</ann>
   </tok>
   <tok>
    <orth>swoją</orth>
    <lex disamb="1"><base>swój</base><ctag>adj:sg:acc:f:pos</ctag></lex>
    <ann chan="nam">0</ann>
    <ann chan="nam_pro">0</ann>
    <ann chan="timex">0</ann>
    <ann chan="t3_duration">0</ann>
    <ann chan="t3_date">0</ann>
   </tok>
   <tok>
    <orth>żonę</orth>
    <lex disamb="1"><base>żona</base><ctag>subst:sg:acc:f</ctag></lex>
    <ann chan="nam">0</ann>
    <ann chan="nam_pro">0</ann>
    <ann chan="timex">0</ann>
    <ann chan="t3_duration">0</ann>
    <ann chan="t3_date">0</ann>
   </tok>
   <tok>
    <orth>z</orth>
    <lex disamb="1"><base>z</base><ctag>prep:gen:nwok</ctag></lex>
    <ann chan="nam">0</ann>
    <ann chan="nam_pro">0</ann>
    <ann chan="timex">0</ann>
    <ann chan="t3_duration">0</ann>
    <ann chan="t3_date">0</ann>
   </tok>
   <tok>
    <orth>różnymi</orth>
    <lex disamb="1"><base>różny</base><ctag>adj:pl:inst:m1:pos</ctag></lex>
    <ann chan="nam">0</ann>
    <ann chan="nam_pro">0</ann>
    <ann chan="timex">0</ann>
    <ann chan="t3_duration">0</ann>
    <ann chan="t3_date">0</ann>
   </tok>
   <tok>
    <orth>facetami</orth>
    <lex disamb="1"><base>facet</base><ctag>subst:pl:inst:m1</ctag></lex>
    <ann chan="nam">0</ann>
    <ann chan="nam_pro">0</ann>
    <ann chan="timex">0</ann>
    <ann chan="t3_duration">0</ann>
    <ann chan="t3_date">0</ann>
   </tok>
   <ns/>
   <tok>
    <orth>(</orth>
    <lex disamb="1"><base>(</base><ctag>interp</ctag></lex>
    <ann chan="nam">0</ann>
    <ann chan="nam_pro">0</ann>
    <ann chan="timex">0</ann>
    <ann chan="t3_duration">0</ann>
    <ann chan="t3_date">0</ann>
   </tok>
   <ns/>
   <tok>
    <orth>4</orth>
    <lex disamb="1"><base>4</base><ctag>num:pl:nom:m1:rec</ctag></lex>
    <ann chan="nam">0</ann>
    <ann chan="nam_pro">0</ann>
    <ann chan="timex">0</ann>
    <ann chan="t3_duration">0</ann>
    <ann chan="t3_date">0</ann>
   </tok>
   <ns/>
   <tok>
    <orth>)</orth>
    <lex disamb="1"><base>)</base><ctag>interp</ctag></lex>
    <ann chan="nam">0</ann>
    <ann chan="nam_pro">0</ann>
    <ann chan="timex">0</ann>
    <ann chan="t3_duration">0</ann>
    <ann chan="t3_date">0</ann>
   </tok>
   <ns/>
   <tok>
    <orth>.</orth>
    <lex disamb="1"><base>.</base><ctag>interp</ctag></lex>
    <ann chan="nam">0</ann>
    <ann chan="nam_pro">0</ann>
    <ann chan="timex">0</ann>
    <ann chan="t3_duration">0</ann>
    <ann chan="t3_date">0</ann>
   </tok>
  </sentence>
 </chunk>
 <chunk type="p" id="ch4">
  <sentence id="s4">
   <tok>
    <orth>Znam</orth>
    <lex disamb="1"><base>znać</base><ctag>fin:sg:pri:imperf</ctag></lex>
    <ann chan="nam">0</ann>
    <ann chan="nam_pro_media_web">0</ann>
    <ann chan="nam_org_company">0</ann>
    <ann chan="nam_loc">0</ann>
    <ann chan="nam_org">0</ann>
   </tok>
   <tok>
    <orth>nawet</orth>
    <lex disamb="1"><base>nawet</base><ctag>qub</ctag></lex>
    <ann chan="nam">0</ann>
    <ann chan="nam_pro_media_web">0</ann>
    <ann chan="nam_org_company">0</ann>
    <ann chan="nam_loc">0</ann>
    <ann chan="nam_org">0</ann>
   </tok>
   <tok>
    <orth>jego</orth>
    <lex disamb="1"><base>on</base><ctag>ppron3:sg:gen:m1:ter:akc:npraep</ctag></lex>
    <ann chan="nam">0</ann>
    <ann chan="nam_pro_media_web">0</ann>
    <ann chan="nam_org_company">0</ann>
    <ann chan="nam_loc">0</ann>
    <ann chan="nam_org">0</ann>
   </tok>
   <tok>
    <orth>nick</orth>
    <lex disamb="1"><base>nick</base><ctag>subst:sg:nom:m2</ctag></lex>
    <ann chan="nam">0</ann>
    <ann chan="nam_pro_media_web">0</ann>
    <ann chan="nam_org_company">0</ann>
    <ann chan="nam_loc">0</ann>
    <ann chan="nam_org">0</ann>
   </tok>
   <tok>
    <orth>na</orth>
    <lex disamb="1"><base>na</base><ctag>prep:acc</ctag></lex>
    <ann chan="nam">0</ann>
    <ann chan="nam_pro_media_web">0</ann>
    <ann chan="nam_org_company">0</ann>
    <ann chan="nam_loc">0</ann>
    <ann chan="nam_org">0</ann>
   </tok>
   <tok>
    <orth>Wykopie</orth>
    <lex disamb="1"><base>wykop</base><ctag>subst:sg:loc:m3</ctag></lex>
    <ann chan="nam">1</ann>
    <ann chan="nam_pro_media_web">1</ann>
    <ann chan="nam_org_company">0</ann>
    <ann chan="nam_loc">1</ann>
    <ann chan="nam_org">0</ann>
   </tok>
   <ns/>
   <tok>
    <orth>,</orth>
    <lex disamb="1"><base>,</base><ctag>interp</ctag></lex>
    <ann chan="nam">0</ann>
    <ann chan="nam_pro_media_web">0</ann>
    <ann chan="nam_org_company">0</ann>
    <ann chan="nam_loc">0</ann>
    <ann chan="nam_org">0</ann>
   </tok>
   <tok>
    <orth>Facebook</orth>
    <lex disamb="1"><base>facebook</base><ctag>subst:sg:nom:m2</ctag></lex>
    <ann chan="nam">2</ann>
    <ann chan="nam_pro_media_web">0</ann>
    <ann chan="nam_org_company">1</ann>
    <ann chan="nam_loc">0</ann>
    <ann chan="nam_org">1</ann>
   </tok>
   <ns/>
   <tok>
    <orth>(</orth>
    <lex disamb="1"><base>(</base><ctag>interp</ctag></lex>
    <ann chan="nam">0</ann>
    <ann chan="nam_pro_media_web">0</ann>
    <ann chan="nam_org_company">0</ann>
    <ann chan="nam_loc">0</ann>
    <ann chan="nam_org">0</ann>
   </tok>
   <ns/>
   <tok>
    <orth>do</orth>
    <lex disamb="1"><base>do</base><ctag>prep:gen</ctag></lex>
    <ann chan="nam">0</ann>
    <ann chan="nam_pro_media_web">0</ann>
    <ann chan="nam_org_company">0</ann>
    <ann chan="nam_loc">0</ann>
    <ann chan="nam_org">0</ann>
   </tok>
   <tok>
    <orth>wszystkiego</orth>
    <lex disamb="1"><base>wszystko</base><ctag>subst:sg:gen:n</ctag></lex>
    <ann chan="nam">0</ann>
    <ann chan="nam_pro_media_web">0</ann>
    <ann chan="nam_org_company">0</ann>
    <ann chan="nam_loc">0</ann>
    <ann chan="nam_org">0</ann>
   </tok>
   <tok>
    <orth>dostęp</orth>
    <lex disamb="1"><base>dostęp</base><ctag>subst:sg:nom:m3</ctag></lex>
    <ann chan="nam">0</ann>
    <ann chan="nam_pro_media_web">0</ann>
    <ann chan="nam_org_company">0</ann>
    <ann chan="nam_loc">0</ann>
    <ann chan="nam_org">0</ann>
   </tok>
   <tok>
    <orth>ma</orth>
    <lex disamb="1"><base>mój</base><ctag>adj:sg:nom:f:pos</ctag></lex>
    <ann chan="nam">0</ann>
    <ann chan="nam_pro_media_web">0</ann>
    <ann chan="nam_org_company">0</ann>
    <ann chan="nam_loc">0</ann>
    <ann chan="nam_org">0</ann>
   </tok>
   <tok>
    <orth>żona</orth>
    <lex disamb="1"><base>żona</base><ctag>subst:sg:nom:f</ctag></lex>
    <ann chan="nam">0</ann>
    <ann chan="nam_pro_media_web">0</ann>
    <ann chan="nam_org_company">0</ann>
    <ann chan="nam_loc">0</ann>
    <ann chan="nam_org">0</ann>
   </tok>
   <ns/>
   <tok>
    <orth>)</orth>
    <lex disamb="1"><base>)</base><ctag>interp</ctag></lex>
    <ann chan="nam">0</ann>
    <ann chan="nam_pro_media_web">0</ann>
    <ann chan="nam_org_company">0</ann>
    <ann chan="nam_loc">0</ann>
    <ann chan="nam_org">0</ann>
   </tok>
   <tok>
    <orth>numer</orth>
    <lex disamb="1"><base>numer</base><ctag>subst:sg:nom:m3</ctag></lex>
    <ann chan="nam">0</ann>
    <ann chan="nam_pro_media_web">0</ann>
    <ann chan="nam_org_company">0</ann>
    <ann chan="nam_loc">0</ann>
    <ann chan="nam_org">0</ann>
   </tok>
   <tok>
    <orth>telefonu</orth>
    <lex disamb="1"><base>telefon</base><ctag>subst:sg:gen:m3</ctag></lex>
    <ann chan="nam">0</ann>
    <ann chan="nam_pro_media_web">0</ann>
    <ann chan="nam_org_company">0</ann>
    <ann chan="nam_loc">0</ann>
    <ann chan="nam_org">0</ann>
   </tok>
   <tok>
    <orth>również</orth>
    <lex disamb="1"><base>również</base><ctag>qub</ctag></lex>
    <ann chan="nam">0</ann>
    <ann chan="nam_pro_media_web">0</ann>
    <ann chan="nam_org_company">0</ann>
    <ann chan="nam_loc">0</ann>
    <ann chan="nam_org">0</ann>
   </tok>
   <tok>
    <orth>mam</orth>
    <lex disamb="1"><base>mama</base><ctag>subst:pl:gen:f</ctag></lex>
    <ann chan="nam">0</ann>
    <ann chan="nam_pro_media_web">0</ann>
    <ann chan="nam_org_company">0</ann>
    <ann chan="nam_loc">0</ann>
    <ann chan="nam_org">0</ann>
   </tok>
   <tok>
    <orth>ale</orth>
    <lex disamb="1"><base>ale</base><ctag>conj</ctag></lex>
    <ann chan="nam">0</ann>
    <ann chan="nam_pro_media_web">0</ann>
    <ann chan="nam_org_company">0</ann>
    <ann chan="nam_loc">0</ann>
    <ann chan="nam_org">0</ann>
   </tok>
   <tok>
    <orth>nie</orth>
    <lex disamb="1"><base>nie</base><ctag>conj</ctag></lex>
    <ann chan="nam">0</ann>
    <ann chan="nam_pro_media_web">0</ann>
    <ann chan="nam_org_company">0</ann>
    <ann chan="nam_loc">0</ann>
    <ann chan="nam_org">0</ann>
   </tok>
   <tok>
    <orth>wiem</orth>
    <lex disamb="1"><base>wiedzieć</base><ctag>fin:sg:pri:imperf</ctag></lex>
    <ann chan="nam">0</ann>
    <ann chan="nam_pro_media_web">0</ann>
    <ann chan="nam_org_company">0</ann>
    <ann chan="nam_loc">0</ann>
    <ann chan="nam_org">0</ann>
   </tok>
   <tok>
    <orth>czy</orth>
    <lex disamb="1"><base>czy</base><ctag>conj</ctag></lex>
    <ann chan="nam">0</ann>
    <ann chan="nam_pro_media_web">0</ann>
    <ann chan="nam_org_company">0</ann>
    <ann chan="nam_loc">0</ann>
    <ann chan="nam_org">0</ann>
   </tok>
   <tok>
    <orth>nie</orth>
    <lex disamb="1"><base>nie</base><ctag>conj</ctag></lex>
    <ann chan="nam">0</ann>
    <ann chan="nam_pro_media_web">0</ann>
    <ann chan="nam_org_company">0</ann>
    <ann chan="nam_loc">0</ann>
    <ann chan="nam_org">0</ann>
   </tok>
   <tok>
    <orth>skończy</orth>
    <lex disamb="1"><base>skończyć</base><ctag>fin:sg:ter:perf</ctag></lex>
    <ann chan="nam">0</ann>
    <ann chan="nam_pro_media_web">0</ann>
    <ann chan="nam_org_company">0</ann>
    <ann chan="nam_loc">0</ann>
    <ann chan="nam_org">0</ann>
   </tok>
   <tok>
    <orth>się</orth>
    <lex disamb="1"><base>się</base><ctag>qub</ctag></lex>
    <ann chan="nam">0</ann>
    <ann chan="nam_pro_media_web">0</ann>
    <ann chan="nam_org_company">0</ann>
    <ann chan="nam_loc">0</ann>
    <ann chan="nam_org">0</ann>
   </tok>
   <tok>
    <orth>na</orth>
    <lex disamb="1"><base>na</base><ctag>prep:acc</ctag></lex>
    <ann chan="nam">0</ann>
    <ann chan="nam_pro_media_web">0</ann>
    <ann chan="nam_org_company">0</ann>
    <ann chan="nam_loc">0</ann>
    <ann chan="nam_org">0</ann>
   </tok>
   <tok>
    <orth>tym</orth>
    <lex disamb="1"><base>tym</base><ctag>conj</ctag></lex>
    <ann chan="nam">0</ann>
    <ann chan="nam_pro_media_web">0</ann>
    <ann chan="nam_org_company">0</ann>
    <ann chan="nam_loc">0</ann>
    <ann chan="nam_org">0</ann>
   </tok>
   <ns/>
   <tok>
    <orth>,</orth>
    <lex disamb="1"><base>,</base><ctag>interp</ctag></lex>
    <ann chan="nam">0</ann>
    <ann chan="nam_pro_media_web">0</ann>
    <ann chan="nam_org_company">0</ann>
    <ann chan="nam_loc">0</ann>
    <ann chan="nam_org">0</ann>
   </tok>
   <tok>
    <orth>że</orth>
    <lex disamb="1"><base>że</base><ctag>comp</ctag></lex>
    <ann chan="nam">0</ann>
    <ann chan="nam_pro_media_web">0</ann>
    <ann chan="nam_org_company">0</ann>
    <ann chan="nam_loc">0</ann>
    <ann chan="nam_org">0</ann>
   </tok>
   <tok>
    <orth>ta</orth>
    <lex disamb="1"><base>ta</base><ctag>qub</ctag></lex>
    <ann chan="nam">0</ann>
    <ann chan="nam_pro_media_web">0</ann>
    <ann chan="nam_org_company">0</ann>
    <ann chan="nam_loc">0</ann>
    <ann chan="nam_org">0</ann>
   </tok>
   <tok>
    <orth>żmija</orth>
    <lex disamb="1"><base>żmija</base><ctag>subst:sg:nom:f</ctag></lex>
    <ann chan="nam">0</ann>
    <ann chan="nam_pro_media_web">0</ann>
    <ann chan="nam_org_company">0</ann>
    <ann chan="nam_loc">0</ann>
    <ann chan="nam_org">0</ann>
   </tok>
   <tok>
    <orth>go</orth>
    <lex disamb="1"><base>go</base><ctag>subst:sg:nom:n</ctag></lex>
    <ann chan="nam">0</ann>
    <ann chan="nam_pro_media_web">0</ann>
    <ann chan="nam_org_company">0</ann>
    <ann chan="nam_loc">0</ann>
    <ann chan="nam_org">0</ann>
   </tok>
   <tok>
    <orth>zbajeruje</orth>
    <lex disamb="1"><base>zbajerować</base><ctag>fin:sg:ter:perf</ctag></lex>
    <ann chan="nam">0</ann>
    <ann chan="nam_pro_media_web">0</ann>
    <ann chan="nam_org_company">0</ann>
    <ann chan="nam_loc">0</ann>
    <ann chan="nam_org">0</ann>
   </tok>
   <tok>
    <orth>bo</orth>
    <lex disamb="1"><base>bo</base><ctag>comp</ctag></lex>
    <ann chan="nam">0</ann>
    <ann chan="nam_pro_media_web">0</ann>
    <ann chan="nam_org_company">0</ann>
    <ann chan="nam_loc">0</ann>
    <ann chan="nam_org">0</ann>
   </tok>
   <tok>
    <orth>potrafi</orth>
    <lex disamb="1"><base>potrafić</base><ctag>fin:sg:ter:imperf</ctag></lex>
    <ann chan="nam">0</ann>
    <ann chan="nam_pro_media_web">0</ann>
    <ann chan="nam_org_company">0</ann>
    <ann chan="nam_loc">0</ann>
    <ann chan="nam_org">0</ann>
   </tok>
   <tok>
    <orth>dość</orth>
    <lex disamb="1"><base>dość</base><ctag>pred</ctag></lex>
    <ann chan="nam">0</ann>
    <ann chan="nam_pro_media_web">0</ann>
    <ann chan="nam_org_company">0</ann>
    <ann chan="nam_loc">0</ann>
    <ann chan="nam_org">0</ann>
   </tok>
   <tok>
    <orth>mocno</orth>
    <lex disamb="1"><base>mocno</base><ctag>adv:pos</ctag></lex>
    <ann chan="nam">0</ann>
    <ann chan="nam_pro_media_web">0</ann>
    <ann chan="nam_org_company">0</ann>
    <ann chan="nam_loc">0</ann>
    <ann chan="nam_org">0</ann>
   </tok>
   <tok>
    <orth>omotać</orth>
    <lex disamb="1"><base>omotać</base><ctag>inf:perf</ctag></lex>
    <ann chan="nam">0</ann>
    <ann chan="nam_pro_media_web">0</ann>
    <ann chan="nam_org_company">0</ann>
    <ann chan="nam_loc">0</ann>
    <ann chan="nam_org">0</ann>
   </tok>
   <tok>
    <orth>człowieka</orth>
    <lex disamb="1"><base>człowiek</base><ctag>subst:sg:gen:m1</ctag></lex>
    <ann chan="nam">0</ann>
    <ann chan="nam_pro_media_web">0</ann>
    <ann chan="nam_org_company">0</ann>
    <ann chan="nam_loc">0</ann>
    <ann chan="nam_org">0</ann>
   </tok>
   <ns/>
   <tok>
    <orth>.</orth>
    <lex disamb="1"><base>.</base><ctag>interp</ctag></lex>
    <ann chan="nam">0</ann>
    <ann chan="nam_pro_media_web">0</ann>
    <ann chan="nam_org_company">0</ann>
    <ann chan="nam_loc">0</ann>
    <ann chan="nam_org">0</ann>
   </tok>
  </sentence>
 </chunk>
 <chunk type="p" id="ch5">
  <sentence id="s5">
   <tok>
    <orth>Chce</orth>
    <lex disamb="1"><base>chcieć</base><ctag>fin:sg:ter:imperf</ctag></lex>
   </tok>
   <tok>
    <orth>się</orth>
    <lex disamb="1"><base>się</base><ctag>qub</ctag></lex>
   </tok>
   <tok>
    <orth>z</orth>
    <lex disamb="1"><base>z</base><ctag>prep:gen:nwok</ctag></lex>
   </tok>
   <tok>
    <orth>nim</orth>
    <lex disamb="1"><base>nim</base><ctag>comp</ctag></lex>
   </tok>
   <tok>
    <orth>spotkać</orth>
    <lex disamb="1"><base>spotkać</base><ctag>inf:perf</ctag></lex>
   </tok>
   <tok>
    <orth>i</orth>
    <lex disamb="1"><base>i</base><ctag>conj</ctag></lex>
   </tok>
   <tok>
    <orth>przekazać</orth>
    <lex disamb="1"><base>przekazać</base><ctag>inf:perf</ctag></lex>
   </tok>
   <tok>
    <orth>informacje</orth>
    <lex disamb="1"><base>informacja</base><ctag>subst:pl:nom:f</ctag></lex>
   </tok>
   <tok>
    <orth>osobiście</orth>
    <lex disamb="1"><base>osobiście</base><ctag>adv:pos</ctag></lex>
   </tok>
   <tok>
    <orth>jednak</orth>
    <lex disamb="1"><base>jednak</base><ctag>conj</ctag></lex>
   </tok>
   <tok>
    <orth>nie</orth>
    <lex disamb="1"><base>nie</base><ctag>conj</ctag></lex>
   </tok>
   <tok>
    <orth>wiem</orth>
    <lex disamb="1"><base>wiedzieć</base><ctag>fin:sg:pri:imperf</ctag></lex>
   </tok>
   <tok>
    <orth>jakim</orth>
    <lex disamb="1"><base>jaki</base><ctag>adj:sg:inst:m1:pos</ctag></lex>
   </tok>
   <tok>
    <orth>jest</orth>
    <lex disamb="1"><base>być</base><ctag>fin:sg:ter:imperf</ctag></lex>
   </tok>
   <tok>
    <orth>człowiekiem</orth>
    <lex disamb="1"><base>człowiek</base><ctag>subst:sg:inst:m1</ctag></lex>
   </tok>
   <ns/>
   <tok>
    <orth>.</orth>
    <lex disamb="1"><base>.</base><ctag>interp</ctag></lex>
   </tok>
  </sentence>
 </chunk>
 <chunk type="p" id="ch6">
  <sentence id="s6">
   <tok>
    <orth>Nie</orth>
    <lex disamb="1"><base>nie</base><ctag>conj</ctag></lex>
    <ann chan="nam">0</ann>
    <ann chan="nam_liv_person">0</ann>
    <ann chan="nam_liv">0</ann>
   </tok>
   <tok>
    <orth>chcę</orth>
    <lex disamb="1"><base>chcieć</base><ctag>fin:sg:pri:imperf</ctag></lex>
    <ann chan="nam">0</ann>
    <ann chan="nam_liv_person">0</ann>
    <ann chan="nam_liv">0</ann>
   </tok>
   <tok>
    <orth>aby</orth>
    <lex disamb="1"><base>aby</base><ctag>comp</ctag></lex>
    <ann chan="nam">0</ann>
    <ann chan="nam_liv_person">0</ann>
    <ann chan="nam_liv">0</ann>
   </tok>
   <tok>
    <orth>połowa</orth>
    <lex disamb="1"><base>połowa</base><ctag>subst:sg:nom:f</ctag></lex>
    <ann chan="nam">0</ann>
    <ann chan="nam_liv_person">0</ann>
    <ann chan="nam_liv">0</ann>
   </tok>
   <tok>
    <orth>wykopu</orth>
    <lex disamb="1"><base>wykop</base><ctag>subst:sg:gen:m3</ctag></lex>
    <ann chan="nam">0</ann>
    <ann chan="nam_liv_person">0</ann>
    <ann chan="nam_liv">0</ann>
   </tok>
   <tok>
    <orth>się</orth>
    <lex disamb="1"><base>się</base><ctag>qub</ctag></lex>
    <ann chan="nam">0</ann>
    <ann chan="nam_liv_person">0</ann>
    <ann chan="nam_liv">0</ann>
   </tok>
   <tok>
    <orth>stresowałą</orth>
    <lex disamb="1"><base>stresowałą</base><ctag>ign</ctag></lex>
    <ann chan="nam">0</ann>
    <ann chan="nam_liv_person">0</ann>
    <ann chan="nam_liv">0</ann>
   </tok>
   <tok>
    <orth>dlatego</orth>
    <lex disamb="1"><base>dlatego</base><ctag>adv:pos</ctag></lex>
    <ann chan="nam">0</ann>
    <ann chan="nam_liv_person">0</ann>
    <ann chan="nam_liv">0</ann>
   </tok>
   <tok>
    <orth>nakreślę</orth>
    <lex disamb="1"><base>nakreślić</base><ctag>fin:sg:pri:perf</ctag></lex>
    <ann chan="nam">0</ann>
    <ann chan="nam_liv_person">0</ann>
    <ann chan="nam_liv">0</ann>
   </tok>
   <tok>
    <orth>przybliżone</orth>
    <lex disamb="1"><base>przybliżony</base><ctag>adj:sg:nom:n:pos</ctag></lex>
    <ann chan="nam">0</ann>
    <ann chan="nam_liv_person">0</ann>
    <ann chan="nam_liv">0</ann>
   </tok>
   <tok>
    <orth>miejsce</orth>
    <lex disamb="1"><base>miejsce</base><ctag>subst:sg:nom:n</ctag></lex>
    <ann chan="nam">0</ann>
    <ann chan="nam_liv_person">0</ann>
    <ann chan="nam_liv">0</ann>
   </tok>
   <tok>
    <orth>akcji</orth>
    <lex disamb="1"><base>akcja</base><ctag>subst:sg:gen:f</ctag></lex>
    <ann chan="nam">0</ann>
    <ann chan="nam_liv_person">0</ann>
    <ann chan="nam_liv">0</ann>
   </tok>
   <tok>
    <orth>Śląsku</orth>
    <lex disamb="1"><base>śląski</base><ctag>adjp</ctag></lex>
    <ann chan="nam">0</ann>
    <ann chan="nam_liv_person">0</ann>
    <ann chan="nam_liv">0</ann>
   </tok>
   <ns/>
   <tok>
    <orth>,</orth>
    <lex disamb="1"><base>,</base><ctag>interp</ctag></lex>
    <ann chan="nam">0</ann>
    <ann chan="nam_liv_person">0</ann>
    <ann chan="nam_liv">0</ann>
   </tok>
   <tok>
    <orth>jesteś</orth>
    <lex disamb="1"><base>być</base><ctag>fin:sg:sec:imperf</ctag></lex>
    <ann chan="nam">0</ann>
    <ann chan="nam_liv_person">0</ann>
    <ann chan="nam_liv">0</ann>
   </tok>
   <tok>
    <orth>programistą</orth>
    <lex disamb="1"><base>programista</base><ctag>subst:sg:inst:m1</ctag></lex>
    <ann chan="nam">0</ann>
    <ann chan="nam_liv_person">0</ann>
    <ann chan="nam_liv">0</ann>
   </tok>
   <ns/>
   <tok>
    <orth>,</orth>
    <lex disamb="1"><base>,</base><ctag>interp</ctag></lex>
    <ann chan="nam">0</ann>
    <ann chan="nam_liv_person">0</ann>
    <ann chan="nam_liv">0</ann>
   </tok>
   <tok>
    <orth>śmieszy</orth>
    <lex disamb="1"><base>śmieszyć</base><ctag>fin:sg:ter:imperf</ctag></lex>
    <ann chan="nam">0</ann>
    <ann chan="nam_liv_person">0</ann>
    <ann chan="nam_liv">0</ann>
   </tok>
   <tok>
    <orth>Cię</orth>
    <lex disamb="1"><base>ty</base><ctag>ppron12:sg:gen:m1:sec:nakc</ctag></lex>
    <ann chan="nam">0</ann>
    <ann chan="nam_liv_person">0</ann>
    <ann chan="nam_liv">0</ann>
   </tok>
   <tok>
    <orth>rola</orth>
    <lex disamb="1"><base>rola</base><ctag>subst:sg:nom:f</ctag></lex>
    <ann chan="nam">0</ann>
    <ann chan="nam_liv_person">0</ann>
    <ann chan="nam_liv">0</ann>
   </tok>
   <tok>
    <orth>Maćka</orth>
    <lex disamb="1"><base>Maciek</base><ctag>subst:sg:gen:m1</ctag></lex>
    <lex disamb="1"><base>Maćko</base><ctag>subst:sg:gen:m1</ctag></lex>
    <lex disamb="1"><base>maciek</base><ctag>subst:sg:gen:m1</ctag></lex>
    <ann chan="nam">1</ann>
    <ann chan="nam_liv_person">1</ann>
    <ann chan="nam_liv">1</ann>
   </tok>
   <tok>
    <orth>Musiałą</orth>
    <lex disamb="1"><base>Musiałą</base><ctag>ign</ctag></lex>
    <ann chan="nam">1</ann>
    <ann chan="nam_liv_person">1</ann>
    <ann chan="nam_liv">1</ann>
   </tok>
   <tok>
    <orth>w</orth>
    <lex disamb="1"><base>w</base><ctag>prep:acc:nwok</ctag></lex>
    <ann chan="nam">0</ann>
    <ann chan="nam_liv_person">0</ann>
    <ann chan="nam_liv">0</ann>
   </tok>
   <tok>
    <orth>nowym</orth>
    <lex disamb="1"><base>nowa</base><ctag>subst:pl:dat:f</ctag></lex>
    <ann chan="nam">0</ann>
    <ann chan="nam_liv_person">0</ann>
    <ann chan="nam_liv">0</ann>
   </tok>
   <tok>
    <orth>wiedźminie</orth>
    <lex disamb="1"><base>wiedźmin</base><ctag>subst:sg:loc:m1</ctag></lex>
    <ann chan="nam">0</ann>
    <ann chan="nam_liv_person">0</ann>
    <ann chan="nam_liv">0</ann>
   </tok>
   <ns/>
   <tok>
    <orth>.</orth>
    <lex disamb="1"><base>.</base><ctag>interp</ctag></lex>
    <ann chan="nam">0</ann>
    <ann chan="nam_liv_person">0</ann>
    <ann chan="nam_liv">0</ann>
   </tok>
  </sentence>
 </chunk>
 <chunk type="p" id="ch7">
  <sentence id="s7">
   <tok>
    <orth>Jeżeli</orth>
    <lex disamb="1"><base>jeżeli</base><ctag>comp</ctag></lex>
   </tok>
   <tok>
    <orth>to</orth>
    <lex disamb="1"><base>to</base><ctag>conj</ctag></lex>
   </tok>
   <tok>
    <orth>czytasz</orth>
    <lex disamb="1"><base>czytać</base><ctag>fin:sg:sec:imperf</ctag></lex>
   </tok>
   <tok>
    <orth>to</orth>
    <lex disamb="1"><base>to</base><ctag>conj</ctag></lex>
   </tok>
   <tok>
    <orth>pod</orth>
    <lex disamb="1"><base>pod</base><ctag>prep:acc:nwok</ctag></lex>
   </tok>
   <tok>
    <orth>żadnym</orth>
    <lex disamb="1"><base>żaden</base><ctag>adj:sg:inst:m1:pos</ctag></lex>
   </tok>
   <tok>
    <orth>pozorem</orth>
    <lex disamb="1"><base>pozór</base><ctag>subst:sg:inst:m3</ctag></lex>
   </tok>
   <tok>
    <orth>nie</orth>
    <lex disamb="1"><base>nie</base><ctag>conj</ctag></lex>
   </tok>
   <tok>
    <orth>mów</orth>
    <lex disamb="1"><base>mowa</base><ctag>subst:pl:gen:f</ctag></lex>
   </tok>
   <tok>
    <orth>o</orth>
    <lex disamb="1"><base>o</base><ctag>prep:acc</ctag></lex>
   </tok>
   <tok>
    <orth>tym</orth>
    <lex disamb="1"><base>tym</base><ctag>conj</ctag></lex>
   </tok>
   <tok>
    <orth>swojej</orth>
    <lex disamb="1"><base>swój</base><ctag>adj:sg:gen:f:pos</ctag></lex>
   </tok>
   <tok>
    <orth>żonie</orth>
    <lex disamb="1"><base>żona</base><ctag>subst:sg:dat:f</ctag></lex>
   </tok>
   <tok>
    <orth>i</orth>
    <lex disamb="1"><base>i</base><ctag>conj</ctag></lex>
   </tok>
   <tok>
    <orth>napisz</orth>
    <lex disamb="1"><base>napisać</base><ctag>impt:sg:sec:perf</ctag></lex>
   </tok>
   <tok>
    <orth>z</orth>
    <lex disamb="1"><base>z</base><ctag>prep:gen:nwok</ctag></lex>
   </tok>
   <tok>
    <orth>anonimowych</orth>
    <lex disamb="1"><base>anonimowy</base><ctag>adj:pl:gen:m1:pos</ctag></lex>
   </tok>
   <tok>
    <orth>wiadomość</orth>
    <lex disamb="1"><base>wiadomość</base><ctag>subst:sg:nom:f</ctag></lex>
   </tok>
   <tok>
    <orth>gdzie</orth>
    <lex disamb="1"><base>gdzie</base><ctag>adv:pos</ctag></lex>
   </tok>
   <tok>
    <orth>podajesz</orth>
    <lex disamb="1"><base>podawać</base><ctag>fin:sg:sec:imperf</ctag></lex>
   </tok>
   <tok>
    <orth>pierwszą</orth>
    <lex disamb="1"><base>pierwsza</base><ctag>subst:sg:acc:f</ctag></lex>
   </tok>
   <tok>
    <orth>i</orth>
    <lex disamb="1"><base>i</base><ctag>conj</ctag></lex>
   </tok>
   <tok>
    <orth>ostatnią</orth>
    <lex disamb="1"><base>ostatni</base><ctag>adj:sg:acc:f:pos</ctag></lex>
   </tok>
   <tok>
    <orth>literę</orth>
    <lex disamb="1"><base>litera</base><ctag>subst:sg:acc:f</ctag></lex>
   </tok>
   <tok>
    <orth>swojego</orth>
    <lex disamb="1"><base>swoje</base><ctag>subst:sg:gen:n</ctag></lex>
   </tok>
   <tok>
    <orth>imienia</orth>
    <lex disamb="1"><base>imienie</base><ctag>subst:sg:gen:n</ctag></lex>
    <lex disamb="1"><base>imię</base><ctag>subst:sg:gen:n</ctag></lex>
   </tok>
   <tok>
    <orth>oraz</orth>
    <lex disamb="1"><base>oraz</base><ctag>conj</ctag></lex>
   </tok>
   <tok>
    <orth>miejsce</orth>
    <lex disamb="1"><base>miejsce</base><ctag>subst:sg:nom:n</ctag></lex>
   </tok>
   <tok>
    <orth>zamieszkania</orth>
    <lex disamb="1"><base>zamieszkanie</base><ctag>subst:sg:gen:n</ctag></lex>
   </tok>
   <tok>
    <orth>-</orth>
    <lex disamb="1"><base>-</base><ctag>interp</ctag></lex>
   </tok>
   <tok>
    <orth>uznam</orth>
    <lex disamb="1"><base>uznać</base><ctag>fin:sg:pri:perf</ctag></lex>
   </tok>
   <ns/>
   <tok>
    <orth>,</orth>
    <lex disamb="1"><base>,</base><ctag>interp</ctag></lex>
   </tok>
   <tok>
    <orth>że</orth>
    <lex disamb="1"><base>że</base><ctag>comp</ctag></lex>
   </tok>
   <tok>
    <orth>chcesz</orth>
    <lex disamb="1"><base>chcieć</base><ctag>fin:sg:sec:imperf</ctag></lex>
   </tok>
   <tok>
    <orth>poznać</orth>
    <lex disamb="1"><base>poznać</base><ctag>inf:perf</ctag></lex>
   </tok>
   <tok>
    <orth>więcej</orth>
    <lex disamb="1"><base>dużo</base><ctag>adv:pos</ctag></lex>
    <lex disamb="1"><base>więcej</base><ctag>adv:pos</ctag></lex>
   </tok>
   <tok>
    <orth>szczegółów</orth>
    <lex disamb="1"><base>szczegół</base><ctag>subst:pl:gen:m3</ctag></lex>
   </tok>
   <tok>
    <orth>i</orth>
    <lex disamb="1"><base>i</base><ctag>conj</ctag></lex>
   </tok>
   <tok>
    <orth>mentalnie</orth>
    <lex disamb="1"><base>mentalnie</base><ctag>adv:pos</ctag></lex>
   </tok>
   <tok>
    <orth>jesteś</orth>
    <lex disamb="1"><base>być</base><ctag>fin:sg:sec:imperf</ctag></lex>
   </tok>
   <tok>
    <orth>gotowy</orth>
    <lex disamb="1"><base>gotowy</base><ctag>adj:sg:nom:m1:pos</ctag></lex>
   </tok>
   <tok>
    <orth>na</orth>
    <lex disamb="1"><base>na</base><ctag>prep:acc</ctag></lex>
   </tok>
   <tok>
    <orth>te</orth>
    <lex disamb="1"><base>te</base><ctag>subst:sg:nom:n</ctag></lex>
   </tok>
   <tok>
    <orth>smutne</orth>
    <lex disamb="1"><base>smutny</base><ctag>adj:sg:nom:n:pos</ctag></lex>
   </tok>
   <tok>
    <orth>informacje</orth>
    <lex disamb="1"><base>informacja</base><ctag>subst:pl:nom:f</ctag></lex>
   </tok>
   <ns/>
   <tok>
    <orth>.</orth>
    <lex disamb="1"><base>.</base><ctag>interp</ctag></lex>
   </tok>
  </sentence>
 </chunk>
 <chunk type="p" id="ch8">
  <sentence id="s8">
   <tok>
    <orth>Zadzwonie</orth>
    <lex disamb="1"><base>zadzwon</base><ctag>subst:sg:loc:m2</ctag></lex>
   </tok>
   <tok>
    <orth>i</orth>
    <lex disamb="1"><base>i</base><ctag>conj</ctag></lex>
   </tok>
   <tok>
    <orth>umówimy</orth>
    <lex disamb="1"><base>umówić</base><ctag>fin:pl:pri:perf</ctag></lex>
   </tok>
   <tok>
    <orth>się</orth>
    <lex disamb="1"><base>się</base><ctag>qub</ctag></lex>
   </tok>
   <tok>
    <orth>w</orth>
    <lex disamb="1"><base>w</base><ctag>prep:acc:nwok</ctag></lex>
   </tok>
   <tok>
    <orth>na</orth>
    <lex disamb="1"><base>na</base><ctag>prep:acc</ctag></lex>
   </tok>
   <tok>
    <orth>spotkanie</orth>
    <lex disamb="1"><base>spotkanie</base><ctag>subst:sg:nom:n</ctag></lex>
   </tok>
   <ns/>
   <tok>
    <orth>.</orth>
    <lex disamb="1"><base>.</base><ctag>interp</ctag></lex>
   </tok>
  </sentence>
 </chunk>
 <chunk type="p" id="ch9">
  <sentence id="s9">
   <tok>
    <orth>Jeżeli</orth>
    <lex disamb="1"><base>jeżeli</base><ctag>comp</ctag></lex>
   </tok>
   <tok>
    <orth>wygadasz</orth>
    <lex disamb="1"><base>wygadać</base><ctag>fin:sg:sec:perf</ctag></lex>
   </tok>
   <tok>
    <orth>żonie</orth>
    <lex disamb="1"><base>żona</base><ctag>subst:sg:dat:f</ctag></lex>
   </tok>
   <tok>
    <orth>(</orth>
    <lex disamb="1"><base>(</base><ctag>interp</ctag></lex>
   </tok>
   <ns/>
   <tok>
    <orth>a</orth>
    <lex disamb="1"><base>a</base><ctag>conj</ctag></lex>
   </tok>
   <tok>
    <orth>na</orth>
    <lex disamb="1"><base>na</base><ctag>prep:acc</ctag></lex>
   </tok>
   <tok>
    <orth>99</orth>
    <lex disamb="1"><base>99</base><ctag>num:pl:nom:m1:rec</ctag></lex>
   </tok>
   <ns/>
   <tok>
    <orth>%</orth>
    <lex disamb="1"><base>%</base><ctag>interp</ctag></lex>
   </tok>
   <tok>
    <orth>dowiem</orth>
    <lex disamb="1"><base>dowiedzieć</base><ctag>fin:sg:pri:perf</ctag></lex>
   </tok>
   <tok>
    <orth>się</orth>
    <lex disamb="1"><base>się</base><ctag>qub</ctag></lex>
   </tok>
   <tok>
    <orth>o</orth>
    <lex disamb="1"><base>o</base><ctag>prep:acc</ctag></lex>
   </tok>
   <tok>
    <orth>tym</orth>
    <lex disamb="1"><base>tym</base><ctag>conj</ctag></lex>
   </tok>
   <tok>
    <orth>jeżeli</orth>
    <lex disamb="1"><base>jeżeli</base><ctag>comp</ctag></lex>
   </tok>
   <tok>
    <orth>to</orth>
    <lex disamb="1"><base>to</base><ctag>conj</ctag></lex>
   </tok>
   <tok>
    <orth>zrobisz</orth>
    <lex disamb="1"><base>zrobić</base><ctag>fin:sg:sec:perf</ctag></lex>
   </tok>
   <ns/>
   <tok>
    <orth>)</orth>
    <lex disamb="1"><base>)</base><ctag>interp</ctag></lex>
   </tok>
   <tok>
    <orth>to</orth>
    <lex disamb="1"><base>to</base><ctag>conj</ctag></lex>
   </tok>
   <tok>
    <orth>nigdy</orth>
    <lex disamb="1"><base>nigdy</base><ctag>adv:pos</ctag></lex>
   </tok>
   <tok>
    <orth>nie</orth>
    <lex disamb="1"><base>nie</base><ctag>conj</ctag></lex>
   </tok>
   <tok>
    <orth>poznasz</orth>
    <lex disamb="1"><base>poznać</base><ctag>fin:sg:sec:perf</ctag></lex>
   </tok>
   <tok>
    <orth>prawdy</orth>
    <lex disamb="1"><base>prawda</base><ctag>subst:sg:gen:f</ctag></lex>
   </tok>
   <tok>
    <orth>ode</orth>
    <lex disamb="1"><base>od</base><ctag>prep:gen:wok</ctag></lex>
   </tok>
   <tok>
    <orth>mnie</orth>
    <lex disamb="1"><base>ja</base><ctag>ppron12:sg:gen:m1:pri:akc</ctag></lex>
   </tok>
   <tok>
    <orth>prawdy</orth>
    <lex disamb="1"><base>prawda</base><ctag>subst:sg:gen:f</ctag></lex>
   </tok>
   <ns/>
   <tok>
    <orth>.</orth>
    <lex disamb="1"><base>.</base><ctag>interp</ctag></lex>
   </tok>
  </sentence>
 </chunk>
 <chunk type="p" id="ch10">
  <sentence id="s10">
   <tok>
    <orth>Uważam</orth>
    <lex disamb="1"><base>uważać</base><ctag>fin:sg:pri:imperf</ctag></lex>
   </tok>
   <ns/>
   <tok>
    <orth>,</orth>
    <lex disamb="1"><base>,</base><ctag>interp</ctag></lex>
   </tok>
   <tok>
    <orth>że</orth>
    <lex disamb="1"><base>że</base><ctag>comp</ctag></lex>
   </tok>
   <tok>
    <orth>powinien</orth>
    <lex disamb="1"><base>powinien</base><ctag>winien:sg:m1:imperf</ctag></lex>
   </tok>
   <ns/>
   <tok>
    <orth>em</orth>
    <lex disamb="1"><base>być</base><ctag>aglt:sg:pri:imperf:wok</ctag></lex>
   </tok>
   <tok>
    <orth>się</orth>
    <lex disamb="1"><base>się</base><ctag>qub</ctag></lex>
   </tok>
   <tok>
    <orth>z</orth>
    <lex disamb="1"><base>z</base><ctag>prep:gen:nwok</ctag></lex>
   </tok>
   <tok>
    <orth>Tobą</orth>
    <lex disamb="1"><base>ty</base><ctag>ppron12:sg:inst:m1:sec</ctag></lex>
   </tok>
   <tok>
    <orth>spotkać</orth>
    <lex disamb="1"><base>spotkać</base><ctag>inf:perf</ctag></lex>
   </tok>
   <tok>
    <orth>jednak</orth>
    <lex disamb="1"><base>jednak</base><ctag>conj</ctag></lex>
   </tok>
   <tok>
    <orth>szansa</orth>
    <lex disamb="1"><base>szansa</base><ctag>subst:sg:nom:f</ctag></lex>
   </tok>
   <ns/>
   <tok>
    <orth>,</orth>
    <lex disamb="1"><base>,</base><ctag>interp</ctag></lex>
   </tok>
   <tok>
    <orth>że</orth>
    <lex disamb="1"><base>że</base><ctag>comp</ctag></lex>
   </tok>
   <tok>
    <orth>to</orth>
    <lex disamb="1"><base>to</base><ctag>conj</ctag></lex>
   </tok>
   <tok>
    <orth>przeczytasz</orth>
    <lex disamb="1"><base>przeczytać</base><ctag>fin:sg:sec:perf</ctag></lex>
   </tok>
   <tok>
    <orth>jest</orth>
    <lex disamb="1"><base>być</base><ctag>fin:sg:ter:imperf</ctag></lex>
   </tok>
   <tok>
    <orth>chyba</orth>
    <lex disamb="1"><base>chyba</base><ctag>qub</ctag></lex>
   </tok>
   <tok>
    <orth>mała</orth>
    <lex disamb="1"><base>mała</base><ctag>subst:sg:nom:f</ctag></lex>
   </tok>
   <tok>
    <orth>dlatego</orth>
    <lex disamb="1"><base>dlatego</base><ctag>adv:pos</ctag></lex>
   </tok>
   <tok>
    <orth>proszę</orth>
    <lex disamb="1"><base>prosić</base><ctag>fin:sg:pri:imperf</ctag></lex>
   </tok>
   <tok>
    <orth>mikrów</orth>
    <lex disamb="1"><base>mikrów</base><ctag>ign</ctag></lex>
   </tok>
   <tok>
    <orth>aby</orth>
    <lex disamb="1"><base>aby</base><ctag>comp</ctag></lex>
   </tok>
   <tok>
    <orth>doradzili</orth>
    <lex disamb="1"><base>doradzić</base><ctag>praet:pl:m1:perf</ctag></lex>
   </tok>
   <tok>
    <orth>mi</orth>
    <lex disamb="1"><base>mi</base><ctag>subst:sg:nom:n</ctag></lex>
   </tok>
   <tok>
    <orth>jak</orth>
    <lex disamb="1"><base>jak</base><ctag>conj</ctag></lex>
   </tok>
   <tok>
    <orth>najmądrzej</orth>
    <lex disamb="1"><base>mądrze</base><ctag>adv:pos</ctag></lex>
   </tok>
   <tok>
    <orth>taką</orth>
    <lex disamb="1"><base>taka</base><ctag>subst:sg:inst:f</ctag></lex>
   </tok>
   <tok>
    <orth>delikatną</orth>
    <lex disamb="1"><base>delikatny</base><ctag>adj:sg:acc:f:pos</ctag></lex>
   </tok>
   <tok>
    <orth>sprawę</orth>
    <lex disamb="1"><base>sprawa</base><ctag>subst:sg:acc:f</ctag></lex>
   </tok>
   <tok>
    <orth>załatwić</orth>
    <lex disamb="1"><base>załatwić</base><ctag>inf:perf</ctag></lex>
   </tok>
   <ns/>
   <tok>
    <orth>.</orth>
    <lex disamb="1"><base>.</base><ctag>interp</ctag></lex>
   </tok>
  </sentence>
 </chunk>
 <chunk type="p" id="ch11">
  <sentence id="s11">
   <tok>
    <orth>Znajomi</orth>
    <lex disamb="1"><base>znajomy</base><ctag>subst:pl:nom:m1</ctag></lex>
   </tok>
   <tok>
    <orth>proponowali</orth>
    <lex disamb="1"><base>proponować</base><ctag>praet:pl:m1:imperf</ctag></lex>
   </tok>
   <tok>
    <orth>mi</orth>
    <lex disamb="1"><base>mi</base><ctag>subst:sg:nom:n</ctag></lex>
   </tok>
   <tok>
    <orth>poczekać</orth>
    <lex disamb="1"><base>poczekać</base><ctag>inf:perf</ctag></lex>
   </tok>
   <tok>
    <orth>z</orth>
    <lex disamb="1"><base>z</base><ctag>prep:gen:nwok</ctag></lex>
   </tok>
   <tok>
    <orth>tą</orth>
    <lex disamb="1"><base>ten</base><ctag>adj:sg:acc:f:pos</ctag></lex>
   </tok>
   <tok>
    <orth>informacją</orth>
    <lex disamb="1"><base>informacja</base><ctag>subst:sg:inst:f</ctag></lex>
   </tok>
   <tok>
    <orth>na</orth>
    <lex disamb="1"><base>na</base><ctag>prep:acc</ctag></lex>
   </tok>
   <tok>
    <orth>nowy</orth>
    <lex disamb="1"><base>nowy</base><ctag>subst:sg:nom:m1</ctag></lex>
   </tok>
   <tok>
    <orth>rok</orth>
    <lex disamb="1"><base>rok</base><ctag>subst:sg:nom:m3</ctag></lex>
   </tok>
   <tok>
    <orth>jednak</orth>
    <lex disamb="1"><base>jednak</base><ctag>conj</ctag></lex>
   </tok>
   <tok>
    <orth>w</orth>
    <lex disamb="1"><base>w</base><ctag>prep:acc:nwok</ctag></lex>
   </tok>
   <tok>
    <orth>mojej</orth>
    <lex disamb="1"><base>moja</base><ctag>subst:sg:gen:f</ctag></lex>
   </tok>
   <tok>
    <orth>ocenie</orth>
    <lex disamb="1"><base>ocena</base><ctag>subst:sg:dat:f</ctag></lex>
   </tok>
   <tok>
    <orth>to</orth>
    <lex disamb="1"><base>to</base><ctag>conj</ctag></lex>
   </tok>
   <tok>
    <orth>zły</orth>
    <lex disamb="1"><base>zły</base><ctag>subst:sg:nom:m1</ctag></lex>
   </tok>
   <tok>
    <orth>pomysł</orth>
    <lex disamb="1"><base>pomysł</base><ctag>subst:sg:nom:m3</ctag></lex>
   </tok>
   <ns/>
   <tok>
    <orth>.</orth>
    <lex disamb="1"><base>.</base><ctag>interp</ctag></lex>
   </tok>
  </sentence>
 </chunk>
 <chunk type="p" id="ch12">
  <sentence id="s12">
   <tok>
    <orth>Jeżeli</orth>
    <lex disamb="1"><base>jeżeli</base><ctag>comp</ctag></lex>
   </tok>
   <tok>
    <orth>ta</orth>
    <lex disamb="1"><base>ta</base><ctag>qub</ctag></lex>
   </tok>
   <tok>
    <orth>wiadomość</orth>
    <lex disamb="1"><base>wiadomość</base><ctag>subst:sg:nom:f</ctag></lex>
   </tok>
   <tok>
    <orth>do</orth>
    <lex disamb="1"><base>do</base><ctag>prep:gen</ctag></lex>
   </tok>
   <tok>
    <orth>niego</orth>
    <lex disamb="1"><base>on</base><ctag>ppron3:sg:gen:m1:ter:akc:praep</ctag></lex>
   </tok>
   <tok>
    <orth>nie</orth>
    <lex disamb="1"><base>nie</base><ctag>conj</ctag></lex>
   </tok>
   <tok>
    <orth>dotrze</orth>
    <lex disamb="1"><base>dotrzeć</base><ctag>fin:sg:ter:perf</ctag></lex>
   </tok>
   <tok>
    <orth>to</orth>
    <lex disamb="1"><base>to</base><ctag>conj</ctag></lex>
   </tok>
   <tok>
    <orth>będe</orth>
    <lex disamb="1"><base>będe</base><ctag>ign</ctag></lex>
   </tok>
   <tok>
    <orth>musiał</orth>
    <lex disamb="1"><base>musieć</base><ctag>praet:sg:m1:imperf</ctag></lex>
   </tok>
   <tok>
    <orth>zadzwonić</orth>
    <lex disamb="1"><base>zadzwonić</base><ctag>inf:perf</ctag></lex>
   </tok>
   <tok>
    <orth>ale</orth>
    <lex disamb="1"><base>ale</base><ctag>conj</ctag></lex>
   </tok>
   <tok>
    <orth>wtedy</orth>
    <lex disamb="1"><base>wtedy</base><ctag>adv:pos</ctag></lex>
   </tok>
   <tok>
    <orth>sytuacja</orth>
    <lex disamb="1"><base>sytuacja</base><ctag>subst:sg:nom:f</ctag></lex>
   </tok>
   <tok>
    <orth>różnie</orth>
    <lex disamb="1"><base>różnie</base><ctag>adv:pos</ctag></lex>
   </tok>
   <tok>
    <orth>się</orth>
    <lex disamb="1"><base>się</base><ctag>qub</ctag></lex>
   </tok>
   <tok>
    <orth>może</orth>
    <lex disamb="1"><base>może</base><ctag>qub</ctag></lex>
   </tok>
   <tok>
    <orth>potoczyć</orth>
    <lex disamb="1"><base>potoczyć</base><ctag>inf:perf</ctag></lex>
   </tok>
   <ns/>
   <tok>
    <orth>.</orth>
    <lex disamb="1"><base>.</base><ctag>interp</ctag></lex>
   </tok>
  </sentence>
 </chunk>
 <chunk type="p" id="ch13">
  <sentence id="s13">
   <tok>
    <orth>Historia</orth>
    <lex disamb="1"><base>historia</base><ctag>subst:sg:nom:f</ctag></lex>
   </tok>
   <tok>
    <orth>jest</orth>
    <lex disamb="1"><base>być</base><ctag>fin:sg:ter:imperf</ctag></lex>
   </tok>
   <tok>
    <orth>smutna</orth>
    <lex disamb="1"><base>smutny</base><ctag>adj:sg:nom:f:pos</ctag></lex>
   </tok>
   <tok>
    <orth>ale</orth>
    <lex disamb="1"><base>ale</base><ctag>conj</ctag></lex>
   </tok>
   <tok>
    <orth>niestety</orth>
    <lex disamb="1"><base>niestety</base><ctag>qub</ctag></lex>
   </tok>
   <tok>
    <orth>prawdziwa</orth>
    <lex disamb="1"><base>prawdziwy</base><ctag>adj:sg:nom:f:pos</ctag></lex>
   </tok>
   <ns/>
   <tok>
    <orth>,</orth>
    <lex disamb="1"><base>,</base><ctag>interp</ctag></lex>
   </tok>
   <tok>
    <orth>mam</orth>
    <lex disamb="1"><base>mama</base><ctag>subst:pl:gen:f</ctag></lex>
   </tok>
   <tok>
    <orth>nadzieje</orth>
    <lex disamb="1"><base>nadzieja</base><ctag>subst:pl:nom:f</ctag></lex>
   </tok>
   <ns/>
   <tok>
    <orth>,</orth>
    <lex disamb="1"><base>,</base><ctag>interp</ctag></lex>
   </tok>
   <tok>
    <orth>że</orth>
    <lex disamb="1"><base>że</base><ctag>comp</ctag></lex>
   </tok>
   <tok>
    <orth>wykopiecie</orth>
    <lex disamb="1"><base>wykopać</base><ctag>fin:pl:sec:perf</ctag></lex>
   </tok>
   <tok>
    <orth>ten</orth>
    <lex disamb="1"><base>ten</base><ctag>adj:sg:nom:m1:pos</ctag></lex>
   </tok>
   <tok>
    <orth>post</orth>
    <lex disamb="1"><base>post</base><ctag>subst:sg:nom:m2</ctag></lex>
   </tok>
   <tok>
    <orth>na</orth>
    <lex disamb="1"><base>na</base><ctag>prep:acc</ctag></lex>
   </tok>
   <tok>
    <orth>głowną</orth>
    <lex disamb="1"><base>głowną</base><ctag>ign</ctag></lex>
   </tok>
   <ns/>
   <tok>
    <orth>.</orth>
    <lex disamb="1"><base>.</base><ctag>interp</ctag></lex>
   </tok>
  </sentence>
 </chunk>
 <chunk type="p" id="ch14">
  <sentence id="s14">
   <tok>
    <orth>#</orth>
    <lex disamb="1"><base>#</base><ctag>interp</ctag></lex>
    <ann chan="nam">0</ann>
    <ann chan="timex">0</ann>
    <ann chan="t3_duration">0</ann>
   </tok>
   <ns/>
   <tok>
    <orth>programista15k</orth>
    <lex disamb="1"><base>programista15k</base><ctag>ign</ctag></lex>
    <ann chan="nam">0</ann>
    <ann chan="timex">0</ann>
    <ann chan="t3_duration">0</ann>
   </tok>
   <tok>
    <orth>#</orth>
    <lex disamb="1"><base>#</base><ctag>interp</ctag></lex>
    <ann chan="nam">0</ann>
    <ann chan="timex">0</ann>
    <ann chan="t3_duration">0</ann>
   </tok>
   <ns/>
   <tok>
    <orth>programowanie</orth>
    <lex disamb="1"><base>programować</base><ctag>ger:sg:nom:n:imperf:aff</ctag></lex>
    <ann chan="nam">0</ann>
    <ann chan="timex">0</ann>
    <ann chan="t3_duration">0</ann>
   </tok>
   <tok>
    <orth>Kliknij</orth>
    <lex disamb="1"><base>kliknąć</base><ctag>impt:sg:sec:perf</ctag></lex>
    <ann chan="nam">0</ann>
    <ann chan="timex">0</ann>
    <ann chan="t3_duration">0</ann>
   </tok>
   <tok>
    <orth>tutaj</orth>
    <lex disamb="1"><base>tutaj</base><ctag>adv:pos</ctag></lex>
    <ann chan="nam">0</ann>
    <ann chan="timex">0</ann>
    <ann chan="t3_duration">0</ann>
   </tok>
   <ns/>
   <tok>
    <orth>,</orth>
    <lex disamb="1"><base>,</base><ctag>interp</ctag></lex>
    <ann chan="nam">0</ann>
    <ann chan="timex">0</ann>
    <ann chan="t3_duration">0</ann>
   </tok>
   <tok>
    <orth>aby</orth>
    <lex disamb="1"><base>aby</base><ctag>comp</ctag></lex>
    <ann chan="nam">0</ann>
    <ann chan="timex">0</ann>
    <ann chan="t3_duration">0</ann>
   </tok>
   <tok>
    <orth>odpowiedzieć</orth>
    <lex disamb="1"><base>odpowiedzieć</base><ctag>inf:perf</ctag></lex>
    <ann chan="nam">0</ann>
    <ann chan="timex">0</ann>
    <ann chan="t3_duration">0</ann>
   </tok>
   <tok>
    <orth>w</orth>
    <lex disamb="1"><base>w</base><ctag>prep:acc:nwok</ctag></lex>
    <ann chan="nam">0</ann>
    <ann chan="timex">0</ann>
    <ann chan="t3_duration">0</ann>
   </tok>
   <tok>
    <orth>tym</orth>
    <lex disamb="1"><base>tym</base><ctag>conj</ctag></lex>
    <ann chan="nam">0</ann>
    <ann chan="timex">0</ann>
    <ann chan="t3_duration">0</ann>
   </tok>
   <tok>
    <orth>wątku</orth>
    <lex disamb="1"><base>wątek</base><ctag>subst:sg:gen:m3</ctag></lex>
    <ann chan="nam">0</ann>
    <ann chan="timex">0</ann>
    <ann chan="t3_duration">0</ann>
   </tok>
   <tok>
    <orth>anonimowo</orth>
    <lex disamb="1"><base>anonimowo</base><ctag>adv:pos</ctag></lex>
    <ann chan="nam">0</ann>
    <ann chan="timex">0</ann>
    <ann chan="t3_duration">0</ann>
   </tok>
   <tok>
    <orth>Kliknij</orth>
    <lex disamb="1"><base>kliknąć</base><ctag>impt:sg:sec:perf</ctag></lex>
    <ann chan="nam">0</ann>
    <ann chan="timex">0</ann>
    <ann chan="t3_duration">0</ann>
   </tok>
   <tok>
    <orth>tutaj</orth>
    <lex disamb="1"><base>tutaj</base><ctag>adv:pos</ctag></lex>
    <ann chan="nam">0</ann>
    <ann chan="timex">0</ann>
    <ann chan="t3_duration">0</ann>
   </tok>
   <ns/>
   <tok>
    <orth>,</orth>
    <lex disamb="1"><base>,</base><ctag>interp</ctag></lex>
    <ann chan="nam">0</ann>
    <ann chan="timex">0</ann>
    <ann chan="t3_duration">0</ann>
   </tok>
   <tok>
    <orth>aby</orth>
    <lex disamb="1"><base>aby</base><ctag>comp</ctag></lex>
    <ann chan="nam">0</ann>
    <ann chan="timex">0</ann>
    <ann chan="t3_duration">0</ann>
   </tok>
   <tok>
    <orth>wysłać</orth>
    <lex disamb="1"><base>wysłać</base><ctag>inf:perf</ctag></lex>
    <ann chan="nam">0</ann>
    <ann chan="timex">0</ann>
    <ann chan="t3_duration">0</ann>
   </tok>
   <tok>
    <orth>OPowi</orth>
    <lex disamb="1"><base>OPowi</base><ctag>ign</ctag></lex>
    <ann chan="nam">0</ann>
    <ann chan="timex">0</ann>
    <ann chan="t3_duration">0</ann>
   </tok>
   <tok>
    <orth>anonimową</orth>
    <lex disamb="1"><base>anonimowy</base><ctag>adj:sg:acc:f:pos</ctag></lex>
    <ann chan="nam">0</ann>
    <ann chan="timex">0</ann>
    <ann chan="t3_duration">0</ann>
   </tok>
   <tok>
    <orth>wiadomość</orth>
    <lex disamb="1"><base>wiadomość</base><ctag>subst:sg:nom:f</ctag></lex>
    <ann chan="nam">0</ann>
    <ann chan="timex">0</ann>
    <ann chan="t3_duration">0</ann>
   </tok>
   <tok>
    <orth>prywatną</orth>
    <lex disamb="1"><base>prywatny</base><ctag>adj:sg:acc:f:pos</ctag></lex>
    <ann chan="nam">0</ann>
    <ann chan="timex">0</ann>
    <ann chan="t3_duration">0</ann>
   </tok>
   <tok>
    <orth>Post</orth>
    <lex disamb="1"><base>post</base><ctag>subst:sg:nom:m2</ctag></lex>
    <ann chan="nam">1</ann>
    <ann chan="timex">0</ann>
    <ann chan="t3_duration">0</ann>
   </tok>
   <tok>
    <orth>dodany</orth>
    <lex disamb="1"><base>dodać</base><ctag>ppas:sg:nom:m1:perf:aff</ctag></lex>
    <ann chan="nam">0</ann>
    <ann chan="timex">0</ann>
    <ann chan="t3_duration">0</ann>
   </tok>
   <tok>
    <orth>za</orth>
    <lex disamb="1"><base>za</base><ctag>qub</ctag></lex>
    <ann chan="nam">0</ann>
    <ann chan="timex">0</ann>
    <ann chan="t3_duration">0</ann>
   </tok>
   <tok>
    <orth>pomocą</orth>
    <lex disamb="1"><base>pomoc</base><ctag>subst:sg:inst:f</ctag></lex>
    <ann chan="nam">0</ann>
    <ann chan="timex">0</ann>
    <ann chan="t3_duration">0</ann>
   </tok>
   <tok>
    <orth>skryptu</orth>
    <lex disamb="1"><base>skrypt</base><ctag>subst:sg:gen:m3</ctag></lex>
    <ann chan="nam">0</ann>
    <ann chan="timex">0</ann>
    <ann chan="t3_duration">0</ann>
   </tok>
   <tok>
    <orth>AnonimoweMirkoWyznania</orth>
    <lex disamb="1"><base>AnonimoweMirkoWyznania</base><ctag>ign</ctag></lex>
    <ann chan="nam">0</ann>
    <ann chan="timex">0</ann>
    <ann chan="t3_duration">0</ann>
   </tok>
   <tok>
    <orth>(</orth>
    <lex disamb="1"><base>(</base><ctag>interp</ctag></lex>
    <ann chan="nam">0</ann>
    <ann chan="timex">0</ann>
    <ann chan="t3_duration">0</ann>
   </tok>
   <tok>
    <orth>https://mirkowyznania.eu</orth>
    <lex disamb="1"><base>https://mirkowyznania.eu</base><ctag>subst:sg:nom:m3</ctag></lex>
    <ann chan="nam">0</ann>
    <ann chan="timex">0</ann>
    <ann chan="t3_duration">0</ann>
   </tok>
   <tok>
    <orth>)</orth>
    <lex disamb="1"><base>)</base><ctag>interp</ctag></lex>
    <ann chan="nam">0</ann>
    <ann chan="timex">0</ann>
    <ann chan="t3_duration">0</ann>
   </tok>
   <tok>
    <orth>Zaakceptował</orth>
    <lex disamb="1"><base>zaakceptować</base><ctag>praet:sg:m1:perf</ctag></lex>
    <ann chan="nam">0</ann>
    <ann chan="timex">0</ann>
    <ann chan="t3_duration">0</ann>
   </tok>
   <ns/>
   <tok>
    <orth>:</orth>
    <lex disamb="1"><base>:</base><ctag>interp</ctag></lex>
    <ann chan="nam">0</ann>
    <ann chan="timex">0</ann>
    <ann chan="t3_duration">0</ann>
   </tok>
   <tok>
    <orth>kwasnydeszcz</orth>
    <lex disamb="1"><base>kwasnydeszcz</base><ctag>ign</ctag></lex>
    <ann chan="nam">0</ann>
    <ann chan="timex">0</ann>
    <ann chan="t3_duration">0</ann>
   </tok>
   <tok>
    <orth>Dodatek</orth>
    <lex disamb="1"><base>dodatek</base><ctag>subst:sg:nom:m3</ctag></lex>
    <ann chan="nam">2</ann>
    <ann chan="timex">0</ann>
    <ann chan="t3_duration">0</ann>
   </tok>
   <tok>
    <orth>wspierany</orth>
    <lex disamb="1"><base>wspierać</base><ctag>ppas:sg:nom:m1:imperf:aff</ctag></lex>
    <ann chan="nam">0</ann>
    <ann chan="timex">0</ann>
    <ann chan="t3_duration">0</ann>
   </tok>
   <tok>
    <orth>przez</orth>
    <lex disamb="1"><base>przez</base><ctag>prep:acc:nwok</ctag></lex>
    <ann chan="nam">0</ann>
    <ann chan="timex">0</ann>
    <ann chan="t3_duration">0</ann>
   </tok>
   <ns/>
   <tok>
    <orth>:</orth>
    <lex disamb="1"><base>:</base><ctag>interp</ctag></lex>
    <ann chan="nam">0</ann>
    <ann chan="timex">0</ann>
    <ann chan="t3_duration">0</ann>
   </tok>
   <tok>
    <orth>Wyjazdy</orth>
    <lex disamb="1"><base>wyjazd</base><ctag>subst:pl:nom:m3</ctag></lex>
    <ann chan="nam">0</ann>
    <ann chan="timex">0</ann>
    <ann chan="t3_duration">0</ann>
   </tok>
   <tok>
    <orth>studenckie</orth>
    <lex disamb="1"><base>studencki</base><ctag>adj:sg:nom:n:pos</ctag></lex>
    <ann chan="nam">0</ann>
    <ann chan="timex">0</ann>
    <ann chan="t3_duration">0</ann>
   </tok>
   <tok>
    <orth>-</orth>
    <lex disamb="1"><base>-</base><ctag>interp</ctag></lex>
    <ann chan="nam">0</ann>
    <ann chan="timex">0</ann>
    <ann chan="t3_duration">0</ann>
   </tok>
   <tok>
    <orth>bogata</orth>
    <lex disamb="1"><base>bogaty</base><ctag>adj:sg:nom:f:pos</ctag></lex>
    <ann chan="nam">0</ann>
    <ann chan="timex">0</ann>
    <ann chan="t3_duration">0</ann>
   </tok>
   <tok>
    <orth>oferta</orth>
    <lex disamb="1"><base>oferta</base><ctag>subst:sg:nom:f</ctag></lex>
    <ann chan="nam">0</ann>
    <ann chan="timex">0</ann>
    <ann chan="t3_duration">0</ann>
   </tok>
   <tok>
    <orth>przez</orth>
    <lex disamb="1"><base>przez</base><ctag>prep:acc:nwok</ctag></lex>
    <ann chan="nam">0</ann>
    <ann chan="timex">0</ann>
    <ann chan="t3_duration">0</ann>
   </tok>
   <tok>
    <orth>cały</orth>
    <lex disamb="1"><base>cały</base><ctag>adj:sg:nom:m1:pos</ctag></lex>
    <ann chan="nam">0</ann>
    <ann chan="timex">1</ann>
    <ann chan="t3_duration">1</ann>
   </tok>
   <tok>
    <orth>rok</orth>
    <lex disamb="1"><base>rok</base><ctag>subst:sg:nom:m3</ctag></lex>
    <ann chan="nam">0</ann>
    <ann chan="timex">1</ann>
    <ann chan="t3_duration">1</ann>
   </tok>
  </sentence>
 </chunk>
</chunkList>