<?xml version="1.0" encoding="UTF-8"?>
<!DOCTYPE chunkList SYSTEM "ccl.dtd">
<chunkList>
 <chunk type="p" id="ch1">
  <sentence id="s1">
   <tok>
    <orth>Idę</orth>
    <lex disamb="1"><base>Ida</base><ctag>subst:sg:acc:f</ctag></lex>
    <ann chan="nam">1</ann>
    <ann chan="nam_liv_person">0</ann>
    <ann chan="nam_pro">0</ann>
   </tok>
   <tok>
    <orth>opowiadać</orth>
    <lex disamb="1"><base>opowiadać</base><ctag>inf:imperf</ctag></lex>
    <ann chan="nam">0</ann>
    <ann chan="nam_liv_person">0</ann>
    <ann chan="nam_pro">0</ann>
   </tok>
   <tok>
    <orth>dzieciakom</orth>
    <lex disamb="1"><base>dzieciak</base><ctag>subst:pl:dat:m1</ctag></lex>
    <ann chan="nam">0</ann>
    <ann chan="nam_liv_person">0</ann>
    <ann chan="nam_pro">0</ann>
   </tok>
   <tok>
    <orth>o</orth>
    <lex disamb="1"><base>o</base><ctag>prep:acc</ctag></lex>
    <ann chan="nam">0</ann>
    <ann chan="nam_liv_person">0</ann>
    <ann chan="nam_pro">0</ann>
   </tok>
   <tok>
    <orth>mineralach</orth>
    <lex disamb="1"><base>mineralach</base><ctag>ign</ctag></lex>
    <ann chan="nam">0</ann>
    <ann chan="nam_liv_person">0</ann>
    <ann chan="nam_pro">0</ann>
   </tok>
   <ns/>
   <tok>
    <orth>,</orth>
    <lex disamb="1"><base>,</base><ctag>interp</ctag></lex>
    <ann chan="nam">0</ann>
    <ann chan="nam_liv_person">0</ann>
    <ann chan="nam_pro">0</ann>
   </tok>
   <tok>
    <orth>a</orth>
    <lex disamb="1"><base>a</base><ctag>conj</ctag></lex>
    <ann chan="nam">0</ann>
    <ann chan="nam_liv_person">0</ann>
    <ann chan="nam_pro">0</ann>
   </tok>
   <tok>
    <orth>potem</orth>
    <lex disamb="1"><base>potem</base><ctag>adv:pos</ctag></lex>
    <ann chan="nam">0</ann>
    <ann chan="nam_liv_person">0</ann>
    <ann chan="nam_pro">0</ann>
   </tok>
   <tok>
    <orth>po</orth>
    <lex disamb="1"><base>po</base><ctag>prep:acc</ctag></lex>
    <ann chan="nam">0</ann>
    <ann chan="nam_liv_person">0</ann>
    <ann chan="nam_pro">0</ann>
   </tok>
   <tok>
    <orth>13</orth>
    <lex disamb="1"><base>13</base><ctag>num:pl:nom:m1:rec</ctag></lex>
    <ann chan="nam">0</ann>
    <ann chan="nam_liv_person">0</ann>
    <ann chan="nam_pro">0</ann>
   </tok>
   <tok>
    <orth>pensje</orth>
    <lex disamb="1"><base>pensja</base><ctag>subst:pl:nom:f</ctag></lex>
    <ann chan="nam">0</ann>
    <ann chan="nam_liv_person">0</ann>
    <ann chan="nam_pro">0</ann>
   </tok>
   <tok>
    <orth>z</orth>
    <lex disamb="1"><base>z</base><ctag>prep:gen:nwok</ctag></lex>
    <ann chan="nam">0</ann>
    <ann chan="nam_liv_person">0</ann>
    <ann chan="nam_pro">0</ann>
   </tok>
   <tok>
    <orth>waszych</orth>
    <lex disamb="1"><base>wasi</base><ctag>subst:pl:gen:m1</ctag></lex>
    <ann chan="nam">0</ann>
    <ann chan="nam_liv_person">0</ann>
    <ann chan="nam_pro">0</ann>
   </tok>
   <tok>
    <orth>podatków</orth>
    <lex disamb="1"><base>podatek</base><ctag>subst:pl:gen:m3</ctag></lex>
    <ann chan="nam">0</ann>
    <ann chan="nam_liv_person">0</ann>
    <ann chan="nam_pro">0</ann>
   </tok>
   <tok>
    <orth>(</orth>
    <lex disamb="1"><base>(</base><ctag>interp</ctag></lex>
    <ann chan="nam">0</ann>
    <ann chan="nam_liv_person">0</ann>
    <ann chan="nam_pro">0</ann>
   </tok>
   <ns/>
   <tok>
    <orth>｡</orth>
    <lex disamb="1"><base>｡</base><ctag>interp</ctag></lex>
    <ann chan="nam">0</ann>
    <ann chan="nam_liv_person">0</ann>
    <ann chan="nam_pro">0</ann>
   </tok>
   <ns/>
   <tok>
    <orth>◕</orth>
    <lex disamb="1"><base>◕</base><ctag>interp</ctag></lex>
    <ann chan="nam">0</ann>
    <ann chan="nam_liv_person">0</ann>
    <ann chan="nam_pro">0</ann>
   </tok>
   <ns/>
   <tok>
    <orth>‿</orth>
    <lex disamb="1"><base>‿</base><ctag>interp</ctag></lex>
    <ann chan="nam">0</ann>
    <ann chan="nam_liv_person">0</ann>
    <ann chan="nam_pro">0</ann>
   </tok>
   <ns/>
   <tok>
    <orth>‿</orth>
    <lex disamb="1"><base>‿</base><ctag>interp</ctag></lex>
    <ann chan="nam">0</ann>
    <ann chan="nam_liv_person">0</ann>
    <ann chan="nam_pro">0</ann>
   </tok>
   <ns/>
   <tok>
    <orth>◕</orth>
    <lex disamb="1"><base>◕</base><ctag>interp</ctag></lex>
    <ann chan="nam">0</ann>
    <ann chan="nam_liv_person">0</ann>
    <ann chan="nam_pro">0</ann>
   </tok>
   <ns/>
   <tok>
    <orth>｡</orth>
    <lex disamb="1"><base>｡</base><ctag>interp</ctag></lex>
    <ann chan="nam">0</ann>
    <ann chan="nam_liv_person">0</ann>
    <ann chan="nam_pro">0</ann>
   </tok>
   <ns/>
   <tok>
    <orth>)</orth>
    <lex disamb="1"><base>)</base><ctag>interp</ctag></lex>
    <ann chan="nam">0</ann>
    <ann chan="nam_liv_person">0</ann>
    <ann chan="nam_pro">0</ann>
   </tok>
   <tok>
    <orth>Wesołych</orth>
    <lex disamb="1"><base>wesoły</base><ctag>adj:pl:gen:m1:pos</ctag></lex>
    <ann chan="nam">2</ann>
    <ann chan="nam_liv_person">0</ann>
    <ann chan="nam_pro">1</ann>
   </tok>
   <tok>
    <orth>Mikołajek</orth>
    <lex disamb="1"><base>Mikołajek</base><ctag>subst:sg:nom:m1</ctag></lex>
    <ann chan="nam">2</ann>
    <ann chan="nam_liv_person">1</ann>
    <ann chan="nam_pro">1</ann>
   </tok>
   <ns/>
   <tok>
    <orth>!</orth>
    <lex disamb="1"><base>!</base><ctag>interp</ctag></lex>
    <ann chan="nam">0</ann>
    <ann chan="nam_liv_person">0</ann>
    <ann chan="nam_pro">0</ann>
   </tok>
  </sentence>
 </chunk>
 <chunk type="p" id="ch2">
  <sentence id="s2">
   <tok>
    <orth>#</orth>
    <lex disamb="1"><base>#</base><ctag>interp</ctag></lex>
   </tok>
   <ns/>
   <tok>
    <orth>mikolajki</orth>
    <lex disamb="1"><base>mikolajki</base><ctag>ign</ctag></lex>
   </tok>
   <tok>
    <orth>#</orth>
    <lex disamb="1"><base>#</base><ctag>interp</ctag></lex>
   </tok>
   <ns/>
   <tok>
    <orth>heheszkowy</orth>
    <lex disamb="1"><base>heheszkowy</base><ctag>ign</ctag></lex>
   </tok>
   <tok>
    <orth>#</orth>
    <lex disamb="1"><base>#</base><ctag>interp</ctag></lex>
   </tok>
   <ns/>
   <tok>
    <orth>pokazmorde</orth>
    <lex disamb="1"><base>pokazmorde</base><ctag>ign</ctag></lex>
   </tok>
  </sentence>
 </chunk>
</chunkList>