<?xml version="1.0" encoding="UTF-8"?>
<!DOCTYPE chunkList SYSTEM "ccl.dtd">
<chunkList>
 <chunk type="p" id="ch1">
  <sentence id="s1">
   <tok>
    <orth>Najlepszą</orth>
    <lex disamb="1"><base>dobry</base><ctag>adj:sg:acc:f:sup</ctag></lex>
    <ann chan="nam">0</ann>
    <ann chan="nam_loc_gpe_country">0</ann>
    <ann chan="nam_org_nation">0</ann>
    <ann chan="nam_loc">0</ann>
    <ann chan="nam_org">0</ann>
   </tok>
   <tok>
    <orth>taktyką</orth>
    <lex disamb="1"><base>taktyka</base><ctag>subst:sg:inst:f</ctag></lex>
    <ann chan="nam">0</ann>
    <ann chan="nam_loc_gpe_country">0</ann>
    <ann chan="nam_org_nation">0</ann>
    <ann chan="nam_loc">0</ann>
    <ann chan="nam_org">0</ann>
   </tok>
   <tok>
    <orth>na</orth>
    <lex disamb="1"><base>na</base><ctag>prep:acc</ctag></lex>
    <ann chan="nam">0</ann>
    <ann chan="nam_loc_gpe_country">0</ann>
    <ann chan="nam_org_nation">0</ann>
    <ann chan="nam_loc">0</ann>
    <ann chan="nam_org">0</ann>
   </tok>
   <tok>
    <orth>mecz</orth>
    <lex disamb="1"><base>mecz</base><ctag>subst:sg:nom:m3</ctag></lex>
    <ann chan="nam">0</ann>
    <ann chan="nam_loc_gpe_country">0</ann>
    <ann chan="nam_org_nation">0</ann>
    <ann chan="nam_loc">0</ann>
    <ann chan="nam_org">0</ann>
   </tok>
   <tok>
    <orth>Polska</orth>
    <lex disamb="1"><base>Polska</base><ctag>subst:sg:nom:f</ctag></lex>
    <ann chan="nam">1</ann>
    <ann chan="nam_loc_gpe_country">1</ann>
    <ann chan="nam_org_nation">0</ann>
    <ann chan="nam_loc">1</ann>
    <ann chan="nam_org">0</ann>
   </tok>
   <tok>
    <orth>-</orth>
    <lex disamb="1"><base>-</base><ctag>interp</ctag></lex>
    <ann chan="nam">0</ann>
    <ann chan="nam_loc_gpe_country">0</ann>
    <ann chan="nam_org_nation">0</ann>
    <ann chan="nam_loc">0</ann>
    <ann chan="nam_org">0</ann>
   </tok>
   <tok>
    <orth>Izrael</orth>
    <lex disamb="1"><base>Izrael</base><ctag>subst:sg:nom:m1</ctag></lex>
    <ann chan="nam">2</ann>
    <ann chan="nam_loc_gpe_country">2</ann>
    <ann chan="nam_org_nation">0</ann>
    <ann chan="nam_loc">2</ann>
    <ann chan="nam_org">0</ann>
   </tok>
   <tok>
    <orth>będzie</orth>
    <lex disamb="1"><base>być</base><ctag>bedzie:sg:ter:imperf</ctag></lex>
    <ann chan="nam">0</ann>
    <ann chan="nam_loc_gpe_country">0</ann>
    <ann chan="nam_org_nation">0</ann>
    <ann chan="nam_loc">0</ann>
    <ann chan="nam_org">0</ann>
   </tok>
   <tok>
    <orth>łapanie</orth>
    <lex disamb="1"><base>łapać</base><ctag>ger:sg:nom:n:imperf:aff</ctag></lex>
    <ann chan="nam">0</ann>
    <ann chan="nam_loc_gpe_country">0</ann>
    <ann chan="nam_org_nation">0</ann>
    <ann chan="nam_loc">0</ann>
    <ann chan="nam_org">0</ann>
   </tok>
   <tok>
    <orth>Żydów</orth>
    <lex disamb="1"><base>Żyd</base><ctag>subst:pl:gen:m1</ctag></lex>
    <lex disamb="1"><base>żyd</base><ctag>subst:pl:gen:m1</ctag></lex>
    <ann chan="nam">3</ann>
    <ann chan="nam_loc_gpe_country">0</ann>
    <ann chan="nam_org_nation">1</ann>
    <ann chan="nam_loc">0</ann>
    <ann chan="nam_org">1</ann>
   </tok>
   <tok>
    <orth>na</orth>
    <lex disamb="1"><base>na</base><ctag>prep:acc</ctag></lex>
    <ann chan="nam">0</ann>
    <ann chan="nam_loc_gpe_country">0</ann>
    <ann chan="nam_org_nation">0</ann>
    <ann chan="nam_loc">0</ann>
    <ann chan="nam_org">0</ann>
   </tok>
   <tok>
    <orth>spalonego</orth>
    <lex disamb="1"><base>spalony</base><ctag>subst:sg:gen:m2</ctag></lex>
    <ann chan="nam">0</ann>
    <ann chan="nam_loc_gpe_country">0</ann>
    <ann chan="nam_org_nation">0</ann>
    <ann chan="nam_loc">0</ann>
    <ann chan="nam_org">0</ann>
   </tok>
   <tok>
    <orth>xDDDD</orth>
    <lex disamb="1"><base>xDDDD</base><ctag>ign</ctag></lex>
    <ann chan="nam">0</ann>
    <ann chan="nam_loc_gpe_country">0</ann>
    <ann chan="nam_org_nation">0</ann>
    <ann chan="nam_loc">0</ann>
    <ann chan="nam_org">0</ann>
   </tok>
   <tok>
    <orth>#</orth>
    <lex disamb="1"><base>#</base><ctag>interp</ctag></lex>
    <ann chan="nam">0</ann>
    <ann chan="nam_loc_gpe_country">0</ann>
    <ann chan="nam_org_nation">0</ann>
    <ann chan="nam_loc">0</ann>
    <ann chan="nam_org">0</ann>
   </tok>
   <ns/>
   <tok>
    <orth>mecz</orth>
    <lex disamb="1"><base>mecz</base><ctag>subst:sg:nom:m3</ctag></lex>
    <ann chan="nam">0</ann>
    <ann chan="nam_loc_gpe_country">0</ann>
    <ann chan="nam_org_nation">0</ann>
    <ann chan="nam_loc">0</ann>
    <ann chan="nam_org">0</ann>
   </tok>
   <tok>
    <orth>#</orth>
    <lex disamb="1"><base>#</base><ctag>interp</ctag></lex>
    <ann chan="nam">0</ann>
    <ann chan="nam_loc_gpe_country">0</ann>
    <ann chan="nam_org_nation">0</ann>
    <ann chan="nam_loc">0</ann>
    <ann chan="nam_org">0</ann>
   </tok>
   <ns/>
   <tok>
    <orth>polska</orth>
    <lex disamb="1"><base>polski</base><ctag>adj:sg:nom:f:pos</ctag></lex>
    <ann chan="nam">0</ann>
    <ann chan="nam_loc_gpe_country">0</ann>
    <ann chan="nam_org_nation">0</ann>
    <ann chan="nam_loc">0</ann>
    <ann chan="nam_org">0</ann>
   </tok>
   <tok>
    <orth>#</orth>
    <lex disamb="1"><base>#</base><ctag>interp</ctag></lex>
    <ann chan="nam">0</ann>
    <ann chan="nam_loc_gpe_country">0</ann>
    <ann chan="nam_org_nation">0</ann>
    <ann chan="nam_loc">0</ann>
    <ann chan="nam_org">0</ann>
   </tok>
   <ns/>
   <tok>
    <orth>pilkanozna</orth>
    <lex disamb="1"><base>pilkanozna</base><ctag>ign</ctag></lex>
    <ann chan="nam">0</ann>
    <ann chan="nam_loc_gpe_country">0</ann>
    <ann chan="nam_org_nation">0</ann>
    <ann chan="nam_loc">0</ann>
    <ann chan="nam_org">0</ann>
   </tok>
   <tok>
    <orth>#</orth>
    <lex disamb="1"><base>#</base><ctag>interp</ctag></lex>
    <ann chan="nam">0</ann>
    <ann chan="nam_loc_gpe_country">0</ann>
    <ann chan="nam_org_nation">0</ann>
    <ann chan="nam_loc">0</ann>
    <ann chan="nam_org">0</ann>
   </tok>
   <ns/>
   <tok>
    <orth>heheszki</orth>
    <lex disamb="1"><base>heheszki</base><ctag>ign</ctag></lex>
    <ann chan="nam">0</ann>
    <ann chan="nam_loc_gpe_country">0</ann>
    <ann chan="nam_org_nation">0</ann>
    <ann chan="nam_loc">0</ann>
    <ann chan="nam_org">0</ann>
   </tok>
   <tok>
    <orth>#</orth>
    <lex disamb="1"><base>#</base><ctag>interp</ctag></lex>
    <ann chan="nam">0</ann>
    <ann chan="nam_loc_gpe_country">0</ann>
    <ann chan="nam_org_nation">0</ann>
    <ann chan="nam_loc">0</ann>
    <ann chan="nam_org">0</ann>
   </tok>
   <ns/>
   <tok>
    <orth>smieszne</orth>
    <lex disamb="1"><base>smieszne</base><ctag>ign</ctag></lex>
    <ann chan="nam">0</ann>
    <ann chan="nam_loc_gpe_country">0</ann>
    <ann chan="nam_org_nation">0</ann>
    <ann chan="nam_loc">0</ann>
    <ann chan="nam_org">0</ann>
   </tok>
  </sentence>
 </chunk>
</chunkList>