<?xml version="1.0" encoding="UTF-8"?>
<!DOCTYPE chunkList SYSTEM "ccl.dtd">
<chunkList>
 <chunk type="p" id="ch1">
  <sentence id="s1">
   <tok>
    <orth>xD</orth>
    <lex disamb="1"><base>xD</base><ctag>ign</ctag></lex>
   </tok>
  </sentence>
 </chunk>
 <chunk type="p" id="ch2">
  <sentence id="s2">
   <tok>
    <orth>#</orth>
    <lex disamb="1"><base>#</base><ctag>interp</ctag></lex>
   </tok>
   <ns/>
   <tok>
    <orth>lidl</orth>
    <lex disamb="1"><base>lidl</base><ctag>ign</ctag></lex>
   </tok>
   <tok>
    <orth>#</orth>
    <lex disamb="1"><base>#</base><ctag>interp</ctag></lex>
   </tok>
   <ns/>
   <tok>
    <orth>heheszki</orth>
    <lex disamb="1"><base>heheszki</base><ctag>ign</ctag></lex>
   </tok>
   <tok>
    <orth>#</orth>
    <lex disamb="1"><base>#</base><ctag>interp</ctag></lex>
   </tok>
   <ns/>
   <tok>
    <orth>polska</orth>
    <lex disamb="1"><base>polski</base><ctag>adj:sg:nom:f:pos</ctag></lex>
   </tok>
   <tok>
    <orth>#</orth>
    <lex disamb="1"><base>#</base><ctag>interp</ctag></lex>
   </tok>
   <ns/>
   <tok>
    <orth>warszawa</orth>
    <lex disamb="1"><base>warszawa</base><ctag>subst:sg:nom:f</ctag></lex>
   </tok>
  </sentence>
 </chunk>
</chunkList>