<?xml version="1.0" encoding="UTF-8"?>
<!DOCTYPE chunkList SYSTEM "ccl.dtd">
<chunkList>
 <chunk type="p" id="ch1">
  <sentence id="s1">
   <tok>
    <orth>39</orth>
    <lex disamb="1"><base>39</base><ctag>num:pl:nom:m1:rec</ctag></lex>
    <ann chan="nam">0</ann>
   </tok>
   <ns/>
   <tok>
    <orth>/</orth>
    <lex disamb="1"><base>/</base><ctag>interp</ctag></lex>
    <ann chan="nam">0</ann>
   </tok>
   <ns/>
   <tok>
    <orth>100</orth>
    <lex disamb="1"><base>100</base><ctag>num:pl:nom:m1:rec</ctag></lex>
    <ann chan="nam">0</ann>
   </tok>
   <tok>
    <orth>Koty</orth>
    <lex disamb="1"><base>kot</base><ctag>subst:pl:nom:m2</ctag></lex>
    <ann chan="nam">1</ann>
   </tok>
   <tok>
    <orth>mają</orth>
    <lex disamb="1"><base>maja</base><ctag>subst:sg:inst:f</ctag></lex>
    <ann chan="nam">0</ann>
   </tok>
   <tok>
    <orth>dobrą</orth>
    <lex disamb="1"><base>dobry</base><ctag>adj:sg:acc:f:pos</ctag></lex>
    <ann chan="nam">0</ann>
   </tok>
   <tok>
    <orth>pamięć</orth>
    <lex disamb="1"><base>pamięć</base><ctag>subst:sg:nom:f</ctag></lex>
    <ann chan="nam">0</ann>
   </tok>
   <ns/>
   <tok>
    <orth>.</orth>
    <lex disamb="1"><base>.</base><ctag>interp</ctag></lex>
    <ann chan="nam">0</ann>
   </tok>
  </sentence>
 </chunk>
 <chunk type="p" id="ch2">
  <sentence id="s2">
   <tok>
    <orth>Przechowują</orth>
    <lex disamb="1"><base>przechowywać</base><ctag>fin:pl:ter:imperf</ctag></lex>
    <ann chan="nam">0</ann>
    <ann chan="timex">0</ann>
    <ann chan="t3_duration">0</ann>
   </tok>
   <tok>
    <orth>nowe</orth>
    <lex disamb="1"><base>nowa</base><ctag>subst:pl:nom:f</ctag></lex>
    <ann chan="nam">0</ann>
    <ann chan="timex">0</ann>
    <ann chan="t3_duration">0</ann>
   </tok>
   <tok>
    <orth>informacje</orth>
    <lex disamb="1"><base>informacja</base><ctag>subst:pl:nom:f</ctag></lex>
    <ann chan="nam">0</ann>
    <ann chan="timex">0</ann>
    <ann chan="t3_duration">0</ann>
   </tok>
   <tok>
    <orth>przez</orth>
    <lex disamb="1"><base>przez</base><ctag>prep:acc:nwok</ctag></lex>
    <ann chan="nam">0</ann>
    <ann chan="timex">0</ann>
    <ann chan="t3_duration">0</ann>
   </tok>
   <tok>
    <orth>16</orth>
    <lex disamb="1"><base>16</base><ctag>num:pl:nom:m1:rec</ctag></lex>
    <ann chan="nam">0</ann>
    <ann chan="timex">1</ann>
    <ann chan="t3_duration">1</ann>
   </tok>
   <tok>
    <orth>godzin</orth>
    <lex disamb="1"><base>godzina</base><ctag>subst:pl:gen:f</ctag></lex>
    <ann chan="nam">0</ann>
    <ann chan="timex">1</ann>
    <ann chan="t3_duration">1</ann>
   </tok>
   <ns/>
   <tok>
    <orth>.</orth>
    <lex disamb="1"><base>.</base><ctag>interp</ctag></lex>
    <ann chan="nam">0</ann>
    <ann chan="timex">0</ann>
    <ann chan="t3_duration">0</ann>
   </tok>
   <tok>
    <orth>(</orth>
    <lex disamb="1"><base>(</base><ctag>interp</ctag></lex>
    <ann chan="nam">0</ann>
    <ann chan="timex">0</ann>
    <ann chan="t3_duration">0</ann>
   </tok>
   <ns/>
   <tok>
    <orth>test</orth>
    <lex disamb="1"><base>test</base><ctag>subst:sg:nom:m3</ctag></lex>
    <ann chan="nam">0</ann>
    <ann chan="timex">0</ann>
    <ann chan="t3_duration">0</ann>
   </tok>
   <tok>
    <orth>WAIS</orth>
    <lex disamb="1"><base>WAIS</base><ctag>ign</ctag></lex>
    <ann chan="nam">1</ann>
    <ann chan="timex">0</ann>
    <ann chan="t3_duration">0</ann>
   </tok>
   <ns/>
   <tok>
    <orth>)</orth>
    <lex disamb="1"><base>)</base><ctag>interp</ctag></lex>
    <ann chan="nam">0</ann>
    <ann chan="timex">0</ann>
    <ann chan="t3_duration">0</ann>
   </tok>
   <tok>
    <orth>Ich</orth>
    <lex disamb="1"><base>on</base><ctag>ppron3:pl:gen:m1:ter:akc:npraep</ctag></lex>
    <ann chan="nam">0</ann>
    <ann chan="timex">0</ann>
    <ann chan="t3_duration">0</ann>
   </tok>
   <tok>
    <orth>pamięć</orth>
    <lex disamb="1"><base>pamięć</base><ctag>subst:sg:nom:f</ctag></lex>
    <ann chan="nam">0</ann>
    <ann chan="timex">0</ann>
    <ann chan="t3_duration">0</ann>
   </tok>
   <tok>
    <orth>krótkotrwała</orth>
    <lex disamb="1"><base>krótkotrwały</base><ctag>adj:sg:nom:f:pos</ctag></lex>
    <ann chan="nam">0</ann>
    <ann chan="timex">0</ann>
    <ann chan="t3_duration">0</ann>
   </tok>
   <tok>
    <orth>obejmuje</orth>
    <lex disamb="1"><base>obejmować</base><ctag>fin:sg:ter:imperf</ctag></lex>
    <ann chan="nam">0</ann>
    <ann chan="timex">0</ann>
    <ann chan="t3_duration">0</ann>
   </tok>
   <tok>
    <orth>30</orth>
    <lex disamb="1"><base>30</base><ctag>num:pl:nom:m1:rec</ctag></lex>
    <ann chan="nam">0</ann>
    <ann chan="timex">2</ann>
    <ann chan="t3_duration">2</ann>
   </tok>
   <tok>
    <orth>sekund</orth>
    <lex disamb="1"><base>sekunda</base><ctag>subst:pl:gen:f</ctag></lex>
    <ann chan="nam">0</ann>
    <ann chan="timex">2</ann>
    <ann chan="t3_duration">2</ann>
   </tok>
   <ns/>
   <tok>
    <orth>.</orth>
    <lex disamb="1"><base>.</base><ctag>interp</ctag></lex>
    <ann chan="nam">0</ann>
    <ann chan="timex">0</ann>
    <ann chan="t3_duration">0</ann>
   </tok>
  </sentence>
 </chunk>
 <chunk type="p" id="ch3">
  <sentence id="s3">
   <tok>
    <orth>Wiele</orth>
    <lex disamb="1"><base>wiele</base><ctag>adv:pos</ctag></lex>
    <ann chan="timex">0</ann>
    <ann chan="t3_duration">0</ann>
   </tok>
   <tok>
    <orth>wskazuje</orth>
    <lex disamb="1"><base>wskazywać</base><ctag>fin:sg:ter:imperf</ctag></lex>
    <ann chan="timex">0</ann>
    <ann chan="t3_duration">0</ann>
   </tok>
   <tok>
    <orth>na</orth>
    <lex disamb="1"><base>na</base><ctag>prep:acc</ctag></lex>
    <ann chan="timex">0</ann>
    <ann chan="t3_duration">0</ann>
   </tok>
   <tok>
    <orth>to</orth>
    <lex disamb="1"><base>to</base><ctag>conj</ctag></lex>
    <ann chan="timex">0</ann>
    <ann chan="t3_duration">0</ann>
   </tok>
   <ns/>
   <tok>
    <orth>,</orth>
    <lex disamb="1"><base>,</base><ctag>interp</ctag></lex>
    <ann chan="timex">0</ann>
    <ann chan="t3_duration">0</ann>
   </tok>
   <tok>
    <orth>że</orth>
    <lex disamb="1"><base>że</base><ctag>comp</ctag></lex>
    <ann chan="timex">0</ann>
    <ann chan="t3_duration">0</ann>
   </tok>
   <tok>
    <orth>mogą</orth>
    <lex disamb="1"><base>móc</base><ctag>fin:pl:ter:imperf</ctag></lex>
    <ann chan="timex">0</ann>
    <ann chan="t3_duration">0</ann>
   </tok>
   <tok>
    <orth>pamiętać</orth>
    <lex disamb="1"><base>pamiętać</base><ctag>inf:imperf</ctag></lex>
    <ann chan="timex">0</ann>
    <ann chan="t3_duration">0</ann>
   </tok>
   <tok>
    <orth>informacje</orth>
    <lex disamb="1"><base>informacja</base><ctag>subst:pl:nom:f</ctag></lex>
    <ann chan="timex">0</ann>
    <ann chan="t3_duration">0</ann>
   </tok>
   <tok>
    <orth>ze</orth>
    <lex disamb="1"><base>z</base><ctag>prep:gen:wok</ctag></lex>
    <ann chan="timex">0</ann>
    <ann chan="t3_duration">0</ann>
   </tok>
   <tok>
    <orth>swojego</orth>
    <lex disamb="1"><base>swoje</base><ctag>subst:sg:gen:n</ctag></lex>
    <ann chan="timex">0</ann>
    <ann chan="t3_duration">0</ann>
   </tok>
   <tok>
    <orth>życia</orth>
    <lex disamb="1"><base>życie</base><ctag>subst:sg:gen:n</ctag></lex>
    <ann chan="timex">0</ann>
    <ann chan="t3_duration">0</ann>
   </tok>
   <tok>
    <orth>sięgające</orth>
    <lex disamb="1"><base>sięgać</base><ctag>pact:sg:nom:n:imperf:aff</ctag></lex>
    <ann chan="timex">0</ann>
    <ann chan="t3_duration">0</ann>
   </tok>
   <tok>
    <orth>nawet</orth>
    <lex disamb="1"><base>nawet</base><ctag>qub</ctag></lex>
    <ann chan="timex">0</ann>
    <ann chan="t3_duration">0</ann>
   </tok>
   <tok>
    <orth>10</orth>
    <lex disamb="1"><base>10</base><ctag>num:pl:nom:m1:rec</ctag></lex>
    <ann chan="timex">1</ann>
    <ann chan="t3_duration">1</ann>
   </tok>
   <tok>
    <orth>lat</orth>
    <lex disamb="1"><base>lato</base><ctag>subst:pl:gen:n</ctag></lex>
    <ann chan="timex">1</ann>
    <ann chan="t3_duration">1</ann>
   </tok>
   <tok>
    <orth>wstecz</orth>
    <lex disamb="1"><base>wstecz</base><ctag>adv:pos</ctag></lex>
    <ann chan="timex">0</ann>
    <ann chan="t3_duration">0</ann>
   </tok>
   <ns/>
   <tok>
    <orth>.</orth>
    <lex disamb="1"><base>.</base><ctag>interp</ctag></lex>
    <ann chan="timex">0</ann>
    <ann chan="t3_duration">0</ann>
   </tok>
  </sentence>
 </chunk>
 <chunk type="p" id="ch4">
  <sentence id="s4">
   <tok>
    <orth>Koty</orth>
    <lex disamb="1"><base>kot</base><ctag>subst:pl:nom:m2</ctag></lex>
    <ann chan="nam">1</ann>
   </tok>
   <tok>
    <orth>zapamiętują</orth>
    <lex disamb="1"><base>zapamiętywać</base><ctag>fin:pl:ter:imperf</ctag></lex>
    <ann chan="nam">0</ann>
   </tok>
   <tok>
    <orth>wydarzenia</orth>
    <lex disamb="1"><base>wydarzenie</base><ctag>subst:sg:gen:n</ctag></lex>
    <ann chan="nam">0</ann>
   </tok>
   <tok>
    <orth>ze</orth>
    <lex disamb="1"><base>z</base><ctag>prep:gen:wok</ctag></lex>
    <ann chan="nam">0</ann>
   </tok>
   <tok>
    <orth>swojej</orth>
    <lex disamb="1"><base>swój</base><ctag>adj:sg:gen:f:pos</ctag></lex>
    <ann chan="nam">0</ann>
   </tok>
   <tok>
    <orth>przeszłości</orth>
    <lex disamb="1"><base>przeszłość</base><ctag>subst:sg:gen:f</ctag></lex>
    <ann chan="nam">0</ann>
   </tok>
   <ns/>
   <tok>
    <orth>,</orth>
    <lex disamb="1"><base>,</base><ctag>interp</ctag></lex>
    <ann chan="nam">0</ann>
   </tok>
   <tok>
    <orth>są</orth>
    <lex disamb="1"><base>być</base><ctag>fin:pl:ter:imperf</ctag></lex>
    <ann chan="nam">0</ann>
   </tok>
   <tok>
    <orth>świadome</orth>
    <lex disamb="1"><base>świadomy</base><ctag>adj:sg:nom:n:pos</ctag></lex>
    <ann chan="nam">0</ann>
   </tok>
   <tok>
    <orth>strat</orth>
    <lex disamb="1"><base>strata</base><ctag>subst:pl:gen:f</ctag></lex>
    <ann chan="nam">0</ann>
   </tok>
   <ns/>
   <tok>
    <orth>,</orth>
    <lex disamb="1"><base>,</base><ctag>interp</ctag></lex>
    <ann chan="nam">0</ann>
   </tok>
   <tok>
    <orth>jakie</orth>
    <lex disamb="1"><base>jaki</base><ctag>adj:sg:nom:n:pos</ctag></lex>
    <ann chan="nam">0</ann>
   </tok>
   <tok>
    <orth>poniosły</orth>
    <lex disamb="1"><base>ponieść</base><ctag>praet:pl:m2:perf</ctag></lex>
    <ann chan="nam">0</ann>
   </tok>
   <ns/>
   <tok>
    <orth>,</orth>
    <lex disamb="1"><base>,</base><ctag>interp</ctag></lex>
    <ann chan="nam">0</ann>
   </tok>
   <tok>
    <orth>pamiętają</orth>
    <lex disamb="1"><base>pamiętać</base><ctag>fin:pl:ter:imperf</ctag></lex>
    <ann chan="nam">0</ann>
   </tok>
   <tok>
    <orth>przykre</orth>
    <lex disamb="1"><base>przykry</base><ctag>adj:sg:nom:n:pos</ctag></lex>
    <ann chan="nam">0</ann>
   </tok>
   <tok>
    <orth>wydarzenia</orth>
    <lex disamb="1"><base>wydarzenie</base><ctag>subst:sg:gen:n</ctag></lex>
    <ann chan="nam">0</ann>
   </tok>
   <tok>
    <orth>jak</orth>
    <lex disamb="1"><base>jak</base><ctag>conj</ctag></lex>
    <ann chan="nam">0</ann>
   </tok>
   <tok>
    <orth>i</orth>
    <lex disamb="1"><base>i</base><ctag>conj</ctag></lex>
    <ann chan="nam">0</ann>
   </tok>
   <tok>
    <orth>te</orth>
    <lex disamb="1"><base>te</base><ctag>subst:sg:nom:n</ctag></lex>
    <ann chan="nam">0</ann>
   </tok>
   <tok>
    <orth>pozytywne</orth>
    <lex disamb="1"><base>pozytywny</base><ctag>adj:sg:nom:n:pos</ctag></lex>
    <ann chan="nam">0</ann>
   </tok>
   <ns/>
   <tok>
    <orth>.</orth>
    <lex disamb="1"><base>.</base><ctag>interp</ctag></lex>
    <ann chan="nam">0</ann>
   </tok>
  </sentence>
 </chunk>
 <chunk type="p" id="ch5">
  <sentence id="s5">
   <tok>
    <orth>Koty</orth>
    <lex disamb="1"><base>kot</base><ctag>subst:pl:nom:m2</ctag></lex>
   </tok>
   <tok>
    <orth>mają</orth>
    <lex disamb="1"><base>maja</base><ctag>subst:sg:inst:f</ctag></lex>
   </tok>
   <tok>
    <orth>świadomość</orth>
    <lex disamb="1"><base>świadomość</base><ctag>subst:sg:nom:f</ctag></lex>
   </tok>
   <tok>
    <orth>istnienia</orth>
    <lex disamb="1"><base>istnienie</base><ctag>subst:sg:gen:n</ctag></lex>
   </tok>
   <tok>
    <orth>obiektów</orth>
    <lex disamb="1"><base>obiekt</base><ctag>subst:pl:gen:m3</ctag></lex>
   </tok>
   <ns/>
   <tok>
    <orth>,</orth>
    <lex disamb="1"><base>,</base><ctag>interp</ctag></lex>
   </tok>
   <tok>
    <orth>których</orth>
    <lex disamb="1"><base>który</base><ctag>adj:pl:gen:m1:pos</ctag></lex>
   </tok>
   <tok>
    <orth>w</orth>
    <lex disamb="1"><base>w</base><ctag>prep:acc:nwok</ctag></lex>
   </tok>
   <tok>
    <orth>danej</orth>
    <lex disamb="1"><base>dana</base><ctag>subst:sg:gen:f</ctag></lex>
   </tok>
   <tok>
    <orth>chwili</orth>
    <lex disamb="1"><base>chwila</base><ctag>subst:sg:gen:f</ctag></lex>
   </tok>
   <tok>
    <orth>nie</orth>
    <lex disamb="1"><base>nie</base><ctag>conj</ctag></lex>
   </tok>
   <tok>
    <orth>widzą</orth>
    <lex disamb="1"><base>widzieć</base><ctag>fin:pl:ter:imperf</ctag></lex>
   </tok>
   <ns/>
   <tok>
    <orth>.</orth>
    <lex disamb="1"><base>.</base><ctag>interp</ctag></lex>
   </tok>
  </sentence>
 </chunk>
 <chunk type="p" id="ch6">
  <sentence id="s6">
   <tok>
    <orth>Ich</orth>
    <lex disamb="1"><base>on</base><ctag>ppron3:pl:gen:m1:ter:akc:npraep</ctag></lex>
   </tok>
   <tok>
    <orth>zdolność</orth>
    <lex disamb="1"><base>zdolność</base><ctag>subst:sg:nom:f</ctag></lex>
   </tok>
   <tok>
    <orth>zapamiętywania</orth>
    <lex disamb="1"><base>zapamiętywać</base><ctag>ger:sg:gen:n:imperf:aff</ctag></lex>
   </tok>
   <tok>
    <orth>jest</orth>
    <lex disamb="1"><base>być</base><ctag>fin:sg:ter:imperf</ctag></lex>
   </tok>
   <tok>
    <orth>najlepsza</orth>
    <lex disamb="1"><base>dobry</base><ctag>adj:sg:nom:f:sup</ctag></lex>
   </tok>
   <tok>
    <orth>w</orth>
    <lex disamb="1"><base>w</base><ctag>prep:acc:nwok</ctag></lex>
   </tok>
   <tok>
    <orth>młodym</orth>
    <lex disamb="1"><base>młoda</base><ctag>subst:pl:dat:f</ctag></lex>
   </tok>
   <tok>
    <orth>wieku</orth>
    <lex disamb="1"><base>wiek</base><ctag>subst:sg:gen:m3</ctag></lex>
   </tok>
   <ns/>
   <tok>
    <orth>,</orth>
    <lex disamb="1"><base>,</base><ctag>interp</ctag></lex>
   </tok>
   <tok>
    <orth>ale</orth>
    <lex disamb="1"><base>ale</base><ctag>conj</ctag></lex>
   </tok>
   <tok>
    <orth>odpowiednio</orth>
    <lex disamb="1"><base>odpowiednio</base><ctag>adv:pos</ctag></lex>
   </tok>
   <tok>
    <orth>ćwicząc</orth>
    <lex disamb="1"><base>ćwiczyć</base><ctag>pcon:imperf</ctag></lex>
   </tok>
   <tok>
    <orth>pamięć</orth>
    <lex disamb="1"><base>pamięć</base><ctag>subst:sg:nom:f</ctag></lex>
   </tok>
   <ns/>
   <tok>
    <orth>,</orth>
    <lex disamb="1"><base>,</base><ctag>interp</ctag></lex>
   </tok>
   <tok>
    <orth>można</orth>
    <lex disamb="1"><base>można</base><ctag>pred</ctag></lex>
   </tok>
   <tok>
    <orth>utrzymać</orth>
    <lex disamb="1"><base>utrzymać</base><ctag>inf:perf</ctag></lex>
   </tok>
   <tok>
    <orth>ja</orth>
    <lex disamb="1"><base>ja</base><ctag>ppron12:sg:nom:m1:pri</ctag></lex>
   </tok>
   <tok>
    <orth>na</orth>
    <lex disamb="1"><base>na</base><ctag>prep:acc</ctag></lex>
   </tok>
   <tok>
    <orth>wysokim</orth>
    <lex disamb="1"><base>wysoki</base><ctag>adj:sg:inst:m1:pos</ctag></lex>
   </tok>
   <tok>
    <orth>poziomie</orth>
    <lex disamb="1"><base>poziom</base><ctag>subst:sg:loc:m3</ctag></lex>
   </tok>
   <tok>
    <orth>także</orth>
    <lex disamb="1"><base>także</base><ctag>qub</ctag></lex>
   </tok>
   <tok>
    <orth>u</orth>
    <lex disamb="1"><base>u</base><ctag>prep:gen</ctag></lex>
   </tok>
   <tok>
    <orth>mocno</orth>
    <lex disamb="1"><base>mocno</base><ctag>adv:pos</ctag></lex>
   </tok>
   <tok>
    <orth>starszych</orth>
    <lex disamb="1"><base>starsza</base><ctag>subst:pl:gen:f</ctag></lex>
   </tok>
   <tok>
    <orth>kotów</orth>
    <lex disamb="1"><base>kot</base><ctag>subst:pl:gen:m1</ctag></lex>
   </tok>
   <ns/>
   <tok>
    <orth>.</orth>
    <lex disamb="1"><base>.</base><ctag>interp</ctag></lex>
   </tok>
  </sentence>
 </chunk>
 <chunk type="p" id="ch7">
  <sentence id="s7">
   <tok>
    <orth>W</orth>
    <lex disamb="1"><base>w</base><ctag>prep:acc:nwok</ctag></lex>
    <ann chan="nam">0</ann>
    <ann chan="nam_pro_media_periodic">0</ann>
    <ann chan="nam_pro">0</ann>
   </tok>
   <tok>
    <orth>badaniu</orth>
    <lex disamb="1"><base>badanie</base><ctag>subst:sg:dat:n</ctag></lex>
    <ann chan="nam">0</ann>
    <ann chan="nam_pro_media_periodic">0</ann>
    <ann chan="nam_pro">0</ann>
   </tok>
   <tok>
    <orth>opisanym</orth>
    <lex disamb="1"><base>opisać</base><ctag>ppas:sg:inst:m1:perf:aff</ctag></lex>
    <ann chan="nam">0</ann>
    <ann chan="nam_pro_media_periodic">0</ann>
    <ann chan="nam_pro">0</ann>
   </tok>
   <tok>
    <orth>w</orth>
    <lex disamb="1"><base>w</base><ctag>prep:acc:nwok</ctag></lex>
    <ann chan="nam">0</ann>
    <ann chan="nam_pro_media_periodic">0</ann>
    <ann chan="nam_pro">0</ann>
   </tok>
   <tok>
    <orth>magazynie</orth>
    <lex disamb="1"><base>magazyn</base><ctag>subst:sg:loc:m3</ctag></lex>
    <ann chan="nam">0</ann>
    <ann chan="nam_pro_media_periodic">0</ann>
    <ann chan="nam_pro">0</ann>
   </tok>
   <tok>
    <orth>„</orth>
    <lex disamb="1"><base>„</base><ctag>interp</ctag></lex>
    <ann chan="nam">0</ann>
    <ann chan="nam_pro_media_periodic">0</ann>
    <ann chan="nam_pro">0</ann>
   </tok>
   <ns/>
   <tok>
    <orth>Behavioural</orth>
    <lex disamb="1"><base>Behavioural</base><ctag>ign</ctag></lex>
    <ann chan="nam">1</ann>
    <ann chan="nam_pro_media_periodic">1</ann>
    <ann chan="nam_pro">1</ann>
   </tok>
   <tok>
    <orth>Processes</orth>
    <lex disamb="1"><base>Processes</base><ctag>ign</ctag></lex>
    <ann chan="nam">1</ann>
    <ann chan="nam_pro_media_periodic">1</ann>
    <ann chan="nam_pro">1</ann>
   </tok>
   <ns/>
   <tok>
    <orth>”</orth>
    <lex disamb="1"><base>”</base><ctag>interp</ctag></lex>
    <ann chan="nam">0</ann>
    <ann chan="nam_pro_media_periodic">0</ann>
    <ann chan="nam_pro">0</ann>
   </tok>
   <tok>
    <orth>wzięło</orth>
    <lex disamb="1"><base>wziąć</base><ctag>praet:sg:n:perf</ctag></lex>
    <ann chan="nam">0</ann>
    <ann chan="nam_pro_media_periodic">0</ann>
    <ann chan="nam_pro">0</ann>
   </tok>
   <tok>
    <orth>udział</orth>
    <lex disamb="1"><base>udział</base><ctag>subst:sg:nom:m3</ctag></lex>
    <ann chan="nam">0</ann>
    <ann chan="nam_pro_media_periodic">0</ann>
    <ann chan="nam_pro">0</ann>
   </tok>
   <tok>
    <orth>49</orth>
    <lex disamb="1"><base>49</base><ctag>num:pl:nom:m1:rec</ctag></lex>
    <ann chan="nam">0</ann>
    <ann chan="nam_pro_media_periodic">0</ann>
    <ann chan="nam_pro">0</ann>
   </tok>
   <tok>
    <orth>kotów</orth>
    <lex disamb="1"><base>kot</base><ctag>subst:pl:gen:m1</ctag></lex>
    <ann chan="nam">0</ann>
    <ann chan="nam_pro_media_periodic">0</ann>
    <ann chan="nam_pro">0</ann>
   </tok>
   <tok>
    <orth>domowych</orth>
    <lex disamb="1"><base>domowy</base><ctag>adj:pl:gen:m1:pos</ctag></lex>
    <ann chan="nam">0</ann>
    <ann chan="nam_pro_media_periodic">0</ann>
    <ann chan="nam_pro">0</ann>
   </tok>
   <ns/>
   <tok>
    <orth>.</orth>
    <lex disamb="1"><base>.</base><ctag>interp</ctag></lex>
    <ann chan="nam">0</ann>
    <ann chan="nam_pro_media_periodic">0</ann>
    <ann chan="nam_pro">0</ann>
   </tok>
  </sentence>
 </chunk>
 <chunk type="p" id="ch8">
  <sentence id="s8">
   <tok>
    <orth>Wykazano</orth>
    <lex disamb="1"><base>wykazać</base><ctag>imps:perf</ctag></lex>
   </tok>
   <ns/>
   <tok>
    <orth>,</orth>
    <lex disamb="1"><base>,</base><ctag>interp</ctag></lex>
   </tok>
   <tok>
    <orth>że</orth>
    <lex disamb="1"><base>że</base><ctag>comp</ctag></lex>
   </tok>
   <tok>
    <orth>mruczące</orth>
    <lex disamb="1"><base>mruczeć</base><ctag>pact:sg:nom:n:imperf:aff</ctag></lex>
   </tok>
   <tok>
    <orth>czworonogi</orth>
    <lex disamb="1"><base>czworonóg</base><ctag>subst:pl:nom:m2</ctag></lex>
   </tok>
   <tok>
    <orth>są</orth>
    <lex disamb="1"><base>być</base><ctag>fin:pl:ter:imperf</ctag></lex>
   </tok>
   <tok>
    <orth>w</orth>
    <lex disamb="1"><base>w</base><ctag>prep:acc:nwok</ctag></lex>
   </tok>
   <tok>
    <orth>stanie</orth>
    <lex disamb="1"><base>stan</base><ctag>subst:sg:loc:m3</ctag></lex>
   </tok>
   <tok>
    <orth>przywołać</orth>
    <lex disamb="1"><base>przywołać</base><ctag>inf:perf</ctag></lex>
   </tok>
   <tok>
    <orth>wspomnienia</orth>
    <lex disamb="1"><base>wspomnienie</base><ctag>subst:sg:gen:n</ctag></lex>
   </tok>
   <tok>
    <orth>o</orth>
    <lex disamb="1"><base>o</base><ctag>prep:acc</ctag></lex>
   </tok>
   <tok>
    <orth>przyjemnych</orth>
    <lex disamb="1"><base>przyjemny</base><ctag>adj:pl:gen:m1:pos</ctag></lex>
   </tok>
   <tok>
    <orth>doświadczeniach</orth>
    <lex disamb="1"><base>doświadczenie</base><ctag>subst:pl:loc:n</ctag></lex>
   </tok>
   <ns/>
   <tok>
    <orth>,</orth>
    <lex disamb="1"><base>,</base><ctag>interp</ctag></lex>
   </tok>
   <tok>
    <orth>np</orth>
    <lex disamb="1"><base>na_przykład</base><ctag>brev:pun</ctag></lex>
   </tok>
   <ns/>
   <tok>
    <orth>.</orth>
    <lex disamb="1"><base>.</base><ctag>interp</ctag></lex>
   </tok>
   <tok>
    <orth>o</orth>
    <lex disamb="1"><base>o</base><ctag>prep:acc</ctag></lex>
   </tok>
   <tok>
    <orth>jedzeniu</orth>
    <lex disamb="1"><base>jedzenie</base><ctag>subst:sg:dat:n</ctag></lex>
   </tok>
   <tok>
    <orth>ulubionego</orth>
    <lex disamb="1"><base>ulubiony</base><ctag>subst:sg:gen:m1</ctag></lex>
   </tok>
   <tok>
    <orth>przysmaku</orth>
    <lex disamb="1"><base>przysmak</base><ctag>subst:sg:gen:m3</ctag></lex>
   </tok>
   <ns/>
   <tok>
    <orth>.</orth>
    <lex disamb="1"><base>.</base><ctag>interp</ctag></lex>
   </tok>
  </sentence>
 </chunk>
 <chunk type="p" id="ch9">
  <sentence id="s9">
   <tok>
    <orth>Jest</orth>
    <lex disamb="1"><base>być</base><ctag>fin:sg:ter:imperf</ctag></lex>
   </tok>
   <tok>
    <orth>to</orth>
    <lex disamb="1"><base>to</base><ctag>conj</ctag></lex>
   </tok>
   <tok>
    <orth>określane</orth>
    <lex disamb="1"><base>określać</base><ctag>ppas:sg:nom:n:imperf:aff</ctag></lex>
   </tok>
   <tok>
    <orth>jako</orth>
    <lex disamb="1"><base>jako</base><ctag>conj</ctag></lex>
   </tok>
   <tok>
    <orth>pamięć</orth>
    <lex disamb="1"><base>pamięć</base><ctag>subst:sg:nom:f</ctag></lex>
   </tok>
   <tok>
    <orth>epizodyczna</orth>
    <lex disamb="1"><base>epizodyczny</base><ctag>adj:sg:nom:f:pos</ctag></lex>
   </tok>
   <ns/>
   <tok>
    <orth>.</orth>
    <lex disamb="1"><base>.</base><ctag>interp</ctag></lex>
   </tok>
  </sentence>
 </chunk>
 <chunk type="p" id="ch10">
  <sentence id="s10">
   <tok>
    <orth>Saho</orth>
    <lex disamb="1"><base>Saho</base><ctag>ign</ctag></lex>
    <ann chan="nam">0</ann>
    <ann chan="nam_org">0</ann>
   </tok>
   <tok>
    <orth>Takagi</orth>
    <lex disamb="1"><base>Takagi</base><ctag>ign</ctag></lex>
    <ann chan="nam">0</ann>
    <ann chan="nam_org">0</ann>
   </tok>
   <ns/>
   <tok>
    <orth>,</orth>
    <lex disamb="1"><base>,</base><ctag>interp</ctag></lex>
    <ann chan="nam">0</ann>
    <ann chan="nam_org">0</ann>
   </tok>
   <tok>
    <orth>psycholog</orth>
    <lex disamb="1"><base>psycholog</base><ctag>subst:sg:nom:m1</ctag></lex>
    <ann chan="nam">0</ann>
    <ann chan="nam_org">0</ann>
   </tok>
   <tok>
    <orth>z</orth>
    <lex disamb="1"><base>z</base><ctag>prep:gen:nwok</ctag></lex>
    <ann chan="nam">0</ann>
    <ann chan="nam_org">0</ann>
   </tok>
   <tok>
    <orth>Kyoto</orth>
    <lex disamb="1"><base>Kyoto</base><ctag>ign</ctag></lex>
    <ann chan="nam">1</ann>
    <ann chan="nam_org">1</ann>
   </tok>
   <tok>
    <orth>University</orth>
    <lex disamb="1"><base>University</base><ctag>ign</ctag></lex>
    <ann chan="nam">1</ann>
    <ann chan="nam_org">1</ann>
   </tok>
   <ns/>
   <tok>
    <orth>,</orth>
    <lex disamb="1"><base>,</base><ctag>interp</ctag></lex>
    <ann chan="nam">0</ann>
    <ann chan="nam_org">0</ann>
   </tok>
   <tok>
    <orth>uważa</orth>
    <lex disamb="1"><base>uważać</base><ctag>fin:sg:ter:imperf</ctag></lex>
    <ann chan="nam">0</ann>
    <ann chan="nam_org">0</ann>
   </tok>
   <ns/>
   <tok>
    <orth>,</orth>
    <lex disamb="1"><base>,</base><ctag>interp</ctag></lex>
    <ann chan="nam">0</ann>
    <ann chan="nam_org">0</ann>
   </tok>
   <tok>
    <orth>że</orth>
    <lex disamb="1"><base>że</base><ctag>comp</ctag></lex>
    <ann chan="nam">0</ann>
    <ann chan="nam_org">0</ann>
   </tok>
   <tok>
    <orth>koty</orth>
    <lex disamb="1"><base>kot</base><ctag>subst:pl:nom:m2</ctag></lex>
    <ann chan="nam">0</ann>
    <ann chan="nam_org">0</ann>
   </tok>
   <ns/>
   <tok>
    <orth>,</orth>
    <lex disamb="1"><base>,</base><ctag>interp</ctag></lex>
    <ann chan="nam">0</ann>
    <ann chan="nam_org">0</ann>
   </tok>
   <tok>
    <orth>podobnie</orth>
    <lex disamb="1"><base>podobnie</base><ctag>adv:pos</ctag></lex>
    <ann chan="nam">0</ann>
    <ann chan="nam_org">0</ann>
   </tok>
   <tok>
    <orth>jak</orth>
    <lex disamb="1"><base>jak</base><ctag>conj</ctag></lex>
    <ann chan="nam">0</ann>
    <ann chan="nam_org">0</ann>
   </tok>
   <tok>
    <orth>psy</orth>
    <lex disamb="1"><base>pies</base><ctag>subst:pl:nom:m2</ctag></lex>
    <ann chan="nam">0</ann>
    <ann chan="nam_org">0</ann>
   </tok>
   <ns/>
   <tok>
    <orth>,</orth>
    <lex disamb="1"><base>,</base><ctag>interp</ctag></lex>
    <ann chan="nam">0</ann>
    <ann chan="nam_org">0</ann>
   </tok>
   <tok>
    <orth>wykorzystują</orth>
    <lex disamb="1"><base>wykorzystywać</base><ctag>fin:pl:ter:imperf</ctag></lex>
    <ann chan="nam">0</ann>
    <ann chan="nam_org">0</ann>
   </tok>
   <tok>
    <orth>wspomnienia</orth>
    <lex disamb="1"><base>wspomnienie</base><ctag>subst:sg:gen:n</ctag></lex>
    <ann chan="nam">0</ann>
    <ann chan="nam_org">0</ann>
   </tok>
   <tok>
    <orth>o</orth>
    <lex disamb="1"><base>o</base><ctag>prep:acc</ctag></lex>
    <ann chan="nam">0</ann>
    <ann chan="nam_org">0</ann>
   </tok>
   <tok>
    <orth>pojedynczych</orth>
    <lex disamb="1"><base>pojedynczy</base><ctag>adj:pl:gen:m1:pos</ctag></lex>
    <ann chan="nam">0</ann>
    <ann chan="nam_org">0</ann>
   </tok>
   <tok>
    <orth>doświadczeniach</orth>
    <lex disamb="1"><base>doświadczenie</base><ctag>subst:pl:loc:n</ctag></lex>
    <ann chan="nam">0</ann>
    <ann chan="nam_org">0</ann>
   </tok>
   <ns/>
   <tok>
    <orth>,</orth>
    <lex disamb="1"><base>,</base><ctag>interp</ctag></lex>
    <ann chan="nam">0</ann>
    <ann chan="nam_org">0</ann>
   </tok>
   <tok>
    <orth>co</orth>
    <lex disamb="1"><base>co</base><ctag>comp</ctag></lex>
    <ann chan="nam">0</ann>
    <ann chan="nam_org">0</ann>
   </tok>
   <tok>
    <orth>może</orth>
    <lex disamb="1"><base>może</base><ctag>qub</ctag></lex>
    <ann chan="nam">0</ann>
    <ann chan="nam_org">0</ann>
   </tok>
   <tok>
    <orth>wskazywać</orth>
    <lex disamb="1"><base>wskazywać</base><ctag>inf:imperf</ctag></lex>
    <ann chan="nam">0</ann>
    <ann chan="nam_org">0</ann>
   </tok>
   <tok>
    <orth>na</orth>
    <lex disamb="1"><base>na</base><ctag>prep:acc</ctag></lex>
    <ann chan="nam">0</ann>
    <ann chan="nam_org">0</ann>
   </tok>
   <tok>
    <orth>to</orth>
    <lex disamb="1"><base>to</base><ctag>conj</ctag></lex>
    <ann chan="nam">0</ann>
    <ann chan="nam_org">0</ann>
   </tok>
   <ns/>
   <tok>
    <orth>,</orth>
    <lex disamb="1"><base>,</base><ctag>interp</ctag></lex>
    <ann chan="nam">0</ann>
    <ann chan="nam_org">0</ann>
   </tok>
   <tok>
    <orth>że</orth>
    <lex disamb="1"><base>że</base><ctag>comp</ctag></lex>
    <ann chan="nam">0</ann>
    <ann chan="nam_org">0</ann>
   </tok>
   <tok>
    <orth>dysponują</orth>
    <lex disamb="1"><base>dysponować</base><ctag>fin:pl:ter:imperf</ctag></lex>
    <ann chan="nam">0</ann>
    <ann chan="nam_org">0</ann>
   </tok>
   <tok>
    <orth>pamięcią</orth>
    <lex disamb="1"><base>pamięć</base><ctag>subst:sg:inst:f</ctag></lex>
    <ann chan="nam">0</ann>
    <ann chan="nam_org">0</ann>
   </tok>
   <tok>
    <orth>epizodyczną</orth>
    <lex disamb="1"><base>epizodyczny</base><ctag>adj:sg:acc:f:pos</ctag></lex>
    <ann chan="nam">0</ann>
    <ann chan="nam_org">0</ann>
   </tok>
   <tok>
    <orth>podobną</orth>
    <lex disamb="1"><base>podobny</base><ctag>adj:sg:acc:f:pos</ctag></lex>
    <ann chan="nam">0</ann>
    <ann chan="nam_org">0</ann>
   </tok>
   <tok>
    <orth>do</orth>
    <lex disamb="1"><base>do</base><ctag>prep:gen</ctag></lex>
    <ann chan="nam">0</ann>
    <ann chan="nam_org">0</ann>
   </tok>
   <tok>
    <orth>ludzkiej</orth>
    <lex disamb="1"><base>ludzki</base><ctag>adj:sg:gen:f:pos</ctag></lex>
    <ann chan="nam">0</ann>
    <ann chan="nam_org">0</ann>
   </tok>
   <ns/>
   <tok>
    <orth>.</orth>
    <lex disamb="1"><base>.</base><ctag>interp</ctag></lex>
    <ann chan="nam">0</ann>
    <ann chan="nam_org">0</ann>
   </tok>
  </sentence>
 </chunk>
 <chunk type="p" id="ch11">
  <sentence id="s11">
   <tok>
    <orth>Badania</orth>
    <lex disamb="1"><base>badanie</base><ctag>subst:sg:gen:n</ctag></lex>
    <ann chan="timex">0</ann>
    <ann chan="t3_date">0</ann>
   </tok>
   <tok>
    <orth>opublikowane</orth>
    <lex disamb="1"><base>opublikować</base><ctag>ppas:sg:nom:n:perf:aff</ctag></lex>
    <ann chan="timex">0</ann>
    <ann chan="t3_date">0</ann>
   </tok>
   <tok>
    <orth>w</orth>
    <lex disamb="1"><base>w</base><ctag>prep:acc:nwok</ctag></lex>
    <ann chan="timex">0</ann>
    <ann chan="t3_date">0</ann>
   </tok>
   <tok>
    <orth>2009</orth>
    <lex disamb="1"><base>2009</base><ctag>num:pl:nom:m1:rec</ctag></lex>
    <ann chan="timex">1</ann>
    <ann chan="t3_date">1</ann>
   </tok>
   <tok>
    <orth>roku</orth>
    <lex disamb="1"><base>rok</base><ctag>subst:sg:gen:m3</ctag></lex>
    <ann chan="timex">1</ann>
    <ann chan="t3_date">1</ann>
   </tok>
   <tok>
    <orth>w</orth>
    <lex disamb="1"><base>w</base><ctag>prep:acc:nwok</ctag></lex>
    <ann chan="timex">0</ann>
    <ann chan="t3_date">0</ann>
   </tok>
   <tok>
    <orth>piśmie</orth>
    <lex disamb="1"><base>pismo</base><ctag>subst:sg:loc:n</ctag></lex>
    <ann chan="timex">0</ann>
    <ann chan="t3_date">0</ann>
   </tok>
   <tok>
    <orth>Journal</orth>
    <lex disamb="1"><base>Journal</base><ctag>ign</ctag></lex>
    <ann chan="timex">0</ann>
    <ann chan="t3_date">0</ann>
   </tok>
   <tok>
    <orth>of</orth>
    <lex disamb="1"><base>of</base><ctag>ign</ctag></lex>
    <ann chan="timex">0</ann>
    <ann chan="t3_date">0</ann>
   </tok>
   <tok>
    <orth>Ethology</orth>
    <lex disamb="1"><base>Ethology</base><ctag>ign</ctag></lex>
    <ann chan="timex">0</ann>
    <ann chan="t3_date">0</ann>
   </tok>
   <tok>
    <orth>dowodzą</orth>
    <lex disamb="1"><base>dowodzić</base><ctag>fin:pl:ter:imperf</ctag></lex>
    <ann chan="timex">0</ann>
    <ann chan="t3_date">0</ann>
   </tok>
   <ns/>
   <tok>
    <orth>,</orth>
    <lex disamb="1"><base>,</base><ctag>interp</ctag></lex>
    <ann chan="timex">0</ann>
    <ann chan="t3_date">0</ann>
   </tok>
   <tok>
    <orth>że</orth>
    <lex disamb="1"><base>że</base><ctag>comp</ctag></lex>
    <ann chan="timex">0</ann>
    <ann chan="t3_date">0</ann>
   </tok>
   <tok>
    <orth>koty</orth>
    <lex disamb="1"><base>kot</base><ctag>subst:pl:nom:m2</ctag></lex>
    <ann chan="timex">0</ann>
    <ann chan="t3_date">0</ann>
   </tok>
   <tok>
    <orth>rozróżniają</orth>
    <lex disamb="1"><base>rozróżniać</base><ctag>fin:pl:ter:imperf</ctag></lex>
    <ann chan="timex">0</ann>
    <ann chan="t3_date">0</ann>
   </tok>
   <tok>
    <orth>znaki</orth>
    <lex disamb="1"><base>znak</base><ctag>subst:pl:nom:m3</ctag></lex>
    <ann chan="timex">0</ann>
    <ann chan="t3_date">0</ann>
   </tok>
   <tok>
    <orth>graficzne</orth>
    <lex disamb="1"><base>graficzny</base><ctag>adj:sg:nom:n:pos</ctag></lex>
    <ann chan="timex">0</ann>
    <ann chan="t3_date">0</ann>
   </tok>
   <tok>
    <orth>–</orth>
    <lex disamb="1"><base>–</base><ctag>interp</ctag></lex>
    <ann chan="timex">0</ann>
    <ann chan="t3_date">0</ann>
   </tok>
   <tok>
    <orth>widzą</orth>
    <lex disamb="1"><base>widzieć</base><ctag>fin:pl:ter:imperf</ctag></lex>
    <ann chan="timex">0</ann>
    <ann chan="t3_date">0</ann>
   </tok>
   <tok>
    <orth>różnicę</orth>
    <lex disamb="1"><base>różnica</base><ctag>subst:sg:acc:f</ctag></lex>
    <ann chan="timex">0</ann>
    <ann chan="t3_date">0</ann>
   </tok>
   <tok>
    <orth>między</orth>
    <lex disamb="1"><base>między</base><ctag>prep:acc</ctag></lex>
    <ann chan="timex">0</ann>
    <ann chan="t3_date">0</ann>
   </tok>
   <tok>
    <orth>jedną</orth>
    <lex disamb="1"><base>jeden</base><ctag>adj:sg:acc:f:pos</ctag></lex>
    <ann chan="timex">0</ann>
    <ann chan="t3_date">0</ann>
   </tok>
   <tok>
    <orth>kropką</orth>
    <lex disamb="1"><base>kropka</base><ctag>subst:sg:inst:f</ctag></lex>
    <ann chan="timex">0</ann>
    <ann chan="t3_date">0</ann>
   </tok>
   <tok>
    <orth>a</orth>
    <lex disamb="1"><base>a</base><ctag>conj</ctag></lex>
    <ann chan="timex">0</ann>
    <ann chan="t3_date">0</ann>
   </tok>
   <tok>
    <orth>dwiema</orth>
    <lex disamb="1"><base>dwa</base><ctag>num:pl:nom:m1:rec</ctag></lex>
    <ann chan="timex">0</ann>
    <ann chan="t3_date">0</ann>
   </tok>
   <ns/>
   <tok>
    <orth>.</orth>
    <lex disamb="1"><base>.</base><ctag>interp</ctag></lex>
    <ann chan="timex">0</ann>
    <ann chan="t3_date">0</ann>
   </tok>
  </sentence>
 </chunk>
 <chunk type="p" id="ch12">
  <sentence id="s12">
   <tok>
    <orth>Z</orth>
    <lex disamb="1"><base>z</base><ctag>prep:gen:nwok</ctag></lex>
    <ann chan="nam">0</ann>
    <ann chan="nam_liv_person">0</ann>
    <ann chan="nam_org_organization">0</ann>
    <ann chan="nam_liv">0</ann>
    <ann chan="nam_org">0</ann>
   </tok>
   <tok>
    <orth>kolei</orth>
    <lex disamb="1"><base>kolej</base><ctag>subst:sg:gen:f</ctag></lex>
    <lex disamb="1"><base>koleja</base><ctag>subst:sg:gen:f</ctag></lex>
    <ann chan="nam">0</ann>
    <ann chan="nam_liv_person">0</ann>
    <ann chan="nam_org_organization">0</ann>
    <ann chan="nam_liv">0</ann>
    <ann chan="nam_org">0</ann>
   </tok>
   <tok>
    <orth>badania</orth>
    <lex disamb="1"><base>badanie</base><ctag>subst:sg:gen:n</ctag></lex>
    <ann chan="nam">0</ann>
    <ann chan="nam_liv_person">0</ann>
    <ann chan="nam_org_organization">0</ann>
    <ann chan="nam_liv">0</ann>
    <ann chan="nam_org">0</ann>
   </tok>
   <tok>
    <orth>Johna</orth>
    <lex disamb="1"><base>John</base><ctag>subst:sg:gen:m1</ctag></lex>
    <ann chan="nam">1</ann>
    <ann chan="nam_liv_person">1</ann>
    <ann chan="nam_org_organization">0</ann>
    <ann chan="nam_liv">1</ann>
    <ann chan="nam_org">0</ann>
   </tok>
   <tok>
    <orth>Paula</orth>
    <lex disamb="1"><base>Paul</base><ctag>subst:sg:gen:m1</ctag></lex>
    <ann chan="nam">1</ann>
    <ann chan="nam_liv_person">1</ann>
    <ann chan="nam_org_organization">0</ann>
    <ann chan="nam_liv">2</ann>
    <ann chan="nam_org">0</ann>
   </tok>
   <tok>
    <orth>Scotta</orth>
    <lex disamb="1"><base>Scott</base><ctag>subst:sg:gen:m1</ctag></lex>
    <ann chan="nam">1</ann>
    <ann chan="nam_liv_person">1</ann>
    <ann chan="nam_org_organization">0</ann>
    <ann chan="nam_liv">2</ann>
    <ann chan="nam_org">0</ann>
   </tok>
   <tok>
    <orth>z</orth>
    <lex disamb="1"><base>z</base><ctag>prep:gen:nwok</ctag></lex>
    <ann chan="nam">0</ann>
    <ann chan="nam_liv_person">0</ann>
    <ann chan="nam_org_organization">0</ann>
    <ann chan="nam_liv">0</ann>
    <ann chan="nam_org">0</ann>
   </tok>
   <tok>
    <orth>Laboratorium</orth>
    <lex disamb="1"><base>laboratorium</base><ctag>subst:sg:nom:n</ctag></lex>
    <ann chan="nam">2</ann>
    <ann chan="nam_liv_person">0</ann>
    <ann chan="nam_org_organization">1</ann>
    <ann chan="nam_liv">0</ann>
    <ann chan="nam_org">1</ann>
   </tok>
   <tok>
    <orth>Zachowań</orth>
    <lex disamb="1"><base>zachowanie</base><ctag>subst:pl:gen:n</ctag></lex>
    <ann chan="nam">2</ann>
    <ann chan="nam_liv_person">0</ann>
    <ann chan="nam_org_organization">1</ann>
    <ann chan="nam_liv">0</ann>
    <ann chan="nam_org">1</ann>
   </tok>
   <tok>
    <orth>Zwierząt</orth>
    <lex disamb="1"><base>zwierzę</base><ctag>subst:pl:gen:n</ctag></lex>
    <ann chan="nam">2</ann>
    <ann chan="nam_liv_person">0</ann>
    <ann chan="nam_org_organization">1</ann>
    <ann chan="nam_liv">0</ann>
    <ann chan="nam_org">1</ann>
   </tok>
   <tok>
    <orth>w</orth>
    <lex disamb="1"><base>w</base><ctag>prep:acc:nwok</ctag></lex>
    <ann chan="nam">2</ann>
    <ann chan="nam_liv_person">0</ann>
    <ann chan="nam_org_organization">1</ann>
    <ann chan="nam_liv">0</ann>
    <ann chan="nam_org">1</ann>
   </tok>
   <tok>
    <orth>Bar</orth>
    <lex disamb="1"><base>Bar</base><ctag>subst:sg:nom:m3</ctag></lex>
    <lex disamb="1"><base>bar</base><ctag>subst:sg:nom:m3</ctag></lex>
    <ann chan="nam">2</ann>
    <ann chan="nam_liv_person">0</ann>
    <ann chan="nam_org_organization">1</ann>
    <ann chan="nam_liv">0</ann>
    <ann chan="nam_org">1</ann>
   </tok>
   <tok>
    <orth>Harbor</orth>
    <lex disamb="1"><base>Harbor</base><ctag>ign</ctag></lex>
    <ann chan="nam">2</ann>
    <ann chan="nam_liv_person">0</ann>
    <ann chan="nam_org_organization">1</ann>
    <ann chan="nam_liv">0</ann>
    <ann chan="nam_org">1</ann>
   </tok>
   <tok>
    <orth>pokazują</orth>
    <lex disamb="1"><base>pokazować</base><ctag>fin:pl:ter:imperf</ctag></lex>
    <lex disamb="1"><base>pokazywać</base><ctag>fin:pl:ter:imperf</ctag></lex>
    <ann chan="nam">0</ann>
    <ann chan="nam_liv_person">0</ann>
    <ann chan="nam_org_organization">0</ann>
    <ann chan="nam_liv">0</ann>
    <ann chan="nam_org">0</ann>
   </tok>
   <ns/>
   <tok>
    <orth>,</orth>
    <lex disamb="1"><base>,</base><ctag>interp</ctag></lex>
    <ann chan="nam">0</ann>
    <ann chan="nam_liv_person">0</ann>
    <ann chan="nam_org_organization">0</ann>
    <ann chan="nam_liv">0</ann>
    <ann chan="nam_org">0</ann>
   </tok>
   <tok>
    <orth>że</orth>
    <lex disamb="1"><base>że</base><ctag>comp</ctag></lex>
    <ann chan="nam">0</ann>
    <ann chan="nam_liv_person">0</ann>
    <ann chan="nam_org_organization">0</ann>
    <ann chan="nam_liv">0</ann>
    <ann chan="nam_org">0</ann>
   </tok>
   <tok>
    <orth>zwierzęta</orth>
    <lex disamb="1"><base>zwierzę</base><ctag>subst:pl:nom:n</ctag></lex>
    <ann chan="nam">0</ann>
    <ann chan="nam_liv_person">0</ann>
    <ann chan="nam_org_organization">0</ann>
    <ann chan="nam_liv">0</ann>
    <ann chan="nam_org">0</ann>
   </tok>
   <tok>
    <orth>te</orth>
    <lex disamb="1"><base>te</base><ctag>subst:sg:nom:n</ctag></lex>
    <ann chan="nam">0</ann>
    <ann chan="nam_liv_person">0</ann>
    <ann chan="nam_org_organization">0</ann>
    <ann chan="nam_liv">0</ann>
    <ann chan="nam_org">0</ann>
   </tok>
   <tok>
    <orth>rozróżniają</orth>
    <lex disamb="1"><base>rozróżniać</base><ctag>fin:pl:ter:imperf</ctag></lex>
    <ann chan="nam">0</ann>
    <ann chan="nam_liv_person">0</ann>
    <ann chan="nam_org_organization">0</ann>
    <ann chan="nam_liv">0</ann>
    <ann chan="nam_org">0</ann>
   </tok>
   <tok>
    <orth>i</orth>
    <lex disamb="1"><base>i</base><ctag>conj</ctag></lex>
    <ann chan="nam">0</ann>
    <ann chan="nam_liv_person">0</ann>
    <ann chan="nam_org_organization">0</ann>
    <ann chan="nam_liv">0</ann>
    <ann chan="nam_org">0</ann>
   </tok>
   <tok>
    <orth>reagują</orth>
    <lex disamb="1"><base>reagować</base><ctag>fin:pl:ter:imperf</ctag></lex>
    <ann chan="nam">0</ann>
    <ann chan="nam_liv_person">0</ann>
    <ann chan="nam_org_organization">0</ann>
    <ann chan="nam_liv">0</ann>
    <ann chan="nam_org">0</ann>
   </tok>
   <tok>
    <orth>na</orth>
    <lex disamb="1"><base>na</base><ctag>prep:acc</ctag></lex>
    <ann chan="nam">0</ann>
    <ann chan="nam_liv_person">0</ann>
    <ann chan="nam_org_organization">0</ann>
    <ann chan="nam_liv">0</ann>
    <ann chan="nam_org">0</ann>
   </tok>
   <tok>
    <orth>swoje</orth>
    <lex disamb="1"><base>swoje</base><ctag>subst:sg:nom:n</ctag></lex>
    <ann chan="nam">0</ann>
    <ann chan="nam_liv_person">0</ann>
    <ann chan="nam_org_organization">0</ann>
    <ann chan="nam_liv">0</ann>
    <ann chan="nam_org">0</ann>
   </tok>
   <tok>
    <orth>imiona</orth>
    <lex disamb="1"><base>imienie</base><ctag>subst:sg:gen:n</ctag></lex>
    <ann chan="nam">0</ann>
    <ann chan="nam_liv_person">0</ann>
    <ann chan="nam_org_organization">0</ann>
    <ann chan="nam_liv">0</ann>
    <ann chan="nam_org">0</ann>
   </tok>
   <ns/>
   <tok>
    <orth>.</orth>
    <lex disamb="1"><base>.</base><ctag>interp</ctag></lex>
    <ann chan="nam">0</ann>
    <ann chan="nam_liv_person">0</ann>
    <ann chan="nam_org_organization">0</ann>
    <ann chan="nam_liv">0</ann>
    <ann chan="nam_org">0</ann>
   </tok>
  </sentence>
 </chunk>
 <chunk type="p" id="ch13">
  <sentence id="s13">
   <tok>
    <orth>Rozumieją</orth>
    <lex disamb="1"><base>rozumieć</base><ctag>fin:pl:ter:imperf</ctag></lex>
   </tok>
   <tok>
    <orth>też</orth>
    <lex disamb="1"><base>też</base><ctag>qub</ctag></lex>
   </tok>
   <tok>
    <orth>i</orth>
    <lex disamb="1"><base>i</base><ctag>conj</ctag></lex>
   </tok>
   <tok>
    <orth>pamiętają</orth>
    <lex disamb="1"><base>pamiętać</base><ctag>fin:pl:ter:imperf</ctag></lex>
   </tok>
   <tok>
    <orth>znaczenie</orth>
    <lex disamb="1"><base>znaczenie</base><ctag>subst:sg:nom:n</ctag></lex>
   </tok>
   <tok>
    <orth>ponad</orth>
    <lex disamb="1"><base>ponad</base><ctag>qub</ctag></lex>
   </tok>
   <tok>
    <orth>160</orth>
    <lex disamb="1"><base>160</base><ctag>num:pl:nom:m1:rec</ctag></lex>
   </tok>
   <tok>
    <orth>słów</orth>
    <lex disamb="1"><base>słowo</base><ctag>subst:pl:gen:n</ctag></lex>
   </tok>
   <ns/>
   <tok>
    <orth>.</orth>
    <lex disamb="1"><base>.</base><ctag>interp</ctag></lex>
   </tok>
  </sentence>
 </chunk>
 <chunk type="p" id="ch14">
  <sentence id="s14">
   <tok>
    <orth>Koty</orth>
    <lex disamb="1"><base>kot</base><ctag>subst:pl:nom:m2</ctag></lex>
   </tok>
   <tok>
    <orth>reagują</orth>
    <lex disamb="1"><base>reagować</base><ctag>fin:pl:ter:imperf</ctag></lex>
   </tok>
   <tok>
    <orth>na</orth>
    <lex disamb="1"><base>na</base><ctag>prep:acc</ctag></lex>
   </tok>
   <tok>
    <orth>komendy</orth>
    <lex disamb="1"><base>komenda</base><ctag>subst:sg:gen:f</ctag></lex>
   </tok>
   <tok>
    <orth>głosowe</orth>
    <lex disamb="1"><base>głosowy</base><ctag>adj:sg:nom:n:pos</ctag></lex>
   </tok>
   <ns/>
   <tok>
    <orth>,</orth>
    <lex disamb="1"><base>,</base><ctag>interp</ctag></lex>
   </tok>
   <tok>
    <orth>tembr</orth>
    <lex disamb="1"><base>tembr</base><ctag>subst:sg:nom:m3</ctag></lex>
   </tok>
   <tok>
    <orth>głosu</orth>
    <lex disamb="1"><base>głos</base><ctag>subst:sg:gen:m3</ctag></lex>
   </tok>
   <tok>
    <orth>i</orth>
    <lex disamb="1"><base>i</base><ctag>conj</ctag></lex>
   </tok>
   <tok>
    <orth>akcent</orth>
    <lex disamb="1"><base>akcent</base><ctag>subst:sg:nom:m3</ctag></lex>
   </tok>
   <ns/>
   <tok>
    <orth>,</orth>
    <lex disamb="1"><base>,</base><ctag>interp</ctag></lex>
   </tok>
   <tok>
    <orth>a</orth>
    <lex disamb="1"><base>a</base><ctag>conj</ctag></lex>
   </tok>
   <tok>
    <orth>także</orth>
    <lex disamb="1"><base>także</base><ctag>qub</ctag></lex>
   </tok>
   <tok>
    <orth>na</orth>
    <lex disamb="1"><base>na</base><ctag>prep:acc</ctag></lex>
   </tok>
   <tok>
    <orth>ludzkie</orth>
    <lex disamb="1"><base>ludzki</base><ctag>adj:sg:nom:n:pos</ctag></lex>
   </tok>
   <tok>
    <orth>gesty</orth>
    <lex disamb="1"><base>gest</base><ctag>subst:pl:nom:m3</ctag></lex>
   </tok>
   <ns/>
   <tok>
    <orth>.</orth>
    <lex disamb="1"><base>.</base><ctag>interp</ctag></lex>
   </tok>
  </sentence>
 </chunk>
 <chunk type="p" id="ch15">
  <sentence id="s15">
   <tok>
    <orth>#</orth>
    <lex disamb="1"><base>#</base><ctag>interp</ctag></lex>
   </tok>
   <ns/>
   <tok>
    <orth>100kocichciekawostek</orth>
    <lex disamb="1"><base>100kocichciekawostek</base><ctag>ign</ctag></lex>
   </tok>
   <tok>
    <orth>#</orth>
    <lex disamb="1"><base>#</base><ctag>interp</ctag></lex>
   </tok>
   <ns/>
   <tok>
    <orth>koty</orth>
    <lex disamb="1"><base>kot</base><ctag>subst:pl:nom:m2</ctag></lex>
   </tok>
   <tok>
    <orth>#</orth>
    <lex disamb="1"><base>#</base><ctag>interp</ctag></lex>
   </tok>
   <ns/>
   <tok>
    <orth>ciekawostki</orth>
    <lex disamb="1"><base>ciekawostka</base><ctag>subst:sg:gen:f</ctag></lex>
   </tok>
   <tok>
    <orth>#</orth>
    <lex disamb="1"><base>#</base><ctag>interp</ctag></lex>
   </tok>
   <ns/>
   <tok>
    <orth>zwierzaczki</orth>
    <lex disamb="1"><base>zwierzaczek</base><ctag>subst:pl:nom:m2</ctag></lex>
   </tok>
  </sentence>
 </chunk>
</chunkList>