<?xml version="1.0" encoding="UTF-8"?>
<!DOCTYPE chunkList SYSTEM "ccl.dtd">
<chunkList>
 <chunk type="p" id="ch1">
  <sentence id="s1">
   <tok>
    <orth>Mireczki</orth>
    <lex disamb="1"><base>Mireczka</base><ctag>subst:sg:gen:f</ctag></lex>
   </tok>
   <tok>
    <orth>chyba</orth>
    <lex disamb="1"><base>chyba</base><ctag>qub</ctag></lex>
   </tok>
   <tok>
    <orth>właśnie</orth>
    <lex disamb="1"><base>właśnie</base><ctag>adv:pos</ctag></lex>
   </tok>
   <tok>
    <orth>kończy</orth>
    <lex disamb="1"><base>kończyć</base><ctag>fin:sg:ter:imperf</ctag></lex>
   </tok>
   <tok>
    <orth>się</orth>
    <lex disamb="1"><base>się</base><ctag>qub</ctag></lex>
   </tok>
   <tok>
    <orth>mój</orth>
    <lex disamb="1"><base>mój</base><ctag>subst:sg:nom:m1</ctag></lex>
   </tok>
   <tok>
    <orth>związek</orth>
    <lex disamb="1"><base>związek</base><ctag>subst:sg:nom:m3</ctag></lex>
   </tok>
   <tok>
    <orth>:</orth>
    <lex disamb="1"><base>:</base><ctag>interp</ctag></lex>
   </tok>
   <ns/>
   <tok>
    <orth>(</orth>
    <lex disamb="1"><base>(</base><ctag>interp</ctag></lex>
   </tok>
  </sentence>
 </chunk>
</chunkList>