<?xml version="1.0" encoding="UTF-8"?>
<!DOCTYPE chunkList SYSTEM "ccl.dtd">
<chunkList>
 <chunk type="p" id="ch1">
  <sentence id="s1">
   <tok>
    <orth>Jak</orth>
    <lex disamb="1"><base>jak</base><ctag>conj</ctag></lex>
   </tok>
   <tok>
    <orth>on</orth>
    <lex disamb="1"><base>on</base><ctag>ppron3:sg:nom:m1:ter:akc:npraep</ctag></lex>
   </tok>
   <tok>
    <orth>je</orth>
    <lex disamb="1"><base>on</base><ctag>ppron3:sg:acc:n:ter:akc:npraep</ctag></lex>
   </tok>
   <tok>
    <orth>albo</orth>
    <lex disamb="1"><base>albo</base><ctag>conj</ctag></lex>
   </tok>
   <tok>
    <orth>pije</orth>
    <lex disamb="1"><base>pić</base><ctag>fin:sg:ter:imperf</ctag></lex>
   </tok>
   <tok>
    <orth>cokolwiek</orth>
    <lex disamb="1"><base>cokolwiek</base><ctag>adv:pos</ctag></lex>
   </tok>
   <ns/>
   <tok>
    <orth>?</orth>
    <lex disamb="1"><base>?</base><ctag>interp</ctag></lex>
   </tok>
  </sentence>
 </chunk>
</chunkList>