<?xml version="1.0" encoding="UTF-8"?>
<!DOCTYPE chunkList SYSTEM "ccl.dtd">
<chunkList>
 <chunk type="p" id="ch1">
  <sentence id="s1">
   <tok>
    <orth>Mireczki</orth>
    <lex disamb="1"><base>Mireczka</base><ctag>subst:sg:gen:f</ctag></lex>
   </tok>
   <tok>
    <orth>czy</orth>
    <lex disamb="1"><base>czy</base><ctag>conj</ctag></lex>
   </tok>
   <tok>
    <orth>męskie</orth>
    <lex disamb="1"><base>męski</base><ctag>adj:sg:nom:n:pos</ctag></lex>
   </tok>
   <tok>
    <orth>getry</orth>
    <lex disamb="1"><base>getr</base><ctag>subst:pl:nom:m3</ctag></lex>
   </tok>
   <tok>
    <orth>np</orth>
    <lex disamb="1"><base>na_przykład</base><ctag>brev:pun</ctag></lex>
   </tok>
   <ns/>
   <tok>
    <orth>.</orth>
    <lex disamb="1"><base>.</base><ctag>interp</ctag></lex>
   </tok>
   <tok>
    <orth>na</orth>
    <lex disamb="1"><base>na</base><ctag>prep:acc</ctag></lex>
   </tok>
   <tok>
    <orth>siłownię</orth>
    <lex disamb="1"><base>siłownia</base><ctag>subst:sg:acc:f</ctag></lex>
   </tok>
   <tok>
    <orth>są</orth>
    <lex disamb="1"><base>być</base><ctag>fin:pl:ter:imperf</ctag></lex>
   </tok>
   <tok>
    <orth>ok</orth>
    <lex disamb="1"><base>oko</base><ctag>subst:pl:gen:n</ctag></lex>
   </tok>
   <tok>
    <orth>czy</orth>
    <lex disamb="1"><base>czy</base><ctag>conj</ctag></lex>
   </tok>
   <tok>
    <orth>pedalskie</orth>
    <lex disamb="1"><base>pedalski</base><ctag>adj:sg:nom:n:pos</ctag></lex>
   </tok>
   <ns/>
   <tok>
    <orth>?</orth>
    <lex disamb="1"><base>?</base><ctag>interp</ctag></lex>
   </tok>
  </sentence>
 </chunk>
 <chunk type="p" id="ch2">
  <sentence id="s2">
   <tok>
    <orth>:</orth>
    <lex disamb="1"><base>:</base><ctag>interp</ctag></lex>
   </tok>
   <ns/>
   <tok>
    <orth>)</orth>
    <lex disamb="1"><base>)</base><ctag>interp</ctag></lex>
   </tok>
   <tok>
    <orth>Pytam</orth>
    <lex disamb="1"><base>pytać</base><ctag>fin:sg:pri:imperf</ctag></lex>
   </tok>
   <tok>
    <orth>bo</orth>
    <lex disamb="1"><base>bo</base><ctag>comp</ctag></lex>
   </tok>
   <tok>
    <orth>mam</orth>
    <lex disamb="1"><base>mama</base><ctag>subst:pl:gen:f</ctag></lex>
   </tok>
   <tok>
    <orth>dwie</orth>
    <lex disamb="1"><base>dwa</base><ctag>num:pl:nom:m1:rec</ctag></lex>
    <lex disamb="1"><base>dwa</base><ctag>num:pl:nom:m1:rec</ctag></lex>
    <lex disamb="1"><base>dwa</base><ctag>num:pl:nom:m1:rec</ctag></lex>
   </tok>
   <tok>
    <orth>pary</orth>
    <lex disamb="1"><base>par</base><ctag>subst:pl:nom:m3</ctag></lex>
   </tok>
   <tok>
    <orth>i</orth>
    <lex disamb="1"><base>i</base><ctag>conj</ctag></lex>
   </tok>
   <tok>
    <orth>na</orth>
    <lex disamb="1"><base>na</base><ctag>prep:acc</ctag></lex>
   </tok>
   <tok>
    <orth>kimś</orth>
    <lex disamb="1"><base>ktoś</base><ctag>subst:sg:inst:m1</ctag></lex>
   </tok>
   <tok>
    <orth>wydają</orth>
    <lex disamb="1"><base>wydawać</base><ctag>fin:pl:ter:imperf</ctag></lex>
   </tok>
   <tok>
    <orth>mi</orth>
    <lex disamb="1"><base>mi</base><ctag>subst:sg:nom:n</ctag></lex>
   </tok>
   <tok>
    <orth>się</orth>
    <lex disamb="1"><base>się</base><ctag>qub</ctag></lex>
   </tok>
   <tok>
    <orth>całkiem</orth>
    <lex disamb="1"><base>całkiem</base><ctag>adv:pos</ctag></lex>
   </tok>
   <tok>
    <orth>spoko</orth>
    <lex disamb="1"><base>spoko</base><ctag>adv:pos</ctag></lex>
   </tok>
   <tok>
    <orth>ale</orth>
    <lex disamb="1"><base>ale</base><ctag>conj</ctag></lex>
   </tok>
   <tok>
    <orth>sam</orth>
    <lex disamb="1"><base>sam</base><ctag>adv:pos</ctag></lex>
   </tok>
   <tok>
    <orth>nie</orth>
    <lex disamb="1"><base>nie</base><ctag>conj</ctag></lex>
   </tok>
   <tok>
    <orth>mogę</orth>
    <lex disamb="1"><base>móc</base><ctag>fin:sg:pri:imperf</ctag></lex>
   </tok>
   <tok>
    <orth>się</orth>
    <lex disamb="1"><base>się</base><ctag>qub</ctag></lex>
   </tok>
   <tok>
    <orth>przekonać</orth>
    <lex disamb="1"><base>przekonać</base><ctag>inf:perf</ctag></lex>
   </tok>
   <ns/>
   <tok>
    <orth>.</orth>
    <lex disamb="1"><base>.</base><ctag>interp</ctag></lex>
   </tok>
  </sentence>
 </chunk>
 <chunk type="p" id="ch3">
  <sentence id="s3">
   <tok>
    <orth>#</orth>
    <lex disamb="1"><base>#</base><ctag>interp</ctag></lex>
   </tok>
   <ns/>
   <tok>
    <orth>modameska</orth>
    <lex disamb="1"><base>modameska</base><ctag>ign</ctag></lex>
   </tok>
  </sentence>
 </chunk>
</chunkList>