<?xml version="1.0" encoding="UTF-8"?>
<!DOCTYPE chunkList SYSTEM "ccl.dtd">
<chunkList>
 <chunk type="p" id="ch1">
  <sentence id="s1">
   <tok>
    <orth>A</orth>
    <lex disamb="1"><base>a</base><ctag>conj</ctag></lex>
   </tok>
   <tok>
    <orth>potem</orth>
    <lex disamb="1"><base>potem</base><ctag>adv:pos</ctag></lex>
   </tok>
   <tok>
    <orth>sb</orth>
    <lex disamb="1"><base>SB</base><ctag>subst:sg:nom:f</ctag></lex>
   </tok>
   <tok>
    <orth>rozstali</orth>
    <lex disamb="1"><base>rozstać</base><ctag>praet:pl:m1:perf</ctag></lex>
   </tok>
   <tok>
    <orth>i</orth>
    <lex disamb="1"><base>i</base><ctag>conj</ctag></lex>
   </tok>
   <tok>
    <orth>razem</orth>
    <lex disamb="1"><base>razem</base><ctag>adv:pos</ctag></lex>
   </tok>
   <tok>
    <orth>płakałi</orth>
    <lex disamb="1"><base>płakałi</base><ctag>ign</ctag></lex>
   </tok>
   <tok>
    <orth>(</orth>
    <lex disamb="1"><base>(</base><ctag>interp</ctag></lex>
   </tok>
   <ns/>
   <tok>
    <orth>╯</orth>
    <lex disamb="1"><base>╯</base><ctag>interp</ctag></lex>
   </tok>
   <ns/>
   <tok>
    <orth>︵</orth>
    <lex disamb="1"><base>︵</base><ctag>interp</ctag></lex>
   </tok>
   <ns/>
   <tok>
    <orth>╰</orth>
    <lex disamb="1"><base>╰</base><ctag>interp</ctag></lex>
   </tok>
   <ns/>
   <tok>
    <orth>,</orth>
    <lex disamb="1"><base>,</base><ctag>interp</ctag></lex>
   </tok>
   <ns/>
   <tok>
    <orth>)</orth>
    <lex disamb="1"><base>)</base><ctag>interp</ctag></lex>
   </tok>
   <tok>
    <orth>#</orth>
    <lex disamb="1"><base>#</base><ctag>interp</ctag></lex>
   </tok>
   <ns/>
   <tok>
    <orth>heheszki</orth>
    <lex disamb="1"><base>heheszki</base><ctag>ign</ctag></lex>
   </tok>
   <tok>
    <orth>#</orth>
    <lex disamb="1"><base>#</base><ctag>interp</ctag></lex>
   </tok>
   <ns/>
   <tok>
    <orth>humorobrazkowy</orth>
    <lex disamb="1"><base>humorobrazkowy</base><ctag>ign</ctag></lex>
   </tok>
  </sentence>
 </chunk>
</chunkList>