<?xml version="1.0" encoding="UTF-8"?>
<!DOCTYPE chunkList SYSTEM "ccl.dtd">
<chunkList>
 <chunk type="p" id="ch1">
  <sentence id="s1">
   <tok>
    <orth>Też</orth>
    <lex disamb="1"><base>też</base><ctag>qub</ctag></lex>
    <ann chan="nam">0</ann>
    <ann chan="nam_oth_currency">0</ann>
    <ann chan="nam_loc_gpe_city">0</ann>
    <ann chan="nam_oth">0</ann>
    <ann chan="nam_loc">0</ann>
    <ann chan="timex">0</ann>
    <ann chan="t3_duration">0</ann>
    <ann chan="t3_time">0</ann>
   </tok>
   <tok>
    <orth>kiedyś</orth>
    <lex disamb="1"><base>kiedyś</base><ctag>adv:pos</ctag></lex>
    <ann chan="nam">0</ann>
    <ann chan="nam_oth_currency">0</ann>
    <ann chan="nam_loc_gpe_city">0</ann>
    <ann chan="nam_oth">0</ann>
    <ann chan="nam_loc">0</ann>
    <ann chan="timex">0</ann>
    <ann chan="t3_duration">0</ann>
    <ann chan="t3_time">0</ann>
   </tok>
   <tok>
    <orth>był</orth>
    <lex disamb="1"><base>być</base><ctag>praet:sg:m1:imperf</ctag></lex>
    <ann chan="nam">0</ann>
    <ann chan="nam_oth_currency">0</ann>
    <ann chan="nam_loc_gpe_city">0</ann>
    <ann chan="nam_oth">0</ann>
    <ann chan="nam_loc">0</ann>
    <ann chan="timex">0</ann>
    <ann chan="t3_duration">0</ann>
    <ann chan="t3_time">0</ann>
   </tok>
   <ns/>
   <tok>
    <orth>em</orth>
    <lex disamb="1"><base>być</base><ctag>aglt:sg:pri:imperf:wok</ctag></lex>
    <ann chan="nam">0</ann>
    <ann chan="nam_oth_currency">0</ann>
    <ann chan="nam_loc_gpe_city">0</ann>
    <ann chan="nam_oth">0</ann>
    <ann chan="nam_loc">0</ann>
    <ann chan="timex">0</ann>
    <ann chan="t3_duration">0</ann>
    <ann chan="t3_time">0</ann>
   </tok>
   <tok>
    <orth>zakolarskim</orth>
    <lex disamb="1"><base>zakolarski</base><ctag>adj:sg:inst:m1:pos</ctag></lex>
    <ann chan="nam">0</ann>
    <ann chan="nam_oth_currency">0</ann>
    <ann chan="nam_loc_gpe_city">0</ann>
    <ann chan="nam_oth">0</ann>
    <ann chan="nam_loc">0</ann>
    <ann chan="timex">0</ann>
    <ann chan="t3_duration">0</ann>
    <ann chan="t3_time">0</ann>
   </tok>
   <tok>
    <orth>przegrywem</orth>
    <lex disamb="1"><base>przegrywem</base><ctag>ign</ctag></lex>
    <ann chan="nam">0</ann>
    <ann chan="nam_oth_currency">0</ann>
    <ann chan="nam_loc_gpe_city">0</ann>
    <ann chan="nam_oth">0</ann>
    <ann chan="nam_loc">0</ann>
    <ann chan="timex">0</ann>
    <ann chan="t3_duration">0</ann>
    <ann chan="t3_time">0</ann>
   </tok>
   <tok>
    <orth>przez</orth>
    <lex disamb="1"><base>przez</base><ctag>prep:acc:nwok</ctag></lex>
    <ann chan="nam">0</ann>
    <ann chan="nam_oth_currency">0</ann>
    <ann chan="nam_loc_gpe_city">0</ann>
    <ann chan="nam_oth">0</ann>
    <ann chan="nam_loc">0</ann>
    <ann chan="timex">0</ann>
    <ann chan="t3_duration">0</ann>
    <ann chan="t3_time">0</ann>
   </tok>
   <tok>
    <orth>7</orth>
    <lex disamb="1"><base>7</base><ctag>num:pl:nom:m1:rec</ctag></lex>
    <ann chan="nam">0</ann>
    <ann chan="nam_oth_currency">0</ann>
    <ann chan="nam_loc_gpe_city">0</ann>
    <ann chan="nam_oth">0</ann>
    <ann chan="nam_loc">0</ann>
    <ann chan="timex">1</ann>
    <ann chan="t3_duration">1</ann>
    <ann chan="t3_time">0</ann>
   </tok>
   <tok>
    <orth>lat</orth>
    <lex disamb="1"><base>lato</base><ctag>subst:pl:gen:n</ctag></lex>
    <ann chan="nam">0</ann>
    <ann chan="nam_oth_currency">0</ann>
    <ann chan="nam_loc_gpe_city">0</ann>
    <ann chan="nam_oth">0</ann>
    <ann chan="nam_loc">0</ann>
    <ann chan="timex">1</ann>
    <ann chan="t3_duration">1</ann>
    <ann chan="t3_time">0</ann>
   </tok>
   <tok>
    <orth>swojego</orth>
    <lex disamb="1"><base>swoje</base><ctag>subst:sg:gen:n</ctag></lex>
    <ann chan="nam">0</ann>
    <ann chan="nam_oth_currency">0</ann>
    <ann chan="nam_loc_gpe_city">0</ann>
    <ann chan="nam_oth">0</ann>
    <ann chan="nam_loc">0</ann>
    <ann chan="timex">0</ann>
    <ann chan="t3_duration">0</ann>
    <ann chan="t3_time">0</ann>
   </tok>
   <tok>
    <orth>incelowego</orth>
    <lex disamb="1"><base>incelowego</base><ctag>ign</ctag></lex>
    <ann chan="nam">0</ann>
    <ann chan="nam_oth_currency">0</ann>
    <ann chan="nam_loc_gpe_city">0</ann>
    <ann chan="nam_oth">0</ann>
    <ann chan="nam_loc">0</ann>
    <ann chan="timex">0</ann>
    <ann chan="t3_duration">0</ann>
    <ann chan="t3_time">0</ann>
   </tok>
   <tok>
    <orth>życia</orth>
    <lex disamb="1"><base>życie</base><ctag>subst:sg:gen:n</ctag></lex>
    <ann chan="nam">0</ann>
    <ann chan="nam_oth_currency">0</ann>
    <ann chan="nam_loc_gpe_city">0</ann>
    <ann chan="nam_oth">0</ann>
    <ann chan="nam_loc">0</ann>
    <ann chan="timex">0</ann>
    <ann chan="t3_duration">0</ann>
    <ann chan="t3_time">0</ann>
   </tok>
   <ns/>
   <tok>
    <orth>,</orth>
    <lex disamb="1"><base>,</base><ctag>interp</ctag></lex>
    <ann chan="nam">0</ann>
    <ann chan="nam_oth_currency">0</ann>
    <ann chan="nam_loc_gpe_city">0</ann>
    <ann chan="nam_oth">0</ann>
    <ann chan="nam_loc">0</ann>
    <ann chan="timex">0</ann>
    <ann chan="t3_duration">0</ann>
    <ann chan="t3_time">0</ann>
   </tok>
   <tok>
    <orth>ukrywanie</orth>
    <lex disamb="1"><base>ukrywać</base><ctag>ger:sg:nom:n:imperf:aff</ctag></lex>
    <ann chan="nam">0</ann>
    <ann chan="nam_oth_currency">0</ann>
    <ann chan="nam_loc_gpe_city">0</ann>
    <ann chan="nam_oth">0</ann>
    <ann chan="nam_loc">0</ann>
    <ann chan="timex">0</ann>
    <ann chan="t3_duration">0</ann>
    <ann chan="t3_time">0</ann>
   </tok>
   <tok>
    <orth>pod</orth>
    <lex disamb="1"><base>pod</base><ctag>prep:acc:nwok</ctag></lex>
    <ann chan="nam">0</ann>
    <ann chan="nam_oth_currency">0</ann>
    <ann chan="nam_loc_gpe_city">0</ann>
    <ann chan="nam_oth">0</ann>
    <ann chan="nam_loc">0</ann>
    <ann chan="timex">0</ann>
    <ann chan="t3_duration">0</ann>
    <ann chan="t3_time">0</ann>
   </tok>
   <tok>
    <orth>czapką</orth>
    <lex disamb="1"><base>czapka</base><ctag>subst:sg:inst:f</ctag></lex>
    <ann chan="nam">0</ann>
    <ann chan="nam_oth_currency">0</ann>
    <ann chan="nam_loc_gpe_city">0</ann>
    <ann chan="nam_oth">0</ann>
    <ann chan="nam_loc">0</ann>
    <ann chan="timex">0</ann>
    <ann chan="t3_duration">0</ann>
    <ann chan="t3_time">0</ann>
   </tok>
   <ns/>
   <tok>
    <orth>,</orth>
    <lex disamb="1"><base>,</base><ctag>interp</ctag></lex>
    <ann chan="nam">0</ann>
    <ann chan="nam_oth_currency">0</ann>
    <ann chan="nam_loc_gpe_city">0</ann>
    <ann chan="nam_oth">0</ann>
    <ann chan="nam_loc">0</ann>
    <ann chan="timex">0</ann>
    <ann chan="t3_duration">0</ann>
    <ann chan="t3_time">0</ann>
   </tok>
   <tok>
    <orth>zaczeski</orth>
    <lex disamb="1"><base>zaczeska</base><ctag>subst:sg:gen:f</ctag></lex>
    <ann chan="nam">0</ann>
    <ann chan="nam_oth_currency">0</ann>
    <ann chan="nam_loc_gpe_city">0</ann>
    <ann chan="nam_oth">0</ann>
    <ann chan="nam_loc">0</ann>
    <ann chan="timex">0</ann>
    <ann chan="t3_duration">0</ann>
    <ann chan="t3_time">0</ann>
   </tok>
   <ns/>
   <tok>
    <orth>,</orth>
    <lex disamb="1"><base>,</base><ctag>interp</ctag></lex>
    <ann chan="nam">0</ann>
    <ann chan="nam_oth_currency">0</ann>
    <ann chan="nam_loc_gpe_city">0</ann>
    <ann chan="nam_oth">0</ann>
    <ann chan="nam_loc">0</ann>
    <ann chan="timex">0</ann>
    <ann chan="t3_duration">0</ann>
    <ann chan="t3_time">0</ann>
   </tok>
   <tok>
    <orth>ale</orth>
    <lex disamb="1"><base>ale</base><ctag>conj</ctag></lex>
    <ann chan="nam">0</ann>
    <ann chan="nam_oth_currency">0</ann>
    <ann chan="nam_loc_gpe_city">0</ann>
    <ann chan="nam_oth">0</ann>
    <ann chan="nam_loc">0</ann>
    <ann chan="timex">0</ann>
    <ann chan="t3_duration">0</ann>
    <ann chan="t3_time">0</ann>
   </tok>
   <tok>
    <orth>postanowił</orth>
    <lex disamb="1"><base>postanowić</base><ctag>praet:sg:m1:perf</ctag></lex>
    <ann chan="nam">0</ann>
    <ann chan="nam_oth_currency">0</ann>
    <ann chan="nam_loc_gpe_city">0</ann>
    <ann chan="nam_oth">0</ann>
    <ann chan="nam_loc">0</ann>
    <ann chan="timex">0</ann>
    <ann chan="t3_duration">0</ann>
    <ann chan="t3_time">0</ann>
   </tok>
   <ns/>
   <tok>
    <orth>em</orth>
    <lex disamb="1"><base>być</base><ctag>aglt:sg:pri:imperf:wok</ctag></lex>
    <ann chan="nam">0</ann>
    <ann chan="nam_oth_currency">0</ann>
    <ann chan="nam_loc_gpe_city">0</ann>
    <ann chan="nam_oth">0</ann>
    <ann chan="nam_loc">0</ann>
    <ann chan="timex">0</ann>
    <ann chan="t3_duration">0</ann>
    <ann chan="t3_time">0</ann>
   </tok>
   <tok>
    <orth>wydać</orth>
    <lex disamb="1"><base>wydać</base><ctag>inf:perf</ctag></lex>
    <ann chan="nam">0</ann>
    <ann chan="nam_oth_currency">0</ann>
    <ann chan="nam_loc_gpe_city">0</ann>
    <ann chan="nam_oth">0</ann>
    <ann chan="nam_loc">0</ann>
    <ann chan="timex">0</ann>
    <ann chan="t3_duration">0</ann>
    <ann chan="t3_time">0</ann>
   </tok>
   <tok>
    <orth>pięknego</orth>
    <lex disamb="1"><base>piękne</base><ctag>subst:sg:gen:n</ctag></lex>
    <ann chan="nam">0</ann>
    <ann chan="nam_oth_currency">0</ann>
    <ann chan="nam_loc_gpe_city">0</ann>
    <ann chan="nam_oth">0</ann>
    <ann chan="nam_loc">0</ann>
    <ann chan="timex">0</ann>
    <ann chan="t3_duration">0</ann>
    <ann chan="t3_time">1</ann>
   </tok>
   <tok>
    <orth>sierpniowego</orth>
    <lex disamb="1"><base>sierpniowy</base><ctag>adj:sg:gen:m1:pos</ctag></lex>
    <ann chan="nam">0</ann>
    <ann chan="nam_oth_currency">0</ann>
    <ann chan="nam_loc_gpe_city">0</ann>
    <ann chan="nam_oth">0</ann>
    <ann chan="nam_loc">0</ann>
    <ann chan="timex">2</ann>
    <ann chan="t3_duration">0</ann>
    <ann chan="t3_time">1</ann>
   </tok>
   <tok>
    <orth>dnia</orth>
    <lex disamb="1"><base>dzień</base><ctag>subst:sg:gen:m3</ctag></lex>
    <ann chan="nam">0</ann>
    <ann chan="nam_oth_currency">0</ann>
    <ann chan="nam_loc_gpe_city">0</ann>
    <ann chan="nam_oth">0</ann>
    <ann chan="nam_loc">0</ann>
    <ann chan="timex">2</ann>
    <ann chan="t3_duration">0</ann>
    <ann chan="t3_time">1</ann>
   </tok>
   <tok>
    <orth>22</orth>
    <lex disamb="1"><base>22</base><ctag>num:pl:nom:m1:rec</ctag></lex>
    <ann chan="nam">0</ann>
    <ann chan="nam_oth_currency">0</ann>
    <ann chan="nam_loc_gpe_city">0</ann>
    <ann chan="nam_oth">0</ann>
    <ann chan="nam_loc">0</ann>
    <ann chan="timex">2</ann>
    <ann chan="t3_duration">0</ann>
    <ann chan="t3_time">1</ann>
   </tok>
   <tok>
    <orth>ty</orth>
    <lex disamb="1"><base>ty</base><ctag>ppron12:sg:nom:m1:sec</ctag></lex>
    <ann chan="nam">0</ann>
    <ann chan="nam_oth_currency">0</ann>
    <ann chan="nam_loc_gpe_city">0</ann>
    <ann chan="nam_oth">0</ann>
    <ann chan="nam_loc">0</ann>
    <ann chan="timex">0</ann>
    <ann chan="t3_duration">0</ann>
    <ann chan="t3_time">0</ann>
   </tok>
   <ns/>
   <tok>
    <orth>ś</orth>
    <lex disamb="1"><base>być</base><ctag>aglt:sg:sec:imperf:nwok</ctag></lex>
    <ann chan="nam">0</ann>
    <ann chan="nam_oth_currency">0</ann>
    <ann chan="nam_loc_gpe_city">0</ann>
    <ann chan="nam_oth">0</ann>
    <ann chan="nam_loc">0</ann>
    <ann chan="timex">0</ann>
    <ann chan="t3_duration">0</ann>
    <ann chan="t3_time">0</ann>
   </tok>
   <tok>
    <orth>zł</orth>
    <lex disamb="1"><base>złoty</base><ctag>brev:npun</ctag></lex>
    <ann chan="nam">1</ann>
    <ann chan="nam_oth_currency">1</ann>
    <ann chan="nam_loc_gpe_city">0</ann>
    <ann chan="nam_oth">1</ann>
    <ann chan="nam_loc">0</ann>
    <ann chan="timex">0</ann>
    <ann chan="t3_duration">0</ann>
    <ann chan="t3_time">0</ann>
   </tok>
   <ns/>
   <tok>
    <orth>,</orth>
    <lex disamb="1"><base>,</base><ctag>interp</ctag></lex>
    <ann chan="nam">0</ann>
    <ann chan="nam_oth_currency">0</ann>
    <ann chan="nam_loc_gpe_city">0</ann>
    <ann chan="nam_oth">0</ann>
    <ann chan="nam_loc">0</ann>
    <ann chan="timex">0</ann>
    <ann chan="t3_duration">0</ann>
    <ann chan="t3_time">0</ann>
   </tok>
   <tok>
    <orth>aby</orth>
    <lex disamb="1"><base>aby</base><ctag>comp</ctag></lex>
    <ann chan="nam">0</ann>
    <ann chan="nam_oth_currency">0</ann>
    <ann chan="nam_loc_gpe_city">0</ann>
    <ann chan="nam_oth">0</ann>
    <ann chan="nam_loc">0</ann>
    <ann chan="timex">0</ann>
    <ann chan="t3_duration">0</ann>
    <ann chan="t3_time">0</ann>
   </tok>
   <tok>
    <orth>z</orth>
    <lex disamb="1"><base>z</base><ctag>prep:gen:nwok</ctag></lex>
    <ann chan="nam">0</ann>
    <ann chan="nam_oth_currency">0</ann>
    <ann chan="nam_loc_gpe_city">0</ann>
    <ann chan="nam_oth">0</ann>
    <ann chan="nam_loc">0</ann>
    <ann chan="timex">0</ann>
    <ann chan="t3_duration">0</ann>
    <ann chan="t3_time">0</ann>
   </tok>
   <tok>
    <orth>bety</orth>
    <lex disamb="1"><base>bet</base><ctag>subst:pl:nom:m3</ctag></lex>
    <ann chan="nam">0</ann>
    <ann chan="nam_oth_currency">0</ann>
    <ann chan="nam_loc_gpe_city">0</ann>
    <ann chan="nam_oth">0</ann>
    <ann chan="nam_loc">0</ann>
    <ann chan="timex">0</ann>
    <ann chan="t3_duration">0</ann>
    <ann chan="t3_time">0</ann>
   </tok>
   <tok>
    <orth>zamienić</orth>
    <lex disamb="1"><base>zamienić</base><ctag>inf:perf</ctag></lex>
    <ann chan="nam">0</ann>
    <ann chan="nam_oth_currency">0</ann>
    <ann chan="nam_loc_gpe_city">0</ann>
    <ann chan="nam_oth">0</ann>
    <ann chan="nam_loc">0</ann>
    <ann chan="timex">0</ann>
    <ann chan="t3_duration">0</ann>
    <ann chan="t3_time">0</ann>
   </tok>
   <tok>
    <orth>się</orth>
    <lex disamb="1"><base>się</base><ctag>qub</ctag></lex>
    <ann chan="nam">0</ann>
    <ann chan="nam_oth_currency">0</ann>
    <ann chan="nam_loc_gpe_city">0</ann>
    <ann chan="nam_oth">0</ann>
    <ann chan="nam_loc">0</ann>
    <ann chan="timex">0</ann>
    <ann chan="t3_duration">0</ann>
    <ann chan="t3_time">0</ann>
   </tok>
   <tok>
    <orth>w</orth>
    <lex disamb="1"><base>w</base><ctag>prep:acc:nwok</ctag></lex>
    <ann chan="nam">0</ann>
    <ann chan="nam_oth_currency">0</ann>
    <ann chan="nam_loc_gpe_city">0</ann>
    <ann chan="nam_oth">0</ann>
    <ann chan="nam_loc">0</ann>
    <ann chan="timex">0</ann>
    <ann chan="t3_duration">0</ann>
    <ann chan="t3_time">0</ann>
   </tok>
   <tok>
    <orth>Alfę</orth>
    <lex disamb="1"><base>alfa</base><ctag>subst:sg:acc:f</ctag></lex>
    <ann chan="nam">2</ann>
    <ann chan="nam_oth_currency">0</ann>
    <ann chan="nam_loc_gpe_city">1</ann>
    <ann chan="nam_oth">0</ann>
    <ann chan="nam_loc">1</ann>
    <ann chan="timex">0</ann>
    <ann chan="t3_duration">0</ann>
    <ann chan="t3_time">0</ann>
   </tok>
   <tok>
    <orth>i</orth>
    <lex disamb="1"><base>i</base><ctag>conj</ctag></lex>
    <ann chan="nam">0</ann>
    <ann chan="nam_oth_currency">0</ann>
    <ann chan="nam_loc_gpe_city">0</ann>
    <ann chan="nam_oth">0</ann>
    <ann chan="nam_loc">0</ann>
    <ann chan="timex">0</ann>
    <ann chan="t3_duration">0</ann>
    <ann chan="t3_time">0</ann>
   </tok>
   <tok>
    <orth>było</orth>
    <lex disamb="1"><base>być</base><ctag>praet:sg:n:imperf</ctag></lex>
    <ann chan="nam">0</ann>
    <ann chan="nam_oth_currency">0</ann>
    <ann chan="nam_loc_gpe_city">0</ann>
    <ann chan="nam_oth">0</ann>
    <ann chan="nam_loc">0</ann>
    <ann chan="timex">0</ann>
    <ann chan="t3_duration">0</ann>
    <ann chan="t3_time">0</ann>
   </tok>
   <tok>
    <orth>warto</orth>
    <lex disamb="1"><base>warto</base><ctag>pred</ctag></lex>
    <ann chan="nam">0</ann>
    <ann chan="nam_oth_currency">0</ann>
    <ann chan="nam_loc_gpe_city">0</ann>
    <ann chan="nam_oth">0</ann>
    <ann chan="nam_loc">0</ann>
    <ann chan="timex">0</ann>
    <ann chan="t3_duration">0</ann>
    <ann chan="t3_time">0</ann>
   </tok>
   <ns/>
   <tok>
    <orth>,</orth>
    <lex disamb="1"><base>,</base><ctag>interp</ctag></lex>
    <ann chan="nam">0</ann>
    <ann chan="nam_oth_currency">0</ann>
    <ann chan="nam_loc_gpe_city">0</ann>
    <ann chan="nam_oth">0</ann>
    <ann chan="nam_loc">0</ann>
    <ann chan="timex">0</ann>
    <ann chan="t3_duration">0</ann>
    <ann chan="t3_time">0</ann>
   </tok>
   <tok>
    <orth>w</orth>
    <lex disamb="1"><base>w</base><ctag>prep:acc:nwok</ctag></lex>
    <ann chan="nam">0</ann>
    <ann chan="nam_oth_currency">0</ann>
    <ann chan="nam_loc_gpe_city">0</ann>
    <ann chan="nam_oth">0</ann>
    <ann chan="nam_loc">0</ann>
    <ann chan="timex">0</ann>
    <ann chan="t3_duration">0</ann>
    <ann chan="t3_time">0</ann>
   </tok>
   <tok>
    <orth>nowych</orth>
    <lex disamb="1"><base>nowa</base><ctag>subst:pl:gen:f</ctag></lex>
    <ann chan="nam">0</ann>
    <ann chan="nam_oth_currency">0</ann>
    <ann chan="nam_loc_gpe_city">0</ann>
    <ann chan="nam_oth">0</ann>
    <ann chan="nam_loc">0</ann>
    <ann chan="timex">0</ann>
    <ann chan="t3_duration">0</ann>
    <ann chan="t3_time">0</ann>
   </tok>
   <tok>
    <orth>włosach</orth>
    <lex disamb="1"><base>włos</base><ctag>subst:pl:loc:m3</ctag></lex>
    <ann chan="nam">0</ann>
    <ann chan="nam_oth_currency">0</ann>
    <ann chan="nam_loc_gpe_city">0</ann>
    <ann chan="nam_oth">0</ann>
    <ann chan="nam_loc">0</ann>
    <ann chan="timex">0</ann>
    <ann chan="t3_duration">0</ann>
    <ann chan="t3_time">0</ann>
   </tok>
   <tok>
    <orth>nawet</orth>
    <lex disamb="1"><base>nawet</base><ctag>qub</ctag></lex>
    <ann chan="nam">0</ann>
    <ann chan="nam_oth_currency">0</ann>
    <ann chan="nam_loc_gpe_city">0</ann>
    <ann chan="nam_oth">0</ann>
    <ann chan="nam_loc">0</ann>
    <ann chan="timex">0</ann>
    <ann chan="t3_duration">0</ann>
    <ann chan="t3_time">0</ann>
   </tok>
   <tok>
    <orth>udało</orth>
    <lex disamb="1"><base>udać</base><ctag>praet:sg:n:perf</ctag></lex>
    <ann chan="nam">0</ann>
    <ann chan="nam_oth_currency">0</ann>
    <ann chan="nam_loc_gpe_city">0</ann>
    <ann chan="nam_oth">0</ann>
    <ann chan="nam_loc">0</ann>
    <ann chan="timex">0</ann>
    <ann chan="t3_duration">0</ann>
    <ann chan="t3_time">0</ann>
   </tok>
   <tok>
    <orth>się</orth>
    <lex disamb="1"><base>się</base><ctag>qub</ctag></lex>
    <ann chan="nam">0</ann>
    <ann chan="nam_oth_currency">0</ann>
    <ann chan="nam_loc_gpe_city">0</ann>
    <ann chan="nam_oth">0</ann>
    <ann chan="nam_loc">0</ann>
    <ann chan="timex">0</ann>
    <ann chan="t3_duration">0</ann>
    <ann chan="t3_time">0</ann>
   </tok>
   <tok>
    <orth>zaruchać</orth>
    <lex disamb="1"><base>zaruchać</base><ctag>ign</ctag></lex>
    <ann chan="nam">0</ann>
    <ann chan="nam_oth_currency">0</ann>
    <ann chan="nam_loc_gpe_city">0</ann>
    <ann chan="nam_oth">0</ann>
    <ann chan="nam_loc">0</ann>
    <ann chan="timex">0</ann>
    <ann chan="t3_duration">0</ann>
    <ann chan="t3_time">0</ann>
   </tok>
   <ns/>
   <tok>
    <orth>,</orth>
    <lex disamb="1"><base>,</base><ctag>interp</ctag></lex>
    <ann chan="nam">0</ann>
    <ann chan="nam_oth_currency">0</ann>
    <ann chan="nam_loc_gpe_city">0</ann>
    <ann chan="nam_oth">0</ann>
    <ann chan="nam_loc">0</ann>
    <ann chan="timex">0</ann>
    <ann chan="t3_duration">0</ann>
    <ann chan="t3_time">0</ann>
   </tok>
   <tok>
    <orth>a</orth>
    <lex disamb="1"><base>a</base><ctag>conj</ctag></lex>
    <ann chan="nam">0</ann>
    <ann chan="nam_oth_currency">0</ann>
    <ann chan="nam_loc_gpe_city">0</ann>
    <ann chan="nam_oth">0</ann>
    <ann chan="nam_loc">0</ann>
    <ann chan="timex">0</ann>
    <ann chan="t3_duration">0</ann>
    <ann chan="t3_time">0</ann>
   </tok>
   <tok>
    <orth>z</orth>
    <lex disamb="1"><base>z</base><ctag>prep:gen:nwok</ctag></lex>
    <ann chan="nam">0</ann>
    <ann chan="nam_oth_currency">0</ann>
    <ann chan="nam_loc_gpe_city">0</ann>
    <ann chan="nam_oth">0</ann>
    <ann chan="nam_loc">0</ann>
    <ann chan="timex">0</ann>
    <ann chan="t3_duration">0</ann>
    <ann chan="t3_time">0</ann>
   </tok>
   <tok>
    <orth>zakolami</orth>
    <lex disamb="1"><base>zakole</base><ctag>subst:pl:inst:n</ctag></lex>
    <ann chan="nam">0</ann>
    <ann chan="nam_oth_currency">0</ann>
    <ann chan="nam_loc_gpe_city">0</ann>
    <ann chan="nam_oth">0</ann>
    <ann chan="nam_loc">0</ann>
    <ann chan="timex">0</ann>
    <ann chan="t3_duration">0</ann>
    <ann chan="t3_time">0</ann>
   </tok>
   <tok>
    <orth>co</orth>
    <lex disamb="1"><base>co</base><ctag>comp</ctag></lex>
    <ann chan="nam">0</ann>
    <ann chan="nam_oth_currency">0</ann>
    <ann chan="nam_loc_gpe_city">0</ann>
    <ann chan="nam_oth">0</ann>
    <ann chan="nam_loc">0</ann>
    <ann chan="timex">0</ann>
    <ann chan="t3_duration">0</ann>
    <ann chan="t3_time">0</ann>
   </tok>
   <tok>
    <orth>najwyżej</orth>
    <lex disamb="1"><base>wysoce</base><ctag>adv:pos</ctag></lex>
    <lex disamb="1"><base>wysoko</base><ctag>adv:pos</ctag></lex>
    <ann chan="nam">0</ann>
    <ann chan="nam_oth_currency">0</ann>
    <ann chan="nam_loc_gpe_city">0</ann>
    <ann chan="nam_oth">0</ann>
    <ann chan="nam_loc">0</ann>
    <ann chan="timex">0</ann>
    <ann chan="t3_duration">0</ann>
    <ann chan="t3_time">0</ann>
   </tok>
   <tok>
    <orth>musiał</orth>
    <lex disamb="1"><base>musieć</base><ctag>praet:sg:m1:imperf</ctag></lex>
    <ann chan="nam">0</ann>
    <ann chan="nam_oth_currency">0</ann>
    <ann chan="nam_loc_gpe_city">0</ann>
    <ann chan="nam_oth">0</ann>
    <ann chan="nam_loc">0</ann>
    <ann chan="timex">0</ann>
    <ann chan="t3_duration">0</ann>
    <ann chan="t3_time">0</ann>
   </tok>
   <ns/>
   <tok>
    <orth>em</orth>
    <lex disamb="1"><base>być</base><ctag>aglt:sg:pri:imperf:wok</ctag></lex>
    <ann chan="nam">0</ann>
    <ann chan="nam_oth_currency">0</ann>
    <ann chan="nam_loc_gpe_city">0</ann>
    <ann chan="nam_oth">0</ann>
    <ann chan="nam_loc">0</ann>
    <ann chan="timex">0</ann>
    <ann chan="t3_duration">0</ann>
    <ann chan="t3_time">0</ann>
   </tok>
   <tok>
    <orth>ściągać</orth>
    <lex disamb="1"><base>ściągać</base><ctag>inf:imperf</ctag></lex>
    <ann chan="nam">0</ann>
    <ann chan="nam_oth_currency">0</ann>
    <ann chan="nam_loc_gpe_city">0</ann>
    <ann chan="nam_oth">0</ann>
    <ann chan="nam_loc">0</ann>
    <ann chan="timex">0</ann>
    <ann chan="t3_duration">0</ann>
    <ann chan="t3_time">0</ann>
   </tok>
   <tok>
    <orth>sobie</orth>
    <lex disamb="1"><base>siebie</base><ctag>siebie:dat</ctag></lex>
    <ann chan="nam">0</ann>
    <ann chan="nam_oth_currency">0</ann>
    <ann chan="nam_loc_gpe_city">0</ann>
    <ann chan="nam_oth">0</ann>
    <ann chan="nam_loc">0</ann>
    <ann chan="timex">0</ann>
    <ann chan="t3_duration">0</ann>
    <ann chan="t3_time">0</ann>
   </tok>
   <tok>
    <orth>skórkę</orth>
    <lex disamb="1"><base>skórka</base><ctag>subst:sg:acc:f</ctag></lex>
    <ann chan="nam">0</ann>
    <ann chan="nam_oth_currency">0</ann>
    <ann chan="nam_loc_gpe_city">0</ann>
    <ann chan="nam_oth">0</ann>
    <ann chan="nam_loc">0</ann>
    <ann chan="timex">0</ann>
    <ann chan="t3_duration">0</ann>
    <ann chan="t3_time">0</ann>
   </tok>
   <tok>
    <orth>samego</orth>
    <lex disamb="1"><base>sam</base><ctag>adj:sg:gen:m1:pos</ctag></lex>
    <ann chan="nam">0</ann>
    <ann chan="nam_oth_currency">0</ann>
    <ann chan="nam_loc_gpe_city">0</ann>
    <ann chan="nam_oth">0</ann>
    <ann chan="nam_loc">0</ann>
    <ann chan="timex">0</ann>
    <ann chan="t3_duration">0</ann>
    <ann chan="t3_time">0</ann>
   </tok>
   <ns/>
   <tok>
    <orth>,</orth>
    <lex disamb="1"><base>,</base><ctag>interp</ctag></lex>
    <ann chan="nam">0</ann>
    <ann chan="nam_oth_currency">0</ann>
    <ann chan="nam_loc_gpe_city">0</ann>
    <ann chan="nam_oth">0</ann>
    <ann chan="nam_loc">0</ann>
    <ann chan="timex">0</ann>
    <ann chan="t3_duration">0</ann>
    <ann chan="t3_time">0</ann>
   </tok>
   <tok>
    <orth>bez</orth>
    <lex disamb="1"><base>bez</base><ctag>prep:gen:nwok</ctag></lex>
    <ann chan="nam">0</ann>
    <ann chan="nam_oth_currency">0</ann>
    <ann chan="nam_loc_gpe_city">0</ann>
    <ann chan="nam_oth">0</ann>
    <ann chan="nam_loc">0</ann>
    <ann chan="timex">0</ann>
    <ann chan="t3_duration">0</ann>
    <ann chan="t3_time">0</ann>
   </tok>
   <tok>
    <orth>zakolarskiego</orth>
    <lex disamb="1"><base>zakolarski</base><ctag>adj:sg:gen:m1:pos</ctag></lex>
    <ann chan="nam">0</ann>
    <ann chan="nam_oth_currency">0</ann>
    <ann chan="nam_loc_gpe_city">0</ann>
    <ann chan="nam_oth">0</ann>
    <ann chan="nam_loc">0</ann>
    <ann chan="timex">0</ann>
    <ann chan="t3_duration">0</ann>
    <ann chan="t3_time">0</ann>
   </tok>
   <tok>
    <orth>pozdrowienia</orth>
    <lex disamb="1"><base>pozdrowienie</base><ctag>subst:sg:gen:n</ctag></lex>
    <ann chan="nam">0</ann>
    <ann chan="nam_oth_currency">0</ann>
    <ann chan="nam_loc_gpe_city">0</ann>
    <ann chan="nam_oth">0</ann>
    <ann chan="nam_loc">0</ann>
    <ann chan="timex">0</ann>
    <ann chan="t3_duration">0</ann>
    <ann chan="t3_time">0</ann>
   </tok>
   <tok>
    <orth>mireczki</orth>
    <lex disamb="1"><base>Mireczka</base><ctag>subst:sg:gen:f</ctag></lex>
    <ann chan="nam">0</ann>
    <ann chan="nam_oth_currency">0</ann>
    <ann chan="nam_loc_gpe_city">0</ann>
    <ann chan="nam_oth">0</ann>
    <ann chan="nam_loc">0</ann>
    <ann chan="timex">0</ann>
    <ann chan="t3_duration">0</ann>
    <ann chan="t3_time">0</ann>
   </tok>
   <tok>
    <orth>(</orth>
    <lex disamb="1"><base>(</base><ctag>interp</ctag></lex>
    <ann chan="nam">0</ann>
    <ann chan="nam_oth_currency">0</ann>
    <ann chan="nam_loc_gpe_city">0</ann>
    <ann chan="nam_oth">0</ann>
    <ann chan="nam_loc">0</ann>
    <ann chan="timex">0</ann>
    <ann chan="t3_duration">0</ann>
    <ann chan="t3_time">0</ann>
   </tok>
   <tok>
    <orth>͡</orth>
    <lex disamb="1"><base>͡</base><ctag>ign</ctag></lex>
    <ann chan="nam">0</ann>
    <ann chan="nam_oth_currency">0</ann>
    <ann chan="nam_loc_gpe_city">0</ann>
    <ann chan="nam_oth">0</ann>
    <ann chan="nam_loc">0</ann>
    <ann chan="timex">0</ann>
    <ann chan="t3_duration">0</ann>
    <ann chan="t3_time">0</ann>
   </tok>
   <ns/>
   <tok>
    <orth>°</orth>
    <lex disamb="1"><base>°</base><ctag>interp</ctag></lex>
    <ann chan="nam">0</ann>
    <ann chan="nam_oth_currency">0</ann>
    <ann chan="nam_loc_gpe_city">0</ann>
    <ann chan="nam_oth">0</ann>
    <ann chan="nam_loc">0</ann>
    <ann chan="timex">0</ann>
    <ann chan="t3_duration">0</ann>
    <ann chan="t3_time">0</ann>
   </tok>
   <tok>
    <orth>͜ʖ</orth>
    <lex disamb="1"><base>͜ʖ</base><ctag>ign</ctag></lex>
    <ann chan="nam">0</ann>
    <ann chan="nam_oth_currency">0</ann>
    <ann chan="nam_loc_gpe_city">0</ann>
    <ann chan="nam_oth">0</ann>
    <ann chan="nam_loc">0</ann>
    <ann chan="timex">0</ann>
    <ann chan="t3_duration">0</ann>
    <ann chan="t3_time">0</ann>
   </tok>
   <tok>
    <orth>͡</orth>
    <lex disamb="1"><base>͡</base><ctag>ign</ctag></lex>
    <ann chan="nam">0</ann>
    <ann chan="nam_oth_currency">0</ann>
    <ann chan="nam_loc_gpe_city">0</ann>
    <ann chan="nam_oth">0</ann>
    <ann chan="nam_loc">0</ann>
    <ann chan="timex">0</ann>
    <ann chan="t3_duration">0</ann>
    <ann chan="t3_time">0</ann>
   </tok>
   <ns/>
   <tok>
    <orth>°</orth>
    <lex disamb="1"><base>°</base><ctag>interp</ctag></lex>
    <ann chan="nam">0</ann>
    <ann chan="nam_oth_currency">0</ann>
    <ann chan="nam_loc_gpe_city">0</ann>
    <ann chan="nam_oth">0</ann>
    <ann chan="nam_loc">0</ann>
    <ann chan="timex">0</ann>
    <ann chan="t3_duration">0</ann>
    <ann chan="t3_time">0</ann>
   </tok>
   <ns/>
   <tok>
    <orth>)</orth>
    <lex disamb="1"><base>)</base><ctag>interp</ctag></lex>
    <ann chan="nam">0</ann>
    <ann chan="nam_oth_currency">0</ann>
    <ann chan="nam_loc_gpe_city">0</ann>
    <ann chan="nam_oth">0</ann>
    <ann chan="nam_loc">0</ann>
    <ann chan="timex">0</ann>
    <ann chan="t3_duration">0</ann>
    <ann chan="t3_time">0</ann>
   </tok>
   <tok>
    <orth>#</orth>
    <lex disamb="1"><base>#</base><ctag>interp</ctag></lex>
    <ann chan="nam">0</ann>
    <ann chan="nam_oth_currency">0</ann>
    <ann chan="nam_loc_gpe_city">0</ann>
    <ann chan="nam_oth">0</ann>
    <ann chan="nam_loc">0</ann>
    <ann chan="timex">0</ann>
    <ann chan="t3_duration">0</ann>
    <ann chan="t3_time">0</ann>
   </tok>
   <ns/>
   <tok>
    <orth>zakola</orth>
    <lex disamb="1"><base>zakole</base><ctag>subst:sg:gen:n</ctag></lex>
    <ann chan="nam">0</ann>
    <ann chan="nam_oth_currency">0</ann>
    <ann chan="nam_loc_gpe_city">0</ann>
    <ann chan="nam_oth">0</ann>
    <ann chan="nam_loc">0</ann>
    <ann chan="timex">0</ann>
    <ann chan="t3_duration">0</ann>
    <ann chan="t3_time">0</ann>
   </tok>
   <tok>
    <orth>#</orth>
    <lex disamb="1"><base>#</base><ctag>interp</ctag></lex>
    <ann chan="nam">0</ann>
    <ann chan="nam_oth_currency">0</ann>
    <ann chan="nam_loc_gpe_city">0</ann>
    <ann chan="nam_oth">0</ann>
    <ann chan="nam_loc">0</ann>
    <ann chan="timex">0</ann>
    <ann chan="t3_duration">0</ann>
    <ann chan="t3_time">0</ann>
   </tok>
   <ns/>
   <tok>
    <orth>wlosy</orth>
    <lex disamb="1"><base>wlosy</base><ctag>ign</ctag></lex>
    <ann chan="nam">0</ann>
    <ann chan="nam_oth_currency">0</ann>
    <ann chan="nam_loc_gpe_city">0</ann>
    <ann chan="nam_oth">0</ann>
    <ann chan="nam_loc">0</ann>
    <ann chan="timex">0</ann>
    <ann chan="t3_duration">0</ann>
    <ann chan="t3_time">0</ann>
   </tok>
  </sentence>
 </chunk>
</chunkList>