<?xml version="1.0" encoding="UTF-8"?>
<!DOCTYPE chunkList SYSTEM "ccl.dtd">
<chunkList>
 <chunk type="p" id="ch1">
  <sentence id="s1">
   <tok>
    <orth>Wirus</orth>
    <lex disamb="1"><base>wirus</base><ctag>subst:sg:nom:m2</ctag></lex>
   </tok>
   <ns/>
   <tok>
    <orth>?</orth>
    <lex disamb="1"><base>?</base><ctag>interp</ctag></lex>
   </tok>
  </sentence>
 </chunk>
 <chunk type="p" id="ch2">
  <sentence id="s2">
   <tok>
    <orth>Kumpel</orth>
    <lex disamb="1"><base>kumpel</base><ctag>subst:sg:nom:m1</ctag></lex>
   </tok>
   <tok>
    <orth>mojego</orth>
    <lex disamb="1"><base>moje</base><ctag>subst:sg:gen:n</ctag></lex>
   </tok>
   <tok>
    <orth>byłego</orth>
    <lex disamb="1"><base>były</base><ctag>subst:sg:gen:m1</ctag></lex>
   </tok>
   <ns/>
   <tok>
    <orth>,</orth>
    <lex disamb="1"><base>,</base><ctag>interp</ctag></lex>
   </tok>
   <tok>
    <orth>nigdy</orth>
    <lex disamb="1"><base>nigdy</base><ctag>adv:pos</ctag></lex>
   </tok>
   <tok>
    <orth>nie</orth>
    <lex disamb="1"><base>nie</base><ctag>conj</ctag></lex>
   </tok>
   <tok>
    <orth>gadali</orth>
    <lex disamb="1"><base>gadać</base><ctag>praet:pl:m1:imperf</ctag></lex>
   </tok>
   <ns/>
   <tok>
    <orth>śmy</orth>
    <lex disamb="1"><base>być</base><ctag>aglt:pl:pri:imperf:nwok</ctag></lex>
   </tok>
   <tok>
    <orth>od</orth>
    <lex disamb="1"><base>od</base><ctag>prep:gen:nwok</ctag></lex>
   </tok>
   <tok>
    <orth>rozstania</orth>
    <lex disamb="1"><base>rozstanie</base><ctag>subst:sg:gen:n</ctag></lex>
   </tok>
   <ns/>
   <tok>
    <orth>,</orth>
    <lex disamb="1"><base>,</base><ctag>interp</ctag></lex>
   </tok>
   <tok>
    <orth>podejrzane</orth>
    <lex disamb="1"><base>podejrzana</base><ctag>subst:pl:nom:f</ctag></lex>
   </tok>
  </sentence>
 </chunk>
</chunkList>