<?xml version="1.0" encoding="UTF-8"?>
<!DOCTYPE chunkList SYSTEM "ccl.dtd">
<chunkList>
 <chunk type="p" id="ch1">
  <sentence id="s1">
   <tok>
    <orth>Typowy</orth>
    <lex disamb="1"><base>typowy</base><ctag>adj:sg:nom:m1:pos</ctag></lex>
   </tok>
   <tok>
    <orth>dzień</orth>
    <lex disamb="1"><base>dzienia</base><ctag>subst:pl:gen:f</ctag></lex>
   </tok>
   <tok>
    <orth>właściciela</orth>
    <lex disamb="1"><base>właściciel</base><ctag>subst:sg:gen:m1</ctag></lex>
   </tok>
   <tok>
    <orth>Lambo</orth>
    <lex disamb="1"><base>Lambo</base><ctag>ign</ctag></lex>
   </tok>
   <tok>
    <orth>w</orth>
    <lex disamb="1"><base>w</base><ctag>prep:acc:nwok</ctag></lex>
   </tok>
   <tok>
    <orth>tym</orth>
    <lex disamb="1"><base>tym</base><ctag>conj</ctag></lex>
   </tok>
   <tok>
    <orth>jakże</orth>
    <lex disamb="1"><base>jakże</base><ctag>adv:pos</ctag></lex>
   </tok>
   <tok>
    <orth>pięknym</orth>
    <lex disamb="1"><base>piękne</base><ctag>subst:sg:inst:n</ctag></lex>
   </tok>
   <tok>
    <orth>kraju</orth>
    <lex disamb="1"><base>kraj</base><ctag>subst:sg:gen:m3</ctag></lex>
   </tok>
  </sentence>
 </chunk>
 <chunk type="p" id="ch2">
  <sentence id="s2">
   <tok>
    <orth>#</orth>
    <lex disamb="1"><base>#</base><ctag>interp</ctag></lex>
   </tok>
   <ns/>
   <tok>
    <orth>motoryzacja</orth>
    <lex disamb="1"><base>motoryzacja</base><ctag>subst:sg:nom:f</ctag></lex>
   </tok>
   <tok>
    <orth>#</orth>
    <lex disamb="1"><base>#</base><ctag>interp</ctag></lex>
   </tok>
   <ns/>
   <tok>
    <orth>samochody</orth>
    <lex disamb="1"><base>samochód</base><ctag>subst:pl:nom:m3</ctag></lex>
   </tok>
   <tok>
    <orth>#</orth>
    <lex disamb="1"><base>#</base><ctag>interp</ctag></lex>
   </tok>
   <ns/>
   <tok>
    <orth>polaki</orth>
    <lex disamb="1"><base>polak</base><ctag>subst:pl:nom:m2</ctag></lex>
   </tok>
   <tok>
    <orth>#</orth>
    <lex disamb="1"><base>#</base><ctag>interp</ctag></lex>
   </tok>
   <ns/>
   <tok>
    <orth>cebulaki</orth>
    <lex disamb="1"><base>cebulaki</base><ctag>ign</ctag></lex>
   </tok>
   <tok>
    <orth>#</orth>
    <lex disamb="1"><base>#</base><ctag>interp</ctag></lex>
   </tok>
   <ns/>
   <tok>
    <orth>cebula</orth>
    <lex disamb="1"><base>cebula</base><ctag>subst:sg:nom:f</ctag></lex>
   </tok>
   <tok>
    <orth>#</orth>
    <lex disamb="1"><base>#</base><ctag>interp</ctag></lex>
   </tok>
   <ns/>
   <tok>
    <orth>polska</orth>
    <lex disamb="1"><base>polski</base><ctag>adj:sg:nom:f:pos</ctag></lex>
   </tok>
   <tok>
    <orth>#</orth>
    <lex disamb="1"><base>#</base><ctag>interp</ctag></lex>
   </tok>
   <ns/>
   <tok>
    <orth>carboners</orth>
    <lex disamb="1"><base>carboners</base><ctag>ign</ctag></lex>
   </tok>
  </sentence>
 </chunk>
</chunkList>