<?xml version="1.0" encoding="UTF-8"?>
<!DOCTYPE chunkList SYSTEM "ccl.dtd">
<chunkList>
 <chunk type="p" id="ch1">
  <sentence id="s1">
   <tok>
    <orth>Jeżeli</orth>
    <lex disamb="1"><base>jeżeli</base><ctag>comp</ctag></lex>
   </tok>
   <tok>
    <orth>byli</orth>
    <lex disamb="1"><base>być</base><ctag>praet:pl:m1:imperf</ctag></lex>
   </tok>
   <ns/>
   <tok>
    <orth>ście</orth>
    <lex disamb="1"><base>być</base><ctag>aglt:pl:sec:imperf:nwok</ctag></lex>
   </tok>
   <tok>
    <orth>przekonani</orth>
    <lex disamb="1"><base>przekonany</base><ctag>adj:pl:nom:m1:pos</ctag></lex>
   </tok>
   <tok>
    <orth>że</orth>
    <lex disamb="1"><base>że</base><ctag>comp</ctag></lex>
   </tok>
   <tok>
    <orth>podbieranie</orth>
    <lex disamb="1"><base>podbierać</base><ctag>ger:sg:nom:n:imperf:aff</ctag></lex>
   </tok>
   <tok>
    <orth>paliwa</orth>
    <lex disamb="1"><base>paliwo</base><ctag>subst:sg:gen:n</ctag></lex>
   </tok>
   <tok>
    <orth>z</orth>
    <lex disamb="1"><base>z</base><ctag>prep:gen:nwok</ctag></lex>
   </tok>
   <tok>
    <orth>firmowych</orth>
    <lex disamb="1"><base>firmowy</base><ctag>adj:pl:gen:m1:pos</ctag></lex>
   </tok>
   <tok>
    <orth>busów</orth>
    <lex disamb="1"><base>bus</base><ctag>subst:pl:gen:m2</ctag></lex>
   </tok>
   <tok>
    <orth>jest</orth>
    <lex disamb="1"><base>być</base><ctag>fin:sg:ter:imperf</ctag></lex>
   </tok>
   <tok>
    <orth>szczytem</orth>
    <lex disamb="1"><base>szczyt</base><ctag>subst:sg:inst:m3</ctag></lex>
   </tok>
   <tok>
    <orth>cebulactwa</orth>
    <lex disamb="1"><base>cebulactwa</base><ctag>ign</ctag></lex>
   </tok>
   <tok>
    <orth>to</orth>
    <lex disamb="1"><base>to</base><ctag>conj</ctag></lex>
   </tok>
   <tok>
    <orth>muszę</orth>
    <lex disamb="1"><base>musza</base><ctag>subst:sg:acc:f</ctag></lex>
   </tok>
   <tok>
    <orth>was</orth>
    <lex disamb="1"><base>wy</base><ctag>ppron12:pl:gen:m1:sec</ctag></lex>
   </tok>
   <tok>
    <orth>zaskoczyć</orth>
    <lex disamb="1"><base>zaskoczyć</base><ctag>inf:perf</ctag></lex>
   </tok>
   <tok>
    <orth>(</orth>
    <lex disamb="1"><base>(</base><ctag>interp</ctag></lex>
   </tok>
   <tok>
    <orth>͡</orth>
    <lex disamb="1"><base>͡</base><ctag>ign</ctag></lex>
   </tok>
   <ns/>
   <tok>
    <orth>°</orth>
    <lex disamb="1"><base>°</base><ctag>interp</ctag></lex>
   </tok>
   <tok>
    <orth>͜ʖ</orth>
    <lex disamb="1"><base>͜ʖ</base><ctag>ign</ctag></lex>
   </tok>
   <tok>
    <orth>͡</orth>
    <lex disamb="1"><base>͡</base><ctag>ign</ctag></lex>
   </tok>
   <ns/>
   <tok>
    <orth>°</orth>
    <lex disamb="1"><base>°</base><ctag>interp</ctag></lex>
   </tok>
   <ns/>
   <tok>
    <orth>)</orth>
    <lex disamb="1"><base>)</base><ctag>interp</ctag></lex>
   </tok>
  </sentence>
 </chunk>
 <chunk type="p" id="ch2">
  <sentence id="s2">
   <tok>
    <orth>Pracownicy</orth>
    <lex disamb="1"><base>pracownica</base><ctag>subst:sg:gen:f</ctag></lex>
   </tok>
   <tok>
    <orth>z</orth>
    <lex disamb="1"><base>z</base><ctag>prep:gen:nwok</ctag></lex>
   </tok>
   <tok>
    <orth>ukrainy</orth>
    <lex disamb="1"><base>ukraina</base><ctag>subst:sg:gen:f</ctag></lex>
   </tok>
   <tok>
    <orth>przed</orth>
    <lex disamb="1"><base>przed</base><ctag>prep:acc:nwok</ctag></lex>
   </tok>
   <tok>
    <orth>zmianą</orth>
    <lex disamb="1"><base>zmiana</base><ctag>subst:sg:inst:f</ctag></lex>
   </tok>
   <tok>
    <orth>pracy</orth>
    <lex disamb="1"><base>praca</base><ctag>subst:sg:gen:f</ctag></lex>
   </tok>
   <tok>
    <orth>z</orth>
    <lex disamb="1"><base>z</base><ctag>prep:gen:nwok</ctag></lex>
   </tok>
   <tok>
    <orth>busa</orth>
    <lex disamb="1"><base>bus</base><ctag>subst:sg:gen:m2</ctag></lex>
   </tok>
   <tok>
    <orth>firmowego</orth>
    <lex disamb="1"><base>firmowy</base><ctag>adj:sg:gen:m1:pos</ctag></lex>
   </tok>
   <tok>
    <orth>wymontowali</orth>
    <lex disamb="1"><base>wymontować</base><ctag>praet:pl:m1:perf</ctag></lex>
   </tok>
   <ns/>
   <tok>
    <orth>:</orth>
    <lex disamb="1"><base>:</base><ctag>interp</ctag></lex>
   </tok>
   <tok>
    <orth>1</orth>
    <lex disamb="1"><base>1</base><ctag>num:pl:nom:m1:rec</ctag></lex>
   </tok>
   <ns/>
   <tok>
    <orth>.</orth>
    <lex disamb="1"><base>.</base><ctag>interp</ctag></lex>
   </tok>
  </sentence>
 </chunk>
 <chunk type="p" id="ch3">
  <sentence id="s3">
   <tok>
    <orth>Kostki</orth>
    <lex disamb="1"><base>Kostka</base><ctag>subst:sg:gen:m1</ctag></lex>
    <ann chan="nam">1</ann>
   </tok>
   <tok>
    <orth>od</orth>
    <lex disamb="1"><base>od</base><ctag>prep:gen:nwok</ctag></lex>
    <ann chan="nam">0</ann>
   </tok>
   <tok>
    <orth>radia</orth>
    <lex disamb="1"><base>radio</base><ctag>subst:sg:gen:n</ctag></lex>
    <ann chan="nam">0</ann>
   </tok>
   <tok>
    <orth>2</orth>
    <lex disamb="1"><base>2</base><ctag>num:pl:nom:m1:rec</ctag></lex>
    <ann chan="nam">0</ann>
   </tok>
   <ns/>
   <tok>
    <orth>.</orth>
    <lex disamb="1"><base>.</base><ctag>interp</ctag></lex>
    <ann chan="nam">0</ann>
   </tok>
  </sentence>
 </chunk>
 <chunk type="p" id="ch4">
  <sentence id="s4">
   <tok>
    <orth>Potencjometr</orth>
    <lex disamb="1"><base>potencjometr</base><ctag>subst:sg:nom:m3</ctag></lex>
   </tok>
   <tok>
    <orth>od</orth>
    <lex disamb="1"><base>od</base><ctag>prep:gen:nwok</ctag></lex>
   </tok>
   <tok>
    <orth>nawiewów</orth>
    <lex disamb="1"><base>nawiew</base><ctag>subst:pl:gen:m3</ctag></lex>
   </tok>
   <tok>
    <orth>(</orth>
    <lex disamb="1"><base>(</base><ctag>interp</ctag></lex>
   </tok>
   <ns/>
   <tok>
    <orth>zastąpili</orth>
    <lex disamb="1"><base>zastąpić</base><ctag>praet:pl:m1:perf</ctag></lex>
   </tok>
   <tok>
    <orth>go</orth>
    <lex disamb="1"><base>go</base><ctag>subst:sg:nom:n</ctag></lex>
   </tok>
   <tok>
    <orth>jakimś</orth>
    <lex disamb="1"><base>jakiś</base><ctag>adj:sg:inst:m1:pos</ctag></lex>
   </tok>
   <tok>
    <orth>zepsutym</orth>
    <lex disamb="1"><base>zepsuć</base><ctag>ppas:sg:inst:m1:perf:aff</ctag></lex>
   </tok>
   <tok>
    <orth>z</orth>
    <lex disamb="1"><base>z</base><ctag>prep:gen:nwok</ctag></lex>
   </tok>
   <tok>
    <orth>cinkusia</orth>
    <lex disamb="1"><base>cinkusia</base><ctag>ign</ctag></lex>
   </tok>
   <ns/>
   <tok>
    <orth>)</orth>
    <lex disamb="1"><base>)</base><ctag>interp</ctag></lex>
   </tok>
   <tok>
    <orth>3</orth>
    <lex disamb="1"><base>3</base><ctag>num:pl:nom:m1:rec</ctag></lex>
   </tok>
   <ns/>
   <tok>
    <orth>.</orth>
    <lex disamb="1"><base>.</base><ctag>interp</ctag></lex>
   </tok>
  </sentence>
 </chunk>
 <chunk type="p" id="ch5">
  <sentence id="s5">
   <tok>
    <orth>Różne</orth>
    <lex disamb="1"><base>różny</base><ctag>adj:sg:nom:n:pos</ctag></lex>
   </tok>
   <tok>
    <orth>klapki</orth>
    <lex disamb="1"><base>klapek</base><ctag>subst:pl:nom:m2</ctag></lex>
   </tok>
   <tok>
    <orth>i</orth>
    <lex disamb="1"><base>i</base><ctag>conj</ctag></lex>
   </tok>
   <tok>
    <orth>zaślepki</orth>
    <lex disamb="1"><base>zaślepka</base><ctag>subst:sg:gen:f</ctag></lex>
   </tok>
   <tok>
    <orth>(</orth>
    <lex disamb="1"><base>(</base><ctag>interp</ctag></lex>
   </tok>
   <ns/>
   <tok>
    <orth>zwłaszcza</orth>
    <lex disamb="1"><base>zwłaszcza</base><ctag>conj</ctag></lex>
   </tok>
   <tok>
    <orth>te</orth>
    <lex disamb="1"><base>te</base><ctag>subst:sg:nom:n</ctag></lex>
   </tok>
   <tok>
    <orth>od</orth>
    <lex disamb="1"><base>od</base><ctag>prep:gen:nwok</ctag></lex>
   </tok>
   <tok>
    <orth>zderzaka</orth>
    <lex disamb="1"><base>zderzak</base><ctag>subst:sg:gen:m3</ctag></lex>
   </tok>
   <ns/>
   <tok>
    <orth>)</orth>
    <lex disamb="1"><base>)</base><ctag>interp</ctag></lex>
   </tok>
   <tok>
    <orth>4</orth>
    <lex disamb="1"><base>4</base><ctag>num:pl:nom:m1:rec</ctag></lex>
   </tok>
   <ns/>
   <tok>
    <orth>.</orth>
    <lex disamb="1"><base>.</base><ctag>interp</ctag></lex>
   </tok>
  </sentence>
 </chunk>
 <chunk type="p" id="ch6">
  <sentence id="s6">
   <tok>
    <orth>W</orth>
    <lex disamb="1"><base>w</base><ctag>prep:acc:nwok</ctag></lex>
    <ann chan="nam">0</ann>
    <ann chan="nam_org">0</ann>
   </tok>
   <tok>
    <orth>miejsce</orth>
    <lex disamb="1"><base>miejsce</base><ctag>subst:sg:nom:n</ctag></lex>
    <ann chan="nam">0</ann>
    <ann chan="nam_org">0</ann>
   </tok>
   <tok>
    <orth>bezpieczników</orth>
    <lex disamb="1"><base>bezpiecznik</base><ctag>subst:pl:gen:m3</ctag></lex>
    <ann chan="nam">0</ann>
    <ann chan="nam_org">0</ann>
   </tok>
   <tok>
    <orth>co</orth>
    <lex disamb="1"><base>co</base><ctag>comp</ctag></lex>
    <ann chan="nam">0</ann>
    <ann chan="nam_org">0</ann>
   </tok>
   <tok>
    <orth>się</orth>
    <lex disamb="1"><base>się</base><ctag>qub</ctag></lex>
    <ann chan="nam">0</ann>
    <ann chan="nam_org">0</ann>
   </tok>
   <tok>
    <orth>popaliły</orth>
    <lex disamb="1"><base>popalić</base><ctag>praet:pl:m2:perf</ctag></lex>
    <ann chan="nam">0</ann>
    <ann chan="nam_org">0</ann>
   </tok>
   <tok>
    <orth>wstawili</orth>
    <lex disamb="1"><base>wstawić</base><ctag>praet:pl:m1:perf</ctag></lex>
    <ann chan="nam">0</ann>
    <ann chan="nam_org">0</ann>
   </tok>
   <tok>
    <orth>kawałki</orth>
    <lex disamb="1"><base>kawałek</base><ctag>subst:pl:nom:m3</ctag></lex>
    <ann chan="nam">0</ann>
    <ann chan="nam_org">0</ann>
   </tok>
   <tok>
    <orth>druta</orth>
    <lex disamb="1"><base>drut</base><ctag>subst:sg:gen:m2</ctag></lex>
    <ann chan="nam">0</ann>
    <ann chan="nam_org">0</ann>
   </tok>
   <tok>
    <orth>wiązałkowego</orth>
    <lex disamb="1"><base>wiązałkowego</base><ctag>ign</ctag></lex>
    <ann chan="nam">0</ann>
    <ann chan="nam_org">0</ann>
   </tok>
   <tok>
    <orth>XD</orth>
    <lex disamb="1"><base>XD</base><ctag>ign</ctag></lex>
    <ann chan="nam">0</ann>
    <ann chan="nam_org">0</ann>
   </tok>
   <tok>
    <orth>Ciekawe</orth>
    <lex disamb="1"><base>ciekawy</base><ctag>adj:sg:nom:n:pos</ctag></lex>
    <ann chan="nam">0</ann>
    <ann chan="nam_org">0</ann>
   </tok>
   <tok>
    <orth>co</orth>
    <lex disamb="1"><base>co</base><ctag>comp</ctag></lex>
    <ann chan="nam">0</ann>
    <ann chan="nam_org">0</ann>
   </tok>
   <tok>
    <orth>będzie</orth>
    <lex disamb="1"><base>być</base><ctag>bedzie:sg:ter:imperf</ctag></lex>
    <ann chan="nam">0</ann>
    <ann chan="nam_org">0</ann>
   </tok>
   <tok>
    <orth>następne</orth>
    <lex disamb="1"><base>następna</base><ctag>subst:pl:nom:f</ctag></lex>
    <ann chan="nam">0</ann>
    <ann chan="nam_org">0</ann>
   </tok>
   <tok>
    <orth>XD</orth>
    <lex disamb="1"><base>XD</base><ctag>ign</ctag></lex>
    <ann chan="nam">1</ann>
    <ann chan="nam_org">1</ann>
   </tok>
   <tok>
    <orth>Pewnie</orth>
    <lex disamb="1"><base>pewnie</base><ctag>adv:pos</ctag></lex>
    <ann chan="nam">1</ann>
    <ann chan="nam_org">1</ann>
   </tok>
   <tok>
    <orth>sprzedali</orth>
    <lex disamb="1"><base>sprzedać</base><ctag>praet:pl:m1:perf</ctag></lex>
    <ann chan="nam">0</ann>
    <ann chan="nam_org">0</ann>
   </tok>
   <tok>
    <orth>w</orth>
    <lex disamb="1"><base>w</base><ctag>prep:acc:nwok</ctag></lex>
    <ann chan="nam">0</ann>
    <ann chan="nam_org">0</ann>
   </tok>
   <tok>
    <orth>pobliskim</orth>
    <lex disamb="1"><base>pobliski</base><ctag>adj:sg:inst:m1:pos</ctag></lex>
    <ann chan="nam">0</ann>
    <ann chan="nam_org">0</ann>
   </tok>
   <tok>
    <orth>szrocie</orth>
    <lex disamb="1"><base>szrot</base><ctag>subst:sg:loc:m3</ctag></lex>
    <ann chan="nam">0</ann>
    <ann chan="nam_org">0</ann>
   </tok>
   <ns/>
   <tok>
    <orth>,</orth>
    <lex disamb="1"><base>,</base><ctag>interp</ctag></lex>
    <ann chan="nam">0</ann>
    <ann chan="nam_org">0</ann>
   </tok>
   <tok>
    <orth>bo</orth>
    <lex disamb="1"><base>bo</base><ctag>comp</ctag></lex>
    <ann chan="nam">0</ann>
    <ann chan="nam_org">0</ann>
   </tok>
   <tok>
    <orth>na</orth>
    <lex disamb="1"><base>na</base><ctag>prep:acc</ctag></lex>
    <ann chan="nam">0</ann>
    <ann chan="nam_org">0</ann>
   </tok>
   <tok>
    <orth>wódkę</orth>
    <lex disamb="1"><base>wódka</base><ctag>subst:sg:acc:f</ctag></lex>
    <ann chan="nam">0</ann>
    <ann chan="nam_org">0</ann>
   </tok>
   <tok>
    <orth>zabrakło</orth>
    <lex disamb="1"><base>zabraknąć</base><ctag>praet:sg:n:perf</ctag></lex>
    <ann chan="nam">0</ann>
    <ann chan="nam_org">0</ann>
   </tok>
   <tok>
    <orth>XD</orth>
    <lex disamb="1"><base>XD</base><ctag>ign</ctag></lex>
    <ann chan="nam">2</ann>
    <ann chan="nam_org">0</ann>
   </tok>
   <tok>
    <orth>Dziwne</orth>
    <lex disamb="1"><base>dziwny</base><ctag>adj:sg:nom:n:pos</ctag></lex>
    <ann chan="nam">2</ann>
    <ann chan="nam_org">0</ann>
   </tok>
   <tok>
    <orth>że</orth>
    <lex disamb="1"><base>że</base><ctag>comp</ctag></lex>
    <ann chan="nam">0</ann>
    <ann chan="nam_org">0</ann>
   </tok>
   <tok>
    <orth>radio</orth>
    <lex disamb="1"><base>radio</base><ctag>subst:sg:nom:n</ctag></lex>
    <ann chan="nam">0</ann>
    <ann chan="nam_org">0</ann>
   </tok>
   <tok>
    <orth>zostawili</orth>
    <lex disamb="1"><base>zostawić</base><ctag>praet:pl:m1:perf</ctag></lex>
    <ann chan="nam">0</ann>
    <ann chan="nam_org">0</ann>
   </tok>
   <ns/>
   <tok>
    <orth>,</orth>
    <lex disamb="1"><base>,</base><ctag>interp</ctag></lex>
    <ann chan="nam">0</ann>
    <ann chan="nam_org">0</ann>
   </tok>
   <tok>
    <orth>pewnie</orth>
    <lex disamb="1"><base>pewnie</base><ctag>adv:pos</ctag></lex>
    <ann chan="nam">0</ann>
    <ann chan="nam_org">0</ann>
   </tok>
   <tok>
    <orth>gościu</orth>
    <lex disamb="1"><base>gościa</base><ctag>subst:sg:voc:f</ctag></lex>
    <ann chan="nam">0</ann>
    <ann chan="nam_org">0</ann>
   </tok>
   <tok>
    <orth>nie</orth>
    <lex disamb="1"><base>nie</base><ctag>conj</ctag></lex>
    <ann chan="nam">0</ann>
    <ann chan="nam_org">0</ann>
   </tok>
   <tok>
    <orth>chciał</orth>
    <lex disamb="1"><base>chcieć</base><ctag>praet:sg:m1:imperf</ctag></lex>
    <ann chan="nam">0</ann>
    <ann chan="nam_org">0</ann>
   </tok>
   <tok>
    <orth>radia</orth>
    <lex disamb="1"><base>radio</base><ctag>subst:sg:gen:n</ctag></lex>
    <ann chan="nam">0</ann>
    <ann chan="nam_org">0</ann>
   </tok>
   <tok>
    <orth>i</orth>
    <lex disamb="1"><base>i</base><ctag>conj</ctag></lex>
    <ann chan="nam">0</ann>
    <ann chan="nam_org">0</ann>
   </tok>
   <tok>
    <orth>wziął</orth>
    <lex disamb="1"><base>wziąć</base><ctag>praet:sg:m1:perf</ctag></lex>
    <ann chan="nam">0</ann>
    <ann chan="nam_org">0</ann>
   </tok>
   <tok>
    <orth>tylko</orth>
    <lex disamb="1"><base>tylko</base><ctag>conj</ctag></lex>
    <ann chan="nam">0</ann>
    <ann chan="nam_org">0</ann>
   </tok>
   <tok>
    <orth>kostki</orth>
    <lex disamb="1"><base>kostka</base><ctag>subst:sg:gen:f</ctag></lex>
    <ann chan="nam">0</ann>
    <ann chan="nam_org">0</ann>
   </tok>
   <ns/>
   <tok>
    <orth>,</orth>
    <lex disamb="1"><base>,</base><ctag>interp</ctag></lex>
    <ann chan="nam">0</ann>
    <ann chan="nam_org">0</ann>
   </tok>
   <tok>
    <orth>bo</orth>
    <lex disamb="1"><base>bo</base><ctag>comp</ctag></lex>
    <ann chan="nam">0</ann>
    <ann chan="nam_org">0</ann>
   </tok>
   <tok>
    <orth>to</orth>
    <lex disamb="1"><base>to</base><ctag>conj</ctag></lex>
    <ann chan="nam">0</ann>
    <ann chan="nam_org">0</ann>
   </tok>
   <tok>
    <orth>jest</orth>
    <lex disamb="1"><base>być</base><ctag>fin:sg:ter:imperf</ctag></lex>
    <ann chan="nam">0</ann>
    <ann chan="nam_org">0</ann>
   </tok>
   <tok>
    <orth>gówno</orth>
    <lex disamb="1"><base>gówno</base><ctag>subst:sg:nom:n</ctag></lex>
    <ann chan="nam">0</ann>
    <ann chan="nam_org">0</ann>
   </tok>
   <tok>
    <orth>na</orth>
    <lex disamb="1"><base>na</base><ctag>prep:acc</ctag></lex>
    <ann chan="nam">0</ann>
    <ann chan="nam_org">0</ann>
   </tok>
   <tok>
    <orth>kasetki</orth>
    <lex disamb="1"><base>kasetka</base><ctag>subst:sg:gen:f</ctag></lex>
    <ann chan="nam">0</ann>
    <ann chan="nam_org">0</ann>
   </tok>
   <tok>
    <orth>(</orth>
    <lex disamb="1"><base>(</base><ctag>interp</ctag></lex>
    <ann chan="nam">0</ann>
    <ann chan="nam_org">0</ann>
   </tok>
   <tok>
    <orth>͡</orth>
    <lex disamb="1"><base>͡</base><ctag>ign</ctag></lex>
    <ann chan="nam">0</ann>
    <ann chan="nam_org">0</ann>
   </tok>
   <ns/>
   <tok>
    <orth>°</orth>
    <lex disamb="1"><base>°</base><ctag>interp</ctag></lex>
    <ann chan="nam">0</ann>
    <ann chan="nam_org">0</ann>
   </tok>
   <tok>
    <orth>͜ʖ</orth>
    <lex disamb="1"><base>͜ʖ</base><ctag>ign</ctag></lex>
    <ann chan="nam">0</ann>
    <ann chan="nam_org">0</ann>
   </tok>
   <tok>
    <orth>͡</orth>
    <lex disamb="1"><base>͡</base><ctag>ign</ctag></lex>
    <ann chan="nam">0</ann>
    <ann chan="nam_org">0</ann>
   </tok>
   <ns/>
   <tok>
    <orth>°</orth>
    <lex disamb="1"><base>°</base><ctag>interp</ctag></lex>
    <ann chan="nam">0</ann>
    <ann chan="nam_org">0</ann>
   </tok>
   <ns/>
   <tok>
    <orth>)</orth>
    <lex disamb="1"><base>)</base><ctag>interp</ctag></lex>
    <ann chan="nam">0</ann>
    <ann chan="nam_org">0</ann>
   </tok>
   <tok>
    <orth>Ile</orth>
    <lex disamb="1"><base>ile</base><ctag>adv:pos</ctag></lex>
    <ann chan="nam">0</ann>
    <ann chan="nam_org">0</ann>
   </tok>
   <tok>
    <orth>na</orth>
    <lex disamb="1"><base>na</base><ctag>prep:acc</ctag></lex>
    <ann chan="nam">0</ann>
    <ann chan="nam_org">0</ann>
   </tok>
   <tok>
    <orth>tym</orth>
    <lex disamb="1"><base>tym</base><ctag>conj</ctag></lex>
    <ann chan="nam">0</ann>
    <ann chan="nam_org">0</ann>
   </tok>
   <tok>
    <orth>zarobili</orth>
    <lex disamb="1"><base>zarobić</base><ctag>praet:pl:m1:perf</ctag></lex>
    <ann chan="nam">0</ann>
    <ann chan="nam_org">0</ann>
   </tok>
   <ns/>
   <tok>
    <orth>?</orth>
    <lex disamb="1"><base>?</base><ctag>interp</ctag></lex>
    <ann chan="nam">0</ann>
    <ann chan="nam_org">0</ann>
   </tok>
  </sentence>
 </chunk>
 <chunk type="p" id="ch7">
  <sentence id="s7">
   <tok>
    <orth>Obliczył</orth>
    <lex disamb="1"><base>obliczyć</base><ctag>praet:sg:m1:perf</ctag></lex>
   </tok>
   <ns/>
   <tok>
    <orth>em</orth>
    <lex disamb="1"><base>być</base><ctag>aglt:sg:pri:imperf:wok</ctag></lex>
   </tok>
   <tok>
    <orth>że</orth>
    <lex disamb="1"><base>że</base><ctag>comp</ctag></lex>
   </tok>
   <tok>
    <orth>20zł</orth>
    <lex disamb="1"><base>20zł</base><ctag>ign</ctag></lex>
   </tok>
   <tok>
    <orth>(</orth>
    <lex disamb="1"><base>(</base><ctag>interp</ctag></lex>
   </tok>
   <tok>
    <orth>͡</orth>
    <lex disamb="1"><base>͡</base><ctag>ign</ctag></lex>
   </tok>
   <ns/>
   <tok>
    <orth>°</orth>
    <lex disamb="1"><base>°</base><ctag>interp</ctag></lex>
   </tok>
   <ns/>
   <tok>
    <orth>(</orth>
    <lex disamb="1"><base>(</base><ctag>interp</ctag></lex>
   </tok>
   <tok>
    <orth>͡</orth>
    <lex disamb="1"><base>͡</base><ctag>ign</ctag></lex>
   </tok>
   <ns/>
   <tok>
    <orth>°</orth>
    <lex disamb="1"><base>°</base><ctag>interp</ctag></lex>
   </tok>
   <tok>
    <orth>͜ʖ</orth>
    <lex disamb="1"><base>͜ʖ</base><ctag>ign</ctag></lex>
   </tok>
   <ns/>
   <tok>
    <orth>(</orth>
    <lex disamb="1"><base>(</base><ctag>interp</ctag></lex>
   </tok>
   <tok>
    <orth>͡</orth>
    <lex disamb="1"><base>͡</base><ctag>ign</ctag></lex>
   </tok>
   <ns/>
   <tok>
    <orth>°</orth>
    <lex disamb="1"><base>°</base><ctag>interp</ctag></lex>
   </tok>
   <tok>
    <orth>͜ʖ</orth>
    <lex disamb="1"><base>͜ʖ</base><ctag>ign</ctag></lex>
   </tok>
   <tok>
    <orth>͡</orth>
    <lex disamb="1"><base>͡</base><ctag>ign</ctag></lex>
   </tok>
   <ns/>
   <tok>
    <orth>°</orth>
    <lex disamb="1"><base>°</base><ctag>interp</ctag></lex>
   </tok>
   <ns/>
   <tok>
    <orth>)</orth>
    <lex disamb="1"><base>)</base><ctag>interp</ctag></lex>
   </tok>
   <ns/>
   <tok>
    <orth>ʖ</orth>
    <lex disamb="1"><base>ʖ</base><ctag>ign</ctag></lex>
   </tok>
   <tok>
    <orth>͡</orth>
    <lex disamb="1"><base>͡</base><ctag>ign</ctag></lex>
   </tok>
   <ns/>
   <tok>
    <orth>°</orth>
    <lex disamb="1"><base>°</base><ctag>interp</ctag></lex>
   </tok>
   <ns/>
   <tok>
    <orth>)</orth>
    <lex disamb="1"><base>)</base><ctag>interp</ctag></lex>
   </tok>
   <tok>
    <orth>͡</orth>
    <lex disamb="1"><base>͡</base><ctag>ign</ctag></lex>
   </tok>
   <ns/>
   <tok>
    <orth>°</orth>
    <lex disamb="1"><base>°</base><ctag>interp</ctag></lex>
   </tok>
   <ns/>
   <tok>
    <orth>)</orth>
    <lex disamb="1"><base>)</base><ctag>interp</ctag></lex>
   </tok>
  </sentence>
 </chunk>
 <chunk type="p" id="ch8">
  <sentence id="s8">
   <tok>
    <orth>#</orth>
    <lex disamb="1"><base>#</base><ctag>interp</ctag></lex>
   </tok>
   <ns/>
   <tok>
    <orth>bekzapodludzi</orth>
    <lex disamb="1"><base>bekzapodludzi</base><ctag>ign</ctag></lex>
   </tok>
   <tok>
    <orth>#</orth>
    <lex disamb="1"><base>#</base><ctag>interp</ctag></lex>
   </tok>
   <ns/>
   <tok>
    <orth>budownictwo</orth>
    <lex disamb="1"><base>budownictwo</base><ctag>subst:sg:nom:n</ctag></lex>
   </tok>
   <tok>
    <orth>#</orth>
    <lex disamb="1"><base>#</base><ctag>interp</ctag></lex>
   </tok>
   <ns/>
   <tok>
    <orth>pracbaza</orth>
    <lex disamb="1"><base>pracbaza</base><ctag>ign</ctag></lex>
   </tok>
   <tok>
    <orth>#</orth>
    <lex disamb="1"><base>#</base><ctag>interp</ctag></lex>
   </tok>
   <ns/>
   <tok>
    <orth>motoryzacja</orth>
    <lex disamb="1"><base>motoryzacja</base><ctag>subst:sg:nom:f</ctag></lex>
   </tok>
   <tok>
    <orth>#</orth>
    <lex disamb="1"><base>#</base><ctag>interp</ctag></lex>
   </tok>
   <ns/>
   <tok>
    <orth>heheszki</orth>
    <lex disamb="1"><base>heheszki</base><ctag>ign</ctag></lex>
   </tok>
   <tok>
    <orth>#</orth>
    <lex disamb="1"><base>#</base><ctag>interp</ctag></lex>
   </tok>
   <ns/>
   <tok>
    <orth>takaprawda</orth>
    <lex disamb="1"><base>takaprawda</base><ctag>ign</ctag></lex>
   </tok>
   <tok>
    <orth>#</orth>
    <lex disamb="1"><base>#</base><ctag>interp</ctag></lex>
   </tok>
   <ns/>
   <tok>
    <orth>ukrainiec</orth>
    <lex disamb="1"><base>Ukrainiec</base><ctag>subst:sg:nom:m1</ctag></lex>
   </tok>
   <tok>
    <orth>#</orth>
    <lex disamb="1"><base>#</base><ctag>interp</ctag></lex>
   </tok>
   <ns/>
   <tok>
    <orth>truestory</orth>
    <lex disamb="1"><base>truestory</base><ctag>ign</ctag></lex>
   </tok>
   <tok>
    <orth>#</orth>
    <lex disamb="1"><base>#</base><ctag>interp</ctag></lex>
   </tok>
   <ns/>
   <tok>
    <orth>cebula</orth>
    <lex disamb="1"><base>cebula</base><ctag>subst:sg:nom:f</ctag></lex>
   </tok>
  </sentence>
 </chunk>
</chunkList>