<?xml version="1.0" encoding="UTF-8"?>
<!DOCTYPE chunkList SYSTEM "ccl.dtd">
<chunkList>
 <chunk type="p" id="ch1">
  <sentence id="s1">
   <tok>
    <orth>Tak</orth>
    <lex disamb="1"><base>tak</base><ctag>adv:pos</ctag></lex>
    <ann chan="nam">0</ann>
    <ann chan="nam_loc">0</ann>
   </tok>
   <tok>
    <orth>sobie</orth>
    <lex disamb="1"><base>siebie</base><ctag>siebie:dat</ctag></lex>
    <ann chan="nam">0</ann>
    <ann chan="nam_loc">0</ann>
   </tok>
   <tok>
    <orth>myśle</orth>
    <lex disamb="1"><base>myśle</base><ctag>ign</ctag></lex>
    <ann chan="nam">0</ann>
    <ann chan="nam_loc">0</ann>
   </tok>
   <tok>
    <orth>że</orth>
    <lex disamb="1"><base>że</base><ctag>comp</ctag></lex>
    <ann chan="nam">0</ann>
    <ann chan="nam_loc">0</ann>
   </tok>
   <tok>
    <orth>Jaca</orth>
    <lex disamb="1"><base>Jaca</base><ctag>ign</ctag></lex>
    <ann chan="nam">1</ann>
    <ann chan="nam_loc">1</ann>
   </tok>
   <tok>
    <orth>to</orth>
    <lex disamb="1"><base>to</base><ctag>conj</ctag></lex>
    <ann chan="nam">0</ann>
    <ann chan="nam_loc">0</ann>
   </tok>
   <tok>
    <orth>taki</orth>
    <lex disamb="1"><base>taki</base><ctag>adv:pos</ctag></lex>
    <ann chan="nam">0</ann>
    <ann chan="nam_loc">0</ann>
   </tok>
   <tok>
    <orth>#</orth>
    <lex disamb="1"><base>#</base><ctag>interp</ctag></lex>
    <ann chan="nam">0</ann>
    <ann chan="nam_loc">0</ann>
   </tok>
   <ns/>
   <tok>
    <orth>chewbacca</orth>
    <lex disamb="1"><base>chewbacca</base><ctag>ign</ctag></lex>
    <ann chan="nam">0</ann>
    <ann chan="nam_loc">0</ann>
   </tok>
   <tok>
    <orth>w</orth>
    <lex disamb="1"><base>w</base><ctag>prep:acc:nwok</ctag></lex>
    <ann chan="nam">0</ann>
    <ann chan="nam_loc">0</ann>
   </tok>
   <tok>
    <orth>uniwersum</orth>
    <lex disamb="1"><base>uniwersum</base><ctag>subst:sg:nom:n</ctag></lex>
    <ann chan="nam">0</ann>
    <ann chan="nam_loc">0</ann>
   </tok>
   <tok>
    <orth>urzędniczej</orth>
    <lex disamb="1"><base>urzędniczy</base><ctag>adj:sg:gen:f:pos</ctag></lex>
    <ann chan="nam">0</ann>
    <ann chan="nam_loc">0</ann>
   </tok>
   <tok>
    <orth>XD</orth>
    <lex disamb="1"><base>XD</base><ctag>ign</ctag></lex>
    <ann chan="nam">2</ann>
    <ann chan="nam_loc">0</ann>
   </tok>
   <tok>
    <orth>siedzi</orth>
    <lex disamb="1"><base>siedzieć</base><ctag>fin:sg:ter:imperf</ctag></lex>
    <ann chan="nam">0</ann>
    <ann chan="nam_loc">0</ann>
   </tok>
   <ns/>
   <tok>
    <orth>,</orth>
    <lex disamb="1"><base>,</base><ctag>interp</ctag></lex>
    <ann chan="nam">0</ann>
    <ann chan="nam_loc">0</ann>
   </tok>
   <tok>
    <orth>coś</orth>
    <lex disamb="1"><base>coś</base><ctag>qub</ctag></lex>
    <ann chan="nam">0</ann>
    <ann chan="nam_loc">0</ann>
   </tok>
   <tok>
    <orth>skrzeczy</orth>
    <lex disamb="1"><base>skrzeczeć</base><ctag>fin:sg:ter:imperf</ctag></lex>
    <ann chan="nam">0</ann>
    <ann chan="nam_loc">0</ann>
   </tok>
   <ns/>
   <tok>
    <orth>,</orth>
    <lex disamb="1"><base>,</base><ctag>interp</ctag></lex>
    <ann chan="nam">0</ann>
    <ann chan="nam_loc">0</ann>
   </tok>
   <tok>
    <orth>ryczy</orth>
    <lex disamb="1"><base>ryczeć</base><ctag>fin:sg:ter:imperf</ctag></lex>
    <ann chan="nam">0</ann>
    <ann chan="nam_loc">0</ann>
   </tok>
   <tok>
    <orth>czy</orth>
    <lex disamb="1"><base>czy</base><ctag>conj</ctag></lex>
    <ann chan="nam">0</ann>
    <ann chan="nam_loc">0</ann>
   </tok>
   <tok>
    <orth>tam</orth>
    <lex disamb="1"><base>tam</base><ctag>adv:pos</ctag></lex>
    <ann chan="nam">0</ann>
    <ann chan="nam_loc">0</ann>
   </tok>
   <tok>
    <orth>wydaje</orth>
    <lex disamb="1"><base>wydawać</base><ctag>fin:sg:ter:imperf</ctag></lex>
    <ann chan="nam">0</ann>
    <ann chan="nam_loc">0</ann>
   </tok>
   <tok>
    <orth>jakieś</orth>
    <lex disamb="1"><base>jakiś</base><ctag>adj:sg:nom:n:pos</ctag></lex>
    <ann chan="nam">0</ann>
    <ann chan="nam_loc">0</ann>
   </tok>
   <tok>
    <orth>odgłosy</orth>
    <lex disamb="1"><base>odgłos</base><ctag>subst:pl:nom:m3</ctag></lex>
    <ann chan="nam">0</ann>
    <ann chan="nam_loc">0</ann>
   </tok>
   <ns/>
   <tok>
    <orth>,</orth>
    <lex disamb="1"><base>,</base><ctag>interp</ctag></lex>
    <ann chan="nam">0</ann>
    <ann chan="nam_loc">0</ann>
   </tok>
   <tok>
    <orth>nie</orth>
    <lex disamb="1"><base>nie</base><ctag>conj</ctag></lex>
    <ann chan="nam">0</ann>
    <ann chan="nam_loc">0</ann>
   </tok>
   <tok>
    <orth>wiadomo</orth>
    <lex disamb="1"><base>wiadomo</base><ctag>pred</ctag></lex>
    <ann chan="nam">0</ann>
    <ann chan="nam_loc">0</ann>
   </tok>
   <tok>
    <orth>co</orth>
    <lex disamb="1"><base>co</base><ctag>comp</ctag></lex>
    <ann chan="nam">0</ann>
    <ann chan="nam_loc">0</ann>
   </tok>
   <tok>
    <orth>mówi</orth>
    <lex disamb="1"><base>mówić</base><ctag>fin:sg:ter:imperf</ctag></lex>
    <ann chan="nam">0</ann>
    <ann chan="nam_loc">0</ann>
   </tok>
   <ns/>
   <tok>
    <orth>,</orth>
    <lex disamb="1"><base>,</base><ctag>interp</ctag></lex>
    <ann chan="nam">0</ann>
    <ann chan="nam_loc">0</ann>
   </tok>
   <tok>
    <orth>trudno</orth>
    <lex disamb="1"><base>trudno</base><ctag>adv:pos</ctag></lex>
    <ann chan="nam">0</ann>
    <ann chan="nam_loc">0</ann>
   </tok>
   <tok>
    <orth>go</orth>
    <lex disamb="1"><base>go</base><ctag>subst:sg:nom:n</ctag></lex>
    <ann chan="nam">0</ann>
    <ann chan="nam_loc">0</ann>
   </tok>
   <tok>
    <orth>zrozumieć</orth>
    <lex disamb="1"><base>zrozumieć</base><ctag>inf:perf</ctag></lex>
    <ann chan="nam">0</ann>
    <ann chan="nam_loc">0</ann>
   </tok>
   <tok>
    <orth>a</orth>
    <lex disamb="1"><base>a</base><ctag>conj</ctag></lex>
    <ann chan="nam">0</ann>
    <ann chan="nam_loc">0</ann>
   </tok>
   <tok>
    <orth>wszyscy</orth>
    <lex disamb="1"><base>wszyscy</base><ctag>subst:pl:nom:m1</ctag></lex>
    <ann chan="nam">0</ann>
    <ann chan="nam_loc">0</ann>
   </tok>
   <tok>
    <orth>bohaterowie</orth>
    <lex disamb="1"><base>bohater</base><ctag>subst:pl:nom:m1</ctag></lex>
    <ann chan="nam">0</ann>
    <ann chan="nam_loc">0</ann>
   </tok>
   <tok>
    <orth>uniwersum</orth>
    <lex disamb="1"><base>uniwersum</base><ctag>subst:sg:nom:n</ctag></lex>
    <ann chan="nam">0</ann>
    <ann chan="nam_loc">0</ann>
   </tok>
   <tok>
    <orth>go</orth>
    <lex disamb="1"><base>go</base><ctag>subst:sg:nom:n</ctag></lex>
    <ann chan="nam">0</ann>
    <ann chan="nam_loc">0</ann>
   </tok>
   <tok>
    <orth>rozumieją</orth>
    <lex disamb="1"><base>rozumieć</base><ctag>fin:pl:ter:imperf</ctag></lex>
    <ann chan="nam">0</ann>
    <ann chan="nam_loc">0</ann>
   </tok>
   <tok>
    <orth>i</orth>
    <lex disamb="1"><base>i</base><ctag>conj</ctag></lex>
    <ann chan="nam">0</ann>
    <ann chan="nam_loc">0</ann>
   </tok>
   <tok>
    <orth>jeszcze</orth>
    <lex disamb="1"><base>jeszcze</base><ctag>qub</ctag></lex>
    <ann chan="nam">0</ann>
    <ann chan="nam_loc">0</ann>
   </tok>
   <tok>
    <orth>mu</orth>
    <lex disamb="1"><base>on</base><ctag>ppron3:sg:dat:m1:ter:nakc:npraep</ctag></lex>
    <ann chan="nam">0</ann>
    <ann chan="nam_loc">0</ann>
   </tok>
   <tok>
    <orth>odpowiadają</orth>
    <lex disamb="1"><base>odpowiadać</base><ctag>fin:pl:ter:imperf</ctag></lex>
    <ann chan="nam">0</ann>
    <ann chan="nam_loc">0</ann>
   </tok>
   <tok>
    <orth>XDD</orth>
    <lex disamb="1"><base>XDD</base><ctag>ign</ctag></lex>
    <ann chan="nam">0</ann>
    <ann chan="nam_loc">0</ann>
   </tok>
  </sentence>
 </chunk>
 <chunk type="p" id="ch2">
  <sentence id="s2">
   <tok>
    <orth>zdjęcie</orth>
    <lex disamb="1"><base>zdjęcie</base><ctag>subst:sg:nom:n</ctag></lex>
   </tok>
   <tok>
    <orth>poglądowe</orth>
    <lex disamb="1"><base>poglądowy</base><ctag>adj:sg:nom:n:pos</ctag></lex>
   </tok>
  </sentence>
 </chunk>
 <chunk type="p" id="ch3">
  <sentence id="s3">
   <tok>
    <orth>#</orth>
    <lex disamb="1"><base>#</base><ctag>interp</ctag></lex>
   </tok>
   <ns/>
   <tok>
    <orth>danielmagical</orth>
    <lex disamb="1"><base>danielmagical</base><ctag>ign</ctag></lex>
   </tok>
   <tok>
    <orth>#</orth>
    <lex disamb="1"><base>#</base><ctag>interp</ctag></lex>
   </tok>
   <ns/>
   <tok>
    <orth>jaca</orth>
    <lex disamb="1"><base>jaca</base><ctag>ign</ctag></lex>
   </tok>
   <tok>
    <orth>#</orth>
    <lex disamb="1"><base>#</base><ctag>interp</ctag></lex>
   </tok>
   <ns/>
   <tok>
    <orth>jacapraca</orth>
    <lex disamb="1"><base>jacapraca</base><ctag>ign</ctag></lex>
   </tok>
   <tok>
    <orth>#</orth>
    <lex disamb="1"><base>#</base><ctag>interp</ctag></lex>
   </tok>
   <ns/>
   <tok>
    <orth>gwiezdnaurzednicza</orth>
    <lex disamb="1"><base>gwiezdnaurzednicza</base><ctag>ign</ctag></lex>
   </tok>
  </sentence>
 </chunk>
</chunkList>