<?xml version="1.0" encoding="UTF-8"?>
<!DOCTYPE chunkList SYSTEM "ccl.dtd">
<chunkList>
 <chunk type="p" id="ch1">
  <sentence id="s1">
   <tok>
    <orth>interesów</orth>
    <lex disamb="1"><base>interes</base><ctag>subst:pl:gen:m3</ctag></lex>
   </tok>
   <ns/>
   <tok>
    <orth>.</orth>
    <lex disamb="1"><base>.</base><ctag>interp</ctag></lex>
   </tok>
  </sentence>
 </chunk>
 <chunk type="p" id="ch2">
  <sentence id="s2">
   <tok>
    <orth>Amerykańska</orth>
    <lex disamb="1"><base>amerykański</base><ctag>adj:sg:nom:f:pos</ctag></lex>
    <ann chan="nam">0</ann>
    <ann chan="nam_adj_other">0</ann>
    <ann chan="nam_adj">1</ann>
    <ann chan="nam_org">0</ann>
   </tok>
   <tok>
    <orth>stacja</orth>
    <lex disamb="1"><base>stacja</base><ctag>subst:sg:nom:f</ctag></lex>
    <ann chan="nam">0</ann>
    <ann chan="nam_adj_other">0</ann>
    <ann chan="nam_adj">0</ann>
    <ann chan="nam_org">0</ann>
   </tok>
   <tok>
    <orth>CNN</orth>
    <lex disamb="1"><base>CNN</base><ctag>subst:sg:nom:m3</ctag></lex>
    <ann chan="nam">1</ann>
    <ann chan="nam_adj_other">0</ann>
    <ann chan="nam_adj">0</ann>
    <ann chan="nam_org">1</ann>
   </tok>
   <tok>
    <orth>przeprowadziła</orth>
    <lex disamb="1"><base>przeprowadzić</base><ctag>praet:sg:f:perf</ctag></lex>
    <ann chan="nam">0</ann>
    <ann chan="nam_adj_other">0</ann>
    <ann chan="nam_adj">0</ann>
    <ann chan="nam_org">0</ann>
   </tok>
   <tok>
    <orth>w</orth>
    <lex disamb="1"><base>w</base><ctag>prep:acc:nwok</ctag></lex>
    <ann chan="nam">0</ann>
    <ann chan="nam_adj_other">0</ann>
    <ann chan="nam_adj">0</ann>
    <ann chan="nam_org">0</ann>
   </tok>
   <tok>
    <orth>kilku</orth>
    <lex disamb="1"><base>kilka</base><ctag>num:pl:nom:m1:rec</ctag></lex>
    <lex disamb="1"><base>kilka</base><ctag>num:pl:nom:m1:rec</ctag></lex>
    <lex disamb="1"><base>kilka</base><ctag>num:pl:nom:m1:rec</ctag></lex>
    <lex disamb="1"><base>kilka</base><ctag>num:pl:nom:m1:rec</ctag></lex>
    <lex disamb="1"><base>kilka</base><ctag>num:pl:nom:m1:rec</ctag></lex>
    <lex disamb="1"><base>kilka</base><ctag>num:pl:nom:m1:rec</ctag></lex>
    <lex disamb="1"><base>kilka</base><ctag>num:pl:nom:m1:rec</ctag></lex>
    <lex disamb="1"><base>kilka</base><ctag>num:pl:nom:m1:rec</ctag></lex>
    <lex disamb="1"><base>kilka</base><ctag>num:pl:nom:m1:rec</ctag></lex>
    <lex disamb="1"><base>kilka</base><ctag>num:pl:nom:m1:rec</ctag></lex>
    <lex disamb="1"><base>kilka</base><ctag>num:pl:nom:m1:rec</ctag></lex>
    <lex disamb="1"><base>kilka</base><ctag>num:pl:nom:m1:rec</ctag></lex>
    <lex disamb="1"><base>kilka</base><ctag>num:pl:nom:m1:rec</ctag></lex>
    <lex disamb="1"><base>kilka</base><ctag>num:pl:nom:m1:rec</ctag></lex>
    <lex disamb="1"><base>kilka</base><ctag>num:pl:nom:m1:rec</ctag></lex>
    <lex disamb="1"><base>kilka</base><ctag>num:pl:nom:m1:rec</ctag></lex>
    <lex disamb="1"><base>kilka</base><ctag>num:pl:nom:m1:rec</ctag></lex>
    <lex disamb="1"><base>kilka</base><ctag>num:pl:nom:m1:rec</ctag></lex>
    <lex disamb="1"><base>kilka</base><ctag>num:pl:nom:m1:rec</ctag></lex>
    <lex disamb="1"><base>kilka</base><ctag>num:pl:nom:m1:rec</ctag></lex>
    <lex disamb="1"><base>kilka</base><ctag>num:pl:nom:m1:rec</ctag></lex>
    <lex disamb="1"><base>kilka</base><ctag>num:pl:nom:m1:rec</ctag></lex>
    <lex disamb="1"><base>kilka</base><ctag>num:pl:nom:m1:rec</ctag></lex>
    <ann chan="nam">0</ann>
    <ann chan="nam_adj_other">0</ann>
    <ann chan="nam_adj">0</ann>
    <ann chan="nam_org">0</ann>
   </tok>
   <tok>
    <orth>europejskich</orth>
    <lex disamb="1"><base>europejski</base><ctag>adj:pl:gen:m1:pos</ctag></lex>
    <ann chan="nam">0</ann>
    <ann chan="nam_adj_other">1</ann>
    <ann chan="nam_adj">2</ann>
    <ann chan="nam_org">0</ann>
   </tok>
   <tok>
    <orth>krajach</orth>
    <lex disamb="1"><base>kraj</base><ctag>subst:pl:loc:m3</ctag></lex>
    <ann chan="nam">0</ann>
    <ann chan="nam_adj_other">0</ann>
    <ann chan="nam_adj">0</ann>
    <ann chan="nam_org">0</ann>
   </tok>
   <tok>
    <orth>badania</orth>
    <lex disamb="1"><base>badanie</base><ctag>subst:sg:gen:n</ctag></lex>
    <ann chan="nam">0</ann>
    <ann chan="nam_adj_other">0</ann>
    <ann chan="nam_adj">0</ann>
    <ann chan="nam_org">0</ann>
   </tok>
   <tok>
    <orth>dotyczące</orth>
    <lex disamb="1"><base>dotyczyć</base><ctag>pact:sg:nom:n:imperf:aff</ctag></lex>
    <ann chan="nam">0</ann>
    <ann chan="nam_adj_other">0</ann>
    <ann chan="nam_adj">0</ann>
    <ann chan="nam_org">0</ann>
   </tok>
   <tok>
    <orth>antysemityzmu</orth>
    <lex disamb="1"><base>antysemityzm</base><ctag>subst:sg:gen:m3</ctag></lex>
    <ann chan="nam">0</ann>
    <ann chan="nam_adj_other">0</ann>
    <ann chan="nam_adj">0</ann>
    <ann chan="nam_org">0</ann>
   </tok>
   <ns/>
   <tok>
    <orth>.</orth>
    <lex disamb="1"><base>.</base><ctag>interp</ctag></lex>
    <ann chan="nam">0</ann>
    <ann chan="nam_adj_other">0</ann>
    <ann chan="nam_adj">0</ann>
    <ann chan="nam_org">0</ann>
   </tok>
  </sentence>
 </chunk>
 <chunk type="p" id="ch3">
  <sentence id="s3">
   <tok>
    <orth>Wynika</orth>
    <lex disamb="1"><base>wynikać</base><ctag>fin:sg:ter:imperf</ctag></lex>
    <ann chan="nam">0</ann>
    <ann chan="nam_org_nation">0</ann>
    <ann chan="nam_org">0</ann>
   </tok>
   <tok>
    <orth>z</orth>
    <lex disamb="1"><base>z</base><ctag>prep:gen:nwok</ctag></lex>
    <ann chan="nam">0</ann>
    <ann chan="nam_org_nation">0</ann>
    <ann chan="nam_org">0</ann>
   </tok>
   <tok>
    <orth>nich</orth>
    <lex disamb="1"><base>on</base><ctag>ppron3:pl:loc:m1:ter:akc:npraep</ctag></lex>
    <ann chan="nam">0</ann>
    <ann chan="nam_org_nation">0</ann>
    <ann chan="nam_org">0</ann>
   </tok>
   <ns/>
   <tok>
    <orth>,</orth>
    <lex disamb="1"><base>,</base><ctag>interp</ctag></lex>
    <ann chan="nam">0</ann>
    <ann chan="nam_org_nation">0</ann>
    <ann chan="nam_org">0</ann>
   </tok>
   <tok>
    <orth>że</orth>
    <lex disamb="1"><base>że</base><ctag>comp</ctag></lex>
    <ann chan="nam">0</ann>
    <ann chan="nam_org_nation">0</ann>
    <ann chan="nam_org">0</ann>
   </tok>
   <tok>
    <orth>jedna</orth>
    <lex disamb="1"><base>jeden</base><ctag>adj:sg:nom:f:pos</ctag></lex>
    <ann chan="nam">0</ann>
    <ann chan="nam_org_nation">0</ann>
    <ann chan="nam_org">0</ann>
   </tok>
   <tok>
    <orth>trzecia</orth>
    <lex disamb="1"><base>trzecia</base><ctag>subst:sg:nom:f</ctag></lex>
    <ann chan="nam">0</ann>
    <ann chan="nam_org_nation">0</ann>
    <ann chan="nam_org">0</ann>
   </tok>
   <tok>
    <orth>Europejczyków</orth>
    <lex disamb="1"><base>Europejczyk</base><ctag>subst:pl:gen:m1</ctag></lex>
    <lex disamb="1"><base>europejczyk</base><ctag>subst:pl:gen:m1</ctag></lex>
    <ann chan="nam">1</ann>
    <ann chan="nam_org_nation">1</ann>
    <ann chan="nam_org">1</ann>
   </tok>
   <tok>
    <orth>uważa</orth>
    <lex disamb="1"><base>uważać</base><ctag>fin:sg:ter:imperf</ctag></lex>
    <ann chan="nam">0</ann>
    <ann chan="nam_org_nation">0</ann>
    <ann chan="nam_org">0</ann>
   </tok>
   <ns/>
   <tok>
    <orth>,</orth>
    <lex disamb="1"><base>,</base><ctag>interp</ctag></lex>
    <ann chan="nam">0</ann>
    <ann chan="nam_org_nation">0</ann>
    <ann chan="nam_org">0</ann>
   </tok>
   <tok>
    <orth>że</orth>
    <lex disamb="1"><base>że</base><ctag>comp</ctag></lex>
    <ann chan="nam">0</ann>
    <ann chan="nam_org_nation">0</ann>
    <ann chan="nam_org">0</ann>
   </tok>
   <tok>
    <orth>Żydzi</orth>
    <lex disamb="1"><base>Żyd</base><ctag>subst:pl:nom:m1</ctag></lex>
    <lex disamb="1"><base>żyd</base><ctag>subst:pl:nom:m1</ctag></lex>
    <ann chan="nam">2</ann>
    <ann chan="nam_org_nation">2</ann>
    <ann chan="nam_org">2</ann>
   </tok>
   <tok>
    <orth>wykorzystują</orth>
    <lex disamb="1"><base>wykorzystywać</base><ctag>fin:pl:ter:imperf</ctag></lex>
    <ann chan="nam">0</ann>
    <ann chan="nam_org_nation">0</ann>
    <ann chan="nam_org">0</ann>
   </tok>
   <tok>
    <orth>Zagładę</orth>
    <lex disamb="1"><base>zagłada</base><ctag>subst:sg:acc:f</ctag></lex>
    <ann chan="nam">0</ann>
    <ann chan="nam_org_nation">0</ann>
    <ann chan="nam_org">0</ann>
   </tok>
   <tok>
    <orth>dla</orth>
    <lex disamb="1"><base>dla</base><ctag>prep:gen</ctag></lex>
    <ann chan="nam">0</ann>
    <ann chan="nam_org_nation">0</ann>
    <ann chan="nam_org">0</ann>
   </tok>
   <tok>
    <orth>poprawy</orth>
    <lex disamb="1"><base>poprawa</base><ctag>subst:sg:gen:f</ctag></lex>
    <ann chan="nam">0</ann>
    <ann chan="nam_org_nation">0</ann>
    <ann chan="nam_org">0</ann>
   </tok>
   <tok>
    <orth>swej</orth>
    <lex disamb="1"><base>swój</base><ctag>adj:sg:gen:f:pos</ctag></lex>
    <ann chan="nam">0</ann>
    <ann chan="nam_org_nation">0</ann>
    <ann chan="nam_org">0</ann>
   </tok>
   <tok>
    <orth>pozycji</orth>
    <lex disamb="1"><base>pozycja</base><ctag>subst:sg:gen:f</ctag></lex>
    <ann chan="nam">0</ann>
    <ann chan="nam_org_nation">0</ann>
    <ann chan="nam_org">0</ann>
   </tok>
   <tok>
    <orth>i</orth>
    <lex disamb="1"><base>i</base><ctag>conj</ctag></lex>
    <ann chan="nam">0</ann>
    <ann chan="nam_org_nation">0</ann>
    <ann chan="nam_org">0</ann>
   </tok>
   <tok>
    <orth>uzyskania</orth>
    <lex disamb="1"><base>uzyskać</base><ctag>ger:sg:gen:n:perf:aff</ctag></lex>
    <ann chan="nam">0</ann>
    <ann chan="nam_org_nation">0</ann>
    <ann chan="nam_org">0</ann>
   </tok>
   <tok>
    <orth>korzyści</orth>
    <lex disamb="1"><base>korzyść</base><ctag>subst:sg:gen:f</ctag></lex>
    <ann chan="nam">0</ann>
    <ann chan="nam_org_nation">0</ann>
    <ann chan="nam_org">0</ann>
   </tok>
   <ns/>
   <tok>
    <orth>.</orth>
    <lex disamb="1"><base>.</base><ctag>interp</ctag></lex>
    <ann chan="nam">0</ann>
    <ann chan="nam_org_nation">0</ann>
    <ann chan="nam_org">0</ann>
   </tok>
  </sentence>
 </chunk>
</chunkList>