<?xml version="1.0" encoding="UTF-8"?>
<!DOCTYPE chunkList SYSTEM "ccl.dtd">
<chunkList>
 <chunk type="p" id="ch1">
  <sentence id="s1">
   <tok>
    <orth>Nowe</orth>
    <lex disamb="1"><base>nowa</base><ctag>subst:pl:nom:f</ctag></lex>
   </tok>
   <tok>
    <orth>połączenie</orth>
    <lex disamb="1"><base>połączenie</base><ctag>subst:sg:nom:n</ctag></lex>
   </tok>
   <tok>
    <orth>trzech</orth>
    <lex disamb="1"><base>trzy</base><ctag>num:pl:nom:m1:rec</ctag></lex>
    <lex disamb="1"><base>trzy</base><ctag>num:pl:nom:m1:rec</ctag></lex>
    <lex disamb="1"><base>trzy</base><ctag>num:pl:nom:m1:rec</ctag></lex>
    <lex disamb="1"><base>trzy</base><ctag>num:pl:nom:m1:rec</ctag></lex>
    <lex disamb="1"><base>trzy</base><ctag>num:pl:nom:m1:rec</ctag></lex>
    <lex disamb="1"><base>trzy</base><ctag>num:pl:nom:m1:rec</ctag></lex>
    <lex disamb="1"><base>trzy</base><ctag>num:pl:nom:m1:rec</ctag></lex>
    <lex disamb="1"><base>trzy</base><ctag>num:pl:nom:m1:rec</ctag></lex>
    <lex disamb="1"><base>trzy</base><ctag>num:pl:nom:m1:rec</ctag></lex>
    <lex disamb="1"><base>trzy</base><ctag>num:pl:nom:m1:rec</ctag></lex>
    <lex disamb="1"><base>trzy</base><ctag>num:pl:nom:m1:rec</ctag></lex>
    <lex disamb="1"><base>trzy</base><ctag>num:pl:nom:m1:rec</ctag></lex>
    <lex disamb="1"><base>trzy</base><ctag>num:pl:nom:m1:rec</ctag></lex>
   </tok>
   <tok>
    <orth>leków</orth>
    <lex disamb="1"><base>lek</base><ctag>subst:pl:gen:m2</ctag></lex>
   </tok>
   <tok>
    <orth>wspomagających</orth>
    <lex disamb="1"><base>wspomagający</base><ctag>adj:pl:gen:m1:pos</ctag></lex>
   </tok>
   <tok>
    <orth>układ</orth>
    <lex disamb="1"><base>układ</base><ctag>subst:sg:nom:m3</ctag></lex>
   </tok>
   <tok>
    <orth>odpornościowy</orth>
    <lex disamb="1"><base>odpornościowy</base><ctag>adj:sg:nom:m1:pos</ctag></lex>
   </tok>
   <tok>
    <orth>jest</orth>
    <lex disamb="1"><base>być</base><ctag>fin:sg:ter:imperf</ctag></lex>
   </tok>
   <tok>
    <orth>nie</orth>
    <lex disamb="1"><base>nie</base><ctag>conj</ctag></lex>
   </tok>
   <tok>
    <orth>tylko</orth>
    <lex disamb="1"><base>tylko</base><ctag>conj</ctag></lex>
   </tok>
   <tok>
    <orth>bezpieczne</orth>
    <lex disamb="1"><base>bezpieczny</base><ctag>adj:sg:nom:n:pos</ctag></lex>
   </tok>
   <ns/>
   <tok>
    <orth>,</orth>
    <lex disamb="1"><base>,</base><ctag>interp</ctag></lex>
   </tok>
   <tok>
    <orth>ale</orth>
    <lex disamb="1"><base>ale</base><ctag>conj</ctag></lex>
   </tok>
   <tok>
    <orth>zabija</orth>
    <lex disamb="1"><base>zabijać</base><ctag>fin:sg:ter:imperf</ctag></lex>
   </tok>
   <tok>
    <orth>też</orth>
    <lex disamb="1"><base>też</base><ctag>qub</ctag></lex>
   </tok>
   <tok>
    <orth>większość</orth>
    <lex disamb="1"><base>większość</base><ctag>subst:sg:nom:f</ctag></lex>
   </tok>
   <tok>
    <orth>komórek</orth>
    <lex disamb="1"><base>komórka</base><ctag>subst:pl:gen:f</ctag></lex>
   </tok>
   <tok>
    <orth>nowotworowych</orth>
    <lex disamb="1"><base>nowotworowy</base><ctag>adj:pl:gen:m1:pos</ctag></lex>
   </tok>
   <tok>
    <orth>u</orth>
    <lex disamb="1"><base>u</base><ctag>prep:gen</ctag></lex>
   </tok>
   <tok>
    <orth>95</orth>
    <lex disamb="1"><base>95</base><ctag>num:pl:nom:m1:rec</ctag></lex>
   </tok>
   <ns/>
   <tok>
    <orth>%</orth>
    <lex disamb="1"><base>%</base><ctag>interp</ctag></lex>
   </tok>
   <tok>
    <orth>pacjentów</orth>
    <lex disamb="1"><base>pacjent</base><ctag>subst:pl:gen:m1</ctag></lex>
   </tok>
   <tok>
    <orth>z</orth>
    <lex disamb="1"><base>z</base><ctag>prep:gen:nwok</ctag></lex>
   </tok>
   <tok>
    <orth>nawracającym</orth>
    <lex disamb="1"><base>nawracać</base><ctag>pact:sg:inst:m1:imperf:aff</ctag></lex>
   </tok>
   <tok>
    <orth>chłoniakiem</orth>
    <lex disamb="1"><base>chłoniak</base><ctag>subst:sg:inst:m2</ctag></lex>
   </tok>
   <tok>
    <orth>Hodgkina</orth>
    <lex disamb="1"><base>Hodgkina</base><ctag>ign</ctag></lex>
   </tok>
   <ns/>
   <tok>
    <orth>.</orth>
    <lex disamb="1"><base>.</base><ctag>interp</ctag></lex>
   </tok>
  </sentence>
 </chunk>
</chunkList>