<?xml version="1.0" encoding="UTF-8"?>
<!DOCTYPE chunkList SYSTEM "ccl.dtd">
<chunkList>
 <chunk type="p" id="ch1">
  <sentence id="s1">
   <tok>
    <orth>“</orth>
    <lex disamb="1"><base>“</base><ctag>interp</ctag></lex>
    <ann chan="nam">0</ann>
    <ann chan="nam_loc_gpe_country">0</ann>
    <ann chan="nam_pro_media_periodic">0</ann>
    <ann chan="nam_loc_gpe_city">0</ann>
    <ann chan="nam_loc">0</ann>
    <ann chan="nam_pro">0</ann>
   </tok>
   <ns/>
   <tok>
    <orth>Nazywana</orth>
    <lex disamb="1"><base>nazywać</base><ctag>ppas:sg:nom:f:imperf:aff</ctag></lex>
    <ann chan="nam">0</ann>
    <ann chan="nam_loc_gpe_country">0</ann>
    <ann chan="nam_pro_media_periodic">0</ann>
    <ann chan="nam_loc_gpe_city">0</ann>
    <ann chan="nam_loc">0</ann>
    <ann chan="nam_pro">0</ann>
   </tok>
   <tok>
    <orth>,</orth>
    <lex disamb="1"><base>,</base><ctag>interp</ctag></lex>
    <ann chan="nam">0</ann>
    <ann chan="nam_loc_gpe_country">0</ann>
    <ann chan="nam_pro_media_periodic">0</ann>
    <ann chan="nam_loc_gpe_city">0</ann>
    <ann chan="nam_loc">0</ann>
    <ann chan="nam_pro">0</ann>
   </tok>
   <ns/>
   <tok>
    <orth>,</orth>
    <lex disamb="1"><base>,</base><ctag>interp</ctag></lex>
    <ann chan="nam">0</ann>
    <ann chan="nam_loc_gpe_country">0</ann>
    <ann chan="nam_pro_media_periodic">0</ann>
    <ann chan="nam_loc_gpe_city">0</ann>
    <ann chan="nam_loc">0</ann>
    <ann chan="nam_pro">0</ann>
   </tok>
   <ns/>
   <tok>
    <orth>bramą</orth>
    <lex disamb="1"><base>brama</base><ctag>subst:sg:inst:f</ctag></lex>
    <ann chan="nam">0</ann>
    <ann chan="nam_loc_gpe_country">0</ann>
    <ann chan="nam_pro_media_periodic">0</ann>
    <ann chan="nam_loc_gpe_city">0</ann>
    <ann chan="nam_loc">0</ann>
    <ann chan="nam_pro">0</ann>
   </tok>
   <tok>
    <orth>do</orth>
    <lex disamb="1"><base>do</base><ctag>prep:gen</ctag></lex>
    <ann chan="nam">0</ann>
    <ann chan="nam_loc_gpe_country">0</ann>
    <ann chan="nam_pro_media_periodic">0</ann>
    <ann chan="nam_loc_gpe_city">0</ann>
    <ann chan="nam_loc">0</ann>
    <ann chan="nam_pro">0</ann>
   </tok>
   <tok>
    <orth>Polski</orth>
    <lex disamb="1"><base>Polska</base><ctag>subst:sg:gen:f</ctag></lex>
    <ann chan="nam">1</ann>
    <ann chan="nam_loc_gpe_country">1</ann>
    <ann chan="nam_pro_media_periodic">0</ann>
    <ann chan="nam_loc_gpe_city">0</ann>
    <ann chan="nam_loc">1</ann>
    <ann chan="nam_pro">0</ann>
   </tok>
   <tok>
    <orth>najpotężniejsza</orth>
    <lex disamb="1"><base>potężny</base><ctag>adj:sg:nom:f:sup</ctag></lex>
    <ann chan="nam">0</ann>
    <ann chan="nam_loc_gpe_country">0</ann>
    <ann chan="nam_pro_media_periodic">0</ann>
    <ann chan="nam_loc_gpe_city">0</ann>
    <ann chan="nam_loc">0</ann>
    <ann chan="nam_pro">0</ann>
   </tok>
   <tok>
    <orth>warownia</orth>
    <lex disamb="1"><base>warownia</base><ctag>subst:sg:nom:f</ctag></lex>
    <ann chan="nam">0</ann>
    <ann chan="nam_loc_gpe_country">0</ann>
    <ann chan="nam_pro_media_periodic">0</ann>
    <ann chan="nam_loc_gpe_city">0</ann>
    <ann chan="nam_loc">0</ann>
    <ann chan="nam_pro">0</ann>
   </tok>
   <tok>
    <orth>kresowej</orth>
    <lex disamb="1"><base>kresowy</base><ctag>adj:sg:gen:f:pos</ctag></lex>
    <ann chan="nam">0</ann>
    <ann chan="nam_loc_gpe_country">0</ann>
    <ann chan="nam_pro_media_periodic">0</ann>
    <ann chan="nam_loc_gpe_city">0</ann>
    <ann chan="nam_loc">0</ann>
    <ann chan="nam_pro">0</ann>
   </tok>
   <tok>
    <orth>Rzeczpospolitej</orth>
    <lex disamb="1"><base>Rzeczpospolita</base><ctag>subst:sg:gen:f</ctag></lex>
    <lex disamb="1"><base>rzeczpospolita</base><ctag>subst:sg:gen:f</ctag></lex>
    <ann chan="nam">2</ann>
    <ann chan="nam_loc_gpe_country">0</ann>
    <ann chan="nam_pro_media_periodic">1</ann>
    <ann chan="nam_loc_gpe_city">0</ann>
    <ann chan="nam_loc">0</ann>
    <ann chan="nam_pro">1</ann>
   </tok>
   <tok>
    <orth>-</orth>
    <lex disamb="1"><base>-</base><ctag>interp</ctag></lex>
    <ann chan="nam">0</ann>
    <ann chan="nam_loc_gpe_country">0</ann>
    <ann chan="nam_pro_media_periodic">0</ann>
    <ann chan="nam_loc_gpe_city">0</ann>
    <ann chan="nam_loc">0</ann>
    <ann chan="nam_pro">0</ann>
   </tok>
   <tok>
    <orth>zamek</orth>
    <lex disamb="1"><base>zamek</base><ctag>subst:sg:nom:m3</ctag></lex>
    <ann chan="nam">0</ann>
    <ann chan="nam_loc_gpe_country">0</ann>
    <ann chan="nam_pro_media_periodic">0</ann>
    <ann chan="nam_loc_gpe_city">0</ann>
    <ann chan="nam_loc">0</ann>
    <ann chan="nam_pro">0</ann>
   </tok>
   <tok>
    <orth>w</orth>
    <lex disamb="1"><base>w</base><ctag>prep:acc:nwok</ctag></lex>
    <ann chan="nam">0</ann>
    <ann chan="nam_loc_gpe_country">0</ann>
    <ann chan="nam_pro_media_periodic">0</ann>
    <ann chan="nam_loc_gpe_city">0</ann>
    <ann chan="nam_loc">0</ann>
    <ann chan="nam_pro">0</ann>
   </tok>
   <tok>
    <orth>Kamieńcu</orth>
    <lex disamb="1"><base>kamieniec</base><ctag>subst:sg:loc:m3</ctag></lex>
    <ann chan="nam">3</ann>
    <ann chan="nam_loc_gpe_country">0</ann>
    <ann chan="nam_pro_media_periodic">0</ann>
    <ann chan="nam_loc_gpe_city">1</ann>
    <ann chan="nam_loc">2</ann>
    <ann chan="nam_pro">0</ann>
   </tok>
   <tok>
    <orth>Podolskim</orth>
    <lex disamb="1"><base>podolski</base><ctag>adj:sg:inst:m1:pos</ctag></lex>
    <ann chan="nam">3</ann>
    <ann chan="nam_loc_gpe_country">0</ann>
    <ann chan="nam_pro_media_periodic">0</ann>
    <ann chan="nam_loc_gpe_city">1</ann>
    <ann chan="nam_loc">2</ann>
    <ann chan="nam_pro">0</ann>
   </tok>
   <ns/>
   <tok>
    <orth>.</orth>
    <lex disamb="1"><base>.</base><ctag>interp</ctag></lex>
    <ann chan="nam">0</ann>
    <ann chan="nam_loc_gpe_country">0</ann>
    <ann chan="nam_pro_media_periodic">0</ann>
    <ann chan="nam_loc_gpe_city">0</ann>
    <ann chan="nam_loc">0</ann>
    <ann chan="nam_pro">0</ann>
   </tok>
  </sentence>
 </chunk>
 <chunk type="p" id="ch2">
  <sentence id="s2">
   <tok>
    <orth>Choć</orth>
    <lex disamb="1"><base>choć</base><ctag>comp</ctag></lex>
    <ann chan="nam">0</ann>
    <ann chan="nam_loc_gpe_country">0</ann>
    <ann chan="nam_fac">0</ann>
    <ann chan="timex">0</ann>
   </tok>
   <tok>
    <orth>od</orth>
    <lex disamb="1"><base>od</base><ctag>prep:gen:nwok</ctag></lex>
    <ann chan="nam">0</ann>
    <ann chan="nam_loc_gpe_country">0</ann>
    <ann chan="nam_fac">0</ann>
    <ann chan="timex">0</ann>
   </tok>
   <tok>
    <orth>225</orth>
    <lex disamb="1"><base>225</base><ctag>num:pl:nom:m1:rec</ctag></lex>
    <ann chan="nam">0</ann>
    <ann chan="nam_loc_gpe_country">0</ann>
    <ann chan="nam_fac">0</ann>
    <ann chan="timex">1</ann>
   </tok>
   <tok>
    <orth>lat</orth>
    <lex disamb="1"><base>lato</base><ctag>subst:pl:gen:n</ctag></lex>
    <ann chan="nam">0</ann>
    <ann chan="nam_loc_gpe_country">0</ann>
    <ann chan="nam_fac">0</ann>
    <ann chan="timex">1</ann>
   </tok>
   <tok>
    <orth>pozostaje</orth>
    <lex disamb="1"><base>pozostawać</base><ctag>fin:sg:ter:imperf</ctag></lex>
    <ann chan="nam">0</ann>
    <ann chan="nam_loc_gpe_country">0</ann>
    <ann chan="nam_fac">0</ann>
    <ann chan="timex">0</ann>
   </tok>
   <tok>
    <orth>poza</orth>
    <lex disamb="1"><base>poza</base><ctag>prep:acc</ctag></lex>
    <ann chan="nam">0</ann>
    <ann chan="nam_loc_gpe_country">0</ann>
    <ann chan="nam_fac">0</ann>
    <ann chan="timex">0</ann>
   </tok>
   <tok>
    <orth>granicami</orth>
    <lex disamb="1"><base>granica</base><ctag>subst:pl:inst:f</ctag></lex>
    <ann chan="nam">0</ann>
    <ann chan="nam_loc_gpe_country">0</ann>
    <ann chan="nam_fac">0</ann>
    <ann chan="timex">0</ann>
   </tok>
   <tok>
    <orth>Rzeczpospolitej</orth>
    <lex disamb="1"><base>Rzeczpospolita</base><ctag>subst:sg:gen:f</ctag></lex>
    <lex disamb="1"><base>rzeczpospolita</base><ctag>subst:sg:gen:f</ctag></lex>
    <ann chan="nam">1</ann>
    <ann chan="nam_loc_gpe_country">1</ann>
    <ann chan="nam_fac">1</ann>
    <ann chan="timex">0</ann>
   </tok>
   <ns/>
   <tok>
    <orth>,</orth>
    <lex disamb="1"><base>,</base><ctag>interp</ctag></lex>
    <ann chan="nam">0</ann>
    <ann chan="nam_loc_gpe_country">0</ann>
    <ann chan="nam_fac">0</ann>
    <ann chan="timex">0</ann>
   </tok>
   <tok>
    <orth>stanowi</orth>
    <lex disamb="1"><base>stan</base><ctag>subst:sg:dat:m3</ctag></lex>
    <ann chan="nam">0</ann>
    <ann chan="nam_loc_gpe_country">0</ann>
    <ann chan="nam_fac">0</ann>
    <ann chan="timex">0</ann>
   </tok>
   <tok>
    <orth>istotną</orth>
    <lex disamb="1"><base>istotny</base><ctag>adj:sg:acc:f:pos</ctag></lex>
    <ann chan="nam">0</ann>
    <ann chan="nam_loc_gpe_country">0</ann>
    <ann chan="nam_fac">0</ann>
    <ann chan="timex">0</ann>
   </tok>
   <tok>
    <orth>część</orth>
    <lex disamb="1"><base>część</base><ctag>subst:sg:nom:f</ctag></lex>
    <ann chan="nam">0</ann>
    <ann chan="nam_loc_gpe_country">0</ann>
    <ann chan="nam_fac">0</ann>
    <ann chan="timex">0</ann>
   </tok>
   <tok>
    <orth>naszej</orth>
    <lex disamb="1"><base>nasz</base><ctag>adj:sg:gen:f:pos</ctag></lex>
    <ann chan="nam">0</ann>
    <ann chan="nam_loc_gpe_country">0</ann>
    <ann chan="nam_fac">0</ann>
    <ann chan="timex">0</ann>
   </tok>
   <tok>
    <orth>historii</orth>
    <lex disamb="1"><base>historia</base><ctag>subst:sg:gen:f</ctag></lex>
    <ann chan="nam">0</ann>
    <ann chan="nam_loc_gpe_country">0</ann>
    <ann chan="nam_fac">0</ann>
    <ann chan="timex">0</ann>
   </tok>
   <tok>
    <orth>i</orth>
    <lex disamb="1"><base>i</base><ctag>conj</ctag></lex>
    <ann chan="nam">0</ann>
    <ann chan="nam_loc_gpe_country">0</ann>
    <ann chan="nam_fac">0</ann>
    <ann chan="timex">0</ann>
   </tok>
   <tok>
    <orth>jest</orth>
    <lex disamb="1"><base>być</base><ctag>fin:sg:ter:imperf</ctag></lex>
    <ann chan="nam">0</ann>
    <ann chan="nam_loc_gpe_country">0</ann>
    <ann chan="nam_fac">0</ann>
    <ann chan="timex">0</ann>
   </tok>
   <tok>
    <orth>świadectwem</orth>
    <lex disamb="1"><base>świadectwo</base><ctag>subst:sg:inst:n</ctag></lex>
    <ann chan="nam">0</ann>
    <ann chan="nam_loc_gpe_country">0</ann>
    <ann chan="nam_fac">0</ann>
    <ann chan="timex">0</ann>
   </tok>
   <tok>
    <orth>naszej</orth>
    <lex disamb="1"><base>nasz</base><ctag>adj:sg:gen:f:pos</ctag></lex>
    <ann chan="nam">0</ann>
    <ann chan="nam_loc_gpe_country">0</ann>
    <ann chan="nam_fac">0</ann>
    <ann chan="timex">0</ann>
   </tok>
   <tok>
    <orth>dawnej</orth>
    <lex disamb="1"><base>dawny</base><ctag>adj:sg:gen:f:pos</ctag></lex>
    <ann chan="nam">0</ann>
    <ann chan="nam_loc_gpe_country">0</ann>
    <ann chan="nam_fac">0</ann>
    <ann chan="timex">0</ann>
   </tok>
   <tok>
    <orth>potęgi</orth>
    <lex disamb="1"><base>potęga</base><ctag>subst:sg:gen:f</ctag></lex>
    <ann chan="nam">0</ann>
    <ann chan="nam_loc_gpe_country">0</ann>
    <ann chan="nam_fac">0</ann>
    <ann chan="timex">0</ann>
   </tok>
   <ns/>
   <tok>
    <orth>.</orth>
    <lex disamb="1"><base>.</base><ctag>interp</ctag></lex>
    <ann chan="nam">0</ann>
    <ann chan="nam_loc_gpe_country">0</ann>
    <ann chan="nam_fac">0</ann>
    <ann chan="timex">0</ann>
   </tok>
  </sentence>
 </chunk>
 <chunk type="p" id="ch3">
  <sentence id="s3">
   <tok>
    <orth>#</orth>
    <lex disamb="1"><base>#</base><ctag>interp</ctag></lex>
   </tok>
   <ns/>
   <tok>
    <orth>BeautifulWorld</orth>
    <lex disamb="1"><base>BeautifulWorld</base><ctag>ign</ctag></lex>
   </tok>
   <tok>
    <orth>#</orth>
    <lex disamb="1"><base>#</base><ctag>interp</ctag></lex>
   </tok>
   <ns/>
   <tok>
    <orth>KamieniecPodolski</orth>
    <lex disamb="1"><base>KamieniecPodolski</base><ctag>ign</ctag></lex>
   </tok>
   <ns/>
   <tok>
    <orth>”</orth>
    <lex disamb="1"><base>”</base><ctag>interp</ctag></lex>
   </tok>
  </sentence>
 </chunk>
</chunkList>