<?xml version="1.0" encoding="UTF-8"?>
<!DOCTYPE chunkList SYSTEM "ccl.dtd">
<chunkList>
 <chunk type="p" id="ch1">
  <sentence id="s1">
   <tok>
    <orth>Nieudacznicy</orth>
    <lex disamb="1"><base>nieudacznik</base><ctag>subst:pl:nom:m1</ctag></lex>
    <ann chan="nam_adj_country">0</ann>
    <ann chan="nam_adj">0</ann>
   </tok>
   <tok>
    <orth>z</orth>
    <lex disamb="1"><base>z</base><ctag>prep:gen:nwok</ctag></lex>
    <ann chan="nam_adj_country">0</ann>
    <ann chan="nam_adj">0</ann>
   </tok>
   <tok>
    <orth>izraelskiego</orth>
    <lex disamb="1"><base>izraelski</base><ctag>adj:sg:gen:m1:pos</ctag></lex>
    <ann chan="nam_adj_country">1</ann>
    <ann chan="nam_adj">1</ann>
   </tok>
   <tok>
    <orth>Mossadu</orth>
    <lex disamb="1"><base>Mossadu</base><ctag>ign</ctag></lex>
    <ann chan="nam_adj_country">0</ann>
    <ann chan="nam_adj">0</ann>
   </tok>
   <ns/>
   <tok>
    <orth>.</orth>
    <lex disamb="1"><base>.</base><ctag>interp</ctag></lex>
    <ann chan="nam_adj_country">0</ann>
    <ann chan="nam_adj">0</ann>
   </tok>
  </sentence>
 </chunk>
 <chunk type="p" id="ch2">
  <sentence id="s2">
   <tok>
    <orth>Żenada</orth>
    <lex disamb="1"><base>żenada</base><ctag>subst:sg:nom:f</ctag></lex>
    <ann chan="nam">0</ann>
    <ann chan="nam_loc_gpe_city">0</ann>
    <ann chan="nam_loc">0</ann>
   </tok>
   <tok>
    <orth>której</orth>
    <lex disamb="1"><base>który</base><ctag>adj:sg:gen:f:pos</ctag></lex>
    <ann chan="nam">0</ann>
    <ann chan="nam_loc_gpe_city">0</ann>
    <ann chan="nam_loc">0</ann>
   </tok>
   <tok>
    <orth>nie</orth>
    <lex disamb="1"><base>nie</base><ctag>conj</ctag></lex>
    <ann chan="nam">0</ann>
    <ann chan="nam_loc_gpe_city">0</ann>
    <ann chan="nam_loc">0</ann>
   </tok>
   <tok>
    <orth>zobaczysz</orth>
    <lex disamb="1"><base>zobaczyć</base><ctag>fin:sg:sec:perf</ctag></lex>
    <ann chan="nam">0</ann>
    <ann chan="nam_loc_gpe_city">0</ann>
    <ann chan="nam_loc">0</ann>
   </tok>
   <tok>
    <orth>w</orth>
    <lex disamb="1"><base>w</base><ctag>prep:acc:nwok</ctag></lex>
    <ann chan="nam">0</ann>
    <ann chan="nam_loc_gpe_city">0</ann>
    <ann chan="nam_loc">0</ann>
   </tok>
   <tok>
    <orth>filmie</orth>
    <lex disamb="1"><base>film</base><ctag>subst:sg:loc:m3</ctag></lex>
    <ann chan="nam">0</ann>
    <ann chan="nam_loc_gpe_city">0</ann>
    <ann chan="nam_loc">0</ann>
   </tok>
   <tok>
    <orth>Monachium</orth>
    <lex disamb="1"><base>Monachium</base><ctag>subst:sg:nom:n</ctag></lex>
    <ann chan="nam">1</ann>
    <ann chan="nam_loc_gpe_city">1</ann>
    <ann chan="nam_loc">1</ann>
   </tok>
   <ns/>
   <tok>
    <orth>.</orth>
    <lex disamb="1"><base>.</base><ctag>interp</ctag></lex>
    <ann chan="nam">0</ann>
    <ann chan="nam_loc_gpe_city">0</ann>
    <ann chan="nam_loc">0</ann>
   </tok>
  </sentence>
 </chunk>
 <chunk type="p" id="ch3">
  <sentence id="s3">
   <tok>
    <orth>Po</orth>
    <lex disamb="1"><base>po</base><ctag>prep:acc</ctag></lex>
   </tok>
   <tok>
    <orth>prostu</orth>
    <lex disamb="1"><base>prosty</base><ctag>adjp</ctag></lex>
   </tok>
   <tok>
    <orth>żydowscy</orth>
    <lex disamb="1"><base>żydowski</base><ctag>adj:pl:nom:m1:pos</ctag></lex>
   </tok>
   <tok>
    <orth>mordercy</orth>
    <lex disamb="1"><base>morderca</base><ctag>subst:sg:gen:m1</ctag></lex>
   </tok>
   <tok>
    <orth>na</orth>
    <lex disamb="1"><base>na</base><ctag>prep:acc</ctag></lex>
   </tok>
   <tok>
    <orth>zlecenie</orth>
    <lex disamb="1"><base>zlecenie</base><ctag>subst:sg:nom:n</ctag></lex>
   </tok>
   <tok>
    <orth>żydów</orth>
    <lex disamb="1"><base>żyd</base><ctag>subst:pl:gen:m1</ctag></lex>
   </tok>
   <ns/>
   <tok>
    <orth>.</orth>
    <lex disamb="1"><base>.</base><ctag>interp</ctag></lex>
   </tok>
  </sentence>
 </chunk>
</chunkList>