<?xml version="1.0" encoding="UTF-8"?>
<!DOCTYPE chunkList SYSTEM "ccl.dtd">
<chunkList>
 <chunk type="p" id="ch1">
  <sentence id="s1">
   <tok>
    <orth>Na</orth>
    <lex disamb="1"><base>na</base><ctag>prep:acc</ctag></lex>
    <ann chan="nam">0</ann>
    <ann chan="timex">0</ann>
    <ann chan="t3_date">0</ann>
    <ann chan="t3_time">0</ann>
   </tok>
   <tok>
    <orth>3</orth>
    <lex disamb="1"><base>3</base><ctag>num:pl:nom:m1:rec</ctag></lex>
    <ann chan="nam">0</ann>
    <ann chan="timex">1</ann>
    <ann chan="t3_date">1</ann>
    <ann chan="t3_time">0</ann>
   </tok>
   <tok>
    <orth>grudnia</orth>
    <lex disamb="1"><base>grudzień</base><ctag>subst:sg:gen:m3</ctag></lex>
    <ann chan="nam">0</ann>
    <ann chan="timex">1</ann>
    <ann chan="t3_date">1</ann>
    <ann chan="t3_time">0</ann>
   </tok>
   <ns/>
   <tok>
    <orth>,</orth>
    <lex disamb="1"><base>,</base><ctag>interp</ctag></lex>
    <ann chan="nam">0</ann>
    <ann chan="timex">0</ann>
    <ann chan="t3_date">0</ann>
    <ann chan="t3_time">0</ann>
   </tok>
   <tok>
    <orth>na</orth>
    <lex disamb="1"><base>na</base><ctag>prep:acc</ctag></lex>
    <ann chan="nam">0</ann>
    <ann chan="timex">0</ann>
    <ann chan="t3_date">0</ann>
    <ann chan="t3_time">0</ann>
   </tok>
   <tok>
    <orth>godzinę</orth>
    <lex disamb="1"><base>godzina</base><ctag>subst:sg:acc:f</ctag></lex>
    <ann chan="nam">0</ann>
    <ann chan="timex">2</ann>
    <ann chan="t3_date">0</ann>
    <ann chan="t3_time">1</ann>
   </tok>
   <tok>
    <orth>19</orth>
    <lex disamb="1"><base>19</base><ctag>num:pl:nom:m1:rec</ctag></lex>
    <ann chan="nam">0</ann>
    <ann chan="timex">2</ann>
    <ann chan="t3_date">0</ann>
    <ann chan="t3_time">1</ann>
   </tok>
   <ns/>
   <tok>
    <orth>:</orth>
    <lex disamb="1"><base>:</base><ctag>interp</ctag></lex>
    <ann chan="nam">0</ann>
    <ann chan="timex">2</ann>
    <ann chan="t3_date">0</ann>
    <ann chan="t3_time">1</ann>
   </tok>
   <ns/>
   <tok>
    <orth>32</orth>
    <lex disamb="1"><base>32</base><ctag>num:pl:nom:m1:rec</ctag></lex>
    <ann chan="nam">0</ann>
    <ann chan="timex">2</ann>
    <ann chan="t3_date">0</ann>
    <ann chan="t3_time">1</ann>
   </tok>
   <tok>
    <orth>czasu</orth>
    <lex disamb="1"><base>czas</base><ctag>subst:sg:gen:m3</ctag></lex>
    <ann chan="nam">0</ann>
    <ann chan="timex">0</ann>
    <ann chan="t3_date">0</ann>
    <ann chan="t3_time">0</ann>
   </tok>
   <tok>
    <orth>polskiego</orth>
    <lex disamb="1"><base>polski</base><ctag>subst:sg:gen:m3</ctag></lex>
    <ann chan="nam">0</ann>
    <ann chan="timex">0</ann>
    <ann chan="t3_date">0</ann>
    <ann chan="t3_time">0</ann>
   </tok>
   <tok>
    <orth>SpaceX</orth>
    <lex disamb="1"><base>SpaceX</base><ctag>ign</ctag></lex>
    <ann chan="nam">1</ann>
    <ann chan="timex">0</ann>
    <ann chan="t3_date">0</ann>
    <ann chan="t3_time">0</ann>
   </tok>
   <tok>
    <orth>zaplanowało</orth>
    <lex disamb="1"><base>zaplanować</base><ctag>praet:sg:n:perf</ctag></lex>
    <ann chan="nam">0</ann>
    <ann chan="timex">0</ann>
    <ann chan="t3_date">0</ann>
    <ann chan="t3_time">0</ann>
   </tok>
   <tok>
    <orth>przeprowadzenie</orth>
    <lex disamb="1"><base>przeprowadzić</base><ctag>ger:sg:nom:n:perf:aff</ctag></lex>
    <ann chan="nam">0</ann>
    <ann chan="timex">0</ann>
    <ann chan="t3_date">0</ann>
    <ann chan="t3_time">0</ann>
   </tok>
   <tok>
    <orth>misji</orth>
    <lex disamb="1"><base>misja</base><ctag>subst:sg:gen:f</ctag></lex>
    <ann chan="nam">0</ann>
    <ann chan="timex">0</ann>
    <ann chan="t3_date">0</ann>
    <ann chan="t3_time">0</ann>
   </tok>
   <tok>
    <orth>SSO-A</orth>
    <lex disamb="1"><base>SSO-A</base><ctag>ign</ctag></lex>
    <ann chan="nam">0</ann>
    <ann chan="timex">0</ann>
    <ann chan="t3_date">0</ann>
    <ann chan="t3_time">0</ann>
   </tok>
   <tok>
    <orth>z</orth>
    <lex disamb="1"><base>z</base><ctag>prep:gen:nwok</ctag></lex>
    <ann chan="nam">0</ann>
    <ann chan="timex">0</ann>
    <ann chan="t3_date">0</ann>
    <ann chan="t3_time">0</ann>
   </tok>
   <tok>
    <orth>platformy</orth>
    <lex disamb="1"><base>platforma</base><ctag>subst:sg:gen:f</ctag></lex>
    <ann chan="nam">0</ann>
    <ann chan="timex">0</ann>
    <ann chan="t3_date">0</ann>
    <ann chan="t3_time">0</ann>
   </tok>
   <tok>
    <orth>SLC</orth>
    <lex disamb="1"><base>SLC</base><ctag>ign</ctag></lex>
    <ann chan="nam">2</ann>
    <ann chan="timex">0</ann>
    <ann chan="t3_date">0</ann>
    <ann chan="t3_time">0</ann>
   </tok>
   <ns/>
   <tok>
    <orth>-</orth>
    <lex disamb="1"><base>-</base><ctag>interp</ctag></lex>
    <ann chan="nam">0</ann>
    <ann chan="timex">0</ann>
    <ann chan="t3_date">0</ann>
    <ann chan="t3_time">0</ann>
   </tok>
   <ns/>
   <tok>
    <orth>4E</orth>
    <lex disamb="1"><base>4E</base><ctag>ign</ctag></lex>
    <ann chan="nam">0</ann>
    <ann chan="timex">0</ann>
    <ann chan="t3_date">0</ann>
    <ann chan="t3_time">0</ann>
   </tok>
   <tok>
    <orth>w</orth>
    <lex disamb="1"><base>w</base><ctag>prep:acc:nwok</ctag></lex>
    <ann chan="nam">0</ann>
    <ann chan="timex">0</ann>
    <ann chan="t3_date">0</ann>
    <ann chan="t3_time">0</ann>
   </tok>
   <tok>
    <orth>Vandenbergu</orth>
    <lex disamb="1"><base>Vandenbergu</base><ctag>ign</ctag></lex>
    <ann chan="nam">0</ann>
    <ann chan="timex">0</ann>
    <ann chan="t3_date">0</ann>
    <ann chan="t3_time">0</ann>
   </tok>
   <ns/>
   <tok>
    <orth>.</orth>
    <lex disamb="1"><base>.</base><ctag>interp</ctag></lex>
    <ann chan="nam">0</ann>
    <ann chan="timex">0</ann>
    <ann chan="t3_date">0</ann>
    <ann chan="t3_time">0</ann>
   </tok>
   <ns/>
   <tok>
    <orth>.</orth>
    <lex disamb="1"><base>.</base><ctag>interp</ctag></lex>
    <ann chan="nam">0</ann>
    <ann chan="timex">0</ann>
    <ann chan="t3_date">0</ann>
    <ann chan="t3_time">0</ann>
   </tok>
  </sentence>
 </chunk>
 <chunk type="p" id="ch2">
  <sentence id="s2">
   <tok>
    <orth>Na</orth>
    <lex disamb="1"><base>na</base><ctag>prep:acc</ctag></lex>
    <ann chan="nam">0</ann>
    <ann chan="nam_org_organization">0</ann>
    <ann chan="nam_oth">0</ann>
    <ann chan="nam_pro">0</ann>
   </tok>
   <tok>
    <orth>orbitę</orth>
    <lex disamb="1"><base>orbita</base><ctag>subst:sg:acc:f</ctag></lex>
    <ann chan="nam">0</ann>
    <ann chan="nam_org_organization">0</ann>
    <ann chan="nam_oth">0</ann>
    <ann chan="nam_pro">0</ann>
   </tok>
   <tok>
    <orth>trafi</orth>
    <lex disamb="1"><base>trafić</base><ctag>fin:sg:ter:perf</ctag></lex>
    <ann chan="nam">0</ann>
    <ann chan="nam_org_organization">0</ann>
    <ann chan="nam_oth">0</ann>
    <ann chan="nam_pro">0</ann>
   </tok>
   <tok>
    <orth>m.in</orth>
    <lex disamb="1"><base>między_innymi</base><ctag>brev:pun</ctag></lex>
    <ann chan="nam">1</ann>
    <ann chan="nam_org_organization">0</ann>
    <ann chan="nam_oth">1</ann>
    <ann chan="nam_pro">0</ann>
   </tok>
   <ns/>
   <tok>
    <orth>.</orth>
    <lex disamb="1"><base>.</base><ctag>interp</ctag></lex>
    <ann chan="nam">0</ann>
    <ann chan="nam_org_organization">0</ann>
    <ann chan="nam_oth">0</ann>
    <ann chan="nam_pro">0</ann>
   </tok>
   <tok>
    <orth>polski</orth>
    <lex disamb="1"><base>polski</base><ctag>subst:sg:nom:m3</ctag></lex>
    <ann chan="nam">0</ann>
    <ann chan="nam_org_organization">0</ann>
    <ann chan="nam_oth">0</ann>
    <ann chan="nam_pro">0</ann>
   </tok>
   <tok>
    <orth>satelita</orth>
    <lex disamb="1"><base>satelita</base><ctag>subst:sg:nom:m1</ctag></lex>
    <ann chan="nam">0</ann>
    <ann chan="nam_org_organization">0</ann>
    <ann chan="nam_oth">0</ann>
    <ann chan="nam_pro">0</ann>
   </tok>
   <tok>
    <orth>PW</orth>
    <lex disamb="1"><base>PW</base><ctag>subst:sg:nom:f</ctag></lex>
    <ann chan="nam">2</ann>
    <ann chan="nam_org_organization">1</ann>
    <ann chan="nam_oth">0</ann>
    <ann chan="nam_pro">1</ann>
   </tok>
   <ns/>
   <tok>
    <orth>-</orth>
    <lex disamb="1"><base>-</base><ctag>interp</ctag></lex>
    <ann chan="nam">2</ann>
    <ann chan="nam_org_organization">0</ann>
    <ann chan="nam_oth">0</ann>
    <ann chan="nam_pro">0</ann>
   </tok>
   <ns/>
   <tok>
    <orth>Sat2</orth>
    <lex disamb="1"><base>Sat2</base><ctag>ign</ctag></lex>
    <ann chan="nam">2</ann>
    <ann chan="nam_org_organization">0</ann>
    <ann chan="nam_oth">0</ann>
    <ann chan="nam_pro">0</ann>
   </tok>
   <ns/>
   <tok>
    <orth>!</orth>
    <lex disamb="1"><base>!</base><ctag>interp</ctag></lex>
    <ann chan="nam">0</ann>
    <ann chan="nam_org_organization">0</ann>
    <ann chan="nam_oth">0</ann>
    <ann chan="nam_pro">0</ann>
   </tok>
  </sentence>
 </chunk>
 <chunk type="p" id="ch3">
  <sentence id="s3">
   <tok>
    <orth>Planowane</orth>
    <lex disamb="1"><base>planować</base><ctag>ppas:sg:nom:n:imperf:aff</ctag></lex>
    <ann chan="nam">0</ann>
    <ann chan="nam_liv_person">0</ann>
    <ann chan="nam_liv">0</ann>
   </tok>
   <tok>
    <orth>jest</orth>
    <lex disamb="1"><base>być</base><ctag>fin:sg:ter:imperf</ctag></lex>
    <ann chan="nam">0</ann>
    <ann chan="nam_liv_person">0</ann>
    <ann chan="nam_liv">0</ann>
   </tok>
   <tok>
    <orth>lądowanie</orth>
    <lex disamb="1"><base>lądowanie</base><ctag>subst:sg:nom:n</ctag></lex>
    <ann chan="nam">0</ann>
    <ann chan="nam_liv_person">0</ann>
    <ann chan="nam_liv">0</ann>
   </tok>
   <tok>
    <orth>pierwszego</orth>
    <lex disamb="1"><base>pierwsze</base><ctag>subst:sg:gen:n</ctag></lex>
    <ann chan="nam">0</ann>
    <ann chan="nam_liv_person">0</ann>
    <ann chan="nam_liv">0</ann>
   </tok>
   <tok>
    <orth>stopnia</orth>
    <lex disamb="1"><base>stopień</base><ctag>subst:sg:gen:m3</ctag></lex>
    <ann chan="nam">0</ann>
    <ann chan="nam_liv_person">0</ann>
    <ann chan="nam_liv">0</ann>
   </tok>
   <tok>
    <orth>rakiety</orth>
    <lex disamb="1"><base>rakieta</base><ctag>subst:sg:gen:f</ctag></lex>
    <ann chan="nam">0</ann>
    <ann chan="nam_liv_person">0</ann>
    <ann chan="nam_liv">0</ann>
   </tok>
   <tok>
    <orth>na</orth>
    <lex disamb="1"><base>na</base><ctag>prep:acc</ctag></lex>
    <ann chan="nam">0</ann>
    <ann chan="nam_liv_person">0</ann>
    <ann chan="nam_liv">0</ann>
   </tok>
   <tok>
    <orth>JRTI</orth>
    <lex disamb="1"><base>JRTI</base><ctag>ign</ctag></lex>
    <ann chan="nam">1</ann>
    <ann chan="nam_liv_person">0</ann>
    <ann chan="nam_liv">0</ann>
   </tok>
   <tok>
    <orth>i</orth>
    <lex disamb="1"><base>i</base><ctag>conj</ctag></lex>
    <ann chan="nam">0</ann>
    <ann chan="nam_liv_person">0</ann>
    <ann chan="nam_liv">0</ann>
   </tok>
   <tok>
    <orth>próba</orth>
    <lex disamb="1"><base>próba</base><ctag>subst:sg:nom:f</ctag></lex>
    <ann chan="nam">0</ann>
    <ann chan="nam_liv_person">0</ann>
    <ann chan="nam_liv">0</ann>
   </tok>
   <tok>
    <orth>odzyskania</orth>
    <lex disamb="1"><base>odzyskanie</base><ctag>subst:sg:gen:n</ctag></lex>
    <ann chan="nam">0</ann>
    <ann chan="nam_liv_person">0</ann>
    <ann chan="nam_liv">0</ann>
   </tok>
   <tok>
    <orth>osłon</orth>
    <lex disamb="1"><base>osłona</base><ctag>subst:pl:gen:f</ctag></lex>
    <ann chan="nam">0</ann>
    <ann chan="nam_liv_person">0</ann>
    <ann chan="nam_liv">0</ann>
   </tok>
   <tok>
    <orth>ładunku</orth>
    <lex disamb="1"><base>ładunek</base><ctag>subst:sg:gen:m3</ctag></lex>
    <ann chan="nam">0</ann>
    <ann chan="nam_liv_person">0</ann>
    <ann chan="nam_liv">0</ann>
   </tok>
   <tok>
    <orth>przy</orth>
    <lex disamb="1"><base>przy</base><ctag>prep:loc</ctag></lex>
    <ann chan="nam">0</ann>
    <ann chan="nam_liv_person">0</ann>
    <ann chan="nam_liv">0</ann>
   </tok>
   <tok>
    <orth>pomocy</orth>
    <lex disamb="1"><base>pomoc</base><ctag>subst:sg:gen:f</ctag></lex>
    <ann chan="nam">0</ann>
    <ann chan="nam_liv_person">0</ann>
    <ann chan="nam_liv">0</ann>
   </tok>
   <tok>
    <orth>statku</orth>
    <lex disamb="1"><base>statek</base><ctag>subst:sg:gen:m3</ctag></lex>
    <ann chan="nam">0</ann>
    <ann chan="nam_liv_person">0</ann>
    <ann chan="nam_liv">0</ann>
   </tok>
   <tok>
    <orth>Mr</orth>
    <lex disamb="1"><base>Mister</base><ctag>brev:npun</ctag></lex>
    <ann chan="nam">2</ann>
    <ann chan="nam_liv_person">1</ann>
    <ann chan="nam_liv">0</ann>
   </tok>
   <ns/>
   <tok>
    <orth>.</orth>
    <lex disamb="1"><base>.</base><ctag>interp</ctag></lex>
    <ann chan="nam">2</ann>
    <ann chan="nam_liv_person">0</ann>
    <ann chan="nam_liv">0</ann>
   </tok>
   <tok>
    <orth>Steven</orth>
    <lex disamb="1"><base>Steven</base><ctag>subst:sg:nom:m1</ctag></lex>
    <ann chan="nam">2</ann>
    <ann chan="nam_liv_person">2</ann>
    <ann chan="nam_liv">1</ann>
   </tok>
   <ns/>
   <tok>
    <orth>.</orth>
    <lex disamb="1"><base>.</base><ctag>interp</ctag></lex>
    <ann chan="nam">0</ann>
    <ann chan="nam_liv_person">0</ann>
    <ann chan="nam_liv">0</ann>
   </tok>
  </sentence>
 </chunk>
</chunkList>