<?xml version="1.0" encoding="UTF-8"?>
<!DOCTYPE chunkList SYSTEM "ccl.dtd">
<chunkList>
 <chunk type="p" id="ch1">
  <sentence id="s1">
   <tok>
    <orth>Nie</orth>
    <lex disamb="1"><base>nie</base><ctag>conj</ctag></lex>
    <ann chan="nam">0</ann>
    <ann chan="nam_liv_person">0</ann>
    <ann chan="nam_pro_title">0</ann>
    <ann chan="nam_adj_city">0</ann>
    <ann chan="nam_liv">0</ann>
    <ann chan="nam_pro">0</ann>
    <ann chan="nam_adj">0</ann>
   </tok>
   <tok>
    <orth>żyje</orth>
    <lex disamb="1"><base>żyć</base><ctag>fin:sg:ter:imperf</ctag></lex>
    <ann chan="nam">0</ann>
    <ann chan="nam_liv_person">0</ann>
    <ann chan="nam_pro_title">0</ann>
    <ann chan="nam_adj_city">0</ann>
    <ann chan="nam_liv">0</ann>
    <ann chan="nam_pro">0</ann>
    <ann chan="nam_adj">0</ann>
   </tok>
   <tok>
    <orth>Danuta</orth>
    <lex disamb="1"><base>Danuta</base><ctag>subst:sg:nom:f</ctag></lex>
    <ann chan="nam">1</ann>
    <ann chan="nam_liv_person">1</ann>
    <ann chan="nam_pro_title">0</ann>
    <ann chan="nam_adj_city">0</ann>
    <ann chan="nam_liv">1</ann>
    <ann chan="nam_pro">0</ann>
    <ann chan="nam_adj">0</ann>
   </tok>
   <tok>
    <orth>Gałkowa</orth>
    <lex disamb="1"><base>gałkowy</base><ctag>adj:sg:nom:f:pos</ctag></lex>
    <ann chan="nam">1</ann>
    <ann chan="nam_liv_person">1</ann>
    <ann chan="nam_pro_title">0</ann>
    <ann chan="nam_adj_city">0</ann>
    <ann chan="nam_liv">1</ann>
    <ann chan="nam_pro">0</ann>
    <ann chan="nam_adj">0</ann>
   </tok>
   <tok>
    <orth>ps</orth>
    <lex disamb="1"><base>post_scriptum</base><ctag>brev:pun</ctag></lex>
    <ann chan="nam">0</ann>
    <ann chan="nam_liv_person">0</ann>
    <ann chan="nam_pro_title">0</ann>
    <ann chan="nam_adj_city">0</ann>
    <ann chan="nam_liv">0</ann>
    <ann chan="nam_pro">0</ann>
    <ann chan="nam_adj">0</ann>
   </tok>
   <ns/>
   <tok>
    <orth>.</orth>
    <lex disamb="1"><base>.</base><ctag>interp</ctag></lex>
    <ann chan="nam">0</ann>
    <ann chan="nam_liv_person">0</ann>
    <ann chan="nam_pro_title">0</ann>
    <ann chan="nam_adj_city">0</ann>
    <ann chan="nam_liv">0</ann>
    <ann chan="nam_pro">0</ann>
    <ann chan="nam_adj">0</ann>
   </tok>
   <tok>
    <orth>„</orth>
    <lex disamb="1"><base>„</base><ctag>interp</ctag></lex>
    <ann chan="nam">0</ann>
    <ann chan="nam_liv_person">0</ann>
    <ann chan="nam_pro_title">0</ann>
    <ann chan="nam_adj_city">0</ann>
    <ann chan="nam_liv">0</ann>
    <ann chan="nam_pro">0</ann>
    <ann chan="nam_adj">0</ann>
   </tok>
   <ns/>
   <tok>
    <orth>Blondynka</orth>
    <lex disamb="1"><base>blondynek</base><ctag>subst:sg:gen:m1</ctag></lex>
    <ann chan="nam">2</ann>
    <ann chan="nam_liv_person">0</ann>
    <ann chan="nam_pro_title">1</ann>
    <ann chan="nam_adj_city">0</ann>
    <ann chan="nam_liv">0</ann>
    <ann chan="nam_pro">1</ann>
    <ann chan="nam_adj">0</ann>
   </tok>
   <ns/>
   <tok>
    <orth>”</orth>
    <lex disamb="1"><base>”</base><ctag>interp</ctag></lex>
    <ann chan="nam">0</ann>
    <ann chan="nam_liv_person">0</ann>
    <ann chan="nam_pro_title">0</ann>
    <ann chan="nam_adj_city">0</ann>
    <ann chan="nam_liv">0</ann>
    <ann chan="nam_pro">0</ann>
    <ann chan="nam_adj">0</ann>
   </tok>
   <ns/>
   <tok>
    <orth>,</orth>
    <lex disamb="1"><base>,</base><ctag>interp</ctag></lex>
    <ann chan="nam">0</ann>
    <ann chan="nam_liv_person">0</ann>
    <ann chan="nam_pro_title">0</ann>
    <ann chan="nam_adj_city">0</ann>
    <ann chan="nam_liv">0</ann>
    <ann chan="nam_pro">0</ann>
    <ann chan="nam_adj">0</ann>
   </tok>
   <tok>
    <orth>sanitariuszka</orth>
    <lex disamb="1"><base>sanitariuszka</base><ctag>subst:sg:nom:f</ctag></lex>
    <ann chan="nam">0</ann>
    <ann chan="nam_liv_person">0</ann>
    <ann chan="nam_pro_title">0</ann>
    <ann chan="nam_adj_city">0</ann>
    <ann chan="nam_liv">0</ann>
    <ann chan="nam_pro">0</ann>
    <ann chan="nam_adj">0</ann>
   </tok>
   <tok>
    <orth>i</orth>
    <lex disamb="1"><base>i</base><ctag>conj</ctag></lex>
    <ann chan="nam">0</ann>
    <ann chan="nam_liv_person">0</ann>
    <ann chan="nam_pro_title">0</ann>
    <ann chan="nam_adj_city">0</ann>
    <ann chan="nam_liv">0</ann>
    <ann chan="nam_pro">0</ann>
    <ann chan="nam_adj">0</ann>
   </tok>
   <tok>
    <orth>łączniczka</orth>
    <lex disamb="1"><base>łączniczka</base><ctag>subst:sg:nom:f</ctag></lex>
    <ann chan="nam">0</ann>
    <ann chan="nam_liv_person">0</ann>
    <ann chan="nam_pro_title">0</ann>
    <ann chan="nam_adj_city">0</ann>
    <ann chan="nam_liv">0</ann>
    <ann chan="nam_pro">0</ann>
    <ann chan="nam_adj">0</ann>
   </tok>
   <tok>
    <orth>w</orth>
    <lex disamb="1"><base>w</base><ctag>prep:acc:nwok</ctag></lex>
    <ann chan="nam">0</ann>
    <ann chan="nam_liv_person">0</ann>
    <ann chan="nam_pro_title">0</ann>
    <ann chan="nam_adj_city">0</ann>
    <ann chan="nam_liv">0</ann>
    <ann chan="nam_pro">0</ann>
    <ann chan="nam_adj">0</ann>
   </tok>
   <tok>
    <orth>powstaniu</orth>
    <lex disamb="1"><base>powstanie</base><ctag>subst:sg:dat:n</ctag></lex>
    <ann chan="nam">0</ann>
    <ann chan="nam_liv_person">0</ann>
    <ann chan="nam_pro_title">0</ann>
    <ann chan="nam_adj_city">0</ann>
    <ann chan="nam_liv">0</ann>
    <ann chan="nam_pro">0</ann>
    <ann chan="nam_adj">0</ann>
   </tok>
   <tok>
    <orth>warszawskim</orth>
    <lex disamb="1"><base>warszawski</base><ctag>adj:sg:inst:m1:pos</ctag></lex>
    <ann chan="nam">0</ann>
    <ann chan="nam_liv_person">0</ann>
    <ann chan="nam_pro_title">0</ann>
    <ann chan="nam_adj_city">1</ann>
    <ann chan="nam_liv">0</ann>
    <ann chan="nam_pro">0</ann>
    <ann chan="nam_adj">1</ann>
   </tok>
   <ns/>
   <tok>
    <orth>.</orth>
    <lex disamb="1"><base>.</base><ctag>interp</ctag></lex>
    <ann chan="nam">0</ann>
    <ann chan="nam_liv_person">0</ann>
    <ann chan="nam_pro_title">0</ann>
    <ann chan="nam_adj_city">0</ann>
    <ann chan="nam_liv">0</ann>
    <ann chan="nam_pro">0</ann>
    <ann chan="nam_adj">0</ann>
   </tok>
  </sentence>
 </chunk>
 <chunk type="p" id="ch2">
  <sentence id="s2">
   <tok>
    <orth>W</orth>
    <lex disamb="1"><base>w</base><ctag>prep:acc:nwok</ctag></lex>
   </tok>
   <tok>
    <orth>czasie</orth>
    <lex disamb="1"><base>czas</base><ctag>subst:sg:loc:m3</ctag></lex>
   </tok>
   <tok>
    <orth>powstania</orth>
    <lex disamb="1"><base>powstanie</base><ctag>subst:sg:gen:n</ctag></lex>
   </tok>
   <tok>
    <orth>uratowała</orth>
    <lex disamb="1"><base>uratować</base><ctag>praet:sg:f:perf</ctag></lex>
   </tok>
   <tok>
    <orth>21</orth>
    <lex disamb="1"><base>21</base><ctag>num:pl:nom:m1:rec</ctag></lex>
   </tok>
   <tok>
    <orth>rannych</orth>
    <lex disamb="1"><base>ranna</base><ctag>subst:pl:gen:f</ctag></lex>
   </tok>
   <tok>
    <orth>żołnierzy</orth>
    <lex disamb="1"><base>żołnierz</base><ctag>subst:pl:gen:m1</ctag></lex>
   </tok>
   <tok>
    <orth>z</orth>
    <lex disamb="1"><base>z</base><ctag>prep:gen:nwok</ctag></lex>
   </tok>
   <tok>
    <orth>płonącego</orth>
    <lex disamb="1"><base>płonący</base><ctag>adj:sg:gen:m1:pos</ctag></lex>
   </tok>
   <tok>
    <orth>szpitala</orth>
    <lex disamb="1"><base>szpital</base><ctag>subst:sg:gen:m3</ctag></lex>
   </tok>
   <ns/>
   <tok>
    <orth>.</orth>
    <lex disamb="1"><base>.</base><ctag>interp</ctag></lex>
   </tok>
  </sentence>
 </chunk>
 <chunk type="p" id="ch3">
  <sentence id="s3">
   <tok>
    <orth>Uhonorowana</orth>
    <lex disamb="1"><base>uhonorować</base><ctag>ppas:sg:nom:f:perf:aff</ctag></lex>
   </tok>
   <tok>
    <orth>wieloma</orth>
    <lex disamb="1"><base>wiele</base><ctag>num:pl:nom:m1:rec</ctag></lex>
    <lex disamb="1"><base>wiele</base><ctag>num:pl:nom:m1:rec</ctag></lex>
    <lex disamb="1"><base>wiele</base><ctag>num:pl:nom:m1:rec</ctag></lex>
    <lex disamb="1"><base>wiele</base><ctag>num:pl:nom:m1:rec</ctag></lex>
    <lex disamb="1"><base>wiele</base><ctag>num:pl:nom:m1:rec</ctag></lex>
   </tok>
   <tok>
    <orth>orderami</orth>
    <lex disamb="1"><base>order</base><ctag>subst:pl:inst:m3</ctag></lex>
   </tok>
   <tok>
    <orth>i</orth>
    <lex disamb="1"><base>i</base><ctag>conj</ctag></lex>
   </tok>
   <tok>
    <orth>odznaczeniami</orth>
    <lex disamb="1"><base>odznaczenie</base><ctag>subst:pl:inst:n</ctag></lex>
   </tok>
   <ns/>
   <tok>
    <orth>.</orth>
    <lex disamb="1"><base>.</base><ctag>interp</ctag></lex>
   </tok>
  </sentence>
 </chunk>
 <chunk type="p" id="ch4">
  <sentence id="s4">
   <tok>
    <orth>Jej</orth>
    <lex disamb="1"><base>on</base><ctag>ppron3:sg:gen:f:ter:akc:npraep</ctag></lex>
   </tok>
   <tok>
    <orth>historia</orth>
    <lex disamb="1"><base>historia</base><ctag>subst:sg:nom:f</ctag></lex>
   </tok>
   <tok>
    <orth>stała</orth>
    <lex disamb="1"><base>stała</base><ctag>subst:sg:nom:f</ctag></lex>
   </tok>
   <tok>
    <orth>się</orth>
    <lex disamb="1"><base>się</base><ctag>qub</ctag></lex>
   </tok>
   <tok>
    <orth>inspiracją</orth>
    <lex disamb="1"><base>inspiracja</base><ctag>subst:sg:inst:f</ctag></lex>
   </tok>
   <tok>
    <orth>dla</orth>
    <lex disamb="1"><base>dla</base><ctag>prep:gen</ctag></lex>
   </tok>
   <tok>
    <orth>wielu</orth>
    <lex disamb="1"><base>wiele</base><ctag>num:pl:nom:m1:rec</ctag></lex>
    <lex disamb="1"><base>wiele</base><ctag>num:pl:nom:m1:rec</ctag></lex>
    <lex disamb="1"><base>wiele</base><ctag>num:pl:nom:m1:rec</ctag></lex>
    <lex disamb="1"><base>wiele</base><ctag>num:pl:nom:m1:rec</ctag></lex>
    <lex disamb="1"><base>wiele</base><ctag>num:pl:nom:m1:rec</ctag></lex>
    <lex disamb="1"><base>wiele</base><ctag>num:pl:nom:m1:rec</ctag></lex>
    <lex disamb="1"><base>wiele</base><ctag>num:pl:nom:m1:rec</ctag></lex>
    <lex disamb="1"><base>wiele</base><ctag>num:pl:nom:m1:rec</ctag></lex>
    <lex disamb="1"><base>wiele</base><ctag>num:pl:nom:m1:rec</ctag></lex>
    <lex disamb="1"><base>wiele</base><ctag>num:pl:nom:m1:rec</ctag></lex>
    <lex disamb="1"><base>wiele</base><ctag>num:pl:nom:m1:rec</ctag></lex>
    <lex disamb="1"><base>wiele</base><ctag>num:pl:nom:m1:rec</ctag></lex>
    <lex disamb="1"><base>wiele</base><ctag>num:pl:nom:m1:rec</ctag></lex>
    <lex disamb="1"><base>wiele</base><ctag>num:pl:nom:m1:rec</ctag></lex>
    <lex disamb="1"><base>wiele</base><ctag>num:pl:nom:m1:rec</ctag></lex>
    <lex disamb="1"><base>wiele</base><ctag>num:pl:nom:m1:rec</ctag></lex>
    <lex disamb="1"><base>wiele</base><ctag>num:pl:nom:m1:rec</ctag></lex>
    <lex disamb="1"><base>wiele</base><ctag>num:pl:nom:m1:rec</ctag></lex>
    <lex disamb="1"><base>wiele</base><ctag>num:pl:nom:m1:rec</ctag></lex>
    <lex disamb="1"><base>wiele</base><ctag>num:pl:nom:m1:rec</ctag></lex>
    <lex disamb="1"><base>wiele</base><ctag>num:pl:nom:m1:rec</ctag></lex>
    <lex disamb="1"><base>wiele</base><ctag>num:pl:nom:m1:rec</ctag></lex>
    <lex disamb="1"><base>wiele</base><ctag>num:pl:nom:m1:rec</ctag></lex>
   </tok>
   <tok>
    <orth>publikacji</orth>
    <lex disamb="1"><base>publikacja</base><ctag>subst:sg:gen:f</ctag></lex>
   </tok>
   <ns/>
   <tok>
    <orth>.</orth>
    <lex disamb="1"><base>.</base><ctag>interp</ctag></lex>
   </tok>
  </sentence>
 </chunk>
</chunkList>