<?xml version="1.0" encoding="UTF-8"?>
<!DOCTYPE chunkList SYSTEM "ccl.dtd">
<chunkList>
 <chunk type="p" id="ch1">
  <sentence id="s1">
   <tok>
    <orth>Part</orth>
    <lex disamb="1"><base>part</base><ctag>subst:sg:nom:m3</ctag></lex>
    <ann chan="nam">1</ann>
    <ann chan="nam_pro_brand">0</ann>
    <ann chan="nam_pro">1</ann>
   </tok>
   <tok>
    <orth>of</orth>
    <lex disamb="1"><base>of</base><ctag>ign</ctag></lex>
    <ann chan="nam">1</ann>
    <ann chan="nam_pro_brand">0</ann>
    <ann chan="nam_pro">1</ann>
   </tok>
   <tok>
    <orth>the</orth>
    <lex disamb="1"><base>the</base><ctag>ign</ctag></lex>
    <ann chan="nam">1</ann>
    <ann chan="nam_pro_brand">0</ann>
    <ann chan="nam_pro">1</ann>
   </tok>
   <tok>
    <orth>journey</orth>
    <lex disamb="1"><base>journey</base><ctag>ign</ctag></lex>
    <ann chan="nam">1</ann>
    <ann chan="nam_pro_brand">0</ann>
    <ann chan="nam_pro">1</ann>
   </tok>
   <tok>
    <orth>is</orth>
    <lex disamb="1"><base>IS</base><ctag>subst:sg:nom:m3</ctag></lex>
    <ann chan="nam">1</ann>
    <ann chan="nam_pro_brand">0</ann>
    <ann chan="nam_pro">1</ann>
   </tok>
   <tok>
    <orth>the</orth>
    <lex disamb="1"><base>the</base><ctag>ign</ctag></lex>
    <ann chan="nam">1</ann>
    <ann chan="nam_pro_brand">0</ann>
    <ann chan="nam_pro">1</ann>
   </tok>
   <tok>
    <orth>end</orth>
    <lex disamb="1"><base>end</base><ctag>subst:sg:nom:m3</ctag></lex>
    <ann chan="nam">1</ann>
    <ann chan="nam_pro_brand">0</ann>
    <ann chan="nam_pro">1</ann>
   </tok>
   <ns/>
   <tok>
    <orth>.</orth>
    <lex disamb="1"><base>.</base><ctag>interp</ctag></lex>
    <ann chan="nam">1</ann>
    <ann chan="nam_pro_brand">0</ann>
    <ann chan="nam_pro">1</ann>
   </tok>
   <tok>
    <orth>pierwszy</orth>
    <lex disamb="1"><base>pierwszy</base><ctag>subst:sg:nom:m2</ctag></lex>
    <ann chan="nam">1</ann>
    <ann chan="nam_pro_brand">0</ann>
    <ann chan="nam_pro">1</ann>
   </tok>
   <tok>
    <orth>zwiastun</orth>
    <lex disamb="1"><base>zwiastun</base><ctag>subst:sg:nom:m1</ctag></lex>
    <ann chan="nam">1</ann>
    <ann chan="nam_pro_brand">0</ann>
    <ann chan="nam_pro">1</ann>
   </tok>
   <tok>
    <orth>do</orth>
    <lex disamb="1"><base>do</base><ctag>prep:gen</ctag></lex>
    <ann chan="nam">1</ann>
    <ann chan="nam_pro_brand">0</ann>
    <ann chan="nam_pro">1</ann>
   </tok>
   <tok>
    <orth>Avengers</orth>
    <lex disamb="1"><base>Avengers</base><ctag>ign</ctag></lex>
    <ann chan="nam">1</ann>
    <ann chan="nam_pro_brand">1</ann>
    <ann chan="nam_pro">1</ann>
   </tok>
   <tok>
    <orth>4</orth>
    <lex disamb="1"><base>4</base><ctag>num:pl:nom:m1:rec</ctag></lex>
    <ann chan="nam">1</ann>
    <ann chan="nam_pro_brand">1</ann>
    <ann chan="nam_pro">1</ann>
   </tok>
  </sentence>
 </chunk>
</chunkList>