<?xml version="1.0" encoding="UTF-8"?>
<!DOCTYPE chunkList SYSTEM "ccl.dtd">
<chunkList>
 <chunk type="p" id="ch1">
  <sentence id="s1">
   <tok>
    <orth>Znalezione</orth>
    <lex disamb="1"><base>znaleźć</base><ctag>ppas:sg:nom:n:perf:aff</ctag></lex>
   </tok>
   <tok>
    <orth>na</orth>
    <lex disamb="1"><base>na</base><ctag>prep:acc</ctag></lex>
   </tok>
   <tok>
    <orth>FB</orth>
    <lex disamb="1"><base>FB</base><ctag>ign</ctag></lex>
   </tok>
   <ns/>
   <tok>
    <orth>,</orth>
    <lex disamb="1"><base>,</base><ctag>interp</ctag></lex>
   </tok>
   <tok>
    <orth>jeśli</orth>
    <lex disamb="1"><base>jeśli</base><ctag>comp</ctag></lex>
   </tok>
   <tok>
    <orth>masz</orth>
    <lex disamb="1"><base>mieć</base><ctag>fin:sg:sec:imperf</ctag></lex>
   </tok>
   <tok>
    <orth>poczucie</orth>
    <lex disamb="1"><base>poczucie</base><ctag>subst:sg:nom:n</ctag></lex>
   </tok>
   <tok>
    <orth>humoru</orth>
    <lex disamb="1"><base>humor</base><ctag>subst:sg:gen:m3</ctag></lex>
   </tok>
   <tok>
    <orth>to</orth>
    <lex disamb="1"><base>to</base><ctag>conj</ctag></lex>
   </tok>
   <tok>
    <orth>wykop</orth>
    <lex disamb="1"><base>wykop</base><ctag>subst:sg:nom:m3</ctag></lex>
   </tok>
   <tok>
    <orth>(</orth>
    <lex disamb="1"><base>(</base><ctag>interp</ctag></lex>
   </tok>
   <tok>
    <orth>͡</orth>
    <lex disamb="1"><base>͡</base><ctag>ign</ctag></lex>
   </tok>
   <ns/>
   <tok>
    <orth>°</orth>
    <lex disamb="1"><base>°</base><ctag>interp</ctag></lex>
   </tok>
   <tok>
    <orth>͜ʖ</orth>
    <lex disamb="1"><base>͜ʖ</base><ctag>ign</ctag></lex>
   </tok>
   <tok>
    <orth>͡</orth>
    <lex disamb="1"><base>͡</base><ctag>ign</ctag></lex>
   </tok>
   <ns/>
   <tok>
    <orth>°</orth>
    <lex disamb="1"><base>°</base><ctag>interp</ctag></lex>
   </tok>
   <ns/>
   <tok>
    <orth>)</orth>
    <lex disamb="1"><base>)</base><ctag>interp</ctag></lex>
   </tok>
  </sentence>
 </chunk>
</chunkList>