<?xml version="1.0" encoding="UTF-8"?>
<!DOCTYPE chunkList SYSTEM "ccl.dtd">
<chunkList>
 <chunk type="p" id="ch1">
  <sentence id="s1">
   <tok>
    <orth>W</orth>
    <lex disamb="1"><base>w</base><ctag>prep:acc:nwok</ctag></lex>
    <ann chan="nam">0</ann>
    <ann chan="nam_liv_person">0</ann>
    <ann chan="nam_loc_gpe_city">0</ann>
    <ann chan="nam_pro">0</ann>
    <ann chan="nam_loc">0</ann>
   </tok>
   <tok>
    <orth>klinice</orth>
    <lex disamb="1"><base>klinika</base><ctag>subst:sg:dat:f</ctag></lex>
    <ann chan="nam">0</ann>
    <ann chan="nam_liv_person">0</ann>
    <ann chan="nam_loc_gpe_city">0</ann>
    <ann chan="nam_pro">0</ann>
    <ann chan="nam_loc">0</ann>
   </tok>
   <tok>
    <orth>Budzik</orth>
    <lex disamb="1"><base>budzik</base><ctag>subst:sg:nom:m3</ctag></lex>
    <ann chan="nam">1</ann>
    <ann chan="nam_liv_person">1</ann>
    <ann chan="nam_loc_gpe_city">0</ann>
    <ann chan="nam_pro">1</ann>
    <ann chan="nam_loc">0</ann>
   </tok>
   <tok>
    <orth>dla</orth>
    <lex disamb="1"><base>dla</base><ctag>prep:gen</ctag></lex>
    <ann chan="nam">0</ann>
    <ann chan="nam_liv_person">0</ann>
    <ann chan="nam_loc_gpe_city">0</ann>
    <ann chan="nam_pro">0</ann>
    <ann chan="nam_loc">0</ann>
   </tok>
   <tok>
    <orth>dorosłych</orth>
    <lex disamb="1"><base>dorosła</base><ctag>subst:pl:gen:f</ctag></lex>
    <ann chan="nam">0</ann>
    <ann chan="nam_liv_person">0</ann>
    <ann chan="nam_loc_gpe_city">0</ann>
    <ann chan="nam_pro">0</ann>
    <ann chan="nam_loc">0</ann>
   </tok>
   <tok>
    <orth>w</orth>
    <lex disamb="1"><base>w</base><ctag>prep:acc:nwok</ctag></lex>
    <ann chan="nam">0</ann>
    <ann chan="nam_liv_person">0</ann>
    <ann chan="nam_loc_gpe_city">0</ann>
    <ann chan="nam_pro">0</ann>
    <ann chan="nam_loc">0</ann>
   </tok>
   <tok>
    <orth>Olsztynie</orth>
    <lex disamb="1"><base>Olsztyn</base><ctag>subst:sg:loc:m3</ctag></lex>
    <ann chan="nam">2</ann>
    <ann chan="nam_liv_person">0</ann>
    <ann chan="nam_loc_gpe_city">1</ann>
    <ann chan="nam_pro">0</ann>
    <ann chan="nam_loc">1</ann>
   </tok>
   <tok>
    <orth>wybudził</orth>
    <lex disamb="1"><base>wybudzić</base><ctag>praet:sg:m1:perf</ctag></lex>
    <ann chan="nam">0</ann>
    <ann chan="nam_liv_person">0</ann>
    <ann chan="nam_loc_gpe_city">0</ann>
    <ann chan="nam_pro">0</ann>
    <ann chan="nam_loc">0</ann>
   </tok>
   <tok>
    <orth>się</orth>
    <lex disamb="1"><base>się</base><ctag>qub</ctag></lex>
    <ann chan="nam">0</ann>
    <ann chan="nam_liv_person">0</ann>
    <ann chan="nam_loc_gpe_city">0</ann>
    <ann chan="nam_pro">0</ann>
    <ann chan="nam_loc">0</ann>
   </tok>
   <tok>
    <orth>dziesiąty</orth>
    <lex disamb="1"><base>dziesiąty</base><ctag>subst:sg:nom:m2</ctag></lex>
    <ann chan="nam">0</ann>
    <ann chan="nam_liv_person">0</ann>
    <ann chan="nam_loc_gpe_city">0</ann>
    <ann chan="nam_pro">0</ann>
    <ann chan="nam_loc">0</ann>
   </tok>
   <tok>
    <orth>pacjent</orth>
    <lex disamb="1"><base>pacjent</base><ctag>subst:sg:nom:m1</ctag></lex>
    <ann chan="nam">0</ann>
    <ann chan="nam_liv_person">0</ann>
    <ann chan="nam_loc_gpe_city">0</ann>
    <ann chan="nam_pro">0</ann>
    <ann chan="nam_loc">0</ann>
   </tok>
   <ns/>
   <tok>
    <orth>.</orth>
    <lex disamb="1"><base>.</base><ctag>interp</ctag></lex>
    <ann chan="nam">0</ann>
    <ann chan="nam_liv_person">0</ann>
    <ann chan="nam_loc_gpe_city">0</ann>
    <ann chan="nam_pro">0</ann>
    <ann chan="nam_loc">0</ann>
   </tok>
  </sentence>
 </chunk>
 <chunk type="p" id="ch2">
  <sentence id="s2">
   <tok>
    <orth>To</orth>
    <lex disamb="1"><base>to</base><ctag>conj</ctag></lex>
    <ann chan="nam">0</ann>
    <ann chan="nam_liv_person">0</ann>
    <ann chan="nam_loc_gpe_city">0</ann>
    <ann chan="nam_liv">0</ann>
    <ann chan="nam_loc">0</ann>
    <ann chan="timex">0</ann>
    <ann chan="t3_duration">0</ann>
   </tok>
   <tok>
    <orth>46</orth>
    <lex disamb="1"><base>46</base><ctag>num:pl:nom:m1:rec</ctag></lex>
    <ann chan="nam">0</ann>
    <ann chan="nam_liv_person">0</ann>
    <ann chan="nam_loc_gpe_city">0</ann>
    <ann chan="nam_liv">0</ann>
    <ann chan="nam_loc">0</ann>
    <ann chan="timex">0</ann>
    <ann chan="t3_duration">0</ann>
   </tok>
   <ns/>
   <tok>
    <orth>-</orth>
    <lex disamb="1"><base>-</base><ctag>interp</ctag></lex>
    <ann chan="nam">0</ann>
    <ann chan="nam_liv_person">0</ann>
    <ann chan="nam_loc_gpe_city">0</ann>
    <ann chan="nam_liv">0</ann>
    <ann chan="nam_loc">0</ann>
    <ann chan="timex">0</ann>
    <ann chan="t3_duration">0</ann>
   </tok>
   <ns/>
   <tok>
    <orth>letni</orth>
    <lex disamb="1"><base>letni</base><ctag>adj:sg:nom:m1:pos</ctag></lex>
    <ann chan="nam">0</ann>
    <ann chan="nam_liv_person">0</ann>
    <ann chan="nam_loc_gpe_city">0</ann>
    <ann chan="nam_liv">0</ann>
    <ann chan="nam_loc">0</ann>
    <ann chan="timex">0</ann>
    <ann chan="t3_duration">0</ann>
   </tok>
   <tok>
    <orth>pan</orth>
    <lex disamb="1"><base>pan</base><ctag>subst:sg:nom:m1</ctag></lex>
    <ann chan="nam">0</ann>
    <ann chan="nam_liv_person">0</ann>
    <ann chan="nam_loc_gpe_city">0</ann>
    <ann chan="nam_liv">0</ann>
    <ann chan="nam_loc">0</ann>
    <ann chan="timex">0</ann>
    <ann chan="t3_duration">0</ann>
   </tok>
   <tok>
    <orth>Artur</orth>
    <lex disamb="1"><base>Artur</base><ctag>subst:sg:nom:m1</ctag></lex>
    <ann chan="nam">1</ann>
    <ann chan="nam_liv_person">1</ann>
    <ann chan="nam_loc_gpe_city">0</ann>
    <ann chan="nam_liv">1</ann>
    <ann chan="nam_loc">0</ann>
    <ann chan="timex">0</ann>
    <ann chan="t3_duration">0</ann>
   </tok>
   <tok>
    <orth>z</orth>
    <lex disamb="1"><base>z</base><ctag>prep:gen:nwok</ctag></lex>
    <ann chan="nam">0</ann>
    <ann chan="nam_liv_person">0</ann>
    <ann chan="nam_loc_gpe_city">0</ann>
    <ann chan="nam_liv">0</ann>
    <ann chan="nam_loc">0</ann>
    <ann chan="timex">0</ann>
    <ann chan="t3_duration">0</ann>
   </tok>
   <tok>
    <orth>Lublina</orth>
    <lex disamb="1"><base>Lublin</base><ctag>subst:sg:gen:m3</ctag></lex>
    <lex disamb="1"><base>lublin</base><ctag>subst:sg:gen:m3</ctag></lex>
    <ann chan="nam">2</ann>
    <ann chan="nam_liv_person">0</ann>
    <ann chan="nam_loc_gpe_city">1</ann>
    <ann chan="nam_liv">0</ann>
    <ann chan="nam_loc">1</ann>
    <ann chan="timex">0</ann>
    <ann chan="t3_duration">0</ann>
   </tok>
   <ns/>
   <tok>
    <orth>,</orth>
    <lex disamb="1"><base>,</base><ctag>interp</ctag></lex>
    <ann chan="nam">0</ann>
    <ann chan="nam_liv_person">0</ann>
    <ann chan="nam_loc_gpe_city">0</ann>
    <ann chan="nam_liv">0</ann>
    <ann chan="nam_loc">0</ann>
    <ann chan="timex">0</ann>
    <ann chan="t3_duration">0</ann>
   </tok>
   <tok>
    <orth>który</orth>
    <lex disamb="1"><base>który</base><ctag>adj:sg:nom:m1:pos</ctag></lex>
    <ann chan="nam">0</ann>
    <ann chan="nam_liv_person">0</ann>
    <ann chan="nam_loc_gpe_city">0</ann>
    <ann chan="nam_liv">0</ann>
    <ann chan="nam_loc">0</ann>
    <ann chan="timex">0</ann>
    <ann chan="t3_duration">0</ann>
   </tok>
   <tok>
    <orth>trzy</orth>
    <lex disamb="1"><base>trzy</base><ctag>num:pl:nom:m1:rec</ctag></lex>
    <lex disamb="1"><base>trzy</base><ctag>num:pl:nom:m1:rec</ctag></lex>
    <lex disamb="1"><base>trzy</base><ctag>num:pl:nom:m1:rec</ctag></lex>
    <lex disamb="1"><base>trzy</base><ctag>num:pl:nom:m1:rec</ctag></lex>
    <lex disamb="1"><base>trzy</base><ctag>num:pl:nom:m1:rec</ctag></lex>
    <lex disamb="1"><base>trzy</base><ctag>num:pl:nom:m1:rec</ctag></lex>
    <lex disamb="1"><base>trzy</base><ctag>num:pl:nom:m1:rec</ctag></lex>
    <lex disamb="1"><base>trzy</base><ctag>num:pl:nom:m1:rec</ctag></lex>
    <lex disamb="1"><base>trzy</base><ctag>num:pl:nom:m1:rec</ctag></lex>
    <lex disamb="1"><base>trzy</base><ctag>num:pl:nom:m1:rec</ctag></lex>
    <lex disamb="1"><base>trzy</base><ctag>num:pl:nom:m1:rec</ctag></lex>
    <lex disamb="1"><base>trzy</base><ctag>num:pl:nom:m1:rec</ctag></lex>
    <ann chan="nam">0</ann>
    <ann chan="nam_liv_person">0</ann>
    <ann chan="nam_loc_gpe_city">0</ann>
    <ann chan="nam_liv">0</ann>
    <ann chan="nam_loc">0</ann>
    <ann chan="timex">1</ann>
    <ann chan="t3_duration">1</ann>
   </tok>
   <tok>
    <orth>miesiące</orth>
    <lex disamb="1"><base>miesiąc</base><ctag>subst:pl:nom:m3</ctag></lex>
    <ann chan="nam">0</ann>
    <ann chan="nam_liv_person">0</ann>
    <ann chan="nam_loc_gpe_city">0</ann>
    <ann chan="nam_liv">0</ann>
    <ann chan="nam_loc">0</ann>
    <ann chan="timex">1</ann>
    <ann chan="t3_duration">1</ann>
   </tok>
   <tok>
    <orth>temu</orth>
    <lex disamb="1"><base>temu</base><ctag>prep:acc</ctag></lex>
    <ann chan="nam">0</ann>
    <ann chan="nam_liv_person">0</ann>
    <ann chan="nam_loc_gpe_city">0</ann>
    <ann chan="nam_liv">0</ann>
    <ann chan="nam_loc">0</ann>
    <ann chan="timex">0</ann>
    <ann chan="t3_duration">0</ann>
   </tok>
   <tok>
    <orth>zapadł</orth>
    <lex disamb="1"><base>zapaść</base><ctag>praet:sg:m1:perf</ctag></lex>
    <ann chan="nam">0</ann>
    <ann chan="nam_liv_person">0</ann>
    <ann chan="nam_loc_gpe_city">0</ann>
    <ann chan="nam_liv">0</ann>
    <ann chan="nam_loc">0</ann>
    <ann chan="timex">0</ann>
    <ann chan="t3_duration">0</ann>
   </tok>
   <tok>
    <orth>w</orth>
    <lex disamb="1"><base>w</base><ctag>prep:acc:nwok</ctag></lex>
    <ann chan="nam">0</ann>
    <ann chan="nam_liv_person">0</ann>
    <ann chan="nam_loc_gpe_city">0</ann>
    <ann chan="nam_liv">0</ann>
    <ann chan="nam_loc">0</ann>
    <ann chan="timex">0</ann>
    <ann chan="t3_duration">0</ann>
   </tok>
   <tok>
    <orth>śpiączkę</orth>
    <lex disamb="1"><base>śpiączka</base><ctag>subst:sg:acc:f</ctag></lex>
    <ann chan="nam">0</ann>
    <ann chan="nam_liv_person">0</ann>
    <ann chan="nam_loc_gpe_city">0</ann>
    <ann chan="nam_liv">0</ann>
    <ann chan="nam_loc">0</ann>
    <ann chan="timex">0</ann>
    <ann chan="t3_duration">0</ann>
   </tok>
   <tok>
    <orth>po</orth>
    <lex disamb="1"><base>po</base><ctag>prep:acc</ctag></lex>
    <ann chan="nam">0</ann>
    <ann chan="nam_liv_person">0</ann>
    <ann chan="nam_loc_gpe_city">0</ann>
    <ann chan="nam_liv">0</ann>
    <ann chan="nam_loc">0</ann>
    <ann chan="timex">0</ann>
    <ann chan="t3_duration">0</ann>
   </tok>
   <tok>
    <orth>wypadku</orth>
    <lex disamb="1"><base>wypadek</base><ctag>subst:sg:gen:m3</ctag></lex>
    <ann chan="nam">0</ann>
    <ann chan="nam_liv_person">0</ann>
    <ann chan="nam_loc_gpe_city">0</ann>
    <ann chan="nam_liv">0</ann>
    <ann chan="nam_loc">0</ann>
    <ann chan="timex">0</ann>
    <ann chan="t3_duration">0</ann>
   </tok>
   <tok>
    <orth>na</orth>
    <lex disamb="1"><base>na</base><ctag>prep:acc</ctag></lex>
    <ann chan="nam">0</ann>
    <ann chan="nam_liv_person">0</ann>
    <ann chan="nam_loc_gpe_city">0</ann>
    <ann chan="nam_liv">0</ann>
    <ann chan="nam_loc">0</ann>
    <ann chan="timex">0</ann>
    <ann chan="t3_duration">0</ann>
   </tok>
   <tok>
    <orth>rowerze</orth>
    <lex disamb="1"><base>rower</base><ctag>subst:sg:loc:m3</ctag></lex>
    <ann chan="nam">0</ann>
    <ann chan="nam_liv_person">0</ann>
    <ann chan="nam_loc_gpe_city">0</ann>
    <ann chan="nam_liv">0</ann>
    <ann chan="nam_loc">0</ann>
    <ann chan="timex">0</ann>
    <ann chan="t3_duration">0</ann>
   </tok>
   <ns/>
   <tok>
    <orth>.</orth>
    <lex disamb="1"><base>.</base><ctag>interp</ctag></lex>
    <ann chan="nam">0</ann>
    <ann chan="nam_liv_person">0</ann>
    <ann chan="nam_loc_gpe_city">0</ann>
    <ann chan="nam_liv">0</ann>
    <ann chan="nam_loc">0</ann>
    <ann chan="timex">0</ann>
    <ann chan="t3_duration">0</ann>
   </tok>
  </sentence>
 </chunk>
</chunkList>