<?xml version="1.0" encoding="UTF-8"?>
<!DOCTYPE chunkList SYSTEM "ccl.dtd">
<chunkList>
 <chunk type="p" id="ch1">
  <sentence id="s1">
   <tok>
    <orth>Według</orth>
    <lex disamb="1"><base>według</base><ctag>prep:gen</ctag></lex>
    <ann chan="nam">0</ann>
    <ann chan="nam_org_institution">0</ann>
    <ann chan="nam_loc_gpe_country">0</ann>
    <ann chan="nam_loc_land_continent">0</ann>
    <ann chan="nam_org">0</ann>
    <ann chan="nam_loc">0</ann>
   </tok>
   <tok>
    <orth>statystyk</orth>
    <lex disamb="1"><base>statystyk</base><ctag>subst:sg:nom:m1</ctag></lex>
    <ann chan="nam">0</ann>
    <ann chan="nam_org_institution">0</ann>
    <ann chan="nam_loc_gpe_country">0</ann>
    <ann chan="nam_loc_land_continent">0</ann>
    <ann chan="nam_org">0</ann>
    <ann chan="nam_loc">0</ann>
   </tok>
   <tok>
    <orth>Departamentu</orth>
    <lex disamb="1"><base>departament</base><ctag>subst:sg:gen:m3</ctag></lex>
    <ann chan="nam">1</ann>
    <ann chan="nam_org_institution">1</ann>
    <ann chan="nam_loc_gpe_country">0</ann>
    <ann chan="nam_loc_land_continent">0</ann>
    <ann chan="nam_org">1</ann>
    <ann chan="nam_loc">0</ann>
   </tok>
   <tok>
    <orth>Pracy</orth>
    <lex disamb="1"><base>praca</base><ctag>subst:sg:gen:f</ctag></lex>
    <ann chan="nam">1</ann>
    <ann chan="nam_org_institution">1</ann>
    <ann chan="nam_loc_gpe_country">0</ann>
    <ann chan="nam_loc_land_continent">0</ann>
    <ann chan="nam_org">1</ann>
    <ann chan="nam_loc">0</ann>
   </tok>
   <tok>
    <orth>w</orth>
    <lex disamb="1"><base>w</base><ctag>prep:acc:nwok</ctag></lex>
    <ann chan="nam">0</ann>
    <ann chan="nam_org_institution">0</ann>
    <ann chan="nam_loc_gpe_country">0</ann>
    <ann chan="nam_loc_land_continent">0</ann>
    <ann chan="nam_org">0</ann>
    <ann chan="nam_loc">0</ann>
   </tok>
   <tok>
    <orth>USA</orth>
    <lex disamb="1"><base>USA</base><ctag>subst:pl:nom:n</ctag></lex>
    <ann chan="nam">2</ann>
    <ann chan="nam_org_institution">0</ann>
    <ann chan="nam_loc_gpe_country">1</ann>
    <ann chan="nam_loc_land_continent">0</ann>
    <ann chan="nam_org">0</ann>
    <ann chan="nam_loc">1</ann>
   </tok>
   <ns/>
   <tok>
    <orth>,</orth>
    <lex disamb="1"><base>,</base><ctag>interp</ctag></lex>
    <ann chan="nam">0</ann>
    <ann chan="nam_org_institution">0</ann>
    <ann chan="nam_loc_gpe_country">0</ann>
    <ann chan="nam_loc_land_continent">0</ann>
    <ann chan="nam_org">0</ann>
    <ann chan="nam_loc">0</ann>
   </tok>
   <tok>
    <orth>dostawcy</orth>
    <lex disamb="1"><base>dostawca</base><ctag>subst:sg:gen:m1</ctag></lex>
    <ann chan="nam">0</ann>
    <ann chan="nam_org_institution">0</ann>
    <ann chan="nam_loc_gpe_country">0</ann>
    <ann chan="nam_loc_land_continent">0</ann>
    <ann chan="nam_org">0</ann>
    <ann chan="nam_loc">0</ann>
   </tok>
   <tok>
    <orth>pizzy</orth>
    <lex disamb="1"><base>pizza</base><ctag>subst:sg:gen:f</ctag></lex>
    <ann chan="nam">0</ann>
    <ann chan="nam_org_institution">0</ann>
    <ann chan="nam_loc_gpe_country">0</ann>
    <ann chan="nam_loc_land_continent">0</ann>
    <ann chan="nam_org">0</ann>
    <ann chan="nam_loc">0</ann>
   </tok>
   <tok>
    <orth>(</orth>
    <lex disamb="1"><base>(</base><ctag>interp</ctag></lex>
    <ann chan="nam">0</ann>
    <ann chan="nam_org_institution">0</ann>
    <ann chan="nam_loc_gpe_country">0</ann>
    <ann chan="nam_loc_land_continent">0</ann>
    <ann chan="nam_org">0</ann>
    <ann chan="nam_loc">0</ann>
   </tok>
   <ns/>
   <tok>
    <orth>czy</orth>
    <lex disamb="1"><base>czy</base><ctag>conj</ctag></lex>
    <ann chan="nam">0</ann>
    <ann chan="nam_org_institution">0</ann>
    <ann chan="nam_loc_gpe_country">0</ann>
    <ann chan="nam_loc_land_continent">0</ann>
    <ann chan="nam_org">0</ann>
    <ann chan="nam_loc">0</ann>
   </tok>
   <tok>
    <orth>ogólnie</orth>
    <lex disamb="1"><base>ogólnie</base><ctag>adv:pos</ctag></lex>
    <ann chan="nam">0</ann>
    <ann chan="nam_org_institution">0</ann>
    <ann chan="nam_loc_gpe_country">0</ann>
    <ann chan="nam_loc_land_continent">0</ann>
    <ann chan="nam_org">0</ann>
    <ann chan="nam_loc">0</ann>
   </tok>
   <tok>
    <orth>driver</orth>
    <lex disamb="1"><base>driver</base><ctag>subst:sg:nom:m3</ctag></lex>
    <ann chan="nam">0</ann>
    <ann chan="nam_org_institution">0</ann>
    <ann chan="nam_loc_gpe_country">0</ann>
    <ann chan="nam_loc_land_continent">0</ann>
    <ann chan="nam_org">0</ann>
    <ann chan="nam_loc">0</ann>
   </tok>
   <ns/>
   <tok>
    <orth>-</orth>
    <lex disamb="1"><base>-</base><ctag>interp</ctag></lex>
    <ann chan="nam">0</ann>
    <ann chan="nam_org_institution">0</ann>
    <ann chan="nam_loc_gpe_country">0</ann>
    <ann chan="nam_loc_land_continent">0</ann>
    <ann chan="nam_org">0</ann>
    <ann chan="nam_loc">0</ann>
   </tok>
   <ns/>
   <tok>
    <orth>sales</orth>
    <lex disamb="1"><base>sales</base><ctag>ign</ctag></lex>
    <ann chan="nam">0</ann>
    <ann chan="nam_org_institution">0</ann>
    <ann chan="nam_loc_gpe_country">0</ann>
    <ann chan="nam_loc_land_continent">0</ann>
    <ann chan="nam_org">0</ann>
    <ann chan="nam_loc">0</ann>
   </tok>
   <tok>
    <orth>workers</orth>
    <lex disamb="1"><base>workers</base><ctag>ign</ctag></lex>
    <ann chan="nam">0</ann>
    <ann chan="nam_org_institution">0</ann>
    <ann chan="nam_loc_gpe_country">0</ann>
    <ann chan="nam_loc_land_continent">0</ann>
    <ann chan="nam_org">0</ann>
    <ann chan="nam_loc">0</ann>
   </tok>
   <ns/>
   <tok>
    <orth>)</orth>
    <lex disamb="1"><base>)</base><ctag>interp</ctag></lex>
    <ann chan="nam">0</ann>
    <ann chan="nam_org_institution">0</ann>
    <ann chan="nam_loc_gpe_country">0</ann>
    <ann chan="nam_loc_land_continent">0</ann>
    <ann chan="nam_org">0</ann>
    <ann chan="nam_loc">0</ann>
   </tok>
   <tok>
    <orth>to</orth>
    <lex disamb="1"><base>to</base><ctag>conj</ctag></lex>
    <ann chan="nam">0</ann>
    <ann chan="nam_org_institution">0</ann>
    <ann chan="nam_loc_gpe_country">0</ann>
    <ann chan="nam_loc_land_continent">0</ann>
    <ann chan="nam_org">0</ann>
    <ann chan="nam_loc">0</ann>
   </tok>
   <tok>
    <orth>piąty</orth>
    <lex disamb="1"><base>piąty</base><ctag>subst:sg:nom:m2</ctag></lex>
    <ann chan="nam">0</ann>
    <ann chan="nam_org_institution">0</ann>
    <ann chan="nam_loc_gpe_country">0</ann>
    <ann chan="nam_loc_land_continent">0</ann>
    <ann chan="nam_org">0</ann>
    <ann chan="nam_loc">0</ann>
   </tok>
   <tok>
    <orth>najbardziej</orth>
    <lex disamb="1"><base>najbardziej</base><ctag>adv:pos</ctag></lex>
    <ann chan="nam">0</ann>
    <ann chan="nam_org_institution">0</ann>
    <ann chan="nam_loc_gpe_country">0</ann>
    <ann chan="nam_loc_land_continent">0</ann>
    <ann chan="nam_org">0</ann>
    <ann chan="nam_loc">0</ann>
   </tok>
   <tok>
    <orth>niebezpieczny</orth>
    <lex disamb="1"><base>niebezpieczny</base><ctag>adj:sg:nom:m1:pos</ctag></lex>
    <ann chan="nam">0</ann>
    <ann chan="nam_org_institution">0</ann>
    <ann chan="nam_loc_gpe_country">0</ann>
    <ann chan="nam_loc_land_continent">0</ann>
    <ann chan="nam_org">0</ann>
    <ann chan="nam_loc">0</ann>
   </tok>
   <tok>
    <orth>zawód</orth>
    <lex disamb="1"><base>zawód</base><ctag>subst:sg:nom:m3</ctag></lex>
    <ann chan="nam">0</ann>
    <ann chan="nam_org_institution">0</ann>
    <ann chan="nam_loc_gpe_country">0</ann>
    <ann chan="nam_loc_land_continent">0</ann>
    <ann chan="nam_org">0</ann>
    <ann chan="nam_loc">0</ann>
   </tok>
   <tok>
    <orth>w</orth>
    <lex disamb="1"><base>w</base><ctag>prep:acc:nwok</ctag></lex>
    <ann chan="nam">0</ann>
    <ann chan="nam_org_institution">0</ann>
    <ann chan="nam_loc_gpe_country">0</ann>
    <ann chan="nam_loc_land_continent">0</ann>
    <ann chan="nam_org">0</ann>
    <ann chan="nam_loc">0</ann>
   </tok>
   <tok>
    <orth>Ameryce</orth>
    <lex disamb="1"><base>Ameryka</base><ctag>subst:sg:dat:f</ctag></lex>
    <ann chan="nam">3</ann>
    <ann chan="nam_org_institution">0</ann>
    <ann chan="nam_loc_gpe_country">0</ann>
    <ann chan="nam_loc_land_continent">1</ann>
    <ann chan="nam_org">0</ann>
    <ann chan="nam_loc">2</ann>
   </tok>
   <ns/>
   <tok>
    <orth>:</orth>
    <lex disamb="1"><base>:</base><ctag>interp</ctag></lex>
    <ann chan="nam">0</ann>
    <ann chan="nam_org_institution">0</ann>
    <ann chan="nam_loc_gpe_country">0</ann>
    <ann chan="nam_loc_land_continent">0</ann>
    <ann chan="nam_org">0</ann>
    <ann chan="nam_loc">0</ann>
   </tok>
   <tok>
    <orth>są</orth>
    <lex disamb="1"><base>być</base><ctag>fin:pl:ter:imperf</ctag></lex>
    <ann chan="nam">0</ann>
    <ann chan="nam_org_institution">0</ann>
    <ann chan="nam_loc_gpe_country">0</ann>
    <ann chan="nam_loc_land_continent">0</ann>
    <ann chan="nam_org">0</ann>
    <ann chan="nam_loc">0</ann>
   </tok>
   <tok>
    <orth>zabijani</orth>
    <lex disamb="1"><base>zabijać</base><ctag>ppas:pl:nom:m1:imperf:aff</ctag></lex>
    <ann chan="nam">0</ann>
    <ann chan="nam_org_institution">0</ann>
    <ann chan="nam_loc_gpe_country">0</ann>
    <ann chan="nam_loc_land_continent">0</ann>
    <ann chan="nam_org">0</ann>
    <ann chan="nam_loc">0</ann>
   </tok>
   <ns/>
   <tok>
    <orth>,</orth>
    <lex disamb="1"><base>,</base><ctag>interp</ctag></lex>
    <ann chan="nam">0</ann>
    <ann chan="nam_org_institution">0</ann>
    <ann chan="nam_loc_gpe_country">0</ann>
    <ann chan="nam_loc_land_continent">0</ann>
    <ann chan="nam_org">0</ann>
    <ann chan="nam_loc">0</ann>
   </tok>
   <tok>
    <orth>bici</orth>
    <lex disamb="1"><base>bity</base><ctag>adj:pl:nom:m1:pos</ctag></lex>
    <ann chan="nam">0</ann>
    <ann chan="nam_org_institution">0</ann>
    <ann chan="nam_loc_gpe_country">0</ann>
    <ann chan="nam_loc_land_continent">0</ann>
    <ann chan="nam_org">0</ann>
    <ann chan="nam_loc">0</ann>
   </tok>
   <tok>
    <orth>do</orth>
    <lex disamb="1"><base>do</base><ctag>prep:gen</ctag></lex>
    <ann chan="nam">0</ann>
    <ann chan="nam_org_institution">0</ann>
    <ann chan="nam_loc_gpe_country">0</ann>
    <ann chan="nam_loc_land_continent">0</ann>
    <ann chan="nam_org">0</ann>
    <ann chan="nam_loc">0</ann>
   </tok>
   <tok>
    <orth>nieprzytomności</orth>
    <lex disamb="1"><base>nieprzytomność</base><ctag>subst:sg:gen:f</ctag></lex>
    <ann chan="nam">0</ann>
    <ann chan="nam_org_institution">0</ann>
    <ann chan="nam_loc_gpe_country">0</ann>
    <ann chan="nam_loc_land_continent">0</ann>
    <ann chan="nam_org">0</ann>
    <ann chan="nam_loc">0</ann>
   </tok>
   <tok>
    <orth>i</orth>
    <lex disamb="1"><base>i</base><ctag>conj</ctag></lex>
    <ann chan="nam">0</ann>
    <ann chan="nam_org_institution">0</ann>
    <ann chan="nam_loc_gpe_country">0</ann>
    <ann chan="nam_loc_land_continent">0</ann>
    <ann chan="nam_org">0</ann>
    <ann chan="nam_loc">0</ann>
   </tok>
   <tok>
    <orth>okradani</orth>
    <lex disamb="1"><base>okradać</base><ctag>ppas:pl:nom:m1:imperf:aff</ctag></lex>
    <ann chan="nam">0</ann>
    <ann chan="nam_org_institution">0</ann>
    <ann chan="nam_loc_gpe_country">0</ann>
    <ann chan="nam_loc_land_continent">0</ann>
    <ann chan="nam_org">0</ann>
    <ann chan="nam_loc">0</ann>
   </tok>
   <ns/>
   <tok>
    <orth>.</orth>
    <lex disamb="1"><base>.</base><ctag>interp</ctag></lex>
    <ann chan="nam">0</ann>
    <ann chan="nam_org_institution">0</ann>
    <ann chan="nam_loc_gpe_country">0</ann>
    <ann chan="nam_loc_land_continent">0</ann>
    <ann chan="nam_org">0</ann>
    <ann chan="nam_loc">0</ann>
   </tok>
  </sentence>
 </chunk>
 <chunk type="p" id="ch2">
  <sentence id="s2">
   <tok>
    <orth>Sprawcami</orth>
    <lex disamb="1"><base>sprawca</base><ctag>subst:pl:inst:m1</ctag></lex>
    <ann chan="nam">0</ann>
    <ann chan="nam_org_nation">0</ann>
   </tok>
   <tok>
    <orth>są</orth>
    <lex disamb="1"><base>być</base><ctag>fin:pl:ter:imperf</ctag></lex>
    <ann chan="nam">0</ann>
    <ann chan="nam_org_nation">0</ann>
   </tok>
   <tok>
    <orth>w</orth>
    <lex disamb="1"><base>w</base><ctag>prep:acc:nwok</ctag></lex>
    <ann chan="nam">0</ann>
    <ann chan="nam_org_nation">0</ann>
   </tok>
   <tok>
    <orth>przeważającej</orth>
    <lex disamb="1"><base>przeważający</base><ctag>adj:sg:gen:f:pos</ctag></lex>
    <ann chan="nam">0</ann>
    <ann chan="nam_org_nation">0</ann>
   </tok>
   <tok>
    <orth>większości</orth>
    <lex disamb="1"><base>większość</base><ctag>subst:sg:gen:f</ctag></lex>
    <ann chan="nam">0</ann>
    <ann chan="nam_org_nation">0</ann>
   </tok>
   <tok>
    <orth>Murzyni</orth>
    <lex disamb="1"><base>Murzyn</base><ctag>subst:pl:nom:m1</ctag></lex>
    <lex disamb="1"><base>murzyn</base><ctag>subst:pl:nom:m1</ctag></lex>
    <ann chan="nam">1</ann>
    <ann chan="nam_org_nation">1</ann>
   </tok>
   <ns/>
   <tok>
    <orth>.</orth>
    <lex disamb="1"><base>.</base><ctag>interp</ctag></lex>
    <ann chan="nam">0</ann>
    <ann chan="nam_org_nation">0</ann>
   </tok>
  </sentence>
 </chunk>
</chunkList>