<?xml version="1.0" encoding="UTF-8"?>
<!DOCTYPE chunkList SYSTEM "ccl.dtd">
<chunkList>
 <chunk type="p" id="ch1">
  <sentence id="s1">
   <tok>
    <orth>Trivago</orth>
    <lex disamb="1"><base>Trivago</base><ctag>ign</ctag></lex>
   </tok>
   <tok>
    <orth>przyłapane</orth>
    <lex disamb="1"><base>przyłapać</base><ctag>ppas:sg:nom:n:perf:aff</ctag></lex>
   </tok>
   <tok>
    <orth>zostało</orth>
    <lex disamb="1"><base>zostać</base><ctag>praet:sg:n:perf</ctag></lex>
   </tok>
   <tok>
    <orth>na</orth>
    <lex disamb="1"><base>na</base><ctag>prep:acc</ctag></lex>
   </tok>
   <tok>
    <orth>porównywaniu</orth>
    <lex disamb="1"><base>porównywać</base><ctag>ger:sg:dat:n:imperf:aff</ctag></lex>
   </tok>
   <tok>
    <orth>cen</orth>
    <lex disamb="1"><base>cena</base><ctag>subst:pl:gen:f</ctag></lex>
   </tok>
   <tok>
    <orth>pokoi</orth>
    <lex disamb="1"><base>pokój</base><ctag>subst:pl:gen:m3</ctag></lex>
   </tok>
   <tok>
    <orth>standardowych</orth>
    <lex disamb="1"><base>standardowy</base><ctag>adj:pl:gen:m1:pos</ctag></lex>
   </tok>
   <tok>
    <orth>z</orth>
    <lex disamb="1"><base>z</base><ctag>prep:gen:nwok</ctag></lex>
   </tok>
   <tok>
    <orth>luksusowymi</orth>
    <lex disamb="1"><base>luksusowy</base><ctag>adj:pl:inst:m1:pos</ctag></lex>
   </tok>
   <tok>
    <orth>apartamentami</orth>
    <lex disamb="1"><base>apartament</base><ctag>subst:pl:inst:m3</ctag></lex>
   </tok>
   <tok>
    <orth>w</orth>
    <lex disamb="1"><base>w</base><ctag>prep:acc:nwok</ctag></lex>
   </tok>
   <tok>
    <orth>celu</orth>
    <lex disamb="1"><base>cel</base><ctag>subst:sg:gen:m3</ctag></lex>
   </tok>
   <tok>
    <orth>przekierowania</orth>
    <lex disamb="1"><base>przekierować</base><ctag>ger:sg:gen:n:perf:aff</ctag></lex>
   </tok>
   <tok>
    <orth>zainteresowania</orth>
    <lex disamb="1"><base>zainteresowanie</base><ctag>subst:sg:gen:n</ctag></lex>
   </tok>
   <tok>
    <orth>klientów</orth>
    <lex disamb="1"><base>klient</base><ctag>subst:pl:gen:m1</ctag></lex>
   </tok>
   <tok>
    <orth>na</orth>
    <lex disamb="1"><base>na</base><ctag>prep:acc</ctag></lex>
   </tok>
   <tok>
    <orth>takie</orth>
    <lex disamb="1"><base>taki</base><ctag>adj:sg:nom:n:pos</ctag></lex>
   </tok>
   <tok>
    <orth>hotele</orth>
    <lex disamb="1"><base>hotel</base><ctag>subst:pl:nom:m3</ctag></lex>
   </tok>
   <ns/>
   <tok>
    <orth>,</orth>
    <lex disamb="1"><base>,</base><ctag>interp</ctag></lex>
   </tok>
   <tok>
    <orth>dzięki</orth>
    <lex disamb="1"><base>dzięki</base><ctag>prep:dat</ctag></lex>
   </tok>
   <tok>
    <orth>którym</orth>
    <lex disamb="1"><base>który</base><ctag>adj:sg:inst:m1:pos</ctag></lex>
   </tok>
   <tok>
    <orth>portal</orth>
    <lex disamb="1"><base>portal</base><ctag>subst:sg:nom:m3</ctag></lex>
   </tok>
   <tok>
    <orth>więcej</orth>
    <lex disamb="1"><base>dużo</base><ctag>adv:pos</ctag></lex>
    <lex disamb="1"><base>więcej</base><ctag>adv:pos</ctag></lex>
   </tok>
   <tok>
    <orth>zarabiał</orth>
    <lex disamb="1"><base>zarabiać</base><ctag>praet:sg:m1:imperf</ctag></lex>
   </tok>
   <ns/>
   <tok>
    <orth>.</orth>
    <lex disamb="1"><base>.</base><ctag>interp</ctag></lex>
   </tok>
  </sentence>
 </chunk>
</chunkList>