<?xml version="1.0" encoding="UTF-8"?>
<!DOCTYPE chunkList SYSTEM "ccl.dtd">
<chunkList>
 <chunk type="p" id="ch1">
  <sentence id="s1">
   <tok>
    <orth>Zabytkowe</orth>
    <lex disamb="1"><base>zabytkowy</base><ctag>adj:sg:nom:n:pos</ctag></lex>
    <ann chan="nam">0</ann>
    <ann chan="nam_loc_gpe_city">0</ann>
    <ann chan="nam_loc">0</ann>
   </tok>
   <tok>
    <orth>nagranie</orth>
    <lex disamb="1"><base>nagranie</base><ctag>subst:sg:nom:n</ctag></lex>
    <ann chan="nam">0</ann>
    <ann chan="nam_loc_gpe_city">0</ann>
    <ann chan="nam_loc">0</ann>
   </tok>
   <tok>
    <orth>ukazujące</orth>
    <lex disamb="1"><base>ukazować</base><ctag>pact:sg:nom:n:imperf:aff</ctag></lex>
    <lex disamb="1"><base>ukazywać</base><ctag>pact:sg:nom:n:imperf:aff</ctag></lex>
    <ann chan="nam">0</ann>
    <ann chan="nam_loc_gpe_city">0</ann>
    <ann chan="nam_loc">0</ann>
   </tok>
   <tok>
    <orth>alpinistów</orth>
    <lex disamb="1"><base>alpinista</base><ctag>subst:pl:gen:m1</ctag></lex>
    <ann chan="nam">0</ann>
    <ann chan="nam_loc_gpe_city">0</ann>
    <ann chan="nam_loc">0</ann>
   </tok>
   <tok>
    <orth>zdobywających</orth>
    <lex disamb="1"><base>zdobywać</base><ctag>pact:pl:gen:m1:imperf:aff</ctag></lex>
    <ann chan="nam">0</ann>
    <ann chan="nam_loc_gpe_city">0</ann>
    <ann chan="nam_loc">0</ann>
   </tok>
   <tok>
    <orth>szczyt</orth>
    <lex disamb="1"><base>szczyt</base><ctag>subst:sg:nom:m3</ctag></lex>
    <ann chan="nam">0</ann>
    <ann chan="nam_loc_gpe_city">0</ann>
    <ann chan="nam_loc">0</ann>
   </tok>
   <tok>
    <orth>Dent</orth>
    <lex disamb="1"><base>Dent</base><ctag>ign</ctag></lex>
    <ann chan="nam">1</ann>
    <ann chan="nam_loc_gpe_city">0</ann>
    <ann chan="nam_loc">0</ann>
   </tok>
   <tok>
    <orth>du</orth>
    <lex disamb="1"><base>du</base><ctag>ign</ctag></lex>
    <ann chan="nam">1</ann>
    <ann chan="nam_loc_gpe_city">0</ann>
    <ann chan="nam_loc">0</ann>
   </tok>
   <tok>
    <orth>Geant</orth>
    <lex disamb="1"><base>Geant</base><ctag>ign</ctag></lex>
    <ann chan="nam">1</ann>
    <ann chan="nam_loc_gpe_city">0</ann>
    <ann chan="nam_loc">0</ann>
   </tok>
   <tok>
    <orth>(</orth>
    <lex disamb="1"><base>(</base><ctag>interp</ctag></lex>
    <ann chan="nam">0</ann>
    <ann chan="nam_loc_gpe_city">0</ann>
    <ann chan="nam_loc">0</ann>
   </tok>
   <ns/>
   <tok>
    <orth>uznawany</orth>
    <lex disamb="1"><base>uznawać</base><ctag>ppas:sg:nom:m1:imperf:aff</ctag></lex>
    <ann chan="nam">0</ann>
    <ann chan="nam_loc_gpe_city">0</ann>
    <ann chan="nam_loc">0</ann>
   </tok>
   <tok>
    <orth>za</orth>
    <lex disamb="1"><base>za</base><ctag>qub</ctag></lex>
    <ann chan="nam">0</ann>
    <ann chan="nam_loc_gpe_city">0</ann>
    <ann chan="nam_loc">0</ann>
   </tok>
   <tok>
    <orth>jeden</orth>
    <lex disamb="1"><base>jeden</base><ctag>subst:sg:nom:m2</ctag></lex>
    <ann chan="nam">0</ann>
    <ann chan="nam_loc_gpe_city">0</ann>
    <ann chan="nam_loc">0</ann>
   </tok>
   <tok>
    <orth>z</orth>
    <lex disamb="1"><base>z</base><ctag>prep:gen:nwok</ctag></lex>
    <ann chan="nam">0</ann>
    <ann chan="nam_loc_gpe_city">0</ann>
    <ann chan="nam_loc">0</ann>
   </tok>
   <tok>
    <orth>najtrudniejszych</orth>
    <lex disamb="1"><base>trudny</base><ctag>adj:pl:gen:m1:sup</ctag></lex>
    <ann chan="nam">0</ann>
    <ann chan="nam_loc_gpe_city">0</ann>
    <ann chan="nam_loc">0</ann>
   </tok>
   <tok>
    <orth>technicznie</orth>
    <lex disamb="1"><base>technicznie</base><ctag>adv:pos</ctag></lex>
    <ann chan="nam">0</ann>
    <ann chan="nam_loc_gpe_city">0</ann>
    <ann chan="nam_loc">0</ann>
   </tok>
   <tok>
    <orth>czterotysięczników</orth>
    <lex disamb="1"><base>czterotysięczników</base><ctag>ign</ctag></lex>
    <ann chan="nam">0</ann>
    <ann chan="nam_loc_gpe_city">0</ann>
    <ann chan="nam_loc">0</ann>
   </tok>
   <tok>
    <orth>Alp</orth>
    <lex disamb="1"><base>Alpy</base><ctag>subst:pl:gen:n</ctag></lex>
    <ann chan="nam">2</ann>
    <ann chan="nam_loc_gpe_city">1</ann>
    <ann chan="nam_loc">1</ann>
   </tok>
   <ns/>
   <tok>
    <orth>)</orth>
    <lex disamb="1"><base>)</base><ctag>interp</ctag></lex>
    <ann chan="nam">0</ann>
    <ann chan="nam_loc_gpe_city">0</ann>
    <ann chan="nam_loc">0</ann>
   </tok>
   <ns/>
   <tok>
    <orth>.</orth>
    <lex disamb="1"><base>.</base><ctag>interp</ctag></lex>
    <ann chan="nam">0</ann>
    <ann chan="nam_loc_gpe_city">0</ann>
    <ann chan="nam_loc">0</ann>
   </tok>
  </sentence>
 </chunk>
 <chunk type="p" id="ch2">
  <sentence id="s2">
   <tok>
    <orth>Jak</orth>
    <lex disamb="1"><base>jak</base><ctag>conj</ctag></lex>
   </tok>
   <tok>
    <orth>widać</orth>
    <lex disamb="1"><base>widać</base><ctag>pred</ctag></lex>
   </tok>
   <tok>
    <orth>panowie</orth>
    <lex disamb="1"><base>pan</base><ctag>subst:pl:nom:m1</ctag></lex>
   </tok>
   <tok>
    <orth>w</orth>
    <lex disamb="1"><base>w</base><ctag>prep:acc:nwok</ctag></lex>
   </tok>
   <tok>
    <orth>kożuchach</orth>
    <lex disamb="1"><base>kożuch</base><ctag>subst:pl:loc:m3</ctag></lex>
   </tok>
   <tok>
    <orth>radzili</orth>
    <lex disamb="1"><base>radzić</base><ctag>praet:pl:m1:imperf</ctag></lex>
   </tok>
   <tok>
    <orth>sobie</orth>
    <lex disamb="1"><base>siebie</base><ctag>siebie:dat</ctag></lex>
   </tok>
   <tok>
    <orth>nieźle</orth>
    <lex disamb="1"><base>nieźle</base><ctag>adv:pos</ctag></lex>
   </tok>
  </sentence>
 </chunk>
 <chunk type="p" id="ch3">
  <sentence id="s3">
   <tok>
    <orth>Współczesne</orth>
    <lex disamb="1"><base>współczesny</base><ctag>depr:pl:nom:m2</ctag></lex>
   </tok>
   <tok>
    <orth>nagranie</orth>
    <lex disamb="1"><base>nagranie</base><ctag>subst:sg:nom:n</ctag></lex>
   </tok>
   <tok>
    <orth>ze</orth>
    <lex disamb="1"><base>z</base><ctag>prep:gen:wok</ctag></lex>
   </tok>
   <tok>
    <orth>zdobywania</orth>
    <lex disamb="1"><base>zdobywać</base><ctag>ger:sg:gen:n:imperf:aff</ctag></lex>
   </tok>
   <tok>
    <orth>tego</orth>
    <lex disamb="1"><base>to</base><ctag>subst:sg:gen:n</ctag></lex>
   </tok>
   <tok>
    <orth>szczytu</orth>
    <lex disamb="1"><base>szczyt</base><ctag>subst:sg:gen:m3</ctag></lex>
   </tok>
   <ns/>
   <tok>
    <orth>:</orth>
    <lex disamb="1"><base>:</base><ctag>interp</ctag></lex>
   </tok>
   <tok>
    <orth>https://youtu.be/eGRMhnVRNJA?t=134</orth>
    <lex disamb="1"><base>https://youtu.be/eGRMhnVRNJA?t=134</base><ctag>subst:sg:nom:m3</ctag></lex>
   </tok>
  </sentence>
 </chunk>
</chunkList>