<?xml version="1.0" encoding="UTF-8"?>
<!DOCTYPE chunkList SYSTEM "ccl.dtd">
<chunkList>
 <chunk type="p" id="ch1">
  <sentence id="s1">
   <tok>
    <orth>Znany</orth>
    <lex disamb="1"><base>znany</base><ctag>subst:sg:nom:m1</ctag></lex>
    <ann chan="nam">1</ann>
    <ann chan="nam_liv_person">0</ann>
    <ann chan="nam_org_company">0</ann>
    <ann chan="nam_pro">1</ann>
    <ann chan="nam_liv">0</ann>
   </tok>
   <tok>
    <orth>z</orth>
    <lex disamb="1"><base>z</base><ctag>prep:gen:nwok</ctag></lex>
    <ann chan="nam">1</ann>
    <ann chan="nam_liv_person">0</ann>
    <ann chan="nam_org_company">0</ann>
    <ann chan="nam_pro">1</ann>
    <ann chan="nam_liv">0</ann>
   </tok>
   <tok>
    <orth>brytyjskiego</orth>
    <lex disamb="1"><base>brytyjski</base><ctag>adj:sg:gen:m1:pos</ctag></lex>
    <ann chan="nam">1</ann>
    <ann chan="nam_liv_person">0</ann>
    <ann chan="nam_org_company">0</ann>
    <ann chan="nam_pro">1</ann>
    <ann chan="nam_liv">0</ann>
   </tok>
   <tok>
    <orth>serialu</orth>
    <lex disamb="1"><base>serial</base><ctag>subst:sg:gen:m3</ctag></lex>
    <ann chan="nam">1</ann>
    <ann chan="nam_liv_person">0</ann>
    <ann chan="nam_org_company">0</ann>
    <ann chan="nam_pro">1</ann>
    <ann chan="nam_liv">0</ann>
   </tok>
   <tok>
    <orth>komediowego</orth>
    <lex disamb="1"><base>komediowy</base><ctag>adj:sg:gen:m1:pos</ctag></lex>
    <ann chan="nam">1</ann>
    <ann chan="nam_liv_person">0</ann>
    <ann chan="nam_org_company">0</ann>
    <ann chan="nam_pro">1</ann>
    <ann chan="nam_liv">0</ann>
   </tok>
   <tok>
    <orth>Allo</orth>
    <lex disamb="1"><base>Allo</base><ctag>ign</ctag></lex>
    <ann chan="nam">1</ann>
    <ann chan="nam_liv_person">1</ann>
    <ann chan="nam_org_company">0</ann>
    <ann chan="nam_pro">1</ann>
    <ann chan="nam_liv">0</ann>
   </tok>
   <tok>
    <orth>Allo</orth>
    <lex disamb="1"><base>Allo</base><ctag>ign</ctag></lex>
    <ann chan="nam">1</ann>
    <ann chan="nam_liv_person">1</ann>
    <ann chan="nam_org_company">0</ann>
    <ann chan="nam_pro">1</ann>
    <ann chan="nam_liv">0</ann>
   </tok>
   <tok>
    <orth>obraz</orth>
    <lex disamb="1"><base>obraz</base><ctag>subst:sg:nom:m3</ctag></lex>
    <ann chan="nam">1</ann>
    <ann chan="nam_liv_person">0</ann>
    <ann chan="nam_org_company">0</ann>
    <ann chan="nam_pro">1</ann>
    <ann chan="nam_liv">0</ann>
   </tok>
   <tok>
    <orth>Upadła</orth>
    <lex disamb="1"><base>upadły</base><ctag>adj:sg:nom:f:pos</ctag></lex>
    <ann chan="nam">1</ann>
    <ann chan="nam_liv_person">0</ann>
    <ann chan="nam_org_company">0</ann>
    <ann chan="nam_pro">1</ann>
    <ann chan="nam_liv">0</ann>
   </tok>
   <tok>
    <orth>Madonna</orth>
    <lex disamb="1"><base>Madonna</base><ctag>subst:sg:nom:f</ctag></lex>
    <lex disamb="1"><base>madonna</base><ctag>subst:sg:nom:f</ctag></lex>
    <ann chan="nam">1</ann>
    <ann chan="nam_liv_person">2</ann>
    <ann chan="nam_org_company">0</ann>
    <ann chan="nam_pro">1</ann>
    <ann chan="nam_liv">0</ann>
   </tok>
   <tok>
    <orth>z</orth>
    <lex disamb="1"><base>z</base><ctag>prep:gen:nwok</ctag></lex>
    <ann chan="nam">0</ann>
    <ann chan="nam_liv_person">0</ann>
    <ann chan="nam_org_company">0</ann>
    <ann chan="nam_pro">1</ann>
    <ann chan="nam_liv">0</ann>
   </tok>
   <tok>
    <orth>Wielkim</orth>
    <lex disamb="1"><base>wielki</base><ctag>subst:sg:inst:m1</ctag></lex>
    <ann chan="nam">2</ann>
    <ann chan="nam_liv_person">3</ann>
    <ann chan="nam_org_company">0</ann>
    <ann chan="nam_pro">1</ann>
    <ann chan="nam_liv">0</ann>
   </tok>
   <tok>
    <orth>Cycem</orth>
    <lex disamb="1"><base>cyc</base><ctag>subst:sg:inst:m2</ctag></lex>
    <ann chan="nam">2</ann>
    <ann chan="nam_liv_person">3</ann>
    <ann chan="nam_org_company">0</ann>
    <ann chan="nam_pro">1</ann>
    <ann chan="nam_liv">0</ann>
   </tok>
   <tok>
    <orth>pędzla</orth>
    <lex disamb="1"><base>pędzel</base><ctag>subst:sg:gen:m3</ctag></lex>
    <ann chan="nam">0</ann>
    <ann chan="nam_liv_person">0</ann>
    <ann chan="nam_org_company">0</ann>
    <ann chan="nam_pro">0</ann>
    <ann chan="nam_liv">0</ann>
   </tok>
   <tok>
    <orth>fikcyjnego</orth>
    <lex disamb="1"><base>fikcyjny</base><ctag>adj:sg:gen:m1:pos</ctag></lex>
    <ann chan="nam">0</ann>
    <ann chan="nam_liv_person">0</ann>
    <ann chan="nam_org_company">0</ann>
    <ann chan="nam_pro">0</ann>
    <ann chan="nam_liv">0</ann>
   </tok>
   <tok>
    <orth>malarza</orth>
    <lex disamb="1"><base>malarz</base><ctag>subst:sg:gen:m1</ctag></lex>
    <ann chan="nam">0</ann>
    <ann chan="nam_liv_person">0</ann>
    <ann chan="nam_org_company">0</ann>
    <ann chan="nam_pro">0</ann>
    <ann chan="nam_liv">0</ann>
   </tok>
   <tok>
    <orth>Van</orth>
    <lex disamb="1"><base>van</base><ctag>subst:sg:nom:m2</ctag></lex>
    <ann chan="nam">3</ann>
    <ann chan="nam_liv_person">4</ann>
    <ann chan="nam_org_company">0</ann>
    <ann chan="nam_pro">0</ann>
    <ann chan="nam_liv">1</ann>
   </tok>
   <tok>
    <orth>Clompa</orth>
    <lex disamb="1"><base>Clompa</base><ctag>ign</ctag></lex>
    <ann chan="nam">3</ann>
    <ann chan="nam_liv_person">4</ann>
    <ann chan="nam_org_company">0</ann>
    <ann chan="nam_pro">0</ann>
    <ann chan="nam_liv">1</ann>
   </tok>
   <ns/>
   <tok>
    <orth>,</orth>
    <lex disamb="1"><base>,</base><ctag>interp</ctag></lex>
    <ann chan="nam">0</ann>
    <ann chan="nam_liv_person">0</ann>
    <ann chan="nam_org_company">0</ann>
    <ann chan="nam_pro">0</ann>
    <ann chan="nam_liv">0</ann>
   </tok>
   <tok>
    <orth>został</orth>
    <lex disamb="1"><base>zostać</base><ctag>praet:sg:m1:perf</ctag></lex>
    <ann chan="nam">0</ann>
    <ann chan="nam_liv_person">0</ann>
    <ann chan="nam_org_company">0</ann>
    <ann chan="nam_pro">0</ann>
    <ann chan="nam_liv">0</ann>
   </tok>
   <tok>
    <orth>sprzedany</orth>
    <lex disamb="1"><base>sprzedać</base><ctag>ppas:sg:nom:m1:perf:aff</ctag></lex>
    <ann chan="nam">0</ann>
    <ann chan="nam_liv_person">0</ann>
    <ann chan="nam_org_company">0</ann>
    <ann chan="nam_pro">0</ann>
    <ann chan="nam_liv">0</ann>
   </tok>
   <tok>
    <orth>na</orth>
    <lex disamb="1"><base>na</base><ctag>prep:acc</ctag></lex>
    <ann chan="nam">0</ann>
    <ann chan="nam_liv_person">0</ann>
    <ann chan="nam_org_company">0</ann>
    <ann chan="nam_pro">0</ann>
    <ann chan="nam_liv">0</ann>
   </tok>
   <tok>
    <orth>aukcji</orth>
    <lex disamb="1"><base>aukcja</base><ctag>subst:sg:gen:f</ctag></lex>
    <ann chan="nam">0</ann>
    <ann chan="nam_liv_person">0</ann>
    <ann chan="nam_org_company">0</ann>
    <ann chan="nam_pro">0</ann>
    <ann chan="nam_liv">0</ann>
   </tok>
   <tok>
    <orth>za</orth>
    <lex disamb="1"><base>za</base><ctag>qub</ctag></lex>
    <ann chan="nam">0</ann>
    <ann chan="nam_liv_person">0</ann>
    <ann chan="nam_org_company">0</ann>
    <ann chan="nam_pro">0</ann>
    <ann chan="nam_liv">0</ann>
   </tok>
   <tok>
    <orth>15</orth>
    <lex disamb="1"><base>15</base><ctag>num:pl:nom:m1:rec</ctag></lex>
    <ann chan="nam">0</ann>
    <ann chan="nam_liv_person">0</ann>
    <ann chan="nam_org_company">0</ann>
    <ann chan="nam_pro">0</ann>
    <ann chan="nam_liv">0</ann>
   </tok>
   <tok>
    <orth>tys</orth>
    <lex disamb="1"><base>tys</base><ctag>ign</ctag></lex>
    <ann chan="nam">0</ann>
    <ann chan="nam_liv_person">0</ann>
    <ann chan="nam_org_company">0</ann>
    <ann chan="nam_pro">0</ann>
    <ann chan="nam_liv">0</ann>
   </tok>
   <ns/>
   <tok>
    <orth>.</orth>
    <lex disamb="1"><base>.</base><ctag>interp</ctag></lex>
    <ann chan="nam">0</ann>
    <ann chan="nam_liv_person">0</ann>
    <ann chan="nam_org_company">0</ann>
    <ann chan="nam_pro">0</ann>
    <ann chan="nam_liv">0</ann>
   </tok>
   <tok>
    <orth>funtów</orth>
    <lex disamb="1"><base>funt</base><ctag>subst:pl:gen:m2</ctag></lex>
    <ann chan="nam">0</ann>
    <ann chan="nam_liv_person">0</ann>
    <ann chan="nam_org_company">0</ann>
    <ann chan="nam_pro">0</ann>
    <ann chan="nam_liv">0</ann>
   </tok>
   <tok>
    <orth>-</orth>
    <lex disamb="1"><base>-</base><ctag>interp</ctag></lex>
    <ann chan="nam">0</ann>
    <ann chan="nam_liv_person">0</ann>
    <ann chan="nam_org_company">0</ann>
    <ann chan="nam_pro">0</ann>
    <ann chan="nam_liv">0</ann>
   </tok>
   <tok>
    <orth>informuje</orth>
    <lex disamb="1"><base>informować</base><ctag>fin:sg:ter:imperf</ctag></lex>
    <ann chan="nam">0</ann>
    <ann chan="nam_liv_person">0</ann>
    <ann chan="nam_org_company">0</ann>
    <ann chan="nam_pro">0</ann>
    <ann chan="nam_liv">0</ann>
   </tok>
   <tok>
    <orth>BBC</orth>
    <lex disamb="1"><base>BBC</base><ctag>subst:sg:nom:n</ctag></lex>
    <ann chan="nam">4</ann>
    <ann chan="nam_liv_person">0</ann>
    <ann chan="nam_org_company">1</ann>
    <ann chan="nam_pro">2</ann>
    <ann chan="nam_liv">0</ann>
   </tok>
   <ns/>
   <tok>
    <orth>.</orth>
    <lex disamb="1"><base>.</base><ctag>interp</ctag></lex>
    <ann chan="nam">0</ann>
    <ann chan="nam_liv_person">0</ann>
    <ann chan="nam_org_company">0</ann>
    <ann chan="nam_pro">0</ann>
    <ann chan="nam_liv">0</ann>
   </tok>
  </sentence>
 </chunk>
</chunkList>