<?xml version="1.0" encoding="UTF-8"?>
<!DOCTYPE chunkList SYSTEM "ccl.dtd">
<chunkList>
 <chunk type="p" id="ch1">
  <sentence id="s1">
   <tok>
    <orth>Nie</orth>
    <lex disamb="1"><base>nie</base><ctag>conj</ctag></lex>
   </tok>
   <tok>
    <orth>najnowszy</orth>
    <lex disamb="1"><base>nowy</base><ctag>adj:sg:nom:m1:sup</ctag></lex>
   </tok>
   <tok>
    <orth>ale</orth>
    <lex disamb="1"><base>ale</base><ctag>conj</ctag></lex>
   </tok>
   <tok>
    <orth>bardzo</orth>
    <lex disamb="1"><base>bardzo</base><ctag>adv:pos</ctag></lex>
   </tok>
   <tok>
    <orth>ciekawy</orth>
    <lex disamb="1"><base>ciekawy</base><ctag>adj:sg:nom:m1:pos</ctag></lex>
   </tok>
   <tok>
    <orth>sposób</orth>
    <lex disamb="1"><base>sposób</base><ctag>pred</ctag></lex>
   </tok>
   <tok>
    <orth>na</orth>
    <lex disamb="1"><base>na</base><ctag>prep:acc</ctag></lex>
   </tok>
   <tok>
    <orth>unieruchomienie</orth>
    <lex disamb="1"><base>unieruchomić</base><ctag>ger:sg:nom:n:perf:aff</ctag></lex>
   </tok>
   <tok>
    <orth>piratów</orth>
    <lex disamb="1"><base>pirat</base><ctag>subst:pl:gen:m1</ctag></lex>
    <lex disamb="1"><base>pirata</base><ctag>subst:pl:gen:m1</ctag></lex>
   </tok>
   <tok>
    <orth>morskich</orth>
    <lex disamb="1"><base>morski</base><ctag>adj:pl:gen:m1:pos</ctag></lex>
   </tok>
   <ns/>
   <tok>
    <orth>.</orth>
    <lex disamb="1"><base>.</base><ctag>interp</ctag></lex>
   </tok>
  </sentence>
 </chunk>
</chunkList>