<?xml version="1.0" encoding="UTF-8"?>
<!DOCTYPE chunkList SYSTEM "ccl.dtd">
<chunkList>
 <chunk type="p" id="ch1">
  <sentence id="s1">
   <tok>
    <orth>Epidemia</orth>
    <lex disamb="1"><base>epidemia</base><ctag>subst:sg:nom:f</ctag></lex>
   </tok>
   <tok>
    <orth>królików</orth>
    <lex disamb="1"><base>królik</base><ctag>subst:pl:gen:m1</ctag></lex>
   </tok>
   <tok>
    <orth>zaczęła</orth>
    <lex disamb="1"><base>zacząć</base><ctag>praet:sg:f:perf</ctag></lex>
   </tok>
   <tok>
    <orth>się</orth>
    <lex disamb="1"><base>się</base><ctag>qub</ctag></lex>
   </tok>
   <tok>
    <orth>bardzo</orth>
    <lex disamb="1"><base>bardzo</base><ctag>adv:pos</ctag></lex>
   </tok>
   <tok>
    <orth>wcześnie</orth>
    <lex disamb="1"><base>wcześnie</base><ctag>adv:pos</ctag></lex>
   </tok>
   <ns/>
   <tok>
    <orth>.</orth>
    <lex disamb="1"><base>.</base><ctag>interp</ctag></lex>
   </tok>
  </sentence>
 </chunk>
 <chunk type="p" id="ch2">
  <sentence id="s2">
   <tok>
    <orth>Z</orth>
    <lex disamb="1"><base>z</base><ctag>prep:gen:nwok</ctag></lex>
   </tok>
   <tok>
    <orth>braku</orth>
    <lex disamb="1"><base>brak</base><ctag>subst:sg:gen:m3</ctag></lex>
   </tok>
   <tok>
    <orth>naturalnych</orth>
    <lex disamb="1"><base>naturalny</base><ctag>adj:pl:gen:m1:pos</ctag></lex>
   </tok>
   <tok>
    <orth>wrogów</orth>
    <lex disamb="1"><base>wróg</base><ctag>subst:pl:gen:m1</ctag></lex>
   </tok>
   <tok>
    <orth>te</orth>
    <lex disamb="1"><base>te</base><ctag>subst:sg:nom:n</ctag></lex>
   </tok>
   <tok>
    <orth>stworzenia</orth>
    <lex disamb="1"><base>stworzenie</base><ctag>subst:sg:gen:n</ctag></lex>
   </tok>
   <tok>
    <orth>stworzyły</orth>
    <lex disamb="1"><base>stworzyć</base><ctag>praet:pl:m2:perf</ctag></lex>
   </tok>
   <tok>
    <orth>sobie</orth>
    <lex disamb="1"><base>siebie</base><ctag>siebie:dat</ctag></lex>
   </tok>
   <tok>
    <orth>króliczą</orth>
    <lex disamb="1"><base>króliczy</base><ctag>adj:sg:acc:f:pos</ctag></lex>
   </tok>
   <tok>
    <orth>utopię</orth>
    <lex disamb="1"><base>utopia</base><ctag>subst:sg:acc:f</ctag></lex>
   </tok>
   <ns/>
   <tok>
    <orth>.</orth>
    <lex disamb="1"><base>.</base><ctag>interp</ctag></lex>
   </tok>
  </sentence>
 </chunk>
 <chunk type="p" id="ch3">
  <sentence id="s3">
   <tok>
    <orth>Jak</orth>
    <lex disamb="1"><base>jak</base><ctag>conj</ctag></lex>
   </tok>
   <tok>
    <orth>sobie</orth>
    <lex disamb="1"><base>siebie</base><ctag>siebie:dat</ctag></lex>
   </tok>
   <tok>
    <orth>z</orth>
    <lex disamb="1"><base>z</base><ctag>prep:gen:nwok</ctag></lex>
   </tok>
   <tok>
    <orth>nimi</orth>
    <lex disamb="1"><base>on</base><ctag>ppron3:pl:inst:m1:ter:akc:npraep</ctag></lex>
   </tok>
   <tok>
    <orth>radzono</orth>
    <lex disamb="1"><base>radzić</base><ctag>imps:imperf</ctag></lex>
   </tok>
   <ns/>
   <tok>
    <orth>?</orth>
    <lex disamb="1"><base>?</base><ctag>interp</ctag></lex>
   </tok>
  </sentence>
 </chunk>
 <chunk type="p" id="ch4">
  <sentence id="s4">
   <tok>
    <orth>Płot</orth>
    <lex disamb="1"><base>płot</base><ctag>subst:sg:nom:m3</ctag></lex>
   </tok>
   <tok>
    <orth>czy</orth>
    <lex disamb="1"><base>czy</base><ctag>conj</ctag></lex>
   </tok>
   <tok>
    <orth>broń</orth>
    <lex disamb="1"><base>broń</base><ctag>subst:sg:nom:f</ctag></lex>
   </tok>
   <tok>
    <orth>biologiczna</orth>
    <lex disamb="1"><base>biologiczny</base><ctag>adj:sg:nom:f:pos</ctag></lex>
   </tok>
   <ns/>
   <tok>
    <orth>?</orth>
    <lex disamb="1"><base>?</base><ctag>interp</ctag></lex>
   </tok>
  </sentence>
 </chunk>
 <chunk type="p" id="ch5">
  <sentence id="s5">
   <tok>
    <orth>To</orth>
    <lex disamb="1"><base>to</base><ctag>conj</ctag></lex>
   </tok>
   <tok>
    <orth>i</orth>
    <lex disamb="1"><base>i</base><ctag>conj</ctag></lex>
   </tok>
   <tok>
    <orth>inne</orth>
    <lex disamb="1"><base>inny</base><ctag>depr:pl:nom:m2</ctag></lex>
   </tok>
   <tok>
    <orth>ciekawostki</orth>
    <lex disamb="1"><base>ciekawostka</base><ctag>subst:sg:gen:f</ctag></lex>
   </tok>
   <tok>
    <orth>znajdziecie</orth>
    <lex disamb="1"><base>znajść</base><ctag>fin:pl:sec:perf</ctag></lex>
    <lex disamb="1"><base>znaleźć</base><ctag>fin:pl:sec:perf</ctag></lex>
   </tok>
   <tok>
    <orth>w</orth>
    <lex disamb="1"><base>w</base><ctag>prep:acc:nwok</ctag></lex>
   </tok>
   <tok>
    <orth>tym</orth>
    <lex disamb="1"><base>tym</base><ctag>conj</ctag></lex>
   </tok>
   <tok>
    <orth>odcinku</orth>
    <lex disamb="1"><base>odcinek</base><ctag>subst:sg:loc:m3</ctag></lex>
   </tok>
   <ns/>
   <tok>
    <orth>.</orth>
    <lex disamb="1"><base>.</base><ctag>interp</ctag></lex>
   </tok>
  </sentence>
 </chunk>
</chunkList>