<?xml version="1.0" encoding="UTF-8"?>
<!DOCTYPE chunkList SYSTEM "ccl.dtd">
<chunkList>
 <chunk type="p" id="ch1">
  <sentence id="s1">
   <tok>
    <orth>Normalny</orth>
    <lex disamb="1"><base>normalny</base><ctag>subst:sg:nom:m3</ctag></lex>
    <ann chan="nam">0</ann>
    <ann chan="nam_org_organization">0</ann>
    <ann chan="nam_adj">0</ann>
    <ann chan="nam_org">0</ann>
   </tok>
   <tok>
    <orth>dzień</orth>
    <lex disamb="1"><base>dzienia</base><ctag>subst:pl:gen:f</ctag></lex>
    <ann chan="nam">0</ann>
    <ann chan="nam_org_organization">0</ann>
    <ann chan="nam_adj">0</ann>
    <ann chan="nam_org">0</ann>
   </tok>
   <tok>
    <orth>w</orth>
    <lex disamb="1"><base>w</base><ctag>prep:acc:nwok</ctag></lex>
    <ann chan="nam">0</ann>
    <ann chan="nam_org_organization">0</ann>
    <ann chan="nam_adj">0</ann>
    <ann chan="nam_org">0</ann>
   </tok>
   <tok>
    <orth>Tokijskim</orth>
    <lex disamb="1"><base>tokijski</base><ctag>adj:sg:inst:m1:pos</ctag></lex>
    <ann chan="nam">1</ann>
    <ann chan="nam_org_organization">1</ann>
    <ann chan="nam_adj">1</ann>
    <ann chan="nam_org">0</ann>
   </tok>
   <tok>
    <orth>Uniwersytecie</orth>
    <lex disamb="1"><base>uniwersytet</base><ctag>subst:sg:loc:m3</ctag></lex>
    <ann chan="nam">1</ann>
    <ann chan="nam_org_organization">1</ann>
    <ann chan="nam_adj">0</ann>
    <ann chan="nam_org">1</ann>
   </tok>
   <tok>
    <orth>dla</orth>
    <lex disamb="1"><base>dla</base><ctag>prep:gen</ctag></lex>
    <ann chan="nam">0</ann>
    <ann chan="nam_org_organization">0</ann>
    <ann chan="nam_adj">0</ann>
    <ann chan="nam_org">0</ann>
   </tok>
   <tok>
    <orth>studentów</orth>
    <lex disamb="1"><base>student</base><ctag>subst:pl:gen:m1</ctag></lex>
    <ann chan="nam">0</ann>
    <ann chan="nam_org_organization">0</ann>
    <ann chan="nam_adj">0</ann>
    <ann chan="nam_org">0</ann>
   </tok>
   <tok>
    <orth>polonistyki</orth>
    <lex disamb="1"><base>polonistyka</base><ctag>subst:sg:gen:f</ctag></lex>
    <ann chan="nam">0</ann>
    <ann chan="nam_org_organization">0</ann>
    <ann chan="nam_adj">0</ann>
    <ann chan="nam_org">0</ann>
   </tok>
   <ns/>
   <tok>
    <orth>.</orth>
    <lex disamb="1"><base>.</base><ctag>interp</ctag></lex>
    <ann chan="nam">0</ann>
    <ann chan="nam_org_organization">0</ann>
    <ann chan="nam_adj">0</ann>
    <ann chan="nam_org">0</ann>
   </tok>
  </sentence>
 </chunk>
</chunkList>