<?xml version="1.0" encoding="UTF-8"?>
<!DOCTYPE chunkList SYSTEM "ccl.dtd">
<chunkList>
 <chunk type="p" id="ch1">
  <sentence id="s1">
   <tok>
    <orth>Były</orth>
    <lex disamb="1"><base>były</base><ctag>subst:sg:nom:m1</ctag></lex>
    <ann chan="nam">0</ann>
    <ann chan="nam_liv_person">0</ann>
    <ann chan="nam_loc_gpe_country">0</ann>
    <ann chan="nam_liv">0</ann>
    <ann chan="nam_loc">0</ann>
   </tok>
   <tok>
    <orth>szef</orth>
    <lex disamb="1"><base>szef</base><ctag>subst:sg:nom:m1</ctag></lex>
    <ann chan="nam">0</ann>
    <ann chan="nam_liv_person">0</ann>
    <ann chan="nam_loc_gpe_country">0</ann>
    <ann chan="nam_liv">0</ann>
    <ann chan="nam_loc">0</ann>
   </tok>
   <tok>
    <orth>jednostki</orth>
    <lex disamb="1"><base>jednostka</base><ctag>subst:sg:gen:f</ctag></lex>
    <ann chan="nam">0</ann>
    <ann chan="nam_liv_person">0</ann>
    <ann chan="nam_loc_gpe_country">0</ann>
    <ann chan="nam_liv">0</ann>
    <ann chan="nam_loc">0</ann>
   </tok>
   <tok>
    <orth>wojskowej</orth>
    <lex disamb="1"><base>wojskowy</base><ctag>adj:sg:gen:f:pos</ctag></lex>
    <ann chan="nam">0</ann>
    <ann chan="nam_liv_person">0</ann>
    <ann chan="nam_loc_gpe_country">0</ann>
    <ann chan="nam_liv">0</ann>
    <ann chan="nam_loc">0</ann>
   </tok>
   <tok>
    <orth>wojsk</orth>
    <lex disamb="1"><base>wojsko</base><ctag>subst:pl:gen:n</ctag></lex>
    <ann chan="nam">0</ann>
    <ann chan="nam_liv_person">0</ann>
    <ann chan="nam_loc_gpe_country">0</ann>
    <ann chan="nam_liv">0</ann>
    <ann chan="nam_loc">0</ann>
   </tok>
   <tok>
    <orth>specjalnych</orth>
    <lex disamb="1"><base>specjalny</base><ctag>adj:pl:gen:m1:pos</ctag></lex>
    <ann chan="nam">0</ann>
    <ann chan="nam_liv_person">0</ann>
    <ann chan="nam_loc_gpe_country">0</ann>
    <ann chan="nam_liv">0</ann>
    <ann chan="nam_loc">0</ann>
   </tok>
   <tok>
    <orth>GROM</orth>
    <lex disamb="1"><base>gra</base><ctag>subst:pl:dat:f</ctag></lex>
    <ann chan="nam">1</ann>
    <ann chan="nam_liv_person">0</ann>
    <ann chan="nam_loc_gpe_country">0</ann>
    <ann chan="nam_liv">0</ann>
    <ann chan="nam_loc">0</ann>
   </tok>
   <ns/>
   <tok>
    <orth>,</orth>
    <lex disamb="1"><base>,</base><ctag>interp</ctag></lex>
    <ann chan="nam">0</ann>
    <ann chan="nam_liv_person">0</ann>
    <ann chan="nam_loc_gpe_country">0</ann>
    <ann chan="nam_liv">0</ann>
    <ann chan="nam_loc">0</ann>
   </tok>
   <tok>
    <orth>generał</orth>
    <lex disamb="1"><base>generał</base><ctag>subst:sg:nom:m1</ctag></lex>
    <ann chan="nam">0</ann>
    <ann chan="nam_liv_person">0</ann>
    <ann chan="nam_loc_gpe_country">0</ann>
    <ann chan="nam_liv">0</ann>
    <ann chan="nam_loc">0</ann>
   </tok>
   <tok>
    <orth>Roman</orth>
    <lex disamb="1"><base>Roman</base><ctag>subst:sg:nom:m1</ctag></lex>
    <ann chan="nam">2</ann>
    <ann chan="nam_liv_person">1</ann>
    <ann chan="nam_loc_gpe_country">0</ann>
    <ann chan="nam_liv">1</ann>
    <ann chan="nam_loc">0</ann>
   </tok>
   <tok>
    <orth>Polko</orth>
    <lex disamb="1"><base>Polka</base><ctag>subst:sg:voc:f</ctag></lex>
    <lex disamb="1"><base>polka</base><ctag>subst:sg:voc:f</ctag></lex>
    <ann chan="nam">2</ann>
    <ann chan="nam_liv_person">1</ann>
    <ann chan="nam_loc_gpe_country">0</ann>
    <ann chan="nam_liv">1</ann>
    <ann chan="nam_loc">0</ann>
   </tok>
   <tok>
    <orth>powiedział</orth>
    <lex disamb="1"><base>powiedzieć</base><ctag>praet:sg:m1:perf</ctag></lex>
    <ann chan="nam">0</ann>
    <ann chan="nam_liv_person">0</ann>
    <ann chan="nam_loc_gpe_country">0</ann>
    <ann chan="nam_liv">0</ann>
    <ann chan="nam_loc">0</ann>
   </tok>
   <tok>
    <orth>.</orth>
    <lex disamb="1"><base>.</base><ctag>interp</ctag></lex>
    <ann chan="nam">0</ann>
    <ann chan="nam_liv_person">0</ann>
    <ann chan="nam_loc_gpe_country">0</ann>
    <ann chan="nam_liv">0</ann>
    <ann chan="nam_loc">0</ann>
   </tok>
   <ns/>
   <tok>
    <orth>.</orth>
    <lex disamb="1"><base>.</base><ctag>interp</ctag></lex>
    <ann chan="nam">0</ann>
    <ann chan="nam_liv_person">0</ann>
    <ann chan="nam_loc_gpe_country">0</ann>
    <ann chan="nam_liv">0</ann>
    <ann chan="nam_loc">0</ann>
   </tok>
   <ns/>
   <tok>
    <orth>.</orth>
    <lex disamb="1"><base>.</base><ctag>interp</ctag></lex>
    <ann chan="nam">0</ann>
    <ann chan="nam_liv_person">0</ann>
    <ann chan="nam_loc_gpe_country">0</ann>
    <ann chan="nam_liv">0</ann>
    <ann chan="nam_loc">0</ann>
   </tok>
   <ns/>
   <tok>
    <orth>pozwalamy</orth>
    <lex disamb="1"><base>pozwalać</base><ctag>fin:pl:pri:imperf</ctag></lex>
    <ann chan="nam">0</ann>
    <ann chan="nam_liv_person">0</ann>
    <ann chan="nam_loc_gpe_country">0</ann>
    <ann chan="nam_liv">0</ann>
    <ann chan="nam_loc">0</ann>
   </tok>
   <tok>
    <orth>narzucać</orth>
    <lex disamb="1"><base>narzucać</base><ctag>inf:imperf</ctag></lex>
    <ann chan="nam">0</ann>
    <ann chan="nam_liv_person">0</ann>
    <ann chan="nam_loc_gpe_country">0</ann>
    <ann chan="nam_liv">0</ann>
    <ann chan="nam_loc">0</ann>
   </tok>
   <tok>
    <orth>sobie</orth>
    <lex disamb="1"><base>siebie</base><ctag>siebie:dat</ctag></lex>
    <ann chan="nam">0</ann>
    <ann chan="nam_liv_person">0</ann>
    <ann chan="nam_loc_gpe_country">0</ann>
    <ann chan="nam_liv">0</ann>
    <ann chan="nam_loc">0</ann>
   </tok>
   <tok>
    <orth>rosyjską</orth>
    <lex disamb="1"><base>rosyjski</base><ctag>adj:sg:acc:f:pos</ctag></lex>
    <ann chan="nam">0</ann>
    <ann chan="nam_liv_person">0</ann>
    <ann chan="nam_loc_gpe_country">0</ann>
    <ann chan="nam_liv">0</ann>
    <ann chan="nam_loc">0</ann>
   </tok>
   <tok>
    <orth>narrację</orth>
    <lex disamb="1"><base>narracja</base><ctag>subst:sg:acc:f</ctag></lex>
    <ann chan="nam">0</ann>
    <ann chan="nam_liv_person">0</ann>
    <ann chan="nam_loc_gpe_country">0</ann>
    <ann chan="nam_liv">0</ann>
    <ann chan="nam_loc">0</ann>
   </tok>
   <ns/>
   <tok>
    <orth>,</orth>
    <lex disamb="1"><base>,</base><ctag>interp</ctag></lex>
    <ann chan="nam">0</ann>
    <ann chan="nam_liv_person">0</ann>
    <ann chan="nam_loc_gpe_country">0</ann>
    <ann chan="nam_liv">0</ann>
    <ann chan="nam_loc">0</ann>
   </tok>
   <tok>
    <orth>która</orth>
    <lex disamb="1"><base>który</base><ctag>adj:sg:nom:f:pos</ctag></lex>
    <ann chan="nam">0</ann>
    <ann chan="nam_liv_person">0</ann>
    <ann chan="nam_loc_gpe_country">0</ann>
    <ann chan="nam_liv">0</ann>
    <ann chan="nam_loc">0</ann>
   </tok>
   <tok>
    <orth>powoduje</orth>
    <lex disamb="1"><base>powodować</base><ctag>fin:sg:ter:imperf</ctag></lex>
    <ann chan="nam">0</ann>
    <ann chan="nam_liv_person">0</ann>
    <ann chan="nam_loc_gpe_country">0</ann>
    <ann chan="nam_liv">0</ann>
    <ann chan="nam_loc">0</ann>
   </tok>
   <ns/>
   <tok>
    <orth>,</orth>
    <lex disamb="1"><base>,</base><ctag>interp</ctag></lex>
    <ann chan="nam">0</ann>
    <ann chan="nam_liv_person">0</ann>
    <ann chan="nam_loc_gpe_country">0</ann>
    <ann chan="nam_liv">0</ann>
    <ann chan="nam_loc">0</ann>
   </tok>
   <tok>
    <orth>że</orth>
    <lex disamb="1"><base>że</base><ctag>comp</ctag></lex>
    <ann chan="nam">0</ann>
    <ann chan="nam_liv_person">0</ann>
    <ann chan="nam_loc_gpe_country">0</ann>
    <ann chan="nam_liv">0</ann>
    <ann chan="nam_loc">0</ann>
   </tok>
   <tok>
    <orth>na</orth>
    <lex disamb="1"><base>na</base><ctag>prep:acc</ctag></lex>
    <ann chan="nam">0</ann>
    <ann chan="nam_liv_person">0</ann>
    <ann chan="nam_loc_gpe_country">0</ann>
    <ann chan="nam_liv">0</ann>
    <ann chan="nam_loc">0</ann>
   </tok>
   <tok>
    <orth>wierzch</orth>
    <lex disamb="1"><base>wierzch</base><ctag>subst:sg:nom:m3</ctag></lex>
    <ann chan="nam">0</ann>
    <ann chan="nam_liv_person">0</ann>
    <ann chan="nam_loc_gpe_country">0</ann>
    <ann chan="nam_liv">0</ann>
    <ann chan="nam_loc">0</ann>
   </tok>
   <tok>
    <orth>wychodzi</orth>
    <lex disamb="1"><base>wychodzić</base><ctag>fin:sg:ter:imperf</ctag></lex>
    <ann chan="nam">0</ann>
    <ann chan="nam_liv_person">0</ann>
    <ann chan="nam_loc_gpe_country">0</ann>
    <ann chan="nam_liv">0</ann>
    <ann chan="nam_loc">0</ann>
   </tok>
   <tok>
    <orth>narracja</orth>
    <lex disamb="1"><base>narracja</base><ctag>subst:sg:nom:f</ctag></lex>
    <ann chan="nam">0</ann>
    <ann chan="nam_liv_person">0</ann>
    <ann chan="nam_loc_gpe_country">0</ann>
    <ann chan="nam_liv">0</ann>
    <ann chan="nam_loc">0</ann>
   </tok>
   <tok>
    <orth>wręcz</orth>
    <lex disamb="1"><base>wręcz</base><ctag>adv:pos</ctag></lex>
    <ann chan="nam">0</ann>
    <ann chan="nam_liv_person">0</ann>
    <ann chan="nam_loc_gpe_country">0</ann>
    <ann chan="nam_liv">0</ann>
    <ann chan="nam_loc">0</ann>
   </tok>
   <tok>
    <orth>wrogości</orth>
    <lex disamb="1"><base>wrogość</base><ctag>subst:sg:gen:f</ctag></lex>
    <ann chan="nam">0</ann>
    <ann chan="nam_liv_person">0</ann>
    <ann chan="nam_loc_gpe_country">0</ann>
    <ann chan="nam_liv">0</ann>
    <ann chan="nam_loc">0</ann>
   </tok>
   <tok>
    <orth>między</orth>
    <lex disamb="1"><base>między</base><ctag>prep:acc</ctag></lex>
    <ann chan="nam">0</ann>
    <ann chan="nam_liv_person">0</ann>
    <ann chan="nam_loc_gpe_country">0</ann>
    <ann chan="nam_liv">0</ann>
    <ann chan="nam_loc">0</ann>
   </tok>
   <tok>
    <orth>Polską</orth>
    <lex disamb="1"><base>Polska</base><ctag>subst:sg:inst:f</ctag></lex>
    <ann chan="nam">3</ann>
    <ann chan="nam_liv_person">0</ann>
    <ann chan="nam_loc_gpe_country">1</ann>
    <ann chan="nam_liv">0</ann>
    <ann chan="nam_loc">1</ann>
   </tok>
   <tok>
    <orth>a</orth>
    <lex disamb="1"><base>a</base><ctag>conj</ctag></lex>
    <ann chan="nam">0</ann>
    <ann chan="nam_liv_person">0</ann>
    <ann chan="nam_loc_gpe_country">0</ann>
    <ann chan="nam_liv">0</ann>
    <ann chan="nam_loc">0</ann>
   </tok>
   <tok>
    <orth>Ukrainą</orth>
    <lex disamb="1"><base>Ukraina</base><ctag>subst:sg:inst:f</ctag></lex>
    <lex disamb="1"><base>ukraina</base><ctag>subst:sg:inst:f</ctag></lex>
    <ann chan="nam">4</ann>
    <ann chan="nam_liv_person">0</ann>
    <ann chan="nam_loc_gpe_country">2</ann>
    <ann chan="nam_liv">0</ann>
    <ann chan="nam_loc">2</ann>
   </tok>
   <ns/>
   <tok>
    <orth>.</orth>
    <lex disamb="1"><base>.</base><ctag>interp</ctag></lex>
    <ann chan="nam">0</ann>
    <ann chan="nam_liv_person">0</ann>
    <ann chan="nam_loc_gpe_country">0</ann>
    <ann chan="nam_liv">0</ann>
    <ann chan="nam_loc">0</ann>
   </tok>
  </sentence>
 </chunk>
 <chunk type="p" id="ch2">
  <sentence id="s2">
   <tok>
    <orth>Rosja</orth>
    <lex disamb="1"><base>Rosja</base><ctag>subst:sg:nom:f</ctag></lex>
    <ann chan="nam">1</ann>
    <ann chan="nam_loc_gpe_country">1</ann>
    <ann chan="nam_loc">1</ann>
   </tok>
   <tok>
    <orth>cieszy</orth>
    <lex disamb="1"><base>cieszyć</base><ctag>fin:sg:ter:imperf</ctag></lex>
    <ann chan="nam">0</ann>
    <ann chan="nam_loc_gpe_country">0</ann>
    <ann chan="nam_loc">0</ann>
   </tok>
   <tok>
    <orth>się</orth>
    <lex disamb="1"><base>się</base><ctag>qub</ctag></lex>
    <ann chan="nam">0</ann>
    <ann chan="nam_loc_gpe_country">0</ann>
    <ann chan="nam_loc">0</ann>
   </tok>
   <ns/>
   <tok>
    <orth>,</orth>
    <lex disamb="1"><base>,</base><ctag>interp</ctag></lex>
    <ann chan="nam">0</ann>
    <ann chan="nam_loc_gpe_country">0</ann>
    <ann chan="nam_loc">0</ann>
   </tok>
   <tok>
    <orth>gdy</orth>
    <lex disamb="1"><base>gdy</base><ctag>adv:pos</ctag></lex>
    <ann chan="nam">0</ann>
    <ann chan="nam_loc_gpe_country">0</ann>
    <ann chan="nam_loc">0</ann>
   </tok>
   <tok>
    <orth>w</orth>
    <lex disamb="1"><base>w</base><ctag>prep:acc:nwok</ctag></lex>
    <ann chan="nam">0</ann>
    <ann chan="nam_loc_gpe_country">0</ann>
    <ann chan="nam_loc">0</ann>
   </tok>
   <tok>
    <orth>Polsce</orth>
    <lex disamb="1"><base>Polska</base><ctag>subst:sg:dat:f</ctag></lex>
    <ann chan="nam">2</ann>
    <ann chan="nam_loc_gpe_country">2</ann>
    <ann chan="nam_loc">2</ann>
   </tok>
   <tok>
    <orth>narastają</orth>
    <lex disamb="1"><base>narastać</base><ctag>fin:pl:ter:imperf</ctag></lex>
    <ann chan="nam">0</ann>
    <ann chan="nam_loc_gpe_country">0</ann>
    <ann chan="nam_loc">0</ann>
   </tok>
   <tok>
    <orth>takie</orth>
    <lex disamb="1"><base>taki</base><ctag>adj:sg:nom:n:pos</ctag></lex>
    <ann chan="nam">0</ann>
    <ann chan="nam_loc_gpe_country">0</ann>
    <ann chan="nam_loc">0</ann>
   </tok>
   <tok>
    <orth>nastroje</orth>
    <lex disamb="1"><base>nastrój</base><ctag>subst:pl:nom:m3</ctag></lex>
    <ann chan="nam">0</ann>
    <ann chan="nam_loc_gpe_country">0</ann>
    <ann chan="nam_loc">0</ann>
   </tok>
   <ns/>
   <tok>
    <orth>.</orth>
    <lex disamb="1"><base>.</base><ctag>interp</ctag></lex>
    <ann chan="nam">0</ann>
    <ann chan="nam_loc_gpe_country">0</ann>
    <ann chan="nam_loc">0</ann>
   </tok>
  </sentence>
 </chunk>
</chunkList>