<?xml version="1.0" encoding="UTF-8"?>
<!DOCTYPE chunkList SYSTEM "ccl.dtd">
<chunkList>
 <chunk type="p" id="ch1">
  <sentence id="s1">
   <tok>
    <orth>Kotka</orth>
    <lex disamb="1"><base>kotek</base><ctag>subst:sg:gen:m2</ctag></lex>
   </tok>
   <tok>
    <orth>w</orth>
    <lex disamb="1"><base>w</base><ctag>prep:acc:nwok</ctag></lex>
   </tok>
   <tok>
    <orth>wyniku</orth>
    <lex disamb="1"><base>wynik</base><ctag>subst:sg:gen:m3</ctag></lex>
   </tok>
   <tok>
    <orth>mocnego</orth>
    <lex disamb="1"><base>mocny</base><ctag>subst:sg:gen:m1</ctag></lex>
   </tok>
   <tok>
    <orth>ciosu</orth>
    <lex disamb="1"><base>cios</base><ctag>subst:sg:gen:m3</ctag></lex>
   </tok>
   <tok>
    <orth>w</orth>
    <lex disamb="1"><base>w</base><ctag>prep:acc:nwok</ctag></lex>
   </tok>
   <tok>
    <orth>głowę</orth>
    <lex disamb="1"><base>głowa</base><ctag>subst:sg:acc:f</ctag></lex>
   </tok>
   <tok>
    <orth>straciła</orth>
    <lex disamb="1"><base>stracić</base><ctag>praet:sg:f:perf</ctag></lex>
   </tok>
   <tok>
    <orth>oko</orth>
    <lex disamb="1"><base>oko</base><ctag>subst:sg:nom:n</ctag></lex>
   </tok>
   <ns/>
   <tok>
    <orth>.</orth>
    <lex disamb="1"><base>.</base><ctag>interp</ctag></lex>
   </tok>
  </sentence>
 </chunk>
 <chunk type="p" id="ch2">
  <sentence id="s2">
   <tok>
    <orth>Prawdopodobnie</orth>
    <lex disamb="1"><base>prawdopodobnie</base><ctag>adv:pos</ctag></lex>
   </tok>
   <tok>
    <orth>ktoś</orth>
    <lex disamb="1"><base>ktoś</base><ctag>subst:sg:nom:m1</ctag></lex>
   </tok>
   <tok>
    <orth>ją</orth>
    <lex disamb="1"><base>on</base><ctag>ppron3:sg:acc:f:ter:akc:npraep</ctag></lex>
   </tok>
   <tok>
    <orth>mocno</orth>
    <lex disamb="1"><base>mocno</base><ctag>adv:pos</ctag></lex>
   </tok>
   <tok>
    <orth>kopnął</orth>
    <lex disamb="1"><base>kopnąć</base><ctag>praet:sg:m1:perf</ctag></lex>
   </tok>
   <tok>
    <orth>lub</orth>
    <lex disamb="1"><base>lub</base><ctag>conj</ctag></lex>
   </tok>
   <tok>
    <orth>uderzył</orth>
    <lex disamb="1"><base>uderzyć</base><ctag>praet:sg:m1:perf</ctag></lex>
   </tok>
   <tok>
    <orth>tępym</orth>
    <lex disamb="1"><base>tępy</base><ctag>adj:sg:inst:m1:pos</ctag></lex>
   </tok>
   <tok>
    <orth>narzędziem</orth>
    <lex disamb="1"><base>narzędzie</base><ctag>subst:sg:inst:n</ctag></lex>
   </tok>
   <ns/>
   <tok>
    <orth>.</orth>
    <lex disamb="1"><base>.</base><ctag>interp</ctag></lex>
   </tok>
  </sentence>
 </chunk>
 <chunk type="p" id="ch3">
  <sentence id="s3">
   <tok>
    <orth>Przez</orth>
    <lex disamb="1"><base>przez</base><ctag>prep:acc:nwok</ctag></lex>
    <ann chan="timex">0</ann>
    <ann chan="t3_duration">0</ann>
   </tok>
   <tok>
    <orth>kilka</orth>
    <lex disamb="1"><base>kilka</base><ctag>subst:sg:nom:f</ctag></lex>
    <ann chan="timex">1</ann>
    <ann chan="t3_duration">1</ann>
   </tok>
   <tok>
    <orth>dni</orth>
    <lex disamb="1"><base>dzień</base><ctag>subst:pl:nom:m3</ctag></lex>
    <ann chan="timex">1</ann>
    <ann chan="t3_duration">1</ann>
   </tok>
   <tok>
    <orth>cierpiała</orth>
    <lex disamb="1"><base>cierpieć</base><ctag>praet:sg:f:imperf</ctag></lex>
    <ann chan="timex">0</ann>
    <ann chan="t3_duration">0</ann>
   </tok>
   <ns/>
   <tok>
    <orth>,</orth>
    <lex disamb="1"><base>,</base><ctag>interp</ctag></lex>
    <ann chan="timex">0</ann>
    <ann chan="t3_duration">0</ann>
   </tok>
   <tok>
    <orth>leżała</orth>
    <lex disamb="1"><base>leżały</base><ctag>adj:sg:nom:f:pos</ctag></lex>
    <ann chan="timex">0</ann>
    <ann chan="t3_duration">0</ann>
   </tok>
   <tok>
    <orth>pobita</orth>
    <lex disamb="1"><base>pobić</base><ctag>ppas:sg:nom:f:perf:aff</ctag></lex>
    <ann chan="timex">0</ann>
    <ann chan="t3_duration">0</ann>
   </tok>
   <tok>
    <orth>w</orth>
    <lex disamb="1"><base>w</base><ctag>prep:acc:nwok</ctag></lex>
    <ann chan="timex">0</ann>
    <ann chan="t3_duration">0</ann>
   </tok>
   <tok>
    <orth>krzakach</orth>
    <lex disamb="1"><base>krzak</base><ctag>subst:pl:loc:m3</ctag></lex>
    <ann chan="timex">0</ann>
    <ann chan="t3_duration">0</ann>
   </tok>
   <ns/>
   <tok>
    <orth>.</orth>
    <lex disamb="1"><base>.</base><ctag>interp</ctag></lex>
    <ann chan="timex">0</ann>
    <ann chan="t3_duration">0</ann>
   </tok>
  </sentence>
 </chunk>
 <chunk type="p" id="ch4">
  <sentence id="s4">
   <tok>
    <orth>Teraz</orth>
    <lex disamb="1"><base>teraz</base><ctag>adv:pos</ctag></lex>
   </tok>
   <tok>
    <orth>czeka</orth>
    <lex disamb="1"><base>czekać</base><ctag>fin:sg:ter:imperf</ctag></lex>
   </tok>
   <tok>
    <orth>na</orth>
    <lex disamb="1"><base>na</base><ctag>prep:acc</ctag></lex>
   </tok>
   <tok>
    <orth>kogoś</orth>
    <lex disamb="1"><base>ktoś</base><ctag>subst:sg:gen:m1</ctag></lex>
   </tok>
   <ns/>
   <tok>
    <orth>,</orth>
    <lex disamb="1"><base>,</base><ctag>interp</ctag></lex>
   </tok>
   <tok>
    <orth>kto</orth>
    <lex disamb="1"><base>kto</base><ctag>subst:sg:nom:m1</ctag></lex>
   </tok>
   <tok>
    <orth>ją</orth>
    <lex disamb="1"><base>on</base><ctag>ppron3:sg:acc:f:ter:akc:npraep</ctag></lex>
   </tok>
   <tok>
    <orth>adoptuje</orth>
    <lex disamb="1"><base>adoptować</base><ctag>fin:sg:ter:imperf</ctag></lex>
   </tok>
   <ns/>
   <tok>
    <orth>.</orth>
    <lex disamb="1"><base>.</base><ctag>interp</ctag></lex>
   </tok>
  </sentence>
 </chunk>
</chunkList>