<?xml version="1.0" encoding="UTF-8"?>
<!DOCTYPE chunkList SYSTEM "ccl.dtd">
<chunkList>
 <chunk type="p" id="ch1">
  <sentence id="s1">
   <tok>
    <orth>Koleżanka</orth>
    <lex disamb="1"><base>koleżanka</base><ctag>subst:sg:nom:f</ctag></lex>
   </tok>
   <tok>
    <orth>mnie</orth>
    <lex disamb="1"><base>ja</base><ctag>ppron12:sg:gen:m1:pri:akc</ctag></lex>
   </tok>
   <tok>
    <orth>prosiła</orth>
    <lex disamb="1"><base>prosić</base><ctag>praet:sg:f:imperf</ctag></lex>
   </tok>
   <tok>
    <orth>o</orth>
    <lex disamb="1"><base>o</base><ctag>prep:acc</ctag></lex>
   </tok>
   <tok>
    <orth>udostępnienie</orth>
    <lex disamb="1"><base>udostępnienie</base><ctag>subst:sg:nom:n</ctag></lex>
   </tok>
   <ns/>
   <tok>
    <orth>.</orth>
    <lex disamb="1"><base>.</base><ctag>interp</ctag></lex>
   </tok>
  </sentence>
 </chunk>
 <chunk type="p" id="ch2">
  <sentence id="s2">
   <tok>
    <orth>Dziewczyna</orth>
    <lex disamb="1"><base>dziewczyna</base><ctag>subst:sg:nom:f</ctag></lex>
   </tok>
   <tok>
    <orth>została</orth>
    <lex disamb="1"><base>zostać</base><ctag>praet:sg:f:perf</ctag></lex>
   </tok>
   <tok>
    <orth>zgwałcona</orth>
    <lex disamb="1"><base>zgwałcić</base><ctag>ppas:sg:nom:f:perf:aff</ctag></lex>
   </tok>
   <tok>
    <orth>przez</orth>
    <lex disamb="1"><base>przez</base><ctag>prep:acc:nwok</ctag></lex>
   </tok>
   <tok>
    <orth>kolegów</orth>
    <lex disamb="1"><base>kolega</base><ctag>subst:pl:gen:m1</ctag></lex>
   </tok>
   <tok>
    <orth>na</orth>
    <lex disamb="1"><base>na</base><ctag>prep:acc</ctag></lex>
   </tok>
   <tok>
    <orth>własnych</orth>
    <lex disamb="1"><base>własne</base><ctag>subst:pl:gen:n</ctag></lex>
   </tok>
   <tok>
    <orth>urodzinach</orth>
    <lex disamb="1"><base>urodziny</base><ctag>subst:pl:loc:n</ctag></lex>
   </tok>
   <ns/>
   <tok>
    <orth>.</orth>
    <lex disamb="1"><base>.</base><ctag>interp</ctag></lex>
   </tok>
  </sentence>
 </chunk>
 <chunk type="p" id="ch3">
  <sentence id="s3">
   <tok>
    <orth>Sprawa</orth>
    <lex disamb="1"><base>sprawa</base><ctag>subst:sg:nom:f</ctag></lex>
   </tok>
   <tok>
    <orth>ucichła</orth>
    <lex disamb="1"><base>ucichły</base><ctag>adj:sg:nom:f:pos</ctag></lex>
   </tok>
   <tok>
    <orth>za</orth>
    <lex disamb="1"><base>za</base><ctag>qub</ctag></lex>
   </tok>
   <tok>
    <orth>względu</orth>
    <lex disamb="1"><base>wzgląd</base><ctag>subst:sg:gen:m3</ctag></lex>
   </tok>
   <tok>
    <orth>na</orth>
    <lex disamb="1"><base>na</base><ctag>prep:acc</ctag></lex>
   </tok>
   <tok>
    <orth>na</orth>
    <lex disamb="1"><base>na</base><ctag>prep:acc</ctag></lex>
   </tok>
   <tok>
    <orth>koneksje</orth>
    <lex disamb="1"><base>koneksja</base><ctag>subst:pl:nom:f</ctag></lex>
   </tok>
   <ns/>
   <tok>
    <orth>.</orth>
    <lex disamb="1"><base>.</base><ctag>interp</ctag></lex>
   </tok>
  </sentence>
 </chunk>
</chunkList>