<?xml version="1.0" encoding="UTF-8"?>
<!DOCTYPE chunkList SYSTEM "ccl.dtd">
<chunkList>
 <chunk type="p" id="ch1">
  <sentence id="s1">
   <tok>
    <orth>Brak</orth>
    <lex disamb="1"><base>brak</base><ctag>pred</ctag></lex>
   </tok>
   <tok>
    <orth>konsekwencji</orth>
    <lex disamb="1"><base>konsekwencja</base><ctag>subst:sg:gen:f</ctag></lex>
   </tok>
   <ns/>
   <tok>
    <orth>,</orth>
    <lex disamb="1"><base>,</base><ctag>interp</ctag></lex>
   </tok>
   <tok>
    <orth>a</orth>
    <lex disamb="1"><base>a</base><ctag>conj</ctag></lex>
   </tok>
   <tok>
    <orth>przez</orth>
    <lex disamb="1"><base>przez</base><ctag>prep:acc:nwok</ctag></lex>
   </tok>
   <tok>
    <orth>to</orth>
    <lex disamb="1"><base>to</base><ctag>conj</ctag></lex>
   </tok>
   <tok>
    <orth>jeszcze</orth>
    <lex disamb="1"><base>jeszcze</base><ctag>qub</ctag></lex>
   </tok>
   <tok>
    <orth>większe</orth>
    <lex disamb="1"><base>duży</base><ctag>adj:sg:nom:n:com</ctag></lex>
    <lex disamb="1"><base>wielki</base><ctag>adj:sg:nom:n:com</ctag></lex>
   </tok>
   <tok>
    <orth>nierówności</orth>
    <lex disamb="1"><base>nierówność</base><ctag>subst:sg:gen:f</ctag></lex>
   </tok>
   <tok>
    <orth>wśród</orth>
    <lex disamb="1"><base>wśród</base><ctag>prep:gen</ctag></lex>
   </tok>
   <tok>
    <orth>pracowników</orth>
    <lex disamb="1"><base>pracownik</base><ctag>subst:pl:gen:m1</ctag></lex>
   </tok>
   <tok>
    <orth>–</orth>
    <lex disamb="1"><base>–</base><ctag>interp</ctag></lex>
   </tok>
   <tok>
    <orth>tak</orth>
    <lex disamb="1"><base>tak</base><ctag>adv:pos</ctag></lex>
   </tok>
   <tok>
    <orth>podejście</orth>
    <lex disamb="1"><base>podejście</base><ctag>subst:sg:nom:n</ctag></lex>
   </tok>
   <tok>
    <orth>rządzących</orth>
    <lex disamb="1"><base>rządząca</base><ctag>subst:pl:gen:f</ctag></lex>
   </tok>
   <tok>
    <orth>do</orth>
    <lex disamb="1"><base>do</base><ctag>prep:gen</ctag></lex>
   </tok>
   <tok>
    <orth>kontroli</orth>
    <lex disamb="1"><base>kontrola</base><ctag>subst:sg:gen:f</ctag></lex>
   </tok>
   <tok>
    <orth>absencji</orth>
    <lex disamb="1"><base>absencja</base><ctag>subst:sg:gen:f</ctag></lex>
   </tok>
   <tok>
    <orth>chorobowych</orth>
    <lex disamb="1"><base>chorobowe</base><ctag>subst:pl:gen:n</ctag></lex>
   </tok>
   <tok>
    <orth>i</orth>
    <lex disamb="1"><base>i</base><ctag>conj</ctag></lex>
   </tok>
   <tok>
    <orth>ostatnie</orth>
    <lex disamb="1"><base>ostatnie</base><ctag>subst:sg:nom:n</ctag></lex>
   </tok>
   <tok>
    <orth>zmiany</orth>
    <lex disamb="1"><base>zmiana</base><ctag>subst:sg:gen:f</ctag></lex>
   </tok>
   <tok>
    <orth>przepisów</orth>
    <lex disamb="1"><base>przepis</base><ctag>subst:pl:gen:m3</ctag></lex>
   </tok>
   <tok>
    <orth>w</orth>
    <lex disamb="1"><base>w</base><ctag>prep:acc:nwok</ctag></lex>
   </tok>
   <tok>
    <orth>tym</orth>
    <lex disamb="1"><base>tym</base><ctag>conj</ctag></lex>
   </tok>
   <tok>
    <orth>zakresie</orth>
    <lex disamb="1"><base>zakres</base><ctag>subst:sg:loc:m3</ctag></lex>
   </tok>
   <tok>
    <orth>oceniają</orth>
    <lex disamb="1"><base>oceniać</base><ctag>fin:pl:ter:imperf</ctag></lex>
   </tok>
   <tok>
    <orth>specjaliści</orth>
    <lex disamb="1"><base>specjalista</base><ctag>subst:pl:nom:m1</ctag></lex>
   </tok>
   <ns/>
   <tok>
    <orth>.</orth>
    <lex disamb="1"><base>.</base><ctag>interp</ctag></lex>
   </tok>
  </sentence>
 </chunk>
</chunkList>