<?xml version="1.0" encoding="UTF-8"?>
<!DOCTYPE chunkList SYSTEM "ccl.dtd">
<chunkList>
 <chunk type="p" id="ch1">
  <sentence id="s1">
   <tok>
    <orth>Skandaliczne</orth>
    <lex disamb="1"><base>skandaliczny</base><ctag>adj:sg:nom:n:pos</ctag></lex>
    <ann chan="nam">0</ann>
    <ann chan="nam_loc_gpe_admin1">0</ann>
    <ann chan="nam_loc">0</ann>
   </tok>
   <tok>
    <orth>zachowanie</orth>
    <lex disamb="1"><base>zachowanie</base><ctag>subst:sg:nom:n</ctag></lex>
    <ann chan="nam">0</ann>
    <ann chan="nam_loc_gpe_admin1">0</ann>
    <ann chan="nam_loc">0</ann>
   </tok>
   <tok>
    <orth>jednego</orth>
    <lex disamb="1"><base>jeden</base><ctag>subst:sg:gen:m2</ctag></lex>
    <ann chan="nam">0</ann>
    <ann chan="nam_loc_gpe_admin1">0</ann>
    <ann chan="nam_loc">0</ann>
   </tok>
   <tok>
    <orth>policjanta</orth>
    <lex disamb="1"><base>policjant</base><ctag>subst:sg:gen:m1</ctag></lex>
    <ann chan="nam">0</ann>
    <ann chan="nam_loc_gpe_admin1">0</ann>
    <ann chan="nam_loc">0</ann>
   </tok>
   <tok>
    <orth>z</orth>
    <lex disamb="1"><base>z</base><ctag>prep:gen:nwok</ctag></lex>
    <ann chan="nam">0</ann>
    <ann chan="nam_loc_gpe_admin1">0</ann>
    <ann chan="nam_loc">0</ann>
   </tok>
   <tok>
    <orth>województwa</orth>
    <lex disamb="1"><base>województwo</base><ctag>subst:sg:gen:n</ctag></lex>
    <ann chan="nam">0</ann>
    <ann chan="nam_loc_gpe_admin1">0</ann>
    <ann chan="nam_loc">0</ann>
   </tok>
   <tok>
    <orth>wielkopolskiego</orth>
    <lex disamb="1"><base>wielkopolski</base><ctag>adj:sg:gen:m1:pos</ctag></lex>
    <ann chan="nam">1</ann>
    <ann chan="nam_loc_gpe_admin1">1</ann>
    <ann chan="nam_loc">1</ann>
   </tok>
   <ns/>
   <tok>
    <orth>.</orth>
    <lex disamb="1"><base>.</base><ctag>interp</ctag></lex>
    <ann chan="nam">0</ann>
    <ann chan="nam_loc_gpe_admin1">0</ann>
    <ann chan="nam_loc">0</ann>
   </tok>
  </sentence>
 </chunk>
 <chunk type="p" id="ch2">
  <sentence id="s2">
   <tok>
    <orth>Czekają</orth>
    <lex disamb="1"><base>czekać</base><ctag>fin:pl:ter:imperf</ctag></lex>
   </tok>
   <tok>
    <orth>go</orth>
    <lex disamb="1"><base>go</base><ctag>subst:sg:nom:n</ctag></lex>
   </tok>
   <tok>
    <orth>zasłużone</orth>
    <lex disamb="1"><base>zasłużona</base><ctag>subst:pl:nom:f</ctag></lex>
   </tok>
   <tok>
    <orth>i</orth>
    <lex disamb="1"><base>i</base><ctag>conj</ctag></lex>
   </tok>
   <tok>
    <orth>poważne</orth>
    <lex disamb="1"><base>poważny</base><ctag>adj:sg:nom:n:pos</ctag></lex>
   </tok>
   <tok>
    <orth>konsekwencje</orth>
    <lex disamb="1"><base>konsekwencja</base><ctag>subst:pl:nom:f</ctag></lex>
   </tok>
   <ns/>
   <tok>
    <orth>.</orth>
    <lex disamb="1"><base>.</base><ctag>interp</ctag></lex>
   </tok>
  </sentence>
 </chunk>
</chunkList>