<?xml version="1.0" encoding="UTF-8"?>
<!DOCTYPE chunkList SYSTEM "ccl.dtd">
<chunkList>
 <chunk type="p" id="ch1">
  <sentence id="s1">
   <tok>
    <orth>Marek</orth>
    <lex disamb="1"><base>Marek</base><ctag>subst:sg:nom:m1</ctag></lex>
    <lex disamb="1"><base>marek</base><ctag>subst:sg:nom:m1</ctag></lex>
    <ann chan="nam">1</ann>
    <ann chan="nam_liv_person">1</ann>
    <ann chan="nam_liv">1</ann>
   </tok>
   <tok>
    <orth>jest</orth>
    <lex disamb="1"><base>być</base><ctag>fin:sg:ter:imperf</ctag></lex>
    <ann chan="nam">0</ann>
    <ann chan="nam_liv_person">0</ann>
    <ann chan="nam_liv">0</ann>
   </tok>
   <tok>
    <orth>osobą</orth>
    <lex disamb="1"><base>osoba</base><ctag>subst:sg:inst:f</ctag></lex>
    <ann chan="nam">0</ann>
    <ann chan="nam_liv_person">0</ann>
    <ann chan="nam_liv">0</ann>
   </tok>
   <tok>
    <orth>niedowidzącą</orth>
    <lex disamb="1"><base>niedowidzieć</base><ctag>pact:sg:acc:f:imperf:aff</ctag></lex>
    <ann chan="nam">0</ann>
    <ann chan="nam_liv_person">0</ann>
    <ann chan="nam_liv">0</ann>
   </tok>
   <ns/>
   <tok>
    <orth>,</orth>
    <lex disamb="1"><base>,</base><ctag>interp</ctag></lex>
    <ann chan="nam">0</ann>
    <ann chan="nam_liv_person">0</ann>
    <ann chan="nam_liv">0</ann>
   </tok>
   <tok>
    <orth>porusza</orth>
    <lex disamb="1"><base>poruszać</base><ctag>fin:sg:ter:imperf</ctag></lex>
    <ann chan="nam">0</ann>
    <ann chan="nam_liv_person">0</ann>
    <ann chan="nam_liv">0</ann>
   </tok>
   <tok>
    <orth>się</orth>
    <lex disamb="1"><base>się</base><ctag>qub</ctag></lex>
    <ann chan="nam">0</ann>
    <ann chan="nam_liv_person">0</ann>
    <ann chan="nam_liv">0</ann>
   </tok>
   <tok>
    <orth>na</orth>
    <lex disamb="1"><base>na</base><ctag>prep:acc</ctag></lex>
    <ann chan="nam">0</ann>
    <ann chan="nam_liv_person">0</ann>
    <ann chan="nam_liv">0</ann>
   </tok>
   <tok>
    <orth>wózku</orth>
    <lex disamb="1"><base>wózek</base><ctag>subst:sg:loc:m3</ctag></lex>
    <ann chan="nam">0</ann>
    <ann chan="nam_liv_person">0</ann>
    <ann chan="nam_liv">0</ann>
   </tok>
   <ns/>
   <tok>
    <orth>,</orth>
    <lex disamb="1"><base>,</base><ctag>interp</ctag></lex>
    <ann chan="nam">0</ann>
    <ann chan="nam_liv_person">0</ann>
    <ann chan="nam_liv">0</ann>
   </tok>
   <tok>
    <orth>choruje</orth>
    <lex disamb="1"><base>chorować</base><ctag>fin:sg:ter:imperf</ctag></lex>
    <ann chan="nam">0</ann>
    <ann chan="nam_liv_person">0</ann>
    <ann chan="nam_liv">0</ann>
   </tok>
   <tok>
    <orth>na</orth>
    <lex disamb="1"><base>na</base><ctag>prep:acc</ctag></lex>
    <ann chan="nam">0</ann>
    <ann chan="nam_liv_person">0</ann>
    <ann chan="nam_liv">0</ann>
   </tok>
   <tok>
    <orth>raka</orth>
    <lex disamb="1"><base>rak</base><ctag>subst:sg:gen:m2</ctag></lex>
    <ann chan="nam">0</ann>
    <ann chan="nam_liv_person">0</ann>
    <ann chan="nam_liv">0</ann>
   </tok>
   <ns/>
   <tok>
    <orth>.</orth>
    <lex disamb="1"><base>.</base><ctag>interp</ctag></lex>
    <ann chan="nam">0</ann>
    <ann chan="nam_liv_person">0</ann>
    <ann chan="nam_liv">0</ann>
   </tok>
  </sentence>
 </chunk>
 <chunk type="p" id="ch2">
  <sentence id="s2">
   <tok>
    <orth>Złodzieje</orth>
    <lex disamb="1"><base>złodziej</base><ctag>subst:pl:nom:m1</ctag></lex>
   </tok>
   <tok>
    <orth>wdarli</orth>
    <lex disamb="1"><base>wedrzeć</base><ctag>praet:pl:m1:perf</ctag></lex>
   </tok>
   <tok>
    <orth>się</orth>
    <lex disamb="1"><base>się</base><ctag>qub</ctag></lex>
   </tok>
   <tok>
    <orth>do</orth>
    <lex disamb="1"><base>do</base><ctag>prep:gen</ctag></lex>
   </tok>
   <tok>
    <orth>jego</orth>
    <lex disamb="1"><base>on</base><ctag>ppron3:sg:gen:m1:ter:akc:npraep</ctag></lex>
   </tok>
   <tok>
    <orth>mieszkania</orth>
    <lex disamb="1"><base>mieszkanie</base><ctag>subst:sg:gen:n</ctag></lex>
   </tok>
   <ns/>
   <tok>
    <orth>,</orth>
    <lex disamb="1"><base>,</base><ctag>interp</ctag></lex>
   </tok>
   <tok>
    <orth>kiedy</orth>
    <lex disamb="1"><base>kiedy</base><ctag>comp</ctag></lex>
   </tok>
   <tok>
    <orth>był</orth>
    <lex disamb="1"><base>być</base><ctag>praet:sg:m1:imperf</ctag></lex>
   </tok>
   <tok>
    <orth>w</orth>
    <lex disamb="1"><base>w</base><ctag>prep:acc:nwok</ctag></lex>
   </tok>
   <tok>
    <orth>domu</orth>
    <lex disamb="1"><base>dom</base><ctag>subst:sg:gen:m3</ctag></lex>
   </tok>
   <ns/>
   <tok>
    <orth>.</orth>
    <lex disamb="1"><base>.</base><ctag>interp</ctag></lex>
   </tok>
  </sentence>
 </chunk>
 <chunk type="p" id="ch3">
  <sentence id="s3">
   <tok>
    <orth>Wynieśli</orth>
    <lex disamb="1"><base>wynieść</base><ctag>praet:pl:m1:perf</ctag></lex>
   </tok>
   <tok>
    <orth>sprzęt</orth>
    <lex disamb="1"><base>sprzęt</base><ctag>subst:sg:nom:m3</ctag></lex>
   </tok>
   <ns/>
   <tok>
    <orth>,</orth>
    <lex disamb="1"><base>,</base><ctag>interp</ctag></lex>
   </tok>
   <tok>
    <orth>dzięki</orth>
    <lex disamb="1"><base>dzięki</base><ctag>prep:dat</ctag></lex>
   </tok>
   <tok>
    <orth>któremu</orth>
    <lex disamb="1"><base>który</base><ctag>adj:sg:dat:m1:pos</ctag></lex>
   </tok>
   <tok>
    <orth>komunikuję</orth>
    <lex disamb="1"><base>komunikować</base><ctag>fin:sg:pri:imperf</ctag></lex>
   </tok>
   <tok>
    <orth>się</orth>
    <lex disamb="1"><base>się</base><ctag>qub</ctag></lex>
   </tok>
   <tok>
    <orth>ze</orth>
    <lex disamb="1"><base>z</base><ctag>prep:gen:wok</ctag></lex>
   </tok>
   <tok>
    <orth>światem</orth>
    <lex disamb="1"><base>świat</base><ctag>subst:sg:inst:m3</ctag></lex>
   </tok>
   <ns/>
   <tok>
    <orth>.</orth>
    <lex disamb="1"><base>.</base><ctag>interp</ctag></lex>
   </tok>
  </sentence>
 </chunk>
 <chunk type="p" id="ch4">
  <sentence id="s4">
   <tok>
    <orth>Skradziono</orth>
    <lex disamb="1"><base>skraść</base><ctag>imps:perf</ctag></lex>
    <ann chan="nam">0</ann>
    <ann chan="nam_oth_currency">0</ann>
    <ann chan="nam_pro">0</ann>
    <ann chan="nam_oth">0</ann>
   </tok>
   <tok>
    <orth>mu</orth>
    <lex disamb="1"><base>on</base><ctag>ppron3:sg:dat:m1:ter:nakc:npraep</ctag></lex>
    <ann chan="nam">0</ann>
    <ann chan="nam_oth_currency">0</ann>
    <ann chan="nam_pro">0</ann>
    <ann chan="nam_oth">0</ann>
   </tok>
   <tok>
    <orth>między</orth>
    <lex disamb="1"><base>między</base><ctag>prep:acc</ctag></lex>
    <ann chan="nam">0</ann>
    <ann chan="nam_oth_currency">0</ann>
    <ann chan="nam_pro">0</ann>
    <ann chan="nam_oth">0</ann>
   </tok>
   <tok>
    <orth>innymi</orth>
    <lex disamb="1"><base>inny</base><ctag>subst:pl:inst:m1</ctag></lex>
    <ann chan="nam">0</ann>
    <ann chan="nam_oth_currency">0</ann>
    <ann chan="nam_pro">0</ann>
    <ann chan="nam_oth">0</ann>
   </tok>
   <tok>
    <orth>laptop</orth>
    <lex disamb="1"><base>laptop</base><ctag>subst:sg:nom:m2</ctag></lex>
    <ann chan="nam">0</ann>
    <ann chan="nam_oth_currency">0</ann>
    <ann chan="nam_pro">0</ann>
    <ann chan="nam_oth">0</ann>
   </tok>
   <tok>
    <orth>HP</orth>
    <lex disamb="1"><base>HP</base><ctag>subst:sg:nom:m3</ctag></lex>
    <ann chan="nam">1</ann>
    <ann chan="nam_oth_currency">0</ann>
    <ann chan="nam_pro">1</ann>
    <ann chan="nam_oth">0</ann>
   </tok>
   <tok>
    <orth>250</orth>
    <lex disamb="1"><base>250</base><ctag>num:pl:nom:m1:rec</ctag></lex>
    <ann chan="nam">0</ann>
    <ann chan="nam_oth_currency">0</ann>
    <ann chan="nam_pro">1</ann>
    <ann chan="nam_oth">0</ann>
   </tok>
   <tok>
    <orth>G1</orth>
    <lex disamb="1"><base>G1</base><ctag>ign</ctag></lex>
    <ann chan="nam">0</ann>
    <ann chan="nam_oth_currency">0</ann>
    <ann chan="nam_pro">1</ann>
    <ann chan="nam_oth">0</ann>
   </tok>
   <tok>
    <orth>lub</orth>
    <lex disamb="1"><base>lub</base><ctag>conj</ctag></lex>
    <ann chan="nam">0</ann>
    <ann chan="nam_oth_currency">0</ann>
    <ann chan="nam_pro">1</ann>
    <ann chan="nam_oth">0</ann>
   </tok>
   <tok>
    <orth>G2</orth>
    <lex disamb="1"><base>G2</base><ctag>ign</ctag></lex>
    <ann chan="nam">0</ann>
    <ann chan="nam_oth_currency">0</ann>
    <ann chan="nam_pro">1</ann>
    <ann chan="nam_oth">0</ann>
   </tok>
   <tok>
    <orth>warte</orth>
    <lex disamb="1"><base>wart</base><ctag>adj:sg:nom:n:pos</ctag></lex>
    <ann chan="nam">0</ann>
    <ann chan="nam_oth_currency">0</ann>
    <ann chan="nam_pro">0</ann>
    <ann chan="nam_oth">0</ann>
   </tok>
   <tok>
    <orth>są</orth>
    <lex disamb="1"><base>być</base><ctag>fin:pl:ter:imperf</ctag></lex>
    <ann chan="nam">0</ann>
    <ann chan="nam_oth_currency">0</ann>
    <ann chan="nam_pro">0</ann>
    <ann chan="nam_oth">0</ann>
   </tok>
   <tok>
    <orth>ok</orth>
    <lex disamb="1"><base>oko</base><ctag>subst:pl:gen:n</ctag></lex>
    <ann chan="nam">0</ann>
    <ann chan="nam_oth_currency">0</ann>
    <ann chan="nam_pro">0</ann>
    <ann chan="nam_oth">0</ann>
   </tok>
   <ns/>
   <tok>
    <orth>.</orth>
    <lex disamb="1"><base>.</base><ctag>interp</ctag></lex>
    <ann chan="nam">0</ann>
    <ann chan="nam_oth_currency">0</ann>
    <ann chan="nam_pro">0</ann>
    <ann chan="nam_oth">0</ann>
   </tok>
   <tok>
    <orth>3</orth>
    <lex disamb="1"><base>3</base><ctag>num:pl:nom:m1:rec</ctag></lex>
    <ann chan="nam">0</ann>
    <ann chan="nam_oth_currency">0</ann>
    <ann chan="nam_pro">0</ann>
    <ann chan="nam_oth">0</ann>
   </tok>
   <ns/>
   <tok>
    <orth>,</orth>
    <lex disamb="1"><base>,</base><ctag>interp</ctag></lex>
    <ann chan="nam">0</ann>
    <ann chan="nam_oth_currency">0</ann>
    <ann chan="nam_pro">0</ann>
    <ann chan="nam_oth">0</ann>
   </tok>
   <ns/>
   <tok>
    <orth>5</orth>
    <lex disamb="1"><base>5</base><ctag>num:pl:nom:m1:rec</ctag></lex>
    <ann chan="nam">0</ann>
    <ann chan="nam_oth_currency">0</ann>
    <ann chan="nam_pro">0</ann>
    <ann chan="nam_oth">0</ann>
   </tok>
   <tok>
    <orth>tys</orth>
    <lex disamb="1"><base>tys</base><ctag>ign</ctag></lex>
    <ann chan="nam">0</ann>
    <ann chan="nam_oth_currency">0</ann>
    <ann chan="nam_pro">0</ann>
    <ann chan="nam_oth">0</ann>
   </tok>
   <ns/>
   <tok>
    <orth>.</orth>
    <lex disamb="1"><base>.</base><ctag>interp</ctag></lex>
    <ann chan="nam">0</ann>
    <ann chan="nam_oth_currency">0</ann>
    <ann chan="nam_pro">0</ann>
    <ann chan="nam_oth">0</ann>
   </tok>
   <tok>
    <orth>zł</orth>
    <lex disamb="1"><base>złoty</base><ctag>brev:npun</ctag></lex>
    <ann chan="nam">2</ann>
    <ann chan="nam_oth_currency">1</ann>
    <ann chan="nam_pro">0</ann>
    <ann chan="nam_oth">1</ann>
   </tok>
   <ns/>
   <tok>
    <orth>,</orth>
    <lex disamb="1"><base>,</base><ctag>interp</ctag></lex>
    <ann chan="nam">0</ann>
    <ann chan="nam_oth_currency">0</ann>
    <ann chan="nam_pro">0</ann>
    <ann chan="nam_oth">0</ann>
   </tok>
   <tok>
    <orth>koszt</orth>
    <lex disamb="1"><base>koszt</base><ctag>subst:sg:nom:m3</ctag></lex>
    <ann chan="nam">0</ann>
    <ann chan="nam_oth_currency">0</ann>
    <ann chan="nam_pro">0</ann>
    <ann chan="nam_oth">0</ann>
   </tok>
   <tok>
    <orth>oprogramowania</orth>
    <lex disamb="1"><base>oprogramowanie</base><ctag>subst:sg:gen:n</ctag></lex>
    <ann chan="nam">0</ann>
    <ann chan="nam_oth_currency">0</ann>
    <ann chan="nam_pro">0</ann>
    <ann chan="nam_oth">0</ann>
   </tok>
   <tok>
    <orth>to</orth>
    <lex disamb="1"><base>to</base><ctag>conj</ctag></lex>
    <ann chan="nam">0</ann>
    <ann chan="nam_oth_currency">0</ann>
    <ann chan="nam_pro">0</ann>
    <ann chan="nam_oth">0</ann>
   </tok>
   <tok>
    <orth>4</orth>
    <lex disamb="1"><base>4</base><ctag>num:pl:nom:m1:rec</ctag></lex>
    <ann chan="nam">0</ann>
    <ann chan="nam_oth_currency">0</ann>
    <ann chan="nam_pro">0</ann>
    <ann chan="nam_oth">0</ann>
   </tok>
   <tok>
    <orth>tys</orth>
    <lex disamb="1"><base>tys</base><ctag>ign</ctag></lex>
    <ann chan="nam">0</ann>
    <ann chan="nam_oth_currency">0</ann>
    <ann chan="nam_pro">0</ann>
    <ann chan="nam_oth">0</ann>
   </tok>
   <ns/>
   <tok>
    <orth>.</orth>
    <lex disamb="1"><base>.</base><ctag>interp</ctag></lex>
    <ann chan="nam">0</ann>
    <ann chan="nam_oth_currency">0</ann>
    <ann chan="nam_pro">0</ann>
    <ann chan="nam_oth">0</ann>
   </tok>
   <tok>
    <orth>zł</orth>
    <lex disamb="1"><base>złoty</base><ctag>brev:npun</ctag></lex>
    <ann chan="nam">3</ann>
    <ann chan="nam_oth_currency">2</ann>
    <ann chan="nam_pro">0</ann>
    <ann chan="nam_oth">2</ann>
   </tok>
   <ns/>
   <tok>
    <orth>.</orth>
    <lex disamb="1"><base>.</base><ctag>interp</ctag></lex>
    <ann chan="nam">0</ann>
    <ann chan="nam_oth_currency">0</ann>
    <ann chan="nam_pro">0</ann>
    <ann chan="nam_oth">0</ann>
   </tok>
  </sentence>
 </chunk>
</chunkList>