<?xml version="1.0" encoding="UTF-8"?>
<!DOCTYPE chunkList SYSTEM "ccl.dtd">
<chunkList>
 <chunk type="p" id="ch1">
  <sentence id="s1">
   <tok>
    <orth>Na</orth>
    <lex disamb="1"><base>na</base><ctag>prep:acc</ctag></lex>
    <ann chan="nam">0</ann>
    <ann chan="nam_pro_brand">0</ann>
    <ann chan="nam_org_organization">0</ann>
    <ann chan="nam_pro">0</ann>
    <ann chan="timex">0</ann>
    <ann chan="t3_date">0</ann>
    <ann chan="t3_time">0</ann>
   </tok>
   <tok>
    <orth>5</orth>
    <lex disamb="1"><base>5</base><ctag>num:pl:nom:m1:rec</ctag></lex>
    <ann chan="nam">0</ann>
    <ann chan="nam_pro_brand">0</ann>
    <ann chan="nam_org_organization">0</ann>
    <ann chan="nam_pro">0</ann>
    <ann chan="timex">1</ann>
    <ann chan="t3_date">1</ann>
    <ann chan="t3_time">0</ann>
   </tok>
   <tok>
    <orth>grudnia</orth>
    <lex disamb="1"><base>grudzień</base><ctag>subst:sg:gen:m3</ctag></lex>
    <ann chan="nam">0</ann>
    <ann chan="nam_pro_brand">0</ann>
    <ann chan="nam_org_organization">0</ann>
    <ann chan="nam_pro">0</ann>
    <ann chan="timex">1</ann>
    <ann chan="t3_date">1</ann>
    <ann chan="t3_time">0</ann>
   </tok>
   <ns/>
   <tok>
    <orth>,</orth>
    <lex disamb="1"><base>,</base><ctag>interp</ctag></lex>
    <ann chan="nam">0</ann>
    <ann chan="nam_pro_brand">0</ann>
    <ann chan="nam_org_organization">0</ann>
    <ann chan="nam_pro">0</ann>
    <ann chan="timex">0</ann>
    <ann chan="t3_date">0</ann>
    <ann chan="t3_time">0</ann>
   </tok>
   <tok>
    <orth>na</orth>
    <lex disamb="1"><base>na</base><ctag>prep:acc</ctag></lex>
    <ann chan="nam">0</ann>
    <ann chan="nam_pro_brand">0</ann>
    <ann chan="nam_org_organization">0</ann>
    <ann chan="nam_pro">0</ann>
    <ann chan="timex">0</ann>
    <ann chan="t3_date">0</ann>
    <ann chan="t3_time">0</ann>
   </tok>
   <tok>
    <orth>godzinę</orth>
    <lex disamb="1"><base>godzina</base><ctag>subst:sg:acc:f</ctag></lex>
    <ann chan="nam">0</ann>
    <ann chan="nam_pro_brand">0</ann>
    <ann chan="nam_org_organization">0</ann>
    <ann chan="nam_pro">0</ann>
    <ann chan="timex">2</ann>
    <ann chan="t3_date">0</ann>
    <ann chan="t3_time">1</ann>
   </tok>
   <tok>
    <orth>19</orth>
    <lex disamb="1"><base>19</base><ctag>num:pl:nom:m1:rec</ctag></lex>
    <ann chan="nam">0</ann>
    <ann chan="nam_pro_brand">0</ann>
    <ann chan="nam_org_organization">0</ann>
    <ann chan="nam_pro">0</ann>
    <ann chan="timex">2</ann>
    <ann chan="t3_date">0</ann>
    <ann chan="t3_time">1</ann>
   </tok>
   <ns/>
   <tok>
    <orth>:</orth>
    <lex disamb="1"><base>:</base><ctag>interp</ctag></lex>
    <ann chan="nam">0</ann>
    <ann chan="nam_pro_brand">0</ann>
    <ann chan="nam_org_organization">0</ann>
    <ann chan="nam_pro">0</ann>
    <ann chan="timex">2</ann>
    <ann chan="t3_date">0</ann>
    <ann chan="t3_time">1</ann>
   </tok>
   <ns/>
   <tok>
    <orth>16</orth>
    <lex disamb="1"><base>16</base><ctag>num:pl:nom:m1:rec</ctag></lex>
    <ann chan="nam">0</ann>
    <ann chan="nam_pro_brand">0</ann>
    <ann chan="nam_org_organization">0</ann>
    <ann chan="nam_pro">0</ann>
    <ann chan="timex">2</ann>
    <ann chan="t3_date">0</ann>
    <ann chan="t3_time">1</ann>
   </tok>
   <tok>
    <orth>czasu</orth>
    <lex disamb="1"><base>czas</base><ctag>subst:sg:gen:m3</ctag></lex>
    <ann chan="nam">0</ann>
    <ann chan="nam_pro_brand">0</ann>
    <ann chan="nam_org_organization">0</ann>
    <ann chan="nam_pro">0</ann>
    <ann chan="timex">0</ann>
    <ann chan="t3_date">0</ann>
    <ann chan="t3_time">0</ann>
   </tok>
   <tok>
    <orth>polskiego</orth>
    <lex disamb="1"><base>polski</base><ctag>subst:sg:gen:m3</ctag></lex>
    <ann chan="nam">0</ann>
    <ann chan="nam_pro_brand">0</ann>
    <ann chan="nam_org_organization">0</ann>
    <ann chan="nam_pro">0</ann>
    <ann chan="timex">0</ann>
    <ann chan="t3_date">0</ann>
    <ann chan="t3_time">0</ann>
   </tok>
   <tok>
    <orth>(</orth>
    <lex disamb="1"><base>(</base><ctag>interp</ctag></lex>
    <ann chan="nam">0</ann>
    <ann chan="nam_pro_brand">0</ann>
    <ann chan="nam_org_organization">0</ann>
    <ann chan="nam_pro">0</ann>
    <ann chan="timex">0</ann>
    <ann chan="t3_date">0</ann>
    <ann chan="t3_time">0</ann>
   </tok>
   <ns/>
   <tok>
    <orth>18</orth>
    <lex disamb="1"><base>18</base><ctag>num:pl:nom:m1:rec</ctag></lex>
    <ann chan="nam">0</ann>
    <ann chan="nam_pro_brand">0</ann>
    <ann chan="nam_org_organization">0</ann>
    <ann chan="nam_pro">0</ann>
    <ann chan="timex">0</ann>
    <ann chan="t3_date">0</ann>
    <ann chan="t3_time">0</ann>
   </tok>
   <ns/>
   <tok>
    <orth>:</orth>
    <lex disamb="1"><base>:</base><ctag>interp</ctag></lex>
    <ann chan="nam">0</ann>
    <ann chan="nam_pro_brand">0</ann>
    <ann chan="nam_org_organization">0</ann>
    <ann chan="nam_pro">0</ann>
    <ann chan="timex">0</ann>
    <ann chan="t3_date">0</ann>
    <ann chan="t3_time">0</ann>
   </tok>
   <ns/>
   <tok>
    <orth>16</orth>
    <lex disamb="1"><base>16</base><ctag>num:pl:nom:m1:rec</ctag></lex>
    <ann chan="nam">0</ann>
    <ann chan="nam_pro_brand">0</ann>
    <ann chan="nam_org_organization">0</ann>
    <ann chan="nam_pro">0</ann>
    <ann chan="timex">0</ann>
    <ann chan="t3_date">0</ann>
    <ann chan="t3_time">0</ann>
   </tok>
   <tok>
    <orth>UTC</orth>
    <lex disamb="1"><base>UTC</base><ctag>ign</ctag></lex>
    <ann chan="nam">0</ann>
    <ann chan="nam_pro_brand">0</ann>
    <ann chan="nam_org_organization">0</ann>
    <ann chan="nam_pro">0</ann>
    <ann chan="timex">0</ann>
    <ann chan="t3_date">0</ann>
    <ann chan="t3_time">0</ann>
   </tok>
   <ns/>
   <tok>
    <orth>)</orth>
    <lex disamb="1"><base>)</base><ctag>interp</ctag></lex>
    <ann chan="nam">0</ann>
    <ann chan="nam_pro_brand">0</ann>
    <ann chan="nam_org_organization">0</ann>
    <ann chan="nam_pro">0</ann>
    <ann chan="timex">0</ann>
    <ann chan="t3_date">0</ann>
    <ann chan="t3_time">0</ann>
   </tok>
   <tok>
    <orth>zaplanowano</orth>
    <lex disamb="1"><base>zaplanować</base><ctag>imps:perf</ctag></lex>
    <ann chan="nam">0</ann>
    <ann chan="nam_pro_brand">0</ann>
    <ann chan="nam_org_organization">0</ann>
    <ann chan="nam_pro">0</ann>
    <ann chan="timex">0</ann>
    <ann chan="t3_date">0</ann>
    <ann chan="t3_time">0</ann>
   </tok>
   <tok>
    <orth>start</orth>
    <lex disamb="1"><base>start</base><ctag>subst:sg:nom:m3</ctag></lex>
    <ann chan="nam">0</ann>
    <ann chan="nam_pro_brand">0</ann>
    <ann chan="nam_org_organization">0</ann>
    <ann chan="nam_pro">0</ann>
    <ann chan="timex">0</ann>
    <ann chan="t3_date">0</ann>
    <ann chan="t3_time">0</ann>
   </tok>
   <tok>
    <orth>rakiety</orth>
    <lex disamb="1"><base>rakieta</base><ctag>subst:sg:gen:f</ctag></lex>
    <ann chan="nam">0</ann>
    <ann chan="nam_pro_brand">0</ann>
    <ann chan="nam_org_organization">0</ann>
    <ann chan="nam_pro">0</ann>
    <ann chan="timex">0</ann>
    <ann chan="t3_date">0</ann>
    <ann chan="t3_time">0</ann>
   </tok>
   <tok>
    <orth>Falcon</orth>
    <lex disamb="1"><base>Falcon</base><ctag>ign</ctag></lex>
    <ann chan="nam">1</ann>
    <ann chan="nam_pro_brand">1</ann>
    <ann chan="nam_org_organization">0</ann>
    <ann chan="nam_pro">1</ann>
    <ann chan="timex">0</ann>
    <ann chan="t3_date">0</ann>
    <ann chan="t3_time">0</ann>
   </tok>
   <tok>
    <orth>9</orth>
    <lex disamb="1"><base>9</base><ctag>num:pl:nom:m1:rec</ctag></lex>
    <ann chan="nam">1</ann>
    <ann chan="nam_pro_brand">1</ann>
    <ann chan="nam_org_organization">0</ann>
    <ann chan="nam_pro">1</ann>
    <ann chan="timex">0</ann>
    <ann chan="t3_date">0</ann>
    <ann chan="t3_time">0</ann>
   </tok>
   <ns/>
   <tok>
    <orth>,</orth>
    <lex disamb="1"><base>,</base><ctag>interp</ctag></lex>
    <ann chan="nam">0</ann>
    <ann chan="nam_pro_brand">0</ann>
    <ann chan="nam_org_organization">0</ann>
    <ann chan="nam_pro">0</ann>
    <ann chan="timex">0</ann>
    <ann chan="t3_date">0</ann>
    <ann chan="t3_time">0</ann>
   </tok>
   <tok>
    <orth>której</orth>
    <lex disamb="1"><base>który</base><ctag>adj:sg:gen:f:pos</ctag></lex>
    <ann chan="nam">0</ann>
    <ann chan="nam_pro_brand">0</ann>
    <ann chan="nam_org_organization">0</ann>
    <ann chan="nam_pro">0</ann>
    <ann chan="timex">0</ann>
    <ann chan="t3_date">0</ann>
    <ann chan="t3_time">0</ann>
   </tok>
   <tok>
    <orth>zadaniem</orth>
    <lex disamb="1"><base>zadanie</base><ctag>subst:sg:inst:n</ctag></lex>
    <ann chan="nam">0</ann>
    <ann chan="nam_pro_brand">0</ann>
    <ann chan="nam_org_organization">0</ann>
    <ann chan="nam_pro">0</ann>
    <ann chan="timex">0</ann>
    <ann chan="t3_date">0</ann>
    <ann chan="t3_time">0</ann>
   </tok>
   <tok>
    <orth>będzie</orth>
    <lex disamb="1"><base>być</base><ctag>bedzie:sg:ter:imperf</ctag></lex>
    <ann chan="nam">0</ann>
    <ann chan="nam_pro_brand">0</ann>
    <ann chan="nam_org_organization">0</ann>
    <ann chan="nam_pro">0</ann>
    <ann chan="timex">0</ann>
    <ann chan="t3_date">0</ann>
    <ann chan="t3_time">0</ann>
   </tok>
   <tok>
    <orth>wyniesienie</orth>
    <lex disamb="1"><base>wynieść</base><ctag>ger:sg:nom:n:perf:aff</ctag></lex>
    <ann chan="nam">0</ann>
    <ann chan="nam_pro_brand">0</ann>
    <ann chan="nam_org_organization">0</ann>
    <ann chan="nam_pro">0</ann>
    <ann chan="timex">0</ann>
    <ann chan="t3_date">0</ann>
    <ann chan="t3_time">0</ann>
   </tok>
   <tok>
    <orth>na</orth>
    <lex disamb="1"><base>na</base><ctag>prep:acc</ctag></lex>
    <ann chan="nam">0</ann>
    <ann chan="nam_pro_brand">0</ann>
    <ann chan="nam_org_organization">0</ann>
    <ann chan="nam_pro">0</ann>
    <ann chan="timex">0</ann>
    <ann chan="t3_date">0</ann>
    <ann chan="t3_time">0</ann>
   </tok>
   <tok>
    <orth>orbitę</orth>
    <lex disamb="1"><base>orbita</base><ctag>subst:sg:acc:f</ctag></lex>
    <ann chan="nam">0</ann>
    <ann chan="nam_pro_brand">0</ann>
    <ann chan="nam_org_organization">0</ann>
    <ann chan="nam_pro">0</ann>
    <ann chan="timex">0</ann>
    <ann chan="t3_date">0</ann>
    <ann chan="t3_time">0</ann>
   </tok>
   <tok>
    <orth>statku</orth>
    <lex disamb="1"><base>statek</base><ctag>subst:sg:gen:m3</ctag></lex>
    <ann chan="nam">0</ann>
    <ann chan="nam_pro_brand">0</ann>
    <ann chan="nam_org_organization">0</ann>
    <ann chan="nam_pro">0</ann>
    <ann chan="timex">0</ann>
    <ann chan="t3_date">0</ann>
    <ann chan="t3_time">0</ann>
   </tok>
   <tok>
    <orth>Dragon</orth>
    <lex disamb="1"><base>dragon</base><ctag>subst:sg:nom:m1</ctag></lex>
    <ann chan="nam">2</ann>
    <ann chan="nam_pro_brand">0</ann>
    <ann chan="nam_org_organization">0</ann>
    <ann chan="nam_pro">0</ann>
    <ann chan="timex">0</ann>
    <ann chan="t3_date">0</ann>
    <ann chan="t3_time">0</ann>
   </tok>
   <tok>
    <orth>z</orth>
    <lex disamb="1"><base>z</base><ctag>prep:gen:nwok</ctag></lex>
    <ann chan="nam">0</ann>
    <ann chan="nam_pro_brand">0</ann>
    <ann chan="nam_org_organization">0</ann>
    <ann chan="nam_pro">0</ann>
    <ann chan="timex">0</ann>
    <ann chan="t3_date">0</ann>
    <ann chan="t3_time">0</ann>
   </tok>
   <tok>
    <orth>zapasami</orth>
    <lex disamb="1"><base>zapas</base><ctag>subst:pl:inst:m3</ctag></lex>
    <ann chan="nam">0</ann>
    <ann chan="nam_pro_brand">0</ann>
    <ann chan="nam_org_organization">0</ann>
    <ann chan="nam_pro">0</ann>
    <ann chan="timex">0</ann>
    <ann chan="t3_date">0</ann>
    <ann chan="t3_time">0</ann>
   </tok>
   <ns/>
   <tok>
    <orth>,</orth>
    <lex disamb="1"><base>,</base><ctag>interp</ctag></lex>
    <ann chan="nam">0</ann>
    <ann chan="nam_pro_brand">0</ann>
    <ann chan="nam_org_organization">0</ann>
    <ann chan="nam_pro">0</ann>
    <ann chan="timex">0</ann>
    <ann chan="t3_date">0</ann>
    <ann chan="t3_time">0</ann>
   </tok>
   <tok>
    <orth>sprzętem</orth>
    <lex disamb="1"><base>sprzęt</base><ctag>subst:sg:inst:m3</ctag></lex>
    <ann chan="nam">0</ann>
    <ann chan="nam_pro_brand">0</ann>
    <ann chan="nam_org_organization">0</ann>
    <ann chan="nam_pro">0</ann>
    <ann chan="timex">0</ann>
    <ann chan="t3_date">0</ann>
    <ann chan="t3_time">0</ann>
   </tok>
   <tok>
    <orth>i</orth>
    <lex disamb="1"><base>i</base><ctag>conj</ctag></lex>
    <ann chan="nam">0</ann>
    <ann chan="nam_pro_brand">0</ann>
    <ann chan="nam_org_organization">0</ann>
    <ann chan="nam_pro">0</ann>
    <ann chan="timex">0</ann>
    <ann chan="t3_date">0</ann>
    <ann chan="t3_time">0</ann>
   </tok>
   <tok>
    <orth>eksperymentami</orth>
    <lex disamb="1"><base>eksperyment</base><ctag>subst:pl:inst:m3</ctag></lex>
    <ann chan="nam">0</ann>
    <ann chan="nam_pro_brand">0</ann>
    <ann chan="nam_org_organization">0</ann>
    <ann chan="nam_pro">0</ann>
    <ann chan="timex">0</ann>
    <ann chan="t3_date">0</ann>
    <ann chan="t3_time">0</ann>
   </tok>
   <tok>
    <orth>naukowymi</orth>
    <lex disamb="1"><base>naukowy</base><ctag>adj:pl:inst:m1:pos</ctag></lex>
    <ann chan="nam">0</ann>
    <ann chan="nam_pro_brand">0</ann>
    <ann chan="nam_org_organization">0</ann>
    <ann chan="nam_pro">0</ann>
    <ann chan="timex">0</ann>
    <ann chan="t3_date">0</ann>
    <ann chan="t3_time">0</ann>
   </tok>
   <tok>
    <orth>na</orth>
    <lex disamb="1"><base>na</base><ctag>prep:acc</ctag></lex>
    <ann chan="nam">0</ann>
    <ann chan="nam_pro_brand">0</ann>
    <ann chan="nam_org_organization">0</ann>
    <ann chan="nam_pro">0</ann>
    <ann chan="timex">0</ann>
    <ann chan="t3_date">0</ann>
    <ann chan="t3_time">0</ann>
   </tok>
   <tok>
    <orth>ISS</orth>
    <lex disamb="1"><base>Issa</base><ctag>subst:pl:gen:f</ctag></lex>
    <ann chan="nam">3</ann>
    <ann chan="nam_pro_brand">0</ann>
    <ann chan="nam_org_organization">1</ann>
    <ann chan="nam_pro">2</ann>
    <ann chan="timex">0</ann>
    <ann chan="t3_date">0</ann>
    <ann chan="t3_time">0</ann>
   </tok>
   <ns/>
   <tok>
    <orth>.</orth>
    <lex disamb="1"><base>.</base><ctag>interp</ctag></lex>
    <ann chan="nam">0</ann>
    <ann chan="nam_pro_brand">0</ann>
    <ann chan="nam_org_organization">0</ann>
    <ann chan="nam_pro">0</ann>
    <ann chan="timex">0</ann>
    <ann chan="t3_date">0</ann>
    <ann chan="t3_time">0</ann>
   </tok>
  </sentence>
 </chunk>
 <chunk type="p" id="ch2">
  <sentence id="s2">
   <tok>
    <orth>Po</orth>
    <lex disamb="1"><base>po</base><ctag>prep:acc</ctag></lex>
    <ann chan="nam">0</ann>
    <ann chan="nam_pro_brand">0</ann>
    <ann chan="nam_pro">0</ann>
   </tok>
   <tok>
    <orth>starcie</orth>
    <lex disamb="1"><base>starcie</base><ctag>subst:sg:nom:n</ctag></lex>
    <ann chan="nam">0</ann>
    <ann chan="nam_pro_brand">0</ann>
    <ann chan="nam_pro">0</ann>
   </tok>
   <tok>
    <orth>planowane</orth>
    <lex disamb="1"><base>planować</base><ctag>ppas:sg:nom:n:imperf:aff</ctag></lex>
    <ann chan="nam">0</ann>
    <ann chan="nam_pro_brand">0</ann>
    <ann chan="nam_pro">0</ann>
   </tok>
   <tok>
    <orth>jest</orth>
    <lex disamb="1"><base>być</base><ctag>fin:sg:ter:imperf</ctag></lex>
    <ann chan="nam">0</ann>
    <ann chan="nam_pro_brand">0</ann>
    <ann chan="nam_pro">0</ann>
   </tok>
   <tok>
    <orth>lądowanie</orth>
    <lex disamb="1"><base>lądowanie</base><ctag>subst:sg:nom:n</ctag></lex>
    <ann chan="nam">0</ann>
    <ann chan="nam_pro_brand">0</ann>
    <ann chan="nam_pro">0</ann>
   </tok>
   <tok>
    <orth>pierwszego</orth>
    <lex disamb="1"><base>pierwsze</base><ctag>subst:sg:gen:n</ctag></lex>
    <ann chan="nam">0</ann>
    <ann chan="nam_pro_brand">0</ann>
    <ann chan="nam_pro">0</ann>
   </tok>
   <tok>
    <orth>stopnia</orth>
    <lex disamb="1"><base>stopień</base><ctag>subst:sg:gen:m3</ctag></lex>
    <ann chan="nam">0</ann>
    <ann chan="nam_pro_brand">0</ann>
    <ann chan="nam_pro">0</ann>
   </tok>
   <tok>
    <orth>rakiety</orth>
    <lex disamb="1"><base>rakieta</base><ctag>subst:sg:gen:f</ctag></lex>
    <ann chan="nam">0</ann>
    <ann chan="nam_pro_brand">0</ann>
    <ann chan="nam_pro">0</ann>
   </tok>
   <tok>
    <orth>na</orth>
    <lex disamb="1"><base>na</base><ctag>prep:acc</ctag></lex>
    <ann chan="nam">0</ann>
    <ann chan="nam_pro_brand">0</ann>
    <ann chan="nam_pro">0</ann>
   </tok>
   <tok>
    <orth>platformie</orth>
    <lex disamb="1"><base>platforma</base><ctag>subst:sg:dat:f</ctag></lex>
    <ann chan="nam">0</ann>
    <ann chan="nam_pro_brand">0</ann>
    <ann chan="nam_pro">0</ann>
   </tok>
   <tok>
    <orth>LZ</orth>
    <lex disamb="1"><base>LZ</base><ctag>subst:sg:nom:n</ctag></lex>
    <ann chan="nam">1</ann>
    <ann chan="nam_pro_brand">1</ann>
    <ann chan="nam_pro">1</ann>
   </tok>
   <ns/>
   <tok>
    <orth>-</orth>
    <lex disamb="1"><base>-</base><ctag>interp</ctag></lex>
    <ann chan="nam">1</ann>
    <ann chan="nam_pro_brand">1</ann>
    <ann chan="nam_pro">1</ann>
   </tok>
   <ns/>
   <tok>
    <orth>1</orth>
    <lex disamb="1"><base>1</base><ctag>num:pl:nom:m1:rec</ctag></lex>
    <ann chan="nam">1</ann>
    <ann chan="nam_pro_brand">1</ann>
    <ann chan="nam_pro">1</ann>
   </tok>
   <ns/>
   <tok>
    <orth>.</orth>
    <lex disamb="1"><base>.</base><ctag>interp</ctag></lex>
    <ann chan="nam">0</ann>
    <ann chan="nam_pro_brand">0</ann>
    <ann chan="nam_pro">0</ann>
   </tok>
  </sentence>
 </chunk>
</chunkList>