<?xml version="1.0" encoding="UTF-8"?>
<!DOCTYPE chunkList SYSTEM "ccl.dtd">
<chunkList>
 <chunk type="p" id="ch1">
  <sentence id="s1">
   <tok>
    <orth>Dokument</orth>
    <lex disamb="1"><base>dokument</base><ctag>subst:sg:nom:m3</ctag></lex>
    <ann chan="nam">0</ann>
    <ann chan="nam_org_institution">0</ann>
    <ann chan="nam_org">0</ann>
    <ann chan="timex">0</ann>
    <ann chan="t3_date">0</ann>
   </tok>
   <tok>
    <orth>trafi</orth>
    <lex disamb="1"><base>trafić</base><ctag>fin:sg:ter:perf</ctag></lex>
    <ann chan="nam">0</ann>
    <ann chan="nam_org_institution">0</ann>
    <ann chan="nam_org">0</ann>
    <ann chan="timex">0</ann>
    <ann chan="t3_date">0</ann>
   </tok>
   <tok>
    <orth>teraz</orth>
    <lex disamb="1"><base>teraz</base><ctag>adv:pos</ctag></lex>
    <ann chan="nam">0</ann>
    <ann chan="nam_org_institution">0</ann>
    <ann chan="nam_org">0</ann>
    <ann chan="timex">0</ann>
    <ann chan="t3_date">0</ann>
   </tok>
   <tok>
    <orth>do</orth>
    <lex disamb="1"><base>do</base><ctag>prep:gen</ctag></lex>
    <ann chan="nam">0</ann>
    <ann chan="nam_org_institution">0</ann>
    <ann chan="nam_org">0</ann>
    <ann chan="timex">0</ann>
    <ann chan="t3_date">0</ann>
   </tok>
   <tok>
    <orth>Parlamentu</orth>
    <lex disamb="1"><base>parlament</base><ctag>subst:sg:gen:m3</ctag></lex>
    <ann chan="nam">1</ann>
    <ann chan="nam_org_institution">1</ann>
    <ann chan="nam_org">1</ann>
    <ann chan="timex">0</ann>
    <ann chan="t3_date">0</ann>
   </tok>
   <tok>
    <orth>Europejskiego</orth>
    <lex disamb="1"><base>europejski</base><ctag>adj:sg:gen:m1:pos</ctag></lex>
    <ann chan="nam">1</ann>
    <ann chan="nam_org_institution">1</ann>
    <ann chan="nam_org">1</ann>
    <ann chan="timex">0</ann>
    <ann chan="t3_date">0</ann>
   </tok>
   <ns/>
   <tok>
    <orth>,</orth>
    <lex disamb="1"><base>,</base><ctag>interp</ctag></lex>
    <ann chan="nam">0</ann>
    <ann chan="nam_org_institution">0</ann>
    <ann chan="nam_org">0</ann>
    <ann chan="timex">0</ann>
    <ann chan="t3_date">0</ann>
   </tok>
   <tok>
    <orth>gdzie</orth>
    <lex disamb="1"><base>gdzie</base><ctag>adv:pos</ctag></lex>
    <ann chan="nam">0</ann>
    <ann chan="nam_org_institution">0</ann>
    <ann chan="nam_org">0</ann>
    <ann chan="timex">0</ann>
    <ann chan="t3_date">0</ann>
   </tok>
   <tok>
    <orth>będzie</orth>
    <lex disamb="1"><base>być</base><ctag>bedzie:sg:ter:imperf</ctag></lex>
    <ann chan="nam">0</ann>
    <ann chan="nam_org_institution">0</ann>
    <ann chan="nam_org">0</ann>
    <ann chan="timex">0</ann>
    <ann chan="t3_date">0</ann>
   </tok>
   <tok>
    <orth>opracowany</orth>
    <lex disamb="1"><base>opracować</base><ctag>ppas:sg:nom:m1:perf:aff</ctag></lex>
    <ann chan="nam">0</ann>
    <ann chan="nam_org_institution">0</ann>
    <ann chan="nam_org">0</ann>
    <ann chan="timex">0</ann>
    <ann chan="t3_date">0</ann>
   </tok>
   <tok>
    <orth>ostateczny</orth>
    <lex disamb="1"><base>ostateczny</base><ctag>adj:sg:nom:m1:pos</ctag></lex>
    <ann chan="nam">0</ann>
    <ann chan="nam_org_institution">0</ann>
    <ann chan="nam_org">0</ann>
    <ann chan="timex">0</ann>
    <ann chan="t3_date">0</ann>
   </tok>
   <tok>
    <orth>kształt</orth>
    <lex disamb="1"><base>kształt</base><ctag>subst:sg:nom:m3</ctag></lex>
    <ann chan="nam">0</ann>
    <ann chan="nam_org_institution">0</ann>
    <ann chan="nam_org">0</ann>
    <ann chan="timex">0</ann>
    <ann chan="t3_date">0</ann>
   </tok>
   <tok>
    <orth>regulujący</orth>
    <lex disamb="1"><base>regulujący</base><ctag>adj:sg:nom:m1:pos</ctag></lex>
    <ann chan="nam">0</ann>
    <ann chan="nam_org_institution">0</ann>
    <ann chan="nam_org">0</ann>
    <ann chan="timex">0</ann>
    <ann chan="t3_date">0</ann>
   </tok>
   <tok>
    <orth>zasady</orth>
    <lex disamb="1"><base>zasada</base><ctag>subst:sg:gen:f</ctag></lex>
    <ann chan="nam">0</ann>
    <ann chan="nam_org_institution">0</ann>
    <ann chan="nam_org">0</ann>
    <ann chan="timex">0</ann>
    <ann chan="t3_date">0</ann>
   </tok>
   <tok>
    <orth>wykonywania</orth>
    <lex disamb="1"><base>wykonywać</base><ctag>ger:sg:gen:n:imperf:aff</ctag></lex>
    <ann chan="nam">0</ann>
    <ann chan="nam_org_institution">0</ann>
    <ann chan="nam_org">0</ann>
    <ann chan="timex">0</ann>
    <ann chan="t3_date">0</ann>
   </tok>
   <tok>
    <orth>transportu</orth>
    <lex disamb="1"><base>transport</base><ctag>subst:sg:gen:m3</ctag></lex>
    <ann chan="nam">0</ann>
    <ann chan="nam_org_institution">0</ann>
    <ann chan="nam_org">0</ann>
    <ann chan="timex">0</ann>
    <ann chan="t3_date">0</ann>
   </tok>
   <tok>
    <orth>drogowego</orth>
    <lex disamb="1"><base>drogowe</base><ctag>subst:sg:gen:n</ctag></lex>
    <ann chan="nam">0</ann>
    <ann chan="nam_org_institution">0</ann>
    <ann chan="nam_org">0</ann>
    <ann chan="timex">0</ann>
    <ann chan="t3_date">0</ann>
   </tok>
   <tok>
    <orth>po</orth>
    <lex disamb="1"><base>po</base><ctag>prep:acc</ctag></lex>
    <ann chan="nam">0</ann>
    <ann chan="nam_org_institution">0</ann>
    <ann chan="nam_org">0</ann>
    <ann chan="timex">0</ann>
    <ann chan="t3_date">0</ann>
   </tok>
   <tok>
    <orth>2024</orth>
    <lex disamb="1"><base>2024</base><ctag>num:pl:nom:m1:rec</ctag></lex>
    <ann chan="nam">0</ann>
    <ann chan="nam_org_institution">0</ann>
    <ann chan="nam_org">0</ann>
    <ann chan="timex">1</ann>
    <ann chan="t3_date">1</ann>
   </tok>
   <tok>
    <orth>roku</orth>
    <lex disamb="1"><base>rok</base><ctag>subst:sg:gen:m3</ctag></lex>
    <ann chan="nam">0</ann>
    <ann chan="nam_org_institution">0</ann>
    <ann chan="nam_org">0</ann>
    <ann chan="timex">1</ann>
    <ann chan="t3_date">1</ann>
   </tok>
   <ns/>
   <tok>
    <orth>.</orth>
    <lex disamb="1"><base>.</base><ctag>interp</ctag></lex>
    <ann chan="nam">0</ann>
    <ann chan="nam_org_institution">0</ann>
    <ann chan="nam_org">0</ann>
    <ann chan="timex">0</ann>
    <ann chan="t3_date">0</ann>
   </tok>
  </sentence>
 </chunk>
</chunkList>