<?xml version="1.0" encoding="UTF-8"?>
<!DOCTYPE chunkList SYSTEM "ccl.dtd">
<chunkList>
 <chunk type="p" id="ch1">
  <sentence id="s1">
   <tok>
    <orth>.</orth>
    <lex disamb="1"><base>.</base><ctag>interp</ctag></lex>
    <ann chan="nam">0</ann>
    <ann chan="nam_pro_title_album">0</ann>
    <ann chan="nam_pro">0</ann>
   </tok>
   <ns/>
   <tok>
    <orth>.</orth>
    <lex disamb="1"><base>.</base><ctag>interp</ctag></lex>
    <ann chan="nam">0</ann>
    <ann chan="nam_pro_title_album">0</ann>
    <ann chan="nam_pro">0</ann>
   </tok>
   <ns/>
   <tok>
    <orth>.</orth>
    <lex disamb="1"><base>.</base><ctag>interp</ctag></lex>
    <ann chan="nam">0</ann>
    <ann chan="nam_pro_title_album">0</ann>
    <ann chan="nam_pro">0</ann>
   </tok>
   <ns/>
   <tok>
    <orth>obarczono</orth>
    <lex disamb="1"><base>obarczyć</base><ctag>imps:perf</ctag></lex>
    <ann chan="nam">0</ann>
    <ann chan="nam_pro_title_album">0</ann>
    <ann chan="nam_pro">0</ann>
   </tok>
   <tok>
    <orth>winą</orth>
    <lex disamb="1"><base>wina</base><ctag>subst:sg:inst:f</ctag></lex>
    <ann chan="nam">0</ann>
    <ann chan="nam_pro_title_album">0</ann>
    <ann chan="nam_pro">0</ann>
   </tok>
   <tok>
    <orth>za</orth>
    <lex disamb="1"><base>za</base><ctag>qub</ctag></lex>
    <ann chan="nam">0</ann>
    <ann chan="nam_pro_title_album">0</ann>
    <ann chan="nam_pro">0</ann>
   </tok>
   <tok>
    <orth>fiasko</orth>
    <lex disamb="1"><base>fiasko</base><ctag>subst:sg:nom:n</ctag></lex>
    <ann chan="nam">0</ann>
    <ann chan="nam_pro_title_album">0</ann>
    <ann chan="nam_pro">0</ann>
   </tok>
   <tok>
    <orth>operacji</orth>
    <lex disamb="1"><base>operacja</base><ctag>subst:sg:gen:f</ctag></lex>
    <ann chan="nam">0</ann>
    <ann chan="nam_pro_title_album">0</ann>
    <ann chan="nam_pro">0</ann>
   </tok>
   <tok>
    <orth>„</orth>
    <lex disamb="1"><base>„</base><ctag>interp</ctag></lex>
    <ann chan="nam">0</ann>
    <ann chan="nam_pro_title_album">0</ann>
    <ann chan="nam_pro">0</ann>
   </tok>
   <ns/>
   <tok>
    <orth>Market</orth>
    <lex disamb="1"><base>market</base><ctag>subst:sg:nom:m3</ctag></lex>
    <ann chan="nam">1</ann>
    <ann chan="nam_pro_title_album">1</ann>
    <ann chan="nam_pro">1</ann>
   </tok>
   <tok>
    <orth>Garden</orth>
    <lex disamb="1"><base>Garden</base><ctag>ign</ctag></lex>
    <ann chan="nam">1</ann>
    <ann chan="nam_pro_title_album">1</ann>
    <ann chan="nam_pro">1</ann>
   </tok>
   <ns/>
   <tok>
    <orth>”</orth>
    <lex disamb="1"><base>”</base><ctag>interp</ctag></lex>
    <ann chan="nam">0</ann>
    <ann chan="nam_pro_title_album">0</ann>
    <ann chan="nam_pro">0</ann>
   </tok>
   <ns/>
   <tok>
    <orth>?</orth>
    <lex disamb="1"><base>?</base><ctag>interp</ctag></lex>
    <ann chan="nam">0</ann>
    <ann chan="nam_pro_title_album">0</ann>
    <ann chan="nam_pro">0</ann>
   </tok>
  </sentence>
 </chunk>
 <chunk type="p" id="ch2">
  <sentence id="s2">
   <tok>
    <orth>Lądowanie</orth>
    <lex disamb="1"><base>lądowanie</base><ctag>subst:sg:nom:n</ctag></lex>
    <ann chan="nam">0</ann>
    <ann chan="nam_loc_gpe_city">0</ann>
    <ann chan="nam_loc">0</ann>
   </tok>
   <tok>
    <orth>aliantów</orth>
    <lex disamb="1"><base>aliant</base><ctag>subst:pl:gen:m1</ctag></lex>
    <ann chan="nam">0</ann>
    <ann chan="nam_loc_gpe_city">0</ann>
    <ann chan="nam_loc">0</ann>
   </tok>
   <tok>
    <orth>pod</orth>
    <lex disamb="1"><base>pod</base><ctag>prep:acc:nwok</ctag></lex>
    <ann chan="nam">0</ann>
    <ann chan="nam_loc_gpe_city">0</ann>
    <ann chan="nam_loc">0</ann>
   </tok>
   <tok>
    <orth>Arnhem</orth>
    <lex disamb="1"><base>Arnhem</base><ctag>subst:sg:nom:m3</ctag></lex>
    <ann chan="nam">1</ann>
    <ann chan="nam_loc_gpe_city">1</ann>
    <ann chan="nam_loc">1</ann>
   </tok>
   <tok>
    <orth>miało</orth>
    <lex disamb="1"><base>mieć</base><ctag>praet:sg:n:imperf</ctag></lex>
    <ann chan="nam">0</ann>
    <ann chan="nam_loc_gpe_city">0</ann>
    <ann chan="nam_loc">0</ann>
   </tok>
   <tok>
    <orth>skrócić</orth>
    <lex disamb="1"><base>skrócić</base><ctag>inf:perf</ctag></lex>
    <ann chan="nam">0</ann>
    <ann chan="nam_loc_gpe_city">0</ann>
    <ann chan="nam_loc">0</ann>
   </tok>
   <tok>
    <orth>wojnę</orth>
    <lex disamb="1"><base>wojna</base><ctag>subst:sg:acc:f</ctag></lex>
    <ann chan="nam">0</ann>
    <ann chan="nam_loc_gpe_city">0</ann>
    <ann chan="nam_loc">0</ann>
   </tok>
   <ns/>
   <tok>
    <orth>.</orth>
    <lex disamb="1"><base>.</base><ctag>interp</ctag></lex>
    <ann chan="nam">0</ann>
    <ann chan="nam_loc_gpe_city">0</ann>
    <ann chan="nam_loc">0</ann>
   </tok>
  </sentence>
 </chunk>
 <chunk type="p" id="ch3">
  <sentence id="s3">
   <tok>
    <orth>Niestety</orth>
    <lex disamb="1"><base>niestety</base><ctag>qub</ctag></lex>
    <ann chan="nam">0</ann>
    <ann chan="nam_pro_title_album">0</ann>
    <ann chan="nam_pro">0</ann>
   </tok>
   <ns/>
   <tok>
    <orth>,</orth>
    <lex disamb="1"><base>,</base><ctag>interp</ctag></lex>
    <ann chan="nam">0</ann>
    <ann chan="nam_pro_title_album">0</ann>
    <ann chan="nam_pro">0</ann>
   </tok>
   <tok>
    <orth>operacja</orth>
    <lex disamb="1"><base>operacja</base><ctag>subst:sg:nom:f</ctag></lex>
    <ann chan="nam">0</ann>
    <ann chan="nam_pro_title_album">0</ann>
    <ann chan="nam_pro">0</ann>
   </tok>
   <tok>
    <orth>„</orth>
    <lex disamb="1"><base>„</base><ctag>interp</ctag></lex>
    <ann chan="nam">0</ann>
    <ann chan="nam_pro_title_album">0</ann>
    <ann chan="nam_pro">0</ann>
   </tok>
   <ns/>
   <tok>
    <orth>Market</orth>
    <lex disamb="1"><base>market</base><ctag>subst:sg:nom:m3</ctag></lex>
    <ann chan="nam">1</ann>
    <ann chan="nam_pro_title_album">1</ann>
    <ann chan="nam_pro">1</ann>
   </tok>
   <tok>
    <orth>Garden</orth>
    <lex disamb="1"><base>Garden</base><ctag>ign</ctag></lex>
    <ann chan="nam">1</ann>
    <ann chan="nam_pro_title_album">1</ann>
    <ann chan="nam_pro">1</ann>
   </tok>
   <ns/>
   <tok>
    <orth>”</orth>
    <lex disamb="1"><base>”</base><ctag>interp</ctag></lex>
    <ann chan="nam">0</ann>
    <ann chan="nam_pro_title_album">0</ann>
    <ann chan="nam_pro">0</ann>
   </tok>
   <tok>
    <orth>skończyła</orth>
    <lex disamb="1"><base>skończyć</base><ctag>praet:sg:f:perf</ctag></lex>
    <ann chan="nam">0</ann>
    <ann chan="nam_pro_title_album">0</ann>
    <ann chan="nam_pro">0</ann>
   </tok>
   <tok>
    <orth>się</orth>
    <lex disamb="1"><base>się</base><ctag>qub</ctag></lex>
    <ann chan="nam">0</ann>
    <ann chan="nam_pro_title_album">0</ann>
    <ann chan="nam_pro">0</ann>
   </tok>
   <tok>
    <orth>kompletną</orth>
    <lex disamb="1"><base>kompletny</base><ctag>adj:sg:acc:f:pos</ctag></lex>
    <ann chan="nam">0</ann>
    <ann chan="nam_pro_title_album">0</ann>
    <ann chan="nam_pro">0</ann>
   </tok>
   <tok>
    <orth>klapą</orth>
    <lex disamb="1"><base>klapa</base><ctag>subst:sg:inst:f</ctag></lex>
    <ann chan="nam">0</ann>
    <ann chan="nam_pro_title_album">0</ann>
    <ann chan="nam_pro">0</ann>
   </tok>
   <ns/>
   <tok>
    <orth>.</orth>
    <lex disamb="1"><base>.</base><ctag>interp</ctag></lex>
    <ann chan="nam">0</ann>
    <ann chan="nam_pro_title_album">0</ann>
    <ann chan="nam_pro">0</ann>
   </tok>
  </sentence>
 </chunk>
 <chunk type="p" id="ch4">
  <sentence id="s4">
   <tok>
    <orth>Odpowiedzialni</orth>
    <lex disamb="1"><base>odpowiedzialny</base><ctag>subst:pl:nom:m1</ctag></lex>
   </tok>
   <tok>
    <orth>za</orth>
    <lex disamb="1"><base>za</base><ctag>qub</ctag></lex>
   </tok>
   <tok>
    <orth>jej</orth>
    <lex disamb="1"><base>on</base><ctag>ppron3:sg:gen:f:ter:akc:npraep</ctag></lex>
   </tok>
   <tok>
    <orth>zaplanowanie</orth>
    <lex disamb="1"><base>zaplanować</base><ctag>ger:sg:nom:n:perf:aff</ctag></lex>
   </tok>
   <tok>
    <orth>i</orth>
    <lex disamb="1"><base>i</base><ctag>conj</ctag></lex>
   </tok>
   <tok>
    <orth>przeprowadzenie</orth>
    <lex disamb="1"><base>przeprowadzić</base><ctag>ger:sg:nom:n:perf:aff</ctag></lex>
   </tok>
   <tok>
    <orth>dowódcy</orth>
    <lex disamb="1"><base>dowódca</base><ctag>subst:sg:gen:m1</ctag></lex>
   </tok>
   <tok>
    <orth>popełnili</orth>
    <lex disamb="1"><base>popełnić</base><ctag>praet:pl:m1:perf</ctag></lex>
   </tok>
   <tok>
    <orth>szereg</orth>
    <lex disamb="1"><base>szereg</base><ctag>subst:sg:nom:m3</ctag></lex>
   </tok>
   <tok>
    <orth>błędów</orth>
    <lex disamb="1"><base>błąd</base><ctag>subst:pl:gen:m3</ctag></lex>
   </tok>
   <ns/>
   <tok>
    <orth>.</orth>
    <lex disamb="1"><base>.</base><ctag>interp</ctag></lex>
   </tok>
  </sentence>
 </chunk>
 <chunk type="p" id="ch5">
  <sentence id="s5">
   <tok>
    <orth>Jednak</orth>
    <lex disamb="1"><base>jednak</base><ctag>conj</ctag></lex>
    <ann chan="nam">0</ann>
    <ann chan="nam_liv_person">0</ann>
    <ann chan="nam_liv">0</ann>
   </tok>
   <tok>
    <orth>winą</orth>
    <lex disamb="1"><base>wina</base><ctag>subst:sg:inst:f</ctag></lex>
    <ann chan="nam">0</ann>
    <ann chan="nam_liv_person">0</ann>
    <ann chan="nam_liv">0</ann>
   </tok>
   <tok>
    <orth>obarczono</orth>
    <lex disamb="1"><base>obarczyć</base><ctag>imps:perf</ctag></lex>
    <ann chan="nam">0</ann>
    <ann chan="nam_liv_person">0</ann>
    <ann chan="nam_liv">0</ann>
   </tok>
   <tok>
    <orth>gen</orth>
    <lex disamb="1"><base>gen</base><ctag>subst:sg:nom:m3</ctag></lex>
    <ann chan="nam">0</ann>
    <ann chan="nam_liv_person">0</ann>
    <ann chan="nam_liv">0</ann>
   </tok>
   <ns/>
   <tok>
    <orth>.</orth>
    <lex disamb="1"><base>.</base><ctag>interp</ctag></lex>
    <ann chan="nam">0</ann>
    <ann chan="nam_liv_person">0</ann>
    <ann chan="nam_liv">0</ann>
   </tok>
   <tok>
    <orth>Sosabowskiego</orth>
    <lex disamb="1"><base>Sosabowskiego</base><ctag>ign</ctag></lex>
    <ann chan="nam">1</ann>
    <ann chan="nam_liv_person">1</ann>
    <ann chan="nam_liv">1</ann>
   </tok>
  </sentence>
 </chunk>
</chunkList>