<?xml version="1.0" encoding="UTF-8"?>
<!DOCTYPE chunkList SYSTEM "ccl.dtd">
<chunkList>
 <chunk type="p" id="ch1">
  <sentence id="s1">
   <tok>
    <orth>może</orth>
    <lex disamb="1"><base>może</base><ctag>qub</ctag></lex>
   </tok>
   <tok>
    <orth>mi</orth>
    <lex disamb="1"><base>mi</base><ctag>subst:sg:nom:n</ctag></lex>
   </tok>
   <tok>
    <orth>ktoś</orth>
    <lex disamb="1"><base>ktoś</base><ctag>subst:sg:nom:m1</ctag></lex>
   </tok>
   <tok>
    <orth>wyjaśnić</orth>
    <lex disamb="1"><base>wyjaśnić</base><ctag>inf:perf</ctag></lex>
   </tok>
   <tok>
    <orth>w</orth>
    <lex disamb="1"><base>w</base><ctag>prep:acc:nwok</ctag></lex>
   </tok>
   <tok>
    <orth>jakim</orth>
    <lex disamb="1"><base>jaki</base><ctag>adj:sg:inst:m1:pos</ctag></lex>
   </tok>
   <tok>
    <orth>celu</orth>
    <lex disamb="1"><base>cel</base><ctag>subst:sg:gen:m3</ctag></lex>
   </tok>
   <tok>
    <orth>są</orth>
    <lex disamb="1"><base>być</base><ctag>fin:pl:ter:imperf</ctag></lex>
   </tok>
   <tok>
    <orth>te</orth>
    <lex disamb="1"><base>te</base><ctag>subst:sg:nom:n</ctag></lex>
   </tok>
   <tok>
    <orth>ciągnące</orth>
    <lex disamb="1"><base>ciągnąć</base><ctag>pact:sg:nom:n:imperf:aff</ctag></lex>
   </tok>
   <tok>
    <orth>się</orth>
    <lex disamb="1"><base>się</base><ctag>qub</ctag></lex>
   </tok>
   <tok>
    <orth>setkami</orth>
    <lex disamb="1"><base>setka</base><ctag>subst:pl:inst:f</ctag></lex>
   </tok>
   <tok>
    <orth>kilometrów</orth>
    <lex disamb="1"><base>kilometr</base><ctag>subst:pl:gen:m3</ctag></lex>
   </tok>
   <tok>
    <orth>pasy</orth>
    <lex disamb="1"><base>pas</base><ctag>subst:pl:nom:m3</ctag></lex>
   </tok>
   <tok>
    <orth>zieleni</orth>
    <lex disamb="1"><base>zieleń</base><ctag>subst:sg:gen:f</ctag></lex>
   </tok>
   <ns/>
   <tok>
    <orth>?</orth>
    <lex disamb="1"><base>?</base><ctag>interp</ctag></lex>
   </tok>
  </sentence>
 </chunk>
 <chunk type="p" id="ch2">
  <sentence id="s2">
   <tok>
    <orth>w</orth>
    <lex disamb="1"><base>w</base><ctag>prep:acc:nwok</ctag></lex>
   </tok>
   <tok>
    <orth>sumie</orth>
    <lex disamb="1"><base>sum</base><ctag>subst:sg:loc:m2</ctag></lex>
   </tok>
   <tok>
    <orth>to</orth>
    <lex disamb="1"><base>to</base><ctag>conj</ctag></lex>
   </tok>
   <tok>
    <orth>jest</orth>
    <lex disamb="1"><base>być</base><ctag>fin:sg:ter:imperf</ctag></lex>
   </tok>
   <tok>
    <orth>ich</orth>
    <lex disamb="1"><base>on</base><ctag>ppron3:pl:gen:m1:ter:akc:npraep</ctag></lex>
   </tok>
   <tok>
    <orth>więcej</orth>
    <lex disamb="1"><base>dużo</base><ctag>adv:pos</ctag></lex>
    <lex disamb="1"><base>więcej</base><ctag>adv:pos</ctag></lex>
   </tok>
   <tok>
    <orth>https</orth>
    <lex disamb="1"><base>https</base><ctag>ign</ctag></lex>
   </tok>
   <ns/>
   <tok>
    <orth>:</orth>
    <lex disamb="1"><base>:</base><ctag>interp</ctag></lex>
   </tok>
   <ns/>
   <tok>
    <orth>/</orth>
    <lex disamb="1"><base>/</base><ctag>interp</ctag></lex>
   </tok>
   <ns/>
   <tok>
    <orth>/</orth>
    <lex disamb="1"><base>/</base><ctag>interp</ctag></lex>
   </tok>
   <ns/>
   <tok>
    <orth>www</orth>
    <lex disamb="1"><base>www</base><ctag>subst:sg:nom:f</ctag></lex>
   </tok>
   <ns/>
   <tok>
    <orth>.</orth>
    <lex disamb="1"><base>.</base><ctag>interp</ctag></lex>
   </tok>
   <ns/>
   <tok>
    <orth>google</orth>
    <lex disamb="1"><base>Google</base><ctag>subst:sg:nom:m3</ctag></lex>
   </tok>
   <ns/>
   <tok>
    <orth>.</orth>
    <lex disamb="1"><base>.</base><ctag>interp</ctag></lex>
   </tok>
   <ns/>
   <tok>
    <orth>pl</orth>
    <lex disamb="1"><base>Polska</base><ctag>brev:npun</ctag></lex>
   </tok>
   <ns/>
   <tok>
    <orth>/</orth>
    <lex disamb="1"><base>/</base><ctag>interp</ctag></lex>
   </tok>
   <ns/>
   <tok>
    <orth>maps</orth>
    <lex disamb="1"><base>maps</base><ctag>ign</ctag></lex>
   </tok>
   <ns/>
   <tok>
    <orth>/</orth>
    <lex disamb="1"><base>/</base><ctag>interp</ctag></lex>
   </tok>
   <ns/>
   <tok>
    <orth>@</orth>
    <lex disamb="1"><base>@</base><ctag>interp</ctag></lex>
   </tok>
   <ns/>
   <tok>
    <orth>44</orth>
    <lex disamb="1"><base>44</base><ctag>num:pl:nom:m1:rec</ctag></lex>
   </tok>
   <ns/>
   <tok>
    <orth>.</orth>
    <lex disamb="1"><base>.</base><ctag>interp</ctag></lex>
   </tok>
   <ns/>
   <tok>
    <orth>1398466</orth>
    <lex disamb="1"><base>1398466</base><ctag>num:pl:nom:m1:rec</ctag></lex>
   </tok>
   <ns/>
   <tok>
    <orth>,</orth>
    <lex disamb="1"><base>,</base><ctag>interp</ctag></lex>
   </tok>
   <ns/>
   <tok>
    <orth>42</orth>
    <lex disamb="1"><base>42</base><ctag>num:pl:nom:m1:rec</ctag></lex>
   </tok>
   <ns/>
   <tok>
    <orth>.</orth>
    <lex disamb="1"><base>.</base><ctag>interp</ctag></lex>
   </tok>
   <ns/>
   <tok>
    <orth>2393662</orth>
    <lex disamb="1"><base>2393662</base><ctag>num:pl:nom:m1:rec</ctag></lex>
   </tok>
   <ns/>
   <tok>
    <orth>,</orth>
    <lex disamb="1"><base>,</base><ctag>interp</ctag></lex>
   </tok>
   <ns/>
   <tok>
    <orth>18430m</orth>
    <lex disamb="1"><base>18430m</base><ctag>ign</ctag></lex>
   </tok>
   <ns/>
   <tok>
    <orth>/</orth>
    <lex disamb="1"><base>/</base><ctag>interp</ctag></lex>
   </tok>
   <ns/>
   <tok>
    <orth>data</orth>
    <lex disamb="1"><base>data</base><ctag>subst:sg:nom:f</ctag></lex>
   </tok>
   <ns/>
   <tok>
    <orth>=</orth>
    <lex disamb="1"><base>=</base><ctag>interp</ctag></lex>
   </tok>
   <ns/>
   <tok>
    <orth>!</orth>
    <lex disamb="1"><base>!</base><ctag>interp</ctag></lex>
   </tok>
   <ns/>
   <tok>
    <orth>3m1</orth>
    <lex disamb="1"><base>3m1</base><ctag>ign</ctag></lex>
   </tok>
   <ns/>
   <tok>
    <orth>!</orth>
    <lex disamb="1"><base>!</base><ctag>interp</ctag></lex>
   </tok>
   <ns/>
   <tok>
    <orth>1e3</orth>
    <lex disamb="1"><base>1e3</base><ctag>ign</ctag></lex>
   </tok>
  </sentence>
 </chunk>
</chunkList>