<?xml version="1.0" encoding="UTF-8"?>
<!DOCTYPE chunkList SYSTEM "ccl.dtd">
<chunkList>
 <chunk type="p" id="ch1">
  <sentence id="s1">
   <tok>
    <orth>Misie</orth>
    <lex disamb="1"><base>Misia</base><ctag>subst:pl:nom:f</ctag></lex>
   </tok>
   <tok>
    <orth>polarne</orth>
    <lex disamb="1"><base>polarny</base><ctag>adj:sg:nom:n:pos</ctag></lex>
   </tok>
   <tok>
    <orth>opracowały</orth>
    <lex disamb="1"><base>opracować</base><ctag>praet:pl:m2:perf</ctag></lex>
   </tok>
   <tok>
    <orth>własny</orth>
    <lex disamb="1"><base>własny</base><ctag>adj:sg:nom:m1:pos</ctag></lex>
   </tok>
   <ns/>
   <tok>
    <orth>,</orth>
    <lex disamb="1"><base>,</base><ctag>interp</ctag></lex>
   </tok>
   <tok>
    <orth>niezawodny</orth>
    <lex disamb="1"><base>niezawodny</base><ctag>adj:sg:nom:m1:pos</ctag></lex>
   </tok>
   <tok>
    <orth>sposób</orth>
    <lex disamb="1"><base>sposób</base><ctag>pred</ctag></lex>
   </tok>
   <tok>
    <orth>suszenia</orth>
    <lex disamb="1"><base>suszyć</base><ctag>ger:sg:gen:n:imperf:aff</ctag></lex>
   </tok>
   <tok>
    <orth>i</orth>
    <lex disamb="1"><base>i</base><ctag>conj</ctag></lex>
   </tok>
   <tok>
    <orth>wcale</orth>
    <lex disamb="1"><base>wcale</base><ctag>adv:pos</ctag></lex>
   </tok>
   <tok>
    <orth>nie</orth>
    <lex disamb="1"><base>nie</base><ctag>conj</ctag></lex>
   </tok>
   <tok>
    <orth>są</orth>
    <lex disamb="1"><base>być</base><ctag>fin:pl:ter:imperf</ctag></lex>
   </tok>
   <tok>
    <orth>to</orth>
    <lex disamb="1"><base>to</base><ctag>conj</ctag></lex>
   </tok>
   <tok>
    <orth>ręczniki</orth>
    <lex disamb="1"><base>ręcznik</base><ctag>subst:pl:nom:m3</ctag></lex>
   </tok>
   <tok>
    <orth>:</orth>
    <lex disamb="1"><base>:</base><ctag>interp</ctag></lex>
   </tok>
   <ns/>
   <tok>
    <orth>)</orth>
    <lex disamb="1"><base>)</base><ctag>interp</ctag></lex>
   </tok>
  </sentence>
 </chunk>
</chunkList>