<?xml version="1.0" encoding="UTF-8"?>
<!DOCTYPE chunkList SYSTEM "ccl.dtd">
<chunkList>
 <chunk type="p" id="ch1">
  <sentence id="s1">
   <tok>
    <orth>Nadawca</orth>
    <lex disamb="1"><base>nadawca</base><ctag>subst:sg:nom:m1</ctag></lex>
    <ann chan="nam">0</ann>
    <ann chan="nam_org_organization">0</ann>
    <ann chan="nam_adj_country">0</ann>
    <ann chan="nam_org_institution">0</ann>
    <ann chan="nam_loc_gpe_city">0</ann>
    <ann chan="nam_org">0</ann>
    <ann chan="nam_adj">0</ann>
    <ann chan="nam_loc">0</ann>
   </tok>
   <tok>
    <orth>telewizyjny</orth>
    <lex disamb="1"><base>telewizyjny</base><ctag>adj:sg:nom:m1:pos</ctag></lex>
    <ann chan="nam">0</ann>
    <ann chan="nam_org_organization">0</ann>
    <ann chan="nam_adj_country">0</ann>
    <ann chan="nam_org_institution">0</ann>
    <ann chan="nam_loc_gpe_city">0</ann>
    <ann chan="nam_org">0</ann>
    <ann chan="nam_adj">0</ann>
    <ann chan="nam_loc">0</ann>
   </tok>
   <tok>
    <orth>HBO</orth>
    <lex disamb="1"><base>HBO</base><ctag>subst:sg:nom:n</ctag></lex>
    <ann chan="nam">1</ann>
    <ann chan="nam_org_organization">1</ann>
    <ann chan="nam_adj_country">0</ann>
    <ann chan="nam_org_institution">0</ann>
    <ann chan="nam_loc_gpe_city">0</ann>
    <ann chan="nam_org">1</ann>
    <ann chan="nam_adj">0</ann>
    <ann chan="nam_loc">0</ann>
   </tok>
   <tok>
    <orth>Europe</orth>
    <lex disamb="1"><base>Europe</base><ctag>ign</ctag></lex>
    <ann chan="nam">1</ann>
    <ann chan="nam_org_organization">1</ann>
    <ann chan="nam_adj_country">0</ann>
    <ann chan="nam_org_institution">0</ann>
    <ann chan="nam_loc_gpe_city">0</ann>
    <ann chan="nam_org">1</ann>
    <ann chan="nam_adj">0</ann>
    <ann chan="nam_loc">0</ann>
   </tok>
   <ns/>
   <tok>
    <orth>,</orth>
    <lex disamb="1"><base>,</base><ctag>interp</ctag></lex>
    <ann chan="nam">0</ann>
    <ann chan="nam_org_organization">0</ann>
    <ann chan="nam_adj_country">0</ann>
    <ann chan="nam_org_institution">0</ann>
    <ann chan="nam_loc_gpe_city">0</ann>
    <ann chan="nam_org">0</ann>
    <ann chan="nam_adj">0</ann>
    <ann chan="nam_loc">0</ann>
   </tok>
   <tok>
    <orth>do</orth>
    <lex disamb="1"><base>do</base><ctag>prep:gen</ctag></lex>
    <ann chan="nam">0</ann>
    <ann chan="nam_org_organization">0</ann>
    <ann chan="nam_adj_country">0</ann>
    <ann chan="nam_org_institution">0</ann>
    <ann chan="nam_loc_gpe_city">0</ann>
    <ann chan="nam_org">0</ann>
    <ann chan="nam_adj">0</ann>
    <ann chan="nam_loc">0</ann>
   </tok>
   <tok>
    <orth>którego</orth>
    <lex disamb="1"><base>który</base><ctag>adj:sg:gen:m1:pos</ctag></lex>
    <ann chan="nam">0</ann>
    <ann chan="nam_org_organization">0</ann>
    <ann chan="nam_adj_country">0</ann>
    <ann chan="nam_org_institution">0</ann>
    <ann chan="nam_loc_gpe_city">0</ann>
    <ann chan="nam_org">0</ann>
    <ann chan="nam_adj">0</ann>
    <ann chan="nam_loc">0</ann>
   </tok>
   <tok>
    <orth>należy</orth>
    <lex disamb="1"><base>należeć</base><ctag>fin:sg:ter:imperf</ctag></lex>
    <ann chan="nam">0</ann>
    <ann chan="nam_org_organization">0</ann>
    <ann chan="nam_adj_country">0</ann>
    <ann chan="nam_org_institution">0</ann>
    <ann chan="nam_loc_gpe_city">0</ann>
    <ann chan="nam_org">0</ann>
    <ann chan="nam_adj">0</ann>
    <ann chan="nam_loc">0</ann>
   </tok>
   <tok>
    <orth>polski</orth>
    <lex disamb="1"><base>polski</base><ctag>subst:sg:nom:m3</ctag></lex>
    <ann chan="nam">0</ann>
    <ann chan="nam_org_organization">0</ann>
    <ann chan="nam_adj_country">1</ann>
    <ann chan="nam_org_institution">0</ann>
    <ann chan="nam_loc_gpe_city">0</ann>
    <ann chan="nam_org">0</ann>
    <ann chan="nam_adj">1</ann>
    <ann chan="nam_loc">0</ann>
   </tok>
   <tok>
    <orth>oddział</orth>
    <lex disamb="1"><base>oddział</base><ctag>subst:sg:nom:m3</ctag></lex>
    <ann chan="nam">0</ann>
    <ann chan="nam_org_organization">0</ann>
    <ann chan="nam_adj_country">0</ann>
    <ann chan="nam_org_institution">0</ann>
    <ann chan="nam_loc_gpe_city">0</ann>
    <ann chan="nam_org">0</ann>
    <ann chan="nam_adj">0</ann>
    <ann chan="nam_loc">0</ann>
   </tok>
   <tok>
    <orth>HBO</orth>
    <lex disamb="1"><base>HBO</base><ctag>subst:sg:nom:n</ctag></lex>
    <ann chan="nam">2</ann>
    <ann chan="nam_org_organization">2</ann>
    <ann chan="nam_adj_country">0</ann>
    <ann chan="nam_org_institution">0</ann>
    <ann chan="nam_loc_gpe_city">0</ann>
    <ann chan="nam_org">2</ann>
    <ann chan="nam_adj">0</ann>
    <ann chan="nam_loc">0</ann>
   </tok>
   <ns/>
   <tok>
    <orth>,</orth>
    <lex disamb="1"><base>,</base><ctag>interp</ctag></lex>
    <ann chan="nam">0</ann>
    <ann chan="nam_org_organization">0</ann>
    <ann chan="nam_adj_country">0</ann>
    <ann chan="nam_org_institution">0</ann>
    <ann chan="nam_loc_gpe_city">0</ann>
    <ann chan="nam_org">0</ann>
    <ann chan="nam_adj">0</ann>
    <ann chan="nam_loc">0</ann>
   </tok>
   <tok>
    <orth>zdecydował</orth>
    <lex disamb="1"><base>zdecydować</base><ctag>praet:sg:m1:perf</ctag></lex>
    <ann chan="nam">0</ann>
    <ann chan="nam_org_organization">0</ann>
    <ann chan="nam_adj_country">0</ann>
    <ann chan="nam_org_institution">0</ann>
    <ann chan="nam_loc_gpe_city">0</ann>
    <ann chan="nam_org">0</ann>
    <ann chan="nam_adj">0</ann>
    <ann chan="nam_loc">0</ann>
   </tok>
   <tok>
    <orth>o</orth>
    <lex disamb="1"><base>o</base><ctag>prep:acc</ctag></lex>
    <ann chan="nam">0</ann>
    <ann chan="nam_org_organization">0</ann>
    <ann chan="nam_adj_country">0</ann>
    <ann chan="nam_org_institution">0</ann>
    <ann chan="nam_loc_gpe_city">0</ann>
    <ann chan="nam_org">0</ann>
    <ann chan="nam_adj">0</ann>
    <ann chan="nam_loc">0</ann>
   </tok>
   <tok>
    <orth>kontynuacji</orth>
    <lex disamb="1"><base>kontynuacja</base><ctag>subst:sg:gen:f</ctag></lex>
    <ann chan="nam">0</ann>
    <ann chan="nam_org_organization">0</ann>
    <ann chan="nam_adj_country">0</ann>
    <ann chan="nam_org_institution">0</ann>
    <ann chan="nam_loc_gpe_city">0</ann>
    <ann chan="nam_org">0</ann>
    <ann chan="nam_adj">0</ann>
    <ann chan="nam_loc">0</ann>
   </tok>
   <tok>
    <orth>serialowej</orth>
    <lex disamb="1"><base>serialowy</base><ctag>adj:sg:gen:f:pos</ctag></lex>
    <ann chan="nam">0</ann>
    <ann chan="nam_org_organization">0</ann>
    <ann chan="nam_adj_country">0</ann>
    <ann chan="nam_org_institution">0</ann>
    <ann chan="nam_loc_gpe_city">0</ann>
    <ann chan="nam_org">0</ann>
    <ann chan="nam_adj">0</ann>
    <ann chan="nam_loc">0</ann>
   </tok>
   <tok>
    <orth>opowieści</orth>
    <lex disamb="1"><base>opowieść</base><ctag>subst:sg:gen:f</ctag></lex>
    <ann chan="nam">0</ann>
    <ann chan="nam_org_organization">0</ann>
    <ann chan="nam_adj_country">0</ann>
    <ann chan="nam_org_institution">0</ann>
    <ann chan="nam_loc_gpe_city">0</ann>
    <ann chan="nam_org">0</ann>
    <ann chan="nam_adj">0</ann>
    <ann chan="nam_loc">0</ann>
   </tok>
   <tok>
    <orth>o</orth>
    <lex disamb="1"><base>o</base><ctag>prep:acc</ctag></lex>
    <ann chan="nam">0</ann>
    <ann chan="nam_org_organization">0</ann>
    <ann chan="nam_adj_country">0</ann>
    <ann chan="nam_org_institution">0</ann>
    <ann chan="nam_loc_gpe_city">0</ann>
    <ann chan="nam_org">0</ann>
    <ann chan="nam_adj">0</ann>
    <ann chan="nam_loc">0</ann>
   </tok>
   <tok>
    <orth>Straży</orth>
    <lex disamb="1"><base>straż</base><ctag>subst:sg:gen:f</ctag></lex>
    <lex disamb="1"><base>straża</base><ctag>subst:sg:gen:f</ctag></lex>
    <ann chan="nam">3</ann>
    <ann chan="nam_org_organization">0</ann>
    <ann chan="nam_adj_country">0</ann>
    <ann chan="nam_org_institution">1</ann>
    <ann chan="nam_loc_gpe_city">0</ann>
    <ann chan="nam_org">3</ann>
    <ann chan="nam_adj">0</ann>
    <ann chan="nam_loc">0</ann>
   </tok>
   <tok>
    <orth>Granicznej</orth>
    <lex disamb="1"><base>graniczny</base><ctag>adj:sg:gen:f:pos</ctag></lex>
    <ann chan="nam">3</ann>
    <ann chan="nam_org_organization">0</ann>
    <ann chan="nam_adj_country">0</ann>
    <ann chan="nam_org_institution">1</ann>
    <ann chan="nam_loc_gpe_city">0</ann>
    <ann chan="nam_org">3</ann>
    <ann chan="nam_adj">0</ann>
    <ann chan="nam_loc">0</ann>
   </tok>
   <tok>
    <orth>w</orth>
    <lex disamb="1"><base>w</base><ctag>prep:acc:nwok</ctag></lex>
    <ann chan="nam">0</ann>
    <ann chan="nam_org_organization">0</ann>
    <ann chan="nam_adj_country">0</ann>
    <ann chan="nam_org_institution">0</ann>
    <ann chan="nam_loc_gpe_city">0</ann>
    <ann chan="nam_org">0</ann>
    <ann chan="nam_adj">0</ann>
    <ann chan="nam_loc">0</ann>
   </tok>
   <tok>
    <orth>Bieszczadach</orth>
    <lex disamb="1"><base>Bieszczady</base><ctag>subst:pl:loc:n</ctag></lex>
    <ann chan="nam">4</ann>
    <ann chan="nam_org_organization">0</ann>
    <ann chan="nam_adj_country">0</ann>
    <ann chan="nam_org_institution">0</ann>
    <ann chan="nam_loc_gpe_city">1</ann>
    <ann chan="nam_org">0</ann>
    <ann chan="nam_adj">0</ann>
    <ann chan="nam_loc">1</ann>
   </tok>
   <ns/>
   <tok>
    <orth>.</orth>
    <lex disamb="1"><base>.</base><ctag>interp</ctag></lex>
    <ann chan="nam">0</ann>
    <ann chan="nam_org_organization">0</ann>
    <ann chan="nam_adj_country">0</ann>
    <ann chan="nam_org_institution">0</ann>
    <ann chan="nam_loc_gpe_city">0</ann>
    <ann chan="nam_org">0</ann>
    <ann chan="nam_adj">0</ann>
    <ann chan="nam_loc">0</ann>
   </tok>
  </sentence>
 </chunk>
 <chunk type="p" id="ch2">
  <sentence id="s2">
   <tok>
    <orth>„</orth>
    <lex disamb="1"><base>„</base><ctag>interp</ctag></lex>
    <ann chan="nam">0</ann>
    <ann chan="nam_org_company">0</ann>
    <ann chan="nam_pro_media_web">0</ann>
    <ann chan="nam_org_organization">0</ann>
    <ann chan="nam_pro">0</ann>
    <ann chan="nam_org">0</ann>
   </tok>
   <ns/>
   <tok>
    <orth>Wataha</orth>
    <lex disamb="1"><base>wataha</base><ctag>subst:sg:nom:f</ctag></lex>
    <ann chan="nam">1</ann>
    <ann chan="nam_org_company">0</ann>
    <ann chan="nam_pro_media_web">0</ann>
    <ann chan="nam_org_organization">0</ann>
    <ann chan="nam_pro">1</ann>
    <ann chan="nam_org">0</ann>
   </tok>
   <tok>
    <orth>3</orth>
    <lex disamb="1"><base>3</base><ctag>num:pl:nom:m1:rec</ctag></lex>
    <ann chan="nam">1</ann>
    <ann chan="nam_org_company">0</ann>
    <ann chan="nam_pro_media_web">0</ann>
    <ann chan="nam_org_organization">0</ann>
    <ann chan="nam_pro">1</ann>
    <ann chan="nam_org">0</ann>
   </tok>
   <ns/>
   <tok>
    <orth>”</orth>
    <lex disamb="1"><base>”</base><ctag>interp</ctag></lex>
    <ann chan="nam">0</ann>
    <ann chan="nam_org_company">0</ann>
    <ann chan="nam_pro_media_web">0</ann>
    <ann chan="nam_org_organization">0</ann>
    <ann chan="nam_pro">0</ann>
    <ann chan="nam_org">0</ann>
   </tok>
   <tok>
    <orth>będzie</orth>
    <lex disamb="1"><base>być</base><ctag>bedzie:sg:ter:imperf</ctag></lex>
    <ann chan="nam">0</ann>
    <ann chan="nam_org_company">0</ann>
    <ann chan="nam_pro_media_web">0</ann>
    <ann chan="nam_org_organization">0</ann>
    <ann chan="nam_pro">0</ann>
    <ann chan="nam_org">0</ann>
   </tok>
   <tok>
    <orth>kolejną</orth>
    <lex disamb="1"><base>kolejny</base><ctag>adj:sg:acc:f:pos</ctag></lex>
    <ann chan="nam">0</ann>
    <ann chan="nam_org_company">0</ann>
    <ann chan="nam_pro_media_web">0</ann>
    <ann chan="nam_org_organization">0</ann>
    <ann chan="nam_pro">0</ann>
    <ann chan="nam_org">0</ann>
   </tok>
   <tok>
    <orth>lokalną</orth>
    <lex disamb="1"><base>lokalny</base><ctag>adj:sg:acc:f:pos</ctag></lex>
    <ann chan="nam">0</ann>
    <ann chan="nam_org_company">0</ann>
    <ann chan="nam_pro_media_web">0</ann>
    <ann chan="nam_org_organization">0</ann>
    <ann chan="nam_pro">0</ann>
    <ann chan="nam_org">0</ann>
   </tok>
   <tok>
    <orth>produkcją</orth>
    <lex disamb="1"><base>produkcja</base><ctag>subst:sg:inst:f</ctag></lex>
    <ann chan="nam">0</ann>
    <ann chan="nam_org_company">0</ann>
    <ann chan="nam_pro_media_web">0</ann>
    <ann chan="nam_org_organization">0</ann>
    <ann chan="nam_pro">0</ann>
    <ann chan="nam_org">0</ann>
   </tok>
   <tok>
    <orth>HBO</orth>
    <lex disamb="1"><base>HBO</base><ctag>subst:sg:nom:n</ctag></lex>
    <ann chan="nam">2</ann>
    <ann chan="nam_org_company">1</ann>
    <ann chan="nam_pro_media_web">0</ann>
    <ann chan="nam_org_organization" head="1">1</ann>
    <ann chan="nam_pro">0</ann>
    <ann chan="nam_org">1</ann>
   </tok>
   <tok>
    <orth>Polska</orth>
    <lex disamb="1"><base>Polska</base><ctag>subst:sg:nom:f</ctag></lex>
    <ann chan="nam">2</ann>
    <ann chan="nam_org_company">1</ann>
    <ann chan="nam_pro_media_web">0</ann>
    <ann chan="nam_org_organization">0</ann>
    <ann chan="nam_pro">0</ann>
    <ann chan="nam_org">1</ann>
   </tok>
   <tok>
    <orth>-</orth>
    <lex disamb="1"><base>-</base><ctag>interp</ctag></lex>
    <ann chan="nam">0</ann>
    <ann chan="nam_org_company">0</ann>
    <ann chan="nam_pro_media_web">0</ann>
    <ann chan="nam_org_organization">0</ann>
    <ann chan="nam_pro">0</ann>
    <ann chan="nam_org">0</ann>
   </tok>
   <tok>
    <orth>nieoficjalnie</orth>
    <lex disamb="1"><base>nieoficjalnie</base><ctag>adv:pos</ctag></lex>
    <ann chan="nam">0</ann>
    <ann chan="nam_org_company">0</ann>
    <ann chan="nam_pro_media_web">0</ann>
    <ann chan="nam_org_organization">0</ann>
    <ann chan="nam_pro">0</ann>
    <ann chan="nam_org">0</ann>
   </tok>
   <tok>
    <orth>ustalił</orth>
    <lex disamb="1"><base>ustalić</base><ctag>praet:sg:m1:perf</ctag></lex>
    <ann chan="nam">0</ann>
    <ann chan="nam_org_company">0</ann>
    <ann chan="nam_pro_media_web">0</ann>
    <ann chan="nam_org_organization">0</ann>
    <ann chan="nam_pro">0</ann>
    <ann chan="nam_org">0</ann>
   </tok>
   <tok>
    <orth>portal</orth>
    <lex disamb="1"><base>portal</base><ctag>subst:sg:nom:m3</ctag></lex>
    <ann chan="nam">0</ann>
    <ann chan="nam_org_company">0</ann>
    <ann chan="nam_pro_media_web">0</ann>
    <ann chan="nam_org_organization">0</ann>
    <ann chan="nam_pro">0</ann>
    <ann chan="nam_org">0</ann>
   </tok>
   <tok>
    <orth>Wirtualnemedia.pl</orth>
    <lex disamb="1"><base>Wirtualnemedia.pl</base><ctag>subst:sg:nom:m3</ctag></lex>
    <ann chan="nam">3</ann>
    <ann chan="nam_org_company">0</ann>
    <ann chan="nam_pro_media_web">1</ann>
    <ann chan="nam_org_organization">0</ann>
    <ann chan="nam_pro">2</ann>
    <ann chan="nam_org">0</ann>
   </tok>
   <ns/>
   <tok>
    <orth>.</orth>
    <lex disamb="1"><base>.</base><ctag>interp</ctag></lex>
    <ann chan="nam">0</ann>
    <ann chan="nam_org_company">0</ann>
    <ann chan="nam_pro_media_web">0</ann>
    <ann chan="nam_org_organization">0</ann>
    <ann chan="nam_pro">0</ann>
    <ann chan="nam_org">0</ann>
   </tok>
  </sentence>
 </chunk>
</chunkList>