<?xml version="1.0" encoding="UTF-8"?>
<!DOCTYPE chunkList SYSTEM "ccl.dtd">
<chunkList>
 <chunk type="p" id="ch1">
  <sentence id="s1">
   <tok>
    <orth>Dynamiczny</orth>
    <lex disamb="1"><base>dynamiczny</base><ctag>adj:sg:nom:m1:pos</ctag></lex>
    <ann chan="nam">0</ann>
    <ann chan="nam_loc_gpe_city">0</ann>
    <ann chan="nam_loc">0</ann>
   </tok>
   <tok>
    <orth>rozwój</orth>
    <lex disamb="1"><base>rozwój</base><ctag>subst:sg:nom:m3</ctag></lex>
    <ann chan="nam">0</ann>
    <ann chan="nam_loc_gpe_city">0</ann>
    <ann chan="nam_loc">0</ann>
   </tok>
   <tok>
    <orth>Łodzi</orth>
    <lex disamb="1"><base>Łódź</base><ctag>subst:sg:gen:f</ctag></lex>
    <lex disamb="1"><base>łódź</base><ctag>subst:sg:gen:f</ctag></lex>
    <ann chan="nam">1</ann>
    <ann chan="nam_loc_gpe_city">1</ann>
    <ann chan="nam_loc">1</ann>
   </tok>
   <tok>
    <orth>nie</orth>
    <lex disamb="1"><base>nie</base><ctag>conj</ctag></lex>
    <ann chan="nam">0</ann>
    <ann chan="nam_loc_gpe_city">0</ann>
    <ann chan="nam_loc">0</ann>
   </tok>
   <tok>
    <orth>szedł</orth>
    <lex disamb="1"><base>iść</base><ctag>praet:sg:m1:imperf</ctag></lex>
    <ann chan="nam">0</ann>
    <ann chan="nam_loc_gpe_city">0</ann>
    <ann chan="nam_loc">0</ann>
   </tok>
   <tok>
    <orth>w</orth>
    <lex disamb="1"><base>w</base><ctag>prep:acc:nwok</ctag></lex>
    <ann chan="nam">0</ann>
    <ann chan="nam_loc_gpe_city">0</ann>
    <ann chan="nam_loc">0</ann>
   </tok>
   <tok>
    <orth>parze</orth>
    <lex disamb="1"><base>par</base><ctag>subst:sg:loc:m1</ctag></lex>
    <ann chan="nam">0</ann>
    <ann chan="nam_loc_gpe_city">0</ann>
    <ann chan="nam_loc">0</ann>
   </tok>
   <tok>
    <orth>z</orth>
    <lex disamb="1"><base>z</base><ctag>prep:gen:nwok</ctag></lex>
    <ann chan="nam">0</ann>
    <ann chan="nam_loc_gpe_city">0</ann>
    <ann chan="nam_loc">0</ann>
   </tok>
   <tok>
    <orth>dbałością</orth>
    <lex disamb="1"><base>dbałość</base><ctag>subst:sg:inst:f</ctag></lex>
    <ann chan="nam">0</ann>
    <ann chan="nam_loc_gpe_city">0</ann>
    <ann chan="nam_loc">0</ann>
   </tok>
   <tok>
    <orth>o</orth>
    <lex disamb="1"><base>o</base><ctag>prep:acc</ctag></lex>
    <ann chan="nam">0</ann>
    <ann chan="nam_loc_gpe_city">0</ann>
    <ann chan="nam_loc">0</ann>
   </tok>
   <tok>
    <orth>jej</orth>
    <lex disamb="1"><base>on</base><ctag>ppron3:sg:gen:f:ter:akc:npraep</ctag></lex>
    <ann chan="nam">0</ann>
    <ann chan="nam_loc_gpe_city">0</ann>
    <ann chan="nam_loc">0</ann>
   </tok>
   <tok>
    <orth>strukturę</orth>
    <lex disamb="1"><base>struktura</base><ctag>subst:sg:acc:f</ctag></lex>
    <ann chan="nam">0</ann>
    <ann chan="nam_loc_gpe_city">0</ann>
    <ann chan="nam_loc">0</ann>
   </tok>
   <tok>
    <orth>przestrzenną</orth>
    <lex disamb="1"><base>przestrzenny</base><ctag>adj:sg:acc:f:pos</ctag></lex>
    <ann chan="nam">0</ann>
    <ann chan="nam_loc_gpe_city">0</ann>
    <ann chan="nam_loc">0</ann>
   </tok>
   <ns/>
   <tok>
    <orth>.</orth>
    <lex disamb="1"><base>.</base><ctag>interp</ctag></lex>
    <ann chan="nam">0</ann>
    <ann chan="nam_loc_gpe_city">0</ann>
    <ann chan="nam_loc">0</ann>
   </tok>
  </sentence>
 </chunk>
 <chunk type="p" id="ch2">
  <sentence id="s2">
   <tok>
    <orth>W</orth>
    <lex disamb="1"><base>w</base><ctag>prep:acc:nwok</ctag></lex>
    <ann chan="nam_adj">0</ann>
   </tok>
   <tok>
    <orth>jednym</orth>
    <lex disamb="1"><base>jeden</base><ctag>subst:sg:inst:m2</ctag></lex>
    <ann chan="nam_adj">0</ann>
   </tok>
   <tok>
    <orth>śródmiejskim</orth>
    <lex disamb="1"><base>śródmiejski</base><ctag>adj:sg:inst:m1:pos</ctag></lex>
    <ann chan="nam_adj">0</ann>
   </tok>
   <tok>
    <orth>kwartale</orth>
    <lex disamb="1"><base>kwartał</base><ctag>subst:sg:loc:m3</ctag></lex>
    <ann chan="nam_adj">0</ann>
   </tok>
   <tok>
    <orth>zmieściła</orth>
    <lex disamb="1"><base>zmieścić</base><ctag>praet:sg:f:perf</ctag></lex>
    <ann chan="nam_adj">0</ann>
   </tok>
   <ns/>
   <tok>
    <orth>by</orth>
    <lex disamb="1"><base>by</base><ctag>qub</ctag></lex>
    <ann chan="nam_adj">0</ann>
   </tok>
   <tok>
    <orth>się</orth>
    <lex disamb="1"><base>się</base><ctag>qub</ctag></lex>
    <ann chan="nam_adj">0</ann>
   </tok>
   <tok>
    <orth>cała</orth>
    <lex disamb="1"><base>cały</base><ctag>adj:sg:nom:f:pos</ctag></lex>
    <ann chan="nam_adj">0</ann>
   </tok>
   <tok>
    <orth>lubelska</orth>
    <lex disamb="1"><base>lubelski</base><ctag>adj:sg:nom:f:pos</ctag></lex>
    <ann chan="nam_adj">1</ann>
   </tok>
   <tok>
    <orth>starówka</orth>
    <lex disamb="1"><base>starówka</base><ctag>subst:sg:nom:f</ctag></lex>
    <ann chan="nam_adj">0</ann>
   </tok>
   <ns/>
   <tok>
    <orth>.</orth>
    <lex disamb="1"><base>.</base><ctag>interp</ctag></lex>
    <ann chan="nam_adj">0</ann>
   </tok>
  </sentence>
 </chunk>
 <chunk type="p" id="ch3">
  <sentence id="s3">
   <tok>
    <orth>Powstało</orth>
    <lex disamb="1"><base>powstać</base><ctag>praet:sg:n:perf</ctag></lex>
    <ann chan="nam">0</ann>
    <ann chan="nam_loc_gpe_country">0</ann>
    <ann chan="nam_loc">0</ann>
    <ann chan="t3_date">0</ann>
   </tok>
   <tok>
    <orth>miejsce</orth>
    <lex disamb="1"><base>miejsce</base><ctag>subst:sg:nom:n</ctag></lex>
    <ann chan="nam">0</ann>
    <ann chan="nam_loc_gpe_country">0</ann>
    <ann chan="nam_loc">0</ann>
    <ann chan="t3_date">0</ann>
   </tok>
   <tok>
    <orth>wyjątkowe</orth>
    <lex disamb="1"><base>wyjątkowy</base><ctag>adj:sg:nom:n:pos</ctag></lex>
    <ann chan="nam">0</ann>
    <ann chan="nam_loc_gpe_country">0</ann>
    <ann chan="nam_loc">0</ann>
    <ann chan="t3_date">0</ann>
   </tok>
   <ns/>
   <tok>
    <orth>:</orth>
    <lex disamb="1"><base>:</base><ctag>interp</ctag></lex>
    <ann chan="nam">0</ann>
    <ann chan="nam_loc_gpe_country">0</ann>
    <ann chan="nam_loc">0</ann>
    <ann chan="t3_date">0</ann>
   </tok>
   <tok>
    <orth>z</orth>
    <lex disamb="1"><base>z</base><ctag>prep:gen:nwok</ctag></lex>
    <ann chan="nam">0</ann>
    <ann chan="nam_loc_gpe_country">0</ann>
    <ann chan="nam_loc">0</ann>
    <ann chan="t3_date">0</ann>
   </tok>
   <tok>
    <orth>najlepiej</orth>
    <lex disamb="1"><base>dobrze</base><ctag>adv:pos</ctag></lex>
    <ann chan="nam">0</ann>
    <ann chan="nam_loc_gpe_country">0</ann>
    <ann chan="nam_loc">0</ann>
    <ann chan="t3_date">0</ann>
   </tok>
   <tok>
    <orth>w</orth>
    <lex disamb="1"><base>w</base><ctag>prep:acc:nwok</ctag></lex>
    <ann chan="nam">0</ann>
    <ann chan="nam_loc_gpe_country">0</ann>
    <ann chan="nam_loc">0</ann>
    <ann chan="t3_date">0</ann>
   </tok>
   <tok>
    <orth>Polsce</orth>
    <lex disamb="1"><base>Polska</base><ctag>subst:sg:dat:f</ctag></lex>
    <ann chan="nam">1</ann>
    <ann chan="nam_loc_gpe_country">1</ann>
    <ann chan="nam_loc">1</ann>
    <ann chan="t3_date">0</ann>
   </tok>
   <tok>
    <orth>zachowaną</orth>
    <lex disamb="1"><base>zachować</base><ctag>ppas:sg:acc:f:perf:aff</ctag></lex>
    <ann chan="nam">0</ann>
    <ann chan="nam_loc_gpe_country">0</ann>
    <ann chan="nam_loc">0</ann>
    <ann chan="t3_date">0</ann>
   </tok>
   <tok>
    <orth>tkanką</orth>
    <lex disamb="1"><base>tkanka</base><ctag>subst:sg:inst:f</ctag></lex>
    <ann chan="nam">0</ann>
    <ann chan="nam_loc_gpe_country">0</ann>
    <ann chan="nam_loc">0</ann>
    <ann chan="t3_date">0</ann>
   </tok>
   <tok>
    <orth>miejską</orth>
    <lex disamb="1"><base>miejski</base><ctag>adj:sg:acc:f:pos</ctag></lex>
    <ann chan="nam">0</ann>
    <ann chan="nam_loc_gpe_country">0</ann>
    <ann chan="nam_loc">0</ann>
    <ann chan="t3_date">0</ann>
   </tok>
   <tok>
    <orth>z</orth>
    <lex disamb="1"><base>z</base><ctag>prep:gen:nwok</ctag></lex>
    <ann chan="nam">0</ann>
    <ann chan="nam_loc_gpe_country">0</ann>
    <ann chan="nam_loc">0</ann>
    <ann chan="t3_date">0</ann>
   </tok>
   <tok>
    <orth>końca</orth>
    <lex disamb="1"><base>koniec</base><ctag>subst:sg:gen:m3</ctag></lex>
    <ann chan="nam">0</ann>
    <ann chan="nam_loc_gpe_country">0</ann>
    <ann chan="nam_loc">0</ann>
    <ann chan="t3_date">1</ann>
   </tok>
   <tok>
    <orth>XIX</orth>
    <lex disamb="1"><base>XIX</base><ctag>num:pl:nom:m1:rec</ctag></lex>
    <ann chan="nam">0</ann>
    <ann chan="nam_loc_gpe_country">0</ann>
    <ann chan="nam_loc">0</ann>
    <ann chan="t3_date">1</ann>
   </tok>
   <tok>
    <orth>w</orth>
    <lex disamb="1"><base>w</base><ctag>prep:acc:nwok</ctag></lex>
    <ann chan="nam">0</ann>
    <ann chan="nam_loc_gpe_country">0</ann>
    <ann chan="nam_loc">0</ann>
    <ann chan="t3_date">1</ann>
   </tok>
   <ns/>
   <tok>
    <orth>.</orth>
    <lex disamb="1"><base>.</base><ctag>interp</ctag></lex>
    <ann chan="nam">0</ann>
    <ann chan="nam_loc_gpe_country">0</ann>
    <ann chan="nam_loc">0</ann>
    <ann chan="t3_date">1</ann>
   </tok>
   <ns/>
   <tok>
    <orth>,</orth>
    <lex disamb="1"><base>,</base><ctag>interp</ctag></lex>
    <ann chan="nam">0</ann>
    <ann chan="nam_loc_gpe_country">0</ann>
    <ann chan="nam_loc">0</ann>
    <ann chan="t3_date">0</ann>
   </tok>
   <tok>
    <orth>która</orth>
    <lex disamb="1"><base>który</base><ctag>adj:sg:nom:f:pos</ctag></lex>
    <ann chan="nam">0</ann>
    <ann chan="nam_loc_gpe_country">0</ann>
    <ann chan="nam_loc">0</ann>
    <ann chan="t3_date">0</ann>
   </tok>
   <tok>
    <orth>często</orth>
    <lex disamb="1"><base>często</base><ctag>adv:pos</ctag></lex>
    <ann chan="nam">0</ann>
    <ann chan="nam_loc_gpe_country">0</ann>
    <ann chan="nam_loc">0</ann>
    <ann chan="t3_date">0</ann>
   </tok>
   <tok>
    <orth>utrudnia</orth>
    <lex disamb="1"><base>utrudniać</base><ctag>fin:sg:ter:imperf</ctag></lex>
    <ann chan="nam">0</ann>
    <ann chan="nam_loc_gpe_country">0</ann>
    <ann chan="nam_loc">0</ann>
    <ann chan="t3_date">0</ann>
   </tok>
   <tok>
    <orth>codzienne</orth>
    <lex disamb="1"><base>codzienny</base><ctag>adj:sg:nom:n:pos</ctag></lex>
    <ann chan="nam">0</ann>
    <ann chan="nam_loc_gpe_country">0</ann>
    <ann chan="nam_loc">0</ann>
    <ann chan="t3_date">0</ann>
   </tok>
   <tok>
    <orth>funkcjonowanie</orth>
    <lex disamb="1"><base>funkcjonowanie</base><ctag>subst:sg:nom:n</ctag></lex>
    <ann chan="nam">0</ann>
    <ann chan="nam_loc_gpe_country">0</ann>
    <ann chan="nam_loc">0</ann>
    <ann chan="t3_date">0</ann>
   </tok>
   <tok>
    <orth>miasta</orth>
    <lex disamb="1"><base>miasto</base><ctag>subst:sg:gen:n</ctag></lex>
    <ann chan="nam">0</ann>
    <ann chan="nam_loc_gpe_country">0</ann>
    <ann chan="nam_loc">0</ann>
    <ann chan="t3_date">0</ann>
   </tok>
   <ns/>
   <tok>
    <orth>.</orth>
    <lex disamb="1"><base>.</base><ctag>interp</ctag></lex>
    <ann chan="nam">0</ann>
    <ann chan="nam_loc_gpe_country">0</ann>
    <ann chan="nam_loc">0</ann>
    <ann chan="t3_date">0</ann>
   </tok>
  </sentence>
 </chunk>
</chunkList>