<?xml version="1.0" encoding="UTF-8"?>
<!DOCTYPE chunkList SYSTEM "ccl.dtd">
<chunkList>
 <chunk type="p" id="ch1">
  <sentence id="s1">
   <tok>
    <orth>W</orth>
    <lex disamb="1"><base>w</base><ctag>prep:acc:nwok</ctag></lex>
   </tok>
   <tok>
    <orth>mediach</orth>
    <lex disamb="1"><base>media</base><ctag>subst:pl:loc:n</ctag></lex>
    <lex disamb="1"><base>medium</base><ctag>subst:pl:loc:n</ctag></lex>
   </tok>
   <tok>
    <orth>społecznościowych</orth>
    <lex disamb="1"><base>społecznościowy</base><ctag>adj:pl:gen:m1:pos</ctag></lex>
   </tok>
   <tok>
    <orth>zamieszczała</orth>
    <lex disamb="1"><base>zamieszczać</base><ctag>praet:sg:f:imperf</ctag></lex>
   </tok>
   <tok>
    <orth>apele</orth>
    <lex disamb="1"><base>apel</base><ctag>subst:pl:nom:m3</ctag></lex>
   </tok>
   <tok>
    <orth>do</orth>
    <lex disamb="1"><base>do</base><ctag>prep:gen</ctag></lex>
   </tok>
   <tok>
    <orth>policji</orth>
    <lex disamb="1"><base>policja</base><ctag>subst:sg:gen:f</ctag></lex>
   </tok>
   <tok>
    <orth>o</orth>
    <lex disamb="1"><base>o</base><ctag>prep:acc</ctag></lex>
   </tok>
   <tok>
    <orth>zaprzestanie</orth>
    <lex disamb="1"><base>zaprzestanie</base><ctag>subst:sg:nom:n</ctag></lex>
   </tok>
   <tok>
    <orth>strzelania</orth>
    <lex disamb="1"><base>strzelanie</base><ctag>subst:sg:gen:n</ctag></lex>
   </tok>
   <tok>
    <orth>do</orth>
    <lex disamb="1"><base>do</base><ctag>prep:gen</ctag></lex>
   </tok>
   <tok>
    <orth>czarnych</orth>
    <lex disamb="1"><base>czarna</base><ctag>subst:pl:gen:f</ctag></lex>
   </tok>
   <ns/>
   <tok>
    <orth>.</orth>
    <lex disamb="1"><base>.</base><ctag>interp</ctag></lex>
   </tok>
  </sentence>
 </chunk>
 <chunk type="p" id="ch2">
  <sentence id="s2">
   <tok>
    <orth>Kilka</orth>
    <lex disamb="1"><base>kilka</base><ctag>subst:sg:nom:f</ctag></lex>
    <ann chan="timex">1</ann>
    <ann chan="t3_duration">1</ann>
   </tok>
   <tok>
    <orth>tygodni</orth>
    <lex disamb="1"><base>tydzień</base><ctag>subst:pl:gen:m3</ctag></lex>
    <ann chan="timex">1</ann>
    <ann chan="t3_duration">1</ann>
   </tok>
   <tok>
    <orth>później</orth>
    <lex disamb="1"><base>późno</base><ctag>adv:pos</ctag></lex>
    <ann chan="timex">0</ann>
    <ann chan="t3_duration">0</ann>
   </tok>
   <tok>
    <orth>została</orth>
    <lex disamb="1"><base>zostać</base><ctag>praet:sg:f:perf</ctag></lex>
    <ann chan="timex">0</ann>
    <ann chan="t3_duration">0</ann>
   </tok>
   <tok>
    <orth>zadźgana</orth>
    <lex disamb="1"><base>zadźgać</base><ctag>ppas:sg:nom:f:perf:aff</ctag></lex>
    <ann chan="timex">0</ann>
    <ann chan="t3_duration">0</ann>
   </tok>
   <tok>
    <orth>nożem</orth>
    <lex disamb="1"><base>nóż</base><ctag>subst:sg:inst:m3</ctag></lex>
    <ann chan="timex">0</ann>
    <ann chan="t3_duration">0</ann>
   </tok>
   <tok>
    <orth>przez</orth>
    <lex disamb="1"><base>przez</base><ctag>prep:acc:nwok</ctag></lex>
    <ann chan="timex">0</ann>
    <ann chan="t3_duration">0</ann>
   </tok>
   <tok>
    <orth>czarnego</orth>
    <lex disamb="1"><base>czarny</base><ctag>subst:sg:gen:m1</ctag></lex>
    <ann chan="timex">0</ann>
    <ann chan="t3_duration">0</ann>
   </tok>
   <tok>
    <orth>oprawcę</orth>
    <lex disamb="1"><base>oprawca</base><ctag>subst:sg:acc:m1</ctag></lex>
    <ann chan="timex">0</ann>
    <ann chan="t3_duration">0</ann>
   </tok>
   <ns/>
   <tok>
    <orth>,</orth>
    <lex disamb="1"><base>,</base><ctag>interp</ctag></lex>
    <ann chan="timex">0</ann>
    <ann chan="t3_duration">0</ann>
   </tok>
   <tok>
    <orth>który</orth>
    <lex disamb="1"><base>który</base><ctag>adj:sg:nom:m1:pos</ctag></lex>
    <ann chan="timex">0</ann>
    <ann chan="t3_duration">0</ann>
   </tok>
   <tok>
    <orth>następnie</orth>
    <lex disamb="1"><base>następnie</base><ctag>adv:pos</ctag></lex>
    <ann chan="timex">0</ann>
    <ann chan="t3_duration">0</ann>
   </tok>
   <tok>
    <orth>podpalił</orth>
    <lex disamb="1"><base>podpalić</base><ctag>praet:sg:m1:perf</ctag></lex>
    <ann chan="timex">0</ann>
    <ann chan="t3_duration">0</ann>
   </tok>
   <tok>
    <orth>dom</orth>
    <lex disamb="1"><base>dom</base><ctag>subst:sg:nom:m3</ctag></lex>
    <ann chan="timex">0</ann>
    <ann chan="t3_duration">0</ann>
   </tok>
   <tok>
    <orth>kobiety</orth>
    <lex disamb="1"><base>kobieta</base><ctag>subst:sg:gen:f</ctag></lex>
    <ann chan="timex">0</ann>
    <ann chan="t3_duration">0</ann>
   </tok>
   <ns/>
   <tok>
    <orth>,</orth>
    <lex disamb="1"><base>,</base><ctag>interp</ctag></lex>
    <ann chan="timex">0</ann>
    <ann chan="t3_duration">0</ann>
   </tok>
   <tok>
    <orth>zabijając</orth>
    <lex disamb="1"><base>zabijać</base><ctag>pcon:imperf</ctag></lex>
    <ann chan="timex">0</ann>
    <ann chan="t3_duration">0</ann>
   </tok>
   <tok>
    <orth>jej</orth>
    <lex disamb="1"><base>on</base><ctag>ppron3:sg:gen:f:ter:akc:npraep</ctag></lex>
    <ann chan="timex">0</ann>
    <ann chan="t3_duration">0</ann>
   </tok>
   <tok>
    <orth>8</orth>
    <lex disamb="1"><base>8</base><ctag>num:pl:nom:m1:rec</ctag></lex>
    <ann chan="timex">2</ann>
    <ann chan="t3_duration">2</ann>
   </tok>
   <ns/>
   <tok>
    <orth>-</orth>
    <lex disamb="1"><base>-</base><ctag>interp</ctag></lex>
    <ann chan="timex">2</ann>
    <ann chan="t3_duration">2</ann>
   </tok>
   <ns/>
   <tok>
    <orth>letnią</orth>
    <lex disamb="1"><base>letni</base><ctag>adj:sg:acc:f:pos</ctag></lex>
    <ann chan="timex">2</ann>
    <ann chan="t3_duration">2</ann>
   </tok>
   <tok>
    <orth>córkę</orth>
    <lex disamb="1"><base>córka</base><ctag>subst:sg:acc:f</ctag></lex>
    <ann chan="timex">0</ann>
    <ann chan="t3_duration">0</ann>
   </tok>
   <ns/>
   <tok>
    <orth>.</orth>
    <lex disamb="1"><base>.</base><ctag>interp</ctag></lex>
    <ann chan="timex">0</ann>
    <ann chan="t3_duration">0</ann>
   </tok>
  </sentence>
 </chunk>
</chunkList>