<?xml version="1.0" encoding="UTF-8"?>
<!DOCTYPE chunkList SYSTEM "ccl.dtd">
<chunkList>
 <chunk type="p" id="ch1">
  <sentence id="s1">
   <tok>
    <orth>Babcia</orth>
    <lex disamb="1"><base>babcia</base><ctag>subst:sg:nom:f</ctag></lex>
    <ann chan="timex">0</ann>
    <ann chan="t3_duration">0</ann>
   </tok>
   <tok>
    <orth>i</orth>
    <lex disamb="1"><base>i</base><ctag>conj</ctag></lex>
    <ann chan="timex">0</ann>
    <ann chan="t3_duration">0</ann>
   </tok>
   <tok>
    <orth>jej</orth>
    <lex disamb="1"><base>on</base><ctag>ppron3:sg:gen:f:ter:akc:npraep</ctag></lex>
    <ann chan="timex">0</ann>
    <ann chan="t3_duration">0</ann>
   </tok>
   <tok>
    <orth>14</orth>
    <lex disamb="1"><base>14</base><ctag>num:pl:nom:m1:rec</ctag></lex>
    <ann chan="timex">1</ann>
    <ann chan="t3_duration">1</ann>
   </tok>
   <ns/>
   <tok>
    <orth>-</orth>
    <lex disamb="1"><base>-</base><ctag>interp</ctag></lex>
    <ann chan="timex">1</ann>
    <ann chan="t3_duration">1</ann>
   </tok>
   <ns/>
   <tok>
    <orth>letni</orth>
    <lex disamb="1"><base>letni</base><ctag>adj:sg:nom:m1:pos</ctag></lex>
    <ann chan="timex">1</ann>
    <ann chan="t3_duration">1</ann>
   </tok>
   <tok>
    <orth>wnuczek</orth>
    <lex disamb="1"><base>wnuczek</base><ctag>subst:sg:nom:m1</ctag></lex>
    <ann chan="timex">0</ann>
    <ann chan="t3_duration">0</ann>
   </tok>
   <tok>
    <orth>na</orth>
    <lex disamb="1"><base>na</base><ctag>prep:acc</ctag></lex>
    <ann chan="timex">0</ann>
    <ann chan="t3_duration">0</ann>
   </tok>
   <tok>
    <orth>pewno</orth>
    <lex disamb="1"><base>pewno</base><ctag>adv:pos</ctag></lex>
    <ann chan="timex">0</ann>
    <ann chan="t3_duration">0</ann>
   </tok>
   <tok>
    <orth>się</orth>
    <lex disamb="1"><base>się</base><ctag>qub</ctag></lex>
    <ann chan="timex">0</ann>
    <ann chan="t3_duration">0</ann>
   </tok>
   <tok>
    <orth>tego</orth>
    <lex disamb="1"><base>to</base><ctag>subst:sg:gen:n</ctag></lex>
    <ann chan="timex">0</ann>
    <ann chan="t3_duration">0</ann>
   </tok>
   <tok>
    <orth>nie</orth>
    <lex disamb="1"><base>nie</base><ctag>conj</ctag></lex>
    <ann chan="timex">0</ann>
    <ann chan="t3_duration">0</ann>
   </tok>
   <tok>
    <orth>spodziewali</orth>
    <lex disamb="1"><base>spodziewać</base><ctag>praet:pl:m1:imperf</ctag></lex>
    <ann chan="timex">0</ann>
    <ann chan="t3_duration">0</ann>
   </tok>
   <ns/>
   <tok>
    <orth>.</orth>
    <lex disamb="1"><base>.</base><ctag>interp</ctag></lex>
    <ann chan="timex">0</ann>
    <ann chan="t3_duration">0</ann>
   </tok>
  </sentence>
 </chunk>
 <chunk type="p" id="ch2">
  <sentence id="s2">
   <tok>
    <orth>Antyterroryści</orth>
    <lex disamb="1"><base>antyterrorysta</base><ctag>subst:pl:nom:m1</ctag></lex>
    <ann chan="nam">0</ann>
    <ann chan="nam_loc_gpe_city">0</ann>
    <ann chan="nam_loc">0</ann>
   </tok>
   <tok>
    <orth>z</orth>
    <lex disamb="1"><base>z</base><ctag>prep:gen:nwok</ctag></lex>
    <ann chan="nam">0</ann>
    <ann chan="nam_loc_gpe_city">0</ann>
    <ann chan="nam_loc">0</ann>
   </tok>
   <tok>
    <orth>Warszawy</orth>
    <lex disamb="1"><base>Warszawa</base><ctag>subst:sg:gen:f</ctag></lex>
    <lex disamb="1"><base>warszawa</base><ctag>subst:sg:gen:f</ctag></lex>
    <ann chan="nam">1</ann>
    <ann chan="nam_loc_gpe_city">1</ann>
    <ann chan="nam_loc">1</ann>
   </tok>
   <tok>
    <orth>wkroczyli</orth>
    <lex disamb="1"><base>wkroczyć</base><ctag>praet:pl:m1:perf</ctag></lex>
    <ann chan="nam">0</ann>
    <ann chan="nam_loc_gpe_city">0</ann>
    <ann chan="nam_loc">0</ann>
   </tok>
   <tok>
    <orth>do</orth>
    <lex disamb="1"><base>do</base><ctag>prep:gen</ctag></lex>
    <ann chan="nam">0</ann>
    <ann chan="nam_loc_gpe_city">0</ann>
    <ann chan="nam_loc">0</ann>
   </tok>
   <tok>
    <orth>ich</orth>
    <lex disamb="1"><base>on</base><ctag>ppron3:pl:gen:m1:ter:akc:npraep</ctag></lex>
    <ann chan="nam">0</ann>
    <ann chan="nam_loc_gpe_city">0</ann>
    <ann chan="nam_loc">0</ann>
   </tok>
   <tok>
    <orth>mieszkania</orth>
    <lex disamb="1"><base>mieszkanie</base><ctag>subst:sg:gen:n</ctag></lex>
    <ann chan="nam">0</ann>
    <ann chan="nam_loc_gpe_city">0</ann>
    <ann chan="nam_loc">0</ann>
   </tok>
   <tok>
    <orth>i</orth>
    <lex disamb="1"><base>i</base><ctag>conj</ctag></lex>
    <ann chan="nam">0</ann>
    <ann chan="nam_loc_gpe_city">0</ann>
    <ann chan="nam_loc">0</ann>
   </tok>
   <tok>
    <orth>wręczyli</orth>
    <lex disamb="1"><base>wręczyć</base><ctag>praet:pl:m1:perf</ctag></lex>
    <ann chan="nam">0</ann>
    <ann chan="nam_loc_gpe_city">0</ann>
    <ann chan="nam_loc">0</ann>
   </tok>
   <tok>
    <orth>im</orth>
    <lex disamb="1"><base>im</base><ctag>comp</ctag></lex>
    <ann chan="nam">0</ann>
    <ann chan="nam_loc_gpe_city">0</ann>
    <ann chan="nam_loc">0</ann>
   </tok>
   <tok>
    <orth>.</orth>
    <lex disamb="1"><base>.</base><ctag>interp</ctag></lex>
    <ann chan="nam">0</ann>
    <ann chan="nam_loc_gpe_city">0</ann>
    <ann chan="nam_loc">0</ann>
   </tok>
   <ns/>
   <tok>
    <orth>.</orth>
    <lex disamb="1"><base>.</base><ctag>interp</ctag></lex>
    <ann chan="nam">0</ann>
    <ann chan="nam_loc_gpe_city">0</ann>
    <ann chan="nam_loc">0</ann>
   </tok>
   <ns/>
   <tok>
    <orth>.</orth>
    <lex disamb="1"><base>.</base><ctag>interp</ctag></lex>
    <ann chan="nam">0</ann>
    <ann chan="nam_loc_gpe_city">0</ann>
    <ann chan="nam_loc">0</ann>
   </tok>
   <tok>
    <orth>prezenty</orth>
    <lex disamb="1"><base>prezent</base><ctag>subst:pl:nom:m3</ctag></lex>
    <ann chan="nam">0</ann>
    <ann chan="nam_loc_gpe_city">0</ann>
    <ann chan="nam_loc">0</ann>
   </tok>
   <ns/>
   <tok>
    <orth>.</orth>
    <lex disamb="1"><base>.</base><ctag>interp</ctag></lex>
    <ann chan="nam">0</ann>
    <ann chan="nam_loc_gpe_city">0</ann>
    <ann chan="nam_loc">0</ann>
   </tok>
  </sentence>
 </chunk>
 <chunk type="p" id="ch3">
  <sentence id="s3">
   <tok>
    <orth>Wszystko</orth>
    <lex disamb="1"><base>wszystko</base><ctag>adv:pos</ctag></lex>
   </tok>
   <tok>
    <orth>odby</orth>
    <lex disamb="1"><base>odby</base><ctag>ign</ctag></lex>
   </tok>
   <tok>
    <orth>.</orth>
    <lex disamb="1"><base>.</base><ctag>interp</ctag></lex>
   </tok>
   <ns/>
   <tok>
    <orth>.</orth>
    <lex disamb="1"><base>.</base><ctag>interp</ctag></lex>
   </tok>
   <ns/>
   <tok>
    <orth>.</orth>
    <lex disamb="1"><base>.</base><ctag>interp</ctag></lex>
   </tok>
  </sentence>
 </chunk>
</chunkList>