<?xml version="1.0" encoding="UTF-8"?>
<!DOCTYPE chunkList SYSTEM "ccl.dtd">
<chunkList>
 <chunk type="p" id="ch1">
  <sentence id="s1">
   <tok>
    <orth>Kompletny</orth>
    <lex disamb="1"><base>kompletny</base><ctag>adj:sg:nom:m1:pos</ctag></lex>
   </tok>
   <tok>
    <orth>proces</orth>
    <lex disamb="1"><base>proces</base><ctag>subst:sg:nom:m3</ctag></lex>
   </tok>
   <tok>
    <orth>tradycyjnego</orth>
    <lex disamb="1"><base>tradycyjny</base><ctag>adj:sg:gen:m1:pos</ctag></lex>
   </tok>
   <tok>
    <orth>wytwarzania</orth>
    <lex disamb="1"><base>wytwarzanie</base><ctag>subst:sg:gen:n</ctag></lex>
   </tok>
   <tok>
    <orth>łuku</orth>
    <lex disamb="1"><base>łuk</base><ctag>subst:sg:gen:m3</ctag></lex>
   </tok>
   <tok>
    <orth>kompozytowego</orth>
    <lex disamb="1"><base>kompozytowy</base><ctag>adj:sg:gen:m1:pos</ctag></lex>
   </tok>
   <tok>
    <orth>z</orth>
    <lex disamb="1"><base>z</base><ctag>prep:gen:nwok</ctag></lex>
   </tok>
   <tok>
    <orth>drewna</orth>
    <lex disamb="1"><base>drewno</base><ctag>subst:sg:gen:n</ctag></lex>
   </tok>
   <ns/>
   <tok>
    <orth>,</orth>
    <lex disamb="1"><base>,</base><ctag>interp</ctag></lex>
   </tok>
   <tok>
    <orth>ścięgien</orth>
    <lex disamb="1"><base>ścięgno</base><ctag>subst:pl:gen:n</ctag></lex>
   </tok>
   <tok>
    <orth>i</orth>
    <lex disamb="1"><base>i</base><ctag>conj</ctag></lex>
   </tok>
   <tok>
    <orth>rogu</orth>
    <lex disamb="1"><base>róg</base><ctag>subst:sg:gen:m3</ctag></lex>
   </tok>
   <ns/>
   <tok>
    <orth>.</orth>
    <lex disamb="1"><base>.</base><ctag>interp</ctag></lex>
   </tok>
  </sentence>
 </chunk>
 <chunk type="p" id="ch2">
  <sentence id="s2">
   <tok>
    <orth>Wspaniały</orth>
    <lex disamb="1"><base>wspaniały</base><ctag>adj:sg:nom:m1:pos</ctag></lex>
   </tok>
   <tok>
    <orth>pokaz</orth>
    <lex disamb="1"><base>pokaz</base><ctag>subst:sg:nom:m3</ctag></lex>
   </tok>
   <tok>
    <orth>rzemiosła</orth>
    <lex disamb="1"><base>rzemiosło</base><ctag>subst:sg:gen:n</ctag></lex>
   </tok>
   <ns/>
   <tok>
    <orth>.</orth>
    <lex disamb="1"><base>.</base><ctag>interp</ctag></lex>
   </tok>
  </sentence>
 </chunk>
</chunkList>