<?xml version="1.0" encoding="UTF-8"?>
<!DOCTYPE chunkList SYSTEM "ccl.dtd">
<chunkList>
 <chunk type="p" id="ch1">
  <sentence id="s1">
   <tok>
    <orth>Dzisiaj</orth>
    <lex disamb="1"><base>dzisiaj</base><ctag>adv:pos</ctag></lex>
    <ann chan="timex">1</ann>
    <ann chan="t3_time">1</ann>
   </tok>
   <tok>
    <orth>około</orth>
    <lex disamb="1"><base>około</base><ctag>qub</ctag></lex>
    <ann chan="timex">1</ann>
    <ann chan="t3_time">1</ann>
   </tok>
   <tok>
    <orth>południa</orth>
    <lex disamb="1"><base>południe</base><ctag>subst:sg:gen:n</ctag></lex>
    <ann chan="timex">1</ann>
    <ann chan="t3_time">1</ann>
   </tok>
   <tok>
    <orth>problemy</orth>
    <lex disamb="1"><base>problem</base><ctag>subst:pl:nom:m3</ctag></lex>
    <ann chan="timex">0</ann>
    <ann chan="t3_time">0</ann>
   </tok>
   <tok>
    <orth>z</orth>
    <lex disamb="1"><base>z</base><ctag>prep:gen:nwok</ctag></lex>
    <ann chan="timex">0</ann>
    <ann chan="t3_time">0</ann>
   </tok>
   <tok>
    <orth>dostępem</orth>
    <lex disamb="1"><base>dostęp</base><ctag>subst:sg:inst:m3</ctag></lex>
    <ann chan="timex">0</ann>
    <ann chan="t3_time">0</ann>
   </tok>
   <tok>
    <orth>do</orth>
    <lex disamb="1"><base>do</base><ctag>prep:gen</ctag></lex>
    <ann chan="timex">0</ann>
    <ann chan="t3_time">0</ann>
   </tok>
   <tok>
    <orth>usług</orth>
    <lex disamb="1"><base>usługa</base><ctag>subst:pl:gen:f</ctag></lex>
    <ann chan="timex">0</ann>
    <ann chan="t3_time">0</ann>
   </tok>
   <tok>
    <orth>zaczęli</orth>
    <lex disamb="1"><base>zacząć</base><ctag>praet:pl:m1:perf</ctag></lex>
    <ann chan="timex">0</ann>
    <ann chan="t3_time">0</ann>
   </tok>
   <tok>
    <orth>zgłaszać</orth>
    <lex disamb="1"><base>zgłaszać</base><ctag>inf:imperf</ctag></lex>
    <ann chan="timex">0</ann>
    <ann chan="t3_time">0</ann>
   </tok>
   <tok>
    <orth>klienci</orth>
    <lex disamb="1"><base>klient</base><ctag>subst:pl:nom:m1</ctag></lex>
    <ann chan="timex">0</ann>
    <ann chan="t3_time">0</ann>
   </tok>
   <tok>
    <orth>co</orth>
    <lex disamb="1"><base>co</base><ctag>comp</ctag></lex>
    <ann chan="timex">0</ann>
    <ann chan="t3_time">0</ann>
   </tok>
   <tok>
    <orth>najmniej</orth>
    <lex disamb="1"><base>mało</base><ctag>adv:pos</ctag></lex>
    <ann chan="timex">0</ann>
    <ann chan="t3_time">0</ann>
   </tok>
   <tok>
    <orth>pięciu</orth>
    <lex disamb="1"><base>piąć</base><ctag>ger:sg:dat:n:imperf:aff</ctag></lex>
    <ann chan="timex">0</ann>
    <ann chan="t3_time">0</ann>
   </tok>
   <tok>
    <orth>dużych</orth>
    <lex disamb="1"><base>duży</base><ctag>adj:pl:gen:m1:pos</ctag></lex>
    <ann chan="timex">0</ann>
    <ann chan="t3_time">0</ann>
   </tok>
   <tok>
    <orth>banków</orth>
    <lex disamb="1"><base>bank</base><ctag>subst:pl:gen:m3</ctag></lex>
    <ann chan="timex">0</ann>
    <ann chan="t3_time">0</ann>
   </tok>
   <tok>
    <orth>naraz</orth>
    <lex disamb="1"><base>naraz</base><ctag>adv:pos</ctag></lex>
    <ann chan="timex">0</ann>
    <ann chan="t3_time">0</ann>
   </tok>
   <ns/>
   <tok>
    <orth>.</orth>
    <lex disamb="1"><base>.</base><ctag>interp</ctag></lex>
    <ann chan="timex">0</ann>
    <ann chan="t3_time">0</ann>
   </tok>
  </sentence>
 </chunk>
 <chunk type="p" id="ch2">
  <sentence id="s2">
   <tok>
    <orth>Pekao</orth>
    <lex disamb="1"><base>Pekao</base><ctag>subst:sg:nom:n</ctag></lex>
    <ann chan="nam">1</ann>
    <ann chan="nam_org_company">1</ann>
    <ann chan="nam_org_organization">0</ann>
    <ann chan="nam_org">1</ann>
   </tok>
   <tok>
    <orth>S</orth>
    <lex disamb="1"><base>sekunda</base><ctag>brev:npun</ctag></lex>
    <ann chan="nam">1</ann>
    <ann chan="nam_org_company">1</ann>
    <ann chan="nam_org_organization">0</ann>
    <ann chan="nam_org">1</ann>
   </tok>
   <ns/>
   <tok>
    <orth>.</orth>
    <lex disamb="1"><base>.</base><ctag>interp</ctag></lex>
    <ann chan="nam">1</ann>
    <ann chan="nam_org_company">1</ann>
    <ann chan="nam_org_organization">0</ann>
    <ann chan="nam_org">1</ann>
   </tok>
   <ns/>
   <tok>
    <orth>A</orth>
    <lex disamb="1"><base>a</base><ctag>conj</ctag></lex>
    <ann chan="nam">1</ann>
    <ann chan="nam_org_company">1</ann>
    <ann chan="nam_org_organization">0</ann>
    <ann chan="nam_org">1</ann>
   </tok>
   <ns/>
   <tok>
    <orth>.</orth>
    <lex disamb="1"><base>.</base><ctag>interp</ctag></lex>
    <ann chan="nam">1</ann>
    <ann chan="nam_org_company">1</ann>
    <ann chan="nam_org_organization">0</ann>
    <ann chan="nam_org">1</ann>
   </tok>
   <ns/>
   <tok>
    <orth>,</orth>
    <lex disamb="1"><base>,</base><ctag>interp</ctag></lex>
    <ann chan="nam">0</ann>
    <ann chan="nam_org_company">0</ann>
    <ann chan="nam_org_organization">0</ann>
    <ann chan="nam_org">0</ann>
   </tok>
   <tok>
    <orth>Millennium</orth>
    <lex disamb="1"><base>millennium</base><ctag>subst:sg:nom:n</ctag></lex>
    <ann chan="nam">2</ann>
    <ann chan="nam_org_company">0</ann>
    <ann chan="nam_org_organization">0</ann>
    <ann chan="nam_org">0</ann>
   </tok>
   <ns/>
   <tok>
    <orth>,</orth>
    <lex disamb="1"><base>,</base><ctag>interp</ctag></lex>
    <ann chan="nam">0</ann>
    <ann chan="nam_org_company">0</ann>
    <ann chan="nam_org_organization">0</ann>
    <ann chan="nam_org">0</ann>
   </tok>
   <tok>
    <orth>ING</orth>
    <lex disamb="1"><base>Inga</base><ctag>subst:pl:gen:f</ctag></lex>
    <ann chan="nam">3</ann>
    <ann chan="nam_org_company">0</ann>
    <ann chan="nam_org_organization">1</ann>
    <ann chan="nam_org">2</ann>
   </tok>
   <ns/>
   <tok>
    <orth>,</orth>
    <lex disamb="1"><base>,</base><ctag>interp</ctag></lex>
    <ann chan="nam">0</ann>
    <ann chan="nam_org_company">0</ann>
    <ann chan="nam_org_organization">0</ann>
    <ann chan="nam_org">0</ann>
   </tok>
   <tok>
    <orth>Alior</orth>
    <lex disamb="1"><base>Alior</base><ctag>ign</ctag></lex>
    <ann chan="nam">0</ann>
    <ann chan="nam_org_company">0</ann>
    <ann chan="nam_org_organization">0</ann>
    <ann chan="nam_org">0</ann>
   </tok>
   <tok>
    <orth>i</orth>
    <lex disamb="1"><base>i</base><ctag>conj</ctag></lex>
    <ann chan="nam">0</ann>
    <ann chan="nam_org_company">0</ann>
    <ann chan="nam_org_organization">0</ann>
    <ann chan="nam_org">0</ann>
   </tok>
   <tok>
    <orth>BGŻ</orth>
    <lex disamb="1"><base>BGŻ</base><ctag>subst:sg:nom:m3</ctag></lex>
    <ann chan="nam">0</ann>
    <ann chan="nam_org_company">0</ann>
    <ann chan="nam_org_organization">0</ann>
    <ann chan="nam_org">0</ann>
   </tok>
   <tok>
    <orth>prawie</orth>
    <lex disamb="1"><base>prawie</base><ctag>qub</ctag></lex>
    <ann chan="nam">0</ann>
    <ann chan="nam_org_company">0</ann>
    <ann chan="nam_org_organization">0</ann>
    <ann chan="nam_org">0</ann>
   </tok>
   <tok>
    <orth>jednocześnie</orth>
    <lex disamb="1"><base>jednocześnie</base><ctag>adv:pos</ctag></lex>
    <ann chan="nam">0</ann>
    <ann chan="nam_org_company">0</ann>
    <ann chan="nam_org_organization">0</ann>
    <ann chan="nam_org">0</ann>
   </tok>
   <tok>
    <orth>ogłosiły</orth>
    <lex disamb="1"><base>ogłosić</base><ctag>praet:pl:m2:perf</ctag></lex>
    <ann chan="nam">0</ann>
    <ann chan="nam_org_company">0</ann>
    <ann chan="nam_org_organization">0</ann>
    <ann chan="nam_org">0</ann>
   </tok>
   <tok>
    <orth>problemy</orth>
    <lex disamb="1"><base>problem</base><ctag>subst:pl:nom:m3</ctag></lex>
    <ann chan="nam">0</ann>
    <ann chan="nam_org_company">0</ann>
    <ann chan="nam_org_organization">0</ann>
    <ann chan="nam_org">0</ann>
   </tok>
   <tok>
    <orth>ze</orth>
    <lex disamb="1"><base>z</base><ctag>prep:gen:wok</ctag></lex>
    <ann chan="nam">0</ann>
    <ann chan="nam_org_company">0</ann>
    <ann chan="nam_org_organization">0</ann>
    <ann chan="nam_org">0</ann>
   </tok>
   <tok>
    <orth>swoją</orth>
    <lex disamb="1"><base>swój</base><ctag>adj:sg:acc:f:pos</ctag></lex>
    <ann chan="nam">0</ann>
    <ann chan="nam_org_company">0</ann>
    <ann chan="nam_org_organization">0</ann>
    <ann chan="nam_org">0</ann>
   </tok>
   <tok>
    <orth>infrastrukturą</orth>
    <lex disamb="1"><base>infrastruktura</base><ctag>subst:sg:inst:f</ctag></lex>
    <ann chan="nam">0</ann>
    <ann chan="nam_org_company">0</ann>
    <ann chan="nam_org_organization">0</ann>
    <ann chan="nam_org">0</ann>
   </tok>
   <ns/>
   <tok>
    <orth>.</orth>
    <lex disamb="1"><base>.</base><ctag>interp</ctag></lex>
    <ann chan="nam">0</ann>
    <ann chan="nam_org_company">0</ann>
    <ann chan="nam_org_organization">0</ann>
    <ann chan="nam_org">0</ann>
   </tok>
  </sentence>
 </chunk>
 <chunk type="p" id="ch3">
  <sentence id="s3">
   <tok>
    <orth>Co</orth>
    <lex disamb="1"><base>co</base><ctag>comp</ctag></lex>
   </tok>
   <tok>
    <orth>było</orth>
    <lex disamb="1"><base>być</base><ctag>praet:sg:n:imperf</ctag></lex>
   </tok>
   <tok>
    <orth>przyczyną</orth>
    <lex disamb="1"><base>przyczyna</base><ctag>subst:sg:inst:f</ctag></lex>
   </tok>
   <tok>
    <orth>awarii</orth>
    <lex disamb="1"><base>awaria</base><ctag>subst:sg:gen:f</ctag></lex>
   </tok>
   <ns/>
   <tok>
    <orth>?</orth>
    <lex disamb="1"><base>?</base><ctag>interp</ctag></lex>
   </tok>
  </sentence>
 </chunk>
</chunkList>