<?xml version="1.0" encoding="UTF-8"?>
<!DOCTYPE chunkList SYSTEM "ccl.dtd">
<chunkList>
 <chunk type="p" id="ch1">
  <sentence id="s1">
   <tok>
    <orth>Czyli</orth>
    <lex disamb="1"><base>czyli</base><ctag>conj</ctag></lex>
   </tok>
   <tok>
    <orth>wstrząs</orth>
    <lex disamb="1"><base>wstrząs</base><ctag>subst:sg:nom:m3</ctag></lex>
   </tok>
   <tok>
    <orth>mózgu</orth>
    <lex disamb="1"><base>mózg</base><ctag>subst:sg:gen:m3</ctag></lex>
   </tok>
   <tok>
    <orth>białego</orth>
    <lex disamb="1"><base>biały</base><ctag>subst:sg:gen:m1</ctag></lex>
   </tok>
   <tok>
    <orth>dziecka</orth>
    <lex disamb="1"><base>dziecko</base><ctag>subst:sg:gen:n</ctag></lex>
   </tok>
   <ns/>
   <tok>
    <orth>.</orth>
    <lex disamb="1"><base>.</base><ctag>interp</ctag></lex>
   </tok>
  </sentence>
 </chunk>
</chunkList>