<?xml version="1.0" encoding="UTF-8"?>
<!DOCTYPE chunkList SYSTEM "ccl.dtd">
<chunkList>
 <chunk type="p" id="ch1">
  <sentence id="s1">
   <tok>
    <orth>Telewizja</orth>
    <lex disamb="1"><base>telewizja</base><ctag>subst:sg:nom:f</ctag></lex>
    <ann chan="nam">0</ann>
    <ann chan="nam_org">0</ann>
   </tok>
   <tok>
    <orth>CNN</orth>
    <lex disamb="1"><base>CNN</base><ctag>subst:sg:nom:m3</ctag></lex>
    <ann chan="nam">1</ann>
    <ann chan="nam_org">1</ann>
   </tok>
   <tok>
    <orth>dotarła</orth>
    <lex disamb="1"><base>dotrzeć</base><ctag>praet:sg:f:perf</ctag></lex>
    <ann chan="nam">0</ann>
    <ann chan="nam_org">0</ann>
   </tok>
   <tok>
    <orth>do</orth>
    <lex disamb="1"><base>do</base><ctag>prep:gen</ctag></lex>
    <ann chan="nam">0</ann>
    <ann chan="nam_org">0</ann>
   </tok>
   <tok>
    <orth>nagrania</orth>
    <lex disamb="1"><base>nagranie</base><ctag>subst:sg:gen:n</ctag></lex>
    <ann chan="nam">0</ann>
    <ann chan="nam_org">0</ann>
   </tok>
   <tok>
    <orth>dźwiękowego</orth>
    <lex disamb="1"><base>dźwiękowy</base><ctag>adj:sg:gen:m1:pos</ctag></lex>
    <ann chan="nam">0</ann>
    <ann chan="nam_org">0</ann>
   </tok>
   <ns/>
   <tok>
    <orth>,</orth>
    <lex disamb="1"><base>,</base><ctag>interp</ctag></lex>
    <ann chan="nam">0</ann>
    <ann chan="nam_org">0</ann>
   </tok>
   <tok>
    <orth>które</orth>
    <lex disamb="1"><base>który</base><ctag>adj:sg:nom:n:pos</ctag></lex>
    <ann chan="nam">0</ann>
    <ann chan="nam_org">0</ann>
   </tok>
   <tok>
    <orth>dokumentuje</orth>
    <lex disamb="1"><base>dokumentować</base><ctag>fin:sg:ter:imperf</ctag></lex>
    <ann chan="nam">0</ann>
    <ann chan="nam_org">0</ann>
   </tok>
   <tok>
    <orth>ostatnie</orth>
    <lex disamb="1"><base>ostatnie</base><ctag>subst:sg:nom:n</ctag></lex>
    <ann chan="nam">0</ann>
    <ann chan="nam_org">0</ann>
   </tok>
   <tok>
    <orth>chwile</orth>
    <lex disamb="1"><base>chwila</base><ctag>subst:pl:nom:f</ctag></lex>
    <ann chan="nam">0</ann>
    <ann chan="nam_org">0</ann>
   </tok>
   <tok>
    <orth>życia</orth>
    <lex disamb="1"><base>życie</base><ctag>subst:sg:gen:n</ctag></lex>
    <ann chan="nam">0</ann>
    <ann chan="nam_org">0</ann>
   </tok>
   <tok>
    <orth>Dżamala</orth>
    <lex disamb="1"><base>Dżamala</base><ctag>ign</ctag></lex>
    <ann chan="nam">0</ann>
    <ann chan="nam_org">0</ann>
   </tok>
   <tok>
    <orth>Chaszodżdżiego</orth>
    <lex disamb="1"><base>Chaszodżdżiego</base><ctag>ign</ctag></lex>
    <ann chan="nam">0</ann>
    <ann chan="nam_org">0</ann>
   </tok>
   <ns/>
   <tok>
    <orth>.</orth>
    <lex disamb="1"><base>.</base><ctag>interp</ctag></lex>
    <ann chan="nam">0</ann>
    <ann chan="nam_org">0</ann>
   </tok>
  </sentence>
 </chunk>
 <chunk type="p" id="ch2">
  <sentence id="s2">
   <tok>
    <orth>Słychać</orth>
    <lex disamb="1"><base>słychać</base><ctag>pred</ctag></lex>
    <ann chan="nam_adj_country">0</ann>
    <ann chan="nam_adj">0</ann>
   </tok>
   <tok>
    <orth>na</orth>
    <lex disamb="1"><base>na</base><ctag>prep:acc</ctag></lex>
    <ann chan="nam_adj_country">0</ann>
    <ann chan="nam_adj">0</ann>
   </tok>
   <tok>
    <orth>nim</orth>
    <lex disamb="1"><base>nim</base><ctag>comp</ctag></lex>
    <ann chan="nam_adj_country">0</ann>
    <ann chan="nam_adj">0</ann>
   </tok>
   <ns/>
   <tok>
    <orth>,</orth>
    <lex disamb="1"><base>,</base><ctag>interp</ctag></lex>
    <ann chan="nam_adj_country">0</ann>
    <ann chan="nam_adj">0</ann>
   </tok>
   <tok>
    <orth>jak</orth>
    <lex disamb="1"><base>jak</base><ctag>conj</ctag></lex>
    <ann chan="nam_adj_country">0</ann>
    <ann chan="nam_adj">0</ann>
   </tok>
   <tok>
    <orth>saudyjski</orth>
    <lex disamb="1"><base>saudyjski</base><ctag>adj:sg:nom:m1:pos</ctag></lex>
    <ann chan="nam_adj_country">1</ann>
    <ann chan="nam_adj">1</ann>
   </tok>
   <tok>
    <orth>dziennikarz</orth>
    <lex disamb="1"><base>dziennikarz</base><ctag>subst:sg:nom:m1</ctag></lex>
    <ann chan="nam_adj_country">0</ann>
    <ann chan="nam_adj">0</ann>
   </tok>
   <tok>
    <orth>chwilę</orth>
    <lex disamb="1"><base>chwila</base><ctag>subst:sg:acc:f</ctag></lex>
    <ann chan="nam_adj_country">0</ann>
    <ann chan="nam_adj">0</ann>
   </tok>
   <tok>
    <orth>przed</orth>
    <lex disamb="1"><base>przed</base><ctag>prep:acc:nwok</ctag></lex>
    <ann chan="nam_adj_country">0</ann>
    <ann chan="nam_adj">0</ann>
   </tok>
   <tok>
    <orth>śmiercią</orth>
    <lex disamb="1"><base>śmierć</base><ctag>subst:sg:inst:f</ctag></lex>
    <ann chan="nam_adj_country">0</ann>
    <ann chan="nam_adj">0</ann>
   </tok>
   <tok>
    <orth>mówi</orth>
    <lex disamb="1"><base>mówić</base><ctag>fin:sg:ter:imperf</ctag></lex>
    <ann chan="nam_adj_country">0</ann>
    <ann chan="nam_adj">0</ann>
   </tok>
   <ns/>
   <tok>
    <orth>:</orth>
    <lex disamb="1"><base>:</base><ctag>interp</ctag></lex>
    <ann chan="nam_adj_country">0</ann>
    <ann chan="nam_adj">0</ann>
   </tok>
   <tok>
    <orth>&apos;</orth>
    <lex disamb="1"><base>&apos;</base><ctag>interp</ctag></lex>
    <ann chan="nam_adj_country">0</ann>
    <ann chan="nam_adj">0</ann>
   </tok>
   <ns/>
   <tok>
    <orth>Nie</orth>
    <lex disamb="1"><base>nie</base><ctag>conj</ctag></lex>
    <ann chan="nam_adj_country">0</ann>
    <ann chan="nam_adj">0</ann>
   </tok>
   <tok>
    <orth>mogę</orth>
    <lex disamb="1"><base>móc</base><ctag>fin:sg:pri:imperf</ctag></lex>
    <ann chan="nam_adj_country">0</ann>
    <ann chan="nam_adj">0</ann>
   </tok>
   <tok>
    <orth>oddychać'</orth>
    <lex disamb="1"><base>oddychać'</base><ctag>ign</ctag></lex>
    <ann chan="nam_adj_country">0</ann>
    <ann chan="nam_adj">0</ann>
   </tok>
   <ns/>
   <tok>
    <orth>.</orth>
    <lex disamb="1"><base>.</base><ctag>interp</ctag></lex>
    <ann chan="nam_adj_country">0</ann>
    <ann chan="nam_adj">0</ann>
   </tok>
  </sentence>
 </chunk>
 <chunk type="p" id="ch3">
  <sentence id="s3">
   <tok>
    <orth>Później</orth>
    <lex disamb="1"><base>późno</base><ctag>adv:pos</ctag></lex>
   </tok>
   <tok>
    <orth>na</orth>
    <lex disamb="1"><base>na</base><ctag>prep:acc</ctag></lex>
   </tok>
   <tok>
    <orth>nagraniu</orth>
    <lex disamb="1"><base>nagranie</base><ctag>subst:sg:dat:n</ctag></lex>
   </tok>
   <tok>
    <orth>słychać</orth>
    <lex disamb="1"><base>słychać</base><ctag>pred</ctag></lex>
   </tok>
   <tok>
    <orth>jego</orth>
    <lex disamb="1"><base>on</base><ctag>ppron3:sg:gen:m1:ter:akc:npraep</ctag></lex>
   </tok>
   <tok>
    <orth>krzyki</orth>
    <lex disamb="1"><base>krzyk</base><ctag>subst:pl:nom:m3</ctag></lex>
   </tok>
   <tok>
    <orth>i</orth>
    <lex disamb="1"><base>i</base><ctag>conj</ctag></lex>
   </tok>
   <tok>
    <orth>odgłos</orth>
    <lex disamb="1"><base>odgłos</base><ctag>subst:sg:nom:m3</ctag></lex>
   </tok>
   <tok>
    <orth>rozcinania</orth>
    <lex disamb="1"><base>rozcinać</base><ctag>ger:sg:gen:n:imperf:aff</ctag></lex>
   </tok>
   <tok>
    <orth>ciała</orth>
    <lex disamb="1"><base>ciało</base><ctag>subst:sg:gen:n</ctag></lex>
   </tok>
   <tok>
    <orth>piłą</orth>
    <lex disamb="1"><base>piła</base><ctag>subst:sg:inst:f</ctag></lex>
   </tok>
   <ns/>
   <tok>
    <orth>.</orth>
    <lex disamb="1"><base>.</base><ctag>interp</ctag></lex>
   </tok>
  </sentence>
 </chunk>
</chunkList>