<?xml version="1.0" encoding="UTF-8"?>
<!DOCTYPE chunkList SYSTEM "ccl.dtd">
<chunkList>
 <chunk type="p" id="ch1">
  <sentence id="s1">
   <tok>
    <orth>Płyn</orth>
    <lex disamb="1"><base>płyn</base><ctag>subst:sg:nom:m3</ctag></lex>
    <ann chan="nam">0</ann>
    <ann chan="nam_pro">0</ann>
   </tok>
   <tok>
    <orth>do</orth>
    <lex disamb="1"><base>do</base><ctag>prep:gen</ctag></lex>
    <ann chan="nam">0</ann>
    <ann chan="nam_pro">0</ann>
   </tok>
   <tok>
    <orth>mycia</orth>
    <lex disamb="1"><base>mycie</base><ctag>subst:sg:gen:n</ctag></lex>
    <ann chan="nam">0</ann>
    <ann chan="nam_pro">0</ann>
   </tok>
   <tok>
    <orth>naczyń</orth>
    <lex disamb="1"><base>naczynie</base><ctag>subst:pl:gen:n</ctag></lex>
    <ann chan="nam">0</ann>
    <ann chan="nam_pro">0</ann>
   </tok>
   <tok>
    <orth>Fairy</orth>
    <lex disamb="1"><base>Fairy</base><ctag>ign</ctag></lex>
    <ann chan="nam">1</ann>
    <ann chan="nam_pro">1</ann>
   </tok>
   <tok>
    <orth>Lemon</orth>
    <lex disamb="1"><base>Lemon</base><ctag>ign</ctag></lex>
    <ann chan="nam">1</ann>
    <ann chan="nam_pro">1</ann>
   </tok>
   <tok>
    <orth>450</orth>
    <lex disamb="1"><base>450</base><ctag>num:pl:nom:m1:rec</ctag></lex>
    <ann chan="nam">1</ann>
    <ann chan="nam_pro">1</ann>
   </tok>
   <tok>
    <orth>ml</orth>
    <lex disamb="1"><base>Księga_Malachiasza</base><ctag>brev:npun</ctag></lex>
    <lex disamb="1"><base>mililitr</base><ctag>brev:npun</ctag></lex>
    <ann chan="nam">0</ann>
    <ann chan="nam_pro">0</ann>
   </tok>
   <tok>
    <orth>ma</orth>
    <lex disamb="1"><base>mój</base><ctag>adj:sg:nom:f:pos</ctag></lex>
    <ann chan="nam">0</ann>
    <ann chan="nam_pro">0</ann>
   </tok>
   <tok>
    <orth>w</orth>
    <lex disamb="1"><base>w</base><ctag>prep:acc:nwok</ctag></lex>
    <ann chan="nam">0</ann>
    <ann chan="nam_pro">0</ann>
   </tok>
   <tok>
    <orth>obu</orth>
    <lex disamb="1"><base>oba</base><ctag>num:pl:nom:m1:rec</ctag></lex>
    <lex disamb="1"><base>oba</base><ctag>num:pl:nom:m1:rec</ctag></lex>
    <lex disamb="1"><base>oba</base><ctag>num:pl:nom:m1:rec</ctag></lex>
    <lex disamb="1"><base>oba</base><ctag>num:pl:nom:m1:rec</ctag></lex>
    <lex disamb="1"><base>oba</base><ctag>num:pl:nom:m1:rec</ctag></lex>
    <lex disamb="1"><base>oba</base><ctag>num:pl:nom:m1:rec</ctag></lex>
    <lex disamb="1"><base>oba</base><ctag>num:pl:nom:m1:rec</ctag></lex>
    <lex disamb="1"><base>oba</base><ctag>num:pl:nom:m1:rec</ctag></lex>
    <lex disamb="1"><base>oba</base><ctag>num:pl:nom:m1:rec</ctag></lex>
    <lex disamb="1"><base>oba</base><ctag>num:pl:nom:m1:rec</ctag></lex>
    <lex disamb="1"><base>oba</base><ctag>num:pl:nom:m1:rec</ctag></lex>
    <lex disamb="1"><base>oba</base><ctag>num:pl:nom:m1:rec</ctag></lex>
    <lex disamb="1"><base>oba</base><ctag>num:pl:nom:m1:rec</ctag></lex>
    <lex disamb="1"><base>oba</base><ctag>num:pl:nom:m1:rec</ctag></lex>
    <lex disamb="1"><base>oba</base><ctag>num:pl:nom:m1:rec</ctag></lex>
    <lex disamb="1"><base>oba</base><ctag>num:pl:nom:m1:rec</ctag></lex>
    <lex disamb="1"><base>oba</base><ctag>num:pl:nom:m1:rec</ctag></lex>
    <lex disamb="1"><base>oba</base><ctag>num:pl:nom:m1:rec</ctag></lex>
    <lex disamb="1"><base>oba</base><ctag>num:pl:nom:m1:rec</ctag></lex>
    <lex disamb="1"><base>oba</base><ctag>num:pl:nom:m1:rec</ctag></lex>
    <lex disamb="1"><base>oba</base><ctag>num:pl:nom:m1:rec</ctag></lex>
    <lex disamb="1"><base>oba</base><ctag>num:pl:nom:m1:rec</ctag></lex>
    <ann chan="nam">0</ann>
    <ann chan="nam_pro">0</ann>
   </tok>
   <tok>
    <orth>krajach</orth>
    <lex disamb="1"><base>kraj</base><ctag>subst:pl:loc:m3</ctag></lex>
    <ann chan="nam">0</ann>
    <ann chan="nam_pro">0</ann>
   </tok>
   <tok>
    <orth>różną</orth>
    <lex disamb="1"><base>różny</base><ctag>adj:sg:acc:f:pos</ctag></lex>
    <ann chan="nam">0</ann>
    <ann chan="nam_pro">0</ann>
   </tok>
   <tok>
    <orth>zawartość</orth>
    <lex disamb="1"><base>zawartość</base><ctag>subst:sg:nom:f</ctag></lex>
    <ann chan="nam">0</ann>
    <ann chan="nam_pro">0</ann>
   </tok>
   <tok>
    <orth>środków</orth>
    <lex disamb="1"><base>środek</base><ctag>subst:pl:gen:m3</ctag></lex>
    <ann chan="nam">0</ann>
    <ann chan="nam_pro">0</ann>
   </tok>
   <tok>
    <orth>powierzchniowo</orth>
    <lex disamb="1"><base>powierzchniowo</base><ctag>adv:pos</ctag></lex>
    <ann chan="nam">0</ann>
    <ann chan="nam_pro">0</ann>
   </tok>
   <tok>
    <orth>czynnych</orth>
    <lex disamb="1"><base>czynny</base><ctag>adj:pl:gen:m1:pos</ctag></lex>
    <ann chan="nam">0</ann>
    <ann chan="nam_pro">0</ann>
   </tok>
   <ns/>
   <tok>
    <orth>,</orth>
    <lex disamb="1"><base>,</base><ctag>interp</ctag></lex>
    <ann chan="nam">0</ann>
    <ann chan="nam_pro">0</ann>
   </tok>
   <tok>
    <orth>które</orth>
    <lex disamb="1"><base>który</base><ctag>adj:sg:nom:n:pos</ctag></lex>
    <ann chan="nam">0</ann>
    <ann chan="nam_pro">0</ann>
   </tok>
   <tok>
    <orth>ułatwiają</orth>
    <lex disamb="1"><base>ułatwiać</base><ctag>fin:pl:ter:imperf</ctag></lex>
    <ann chan="nam">0</ann>
    <ann chan="nam_pro">0</ann>
   </tok>
  </sentence>
 </chunk>
</chunkList>