<?xml version="1.0" encoding="UTF-8"?>
<!DOCTYPE chunkList SYSTEM "ccl.dtd">
<chunkList>
 <chunk type="p" id="ch1">
  <sentence id="s1">
   <tok>
    <orth>Dla</orth>
    <lex disamb="1"><base>dla</base><ctag>prep:gen</ctag></lex>
   </tok>
   <tok>
    <orth>benzo</orth>
    <lex disamb="1"><base>benzo</base><ctag>ign</ctag></lex>
   </tok>
   <ns/>
   <tok>
    <orth>(</orth>
    <lex disamb="1"><base>(</base><ctag>interp</ctag></lex>
   </tok>
   <ns/>
   <tok>
    <orth>a</orth>
    <lex disamb="1"><base>a</base><ctag>conj</ctag></lex>
   </tok>
   <ns/>
   <tok>
    <orth>)</orth>
    <lex disamb="1"><base>)</base><ctag>interp</ctag></lex>
   </tok>
   <ns/>
   <tok>
    <orth>pirenu</orth>
    <lex disamb="1"><base>pirenu</base><ctag>ign</ctag></lex>
   </tok>
   <tok>
    <orth>określone</orth>
    <lex disamb="1"><base>określony</base><ctag>adj:sg:nom:n:pos</ctag></lex>
   </tok>
   <tok>
    <orth>zostało</orth>
    <lex disamb="1"><base>zostać</base><ctag>praet:sg:n:perf</ctag></lex>
   </tok>
   <tok>
    <orth>stężenie</orth>
    <lex disamb="1"><base>stężenie</base><ctag>subst:sg:nom:n</ctag></lex>
   </tok>
   <tok>
    <orth>dopuszczalne</orth>
    <lex disamb="1"><base>dopuszczalny</base><ctag>adj:sg:nom:n:pos</ctag></lex>
   </tok>
   <ns/>
   <tok>
    <orth>,</orth>
    <lex disamb="1"><base>,</base><ctag>interp</ctag></lex>
   </tok>
   <tok>
    <orth>które</orth>
    <lex disamb="1"><base>który</base><ctag>adj:sg:nom:n:pos</ctag></lex>
   </tok>
   <tok>
    <orth>wynosi</orth>
    <lex disamb="1"><base>wynosić</base><ctag>fin:sg:ter:imperf</ctag></lex>
   </tok>
   <tok>
    <orth>1</orth>
    <lex disamb="1"><base>1</base><ctag>num:pl:nom:m1:rec</ctag></lex>
   </tok>
   <tok>
    <orth>ng</orth>
    <lex disamb="1"><base>ng</base><ctag>ign</ctag></lex>
   </tok>
   <ns/>
   <tok>
    <orth>/</orth>
    <lex disamb="1"><base>/</base><ctag>interp</ctag></lex>
   </tok>
   <ns/>
   <tok>
    <orth>m3</orth>
    <lex disamb="1"><base>m3</base><ctag>ign</ctag></lex>
   </tok>
   <ns/>
   <tok>
    <orth>.</orth>
    <lex disamb="1"><base>.</base><ctag>interp</ctag></lex>
   </tok>
  </sentence>
 </chunk>
 <chunk type="p" id="ch2">
  <sentence id="s2">
   <tok>
    <orth>Jak</orth>
    <lex disamb="1"><base>jak</base><ctag>conj</ctag></lex>
    <ann chan="nam">0</ann>
    <ann chan="nam_org_organization">0</ann>
    <ann chan="nam_loc_gpe_country">0</ann>
    <ann chan="nam_org">0</ann>
    <ann chan="nam_loc">0</ann>
   </tok>
   <tok>
    <orth>wynika</orth>
    <lex disamb="1"><base>wynikać</base><ctag>fin:sg:ter:imperf</ctag></lex>
    <ann chan="nam">0</ann>
    <ann chan="nam_org_organization">0</ann>
    <ann chan="nam_loc_gpe_country">0</ann>
    <ann chan="nam_org">0</ann>
    <ann chan="nam_loc">0</ann>
   </tok>
   <tok>
    <orth>z</orth>
    <lex disamb="1"><base>z</base><ctag>prep:gen:nwok</ctag></lex>
    <ann chan="nam">0</ann>
    <ann chan="nam_org_organization">0</ann>
    <ann chan="nam_loc_gpe_country">0</ann>
    <ann chan="nam_org">0</ann>
    <ann chan="nam_loc">0</ann>
   </tok>
   <tok>
    <orth>danych</orth>
    <lex disamb="1"><base>dana</base><ctag>subst:pl:gen:f</ctag></lex>
    <ann chan="nam">0</ann>
    <ann chan="nam_org_organization">0</ann>
    <ann chan="nam_loc_gpe_country">0</ann>
    <ann chan="nam_org">0</ann>
    <ann chan="nam_loc">0</ann>
   </tok>
   <tok>
    <orth>WHO</orth>
    <lex disamb="1"><base>WHO</base><ctag>subst:sg:nom:n</ctag></lex>
    <ann chan="nam">1</ann>
    <ann chan="nam_org_organization">1</ann>
    <ann chan="nam_loc_gpe_country">0</ann>
    <ann chan="nam_org">1</ann>
    <ann chan="nam_loc">0</ann>
   </tok>
   <ns/>
   <tok>
    <orth>,</orth>
    <lex disamb="1"><base>,</base><ctag>interp</ctag></lex>
    <ann chan="nam">0</ann>
    <ann chan="nam_org_organization">0</ann>
    <ann chan="nam_loc_gpe_country">0</ann>
    <ann chan="nam_org">0</ann>
    <ann chan="nam_loc">0</ann>
   </tok>
   <tok>
    <orth>Polska</orth>
    <lex disamb="1"><base>Polska</base><ctag>subst:sg:nom:f</ctag></lex>
    <ann chan="nam">2</ann>
    <ann chan="nam_org_organization">0</ann>
    <ann chan="nam_loc_gpe_country">1</ann>
    <ann chan="nam_org">0</ann>
    <ann chan="nam_loc">1</ann>
   </tok>
   <tok>
    <orth>aż</orth>
    <lex disamb="1"><base>aż</base><ctag>comp</ctag></lex>
    <ann chan="nam">0</ann>
    <ann chan="nam_org_organization">0</ann>
    <ann chan="nam_loc_gpe_country">0</ann>
    <ann chan="nam_org">0</ann>
    <ann chan="nam_loc">0</ann>
   </tok>
   <tok>
    <orth>40</orth>
    <lex disamb="1"><base>40</base><ctag>num:pl:nom:m1:rec</ctag></lex>
    <ann chan="nam">0</ann>
    <ann chan="nam_org_organization">0</ann>
    <ann chan="nam_loc_gpe_country">0</ann>
    <ann chan="nam_org">0</ann>
    <ann chan="nam_loc">0</ann>
   </tok>
   <ns/>
   <tok>
    <orth>-</orth>
    <lex disamb="1"><base>-</base><ctag>interp</ctag></lex>
    <ann chan="nam">0</ann>
    <ann chan="nam_org_organization">0</ann>
    <ann chan="nam_loc_gpe_country">0</ann>
    <ann chan="nam_org">0</ann>
    <ann chan="nam_loc">0</ann>
   </tok>
   <ns/>
   <tok>
    <orth>krotnie</orth>
    <lex disamb="1"><base>krotnie</base><ctag>adv:pos</ctag></lex>
    <ann chan="nam">0</ann>
    <ann chan="nam_org_organization">0</ann>
    <ann chan="nam_loc_gpe_country">0</ann>
    <ann chan="nam_org">0</ann>
    <ann chan="nam_loc">0</ann>
   </tok>
   <tok>
    <orth>przekracza</orth>
    <lex disamb="1"><base>przekraczać</base><ctag>fin:sg:ter:imperf</ctag></lex>
    <ann chan="nam">0</ann>
    <ann chan="nam_org_organization">0</ann>
    <ann chan="nam_loc_gpe_country">0</ann>
    <ann chan="nam_org">0</ann>
    <ann chan="nam_loc">0</ann>
   </tok>
   <tok>
    <orth>dopuszczaną</orth>
    <lex disamb="1"><base>dopuszczać</base><ctag>ppas:sg:acc:f:imperf:aff</ctag></lex>
    <ann chan="nam">0</ann>
    <ann chan="nam_org_organization">0</ann>
    <ann chan="nam_loc_gpe_country">0</ann>
    <ann chan="nam_org">0</ann>
    <ann chan="nam_loc">0</ann>
   </tok>
   <tok>
    <orth>emisję</orth>
    <lex disamb="1"><base>emisja</base><ctag>subst:sg:acc:f</ctag></lex>
    <ann chan="nam">0</ann>
    <ann chan="nam_org_organization">0</ann>
    <ann chan="nam_loc_gpe_country">0</ann>
    <ann chan="nam_org">0</ann>
    <ann chan="nam_loc">0</ann>
   </tok>
   <tok>
    <orth>benzo</orth>
    <lex disamb="1"><base>benzo</base><ctag>ign</ctag></lex>
    <ann chan="nam">0</ann>
    <ann chan="nam_org_organization">0</ann>
    <ann chan="nam_loc_gpe_country">0</ann>
    <ann chan="nam_org">0</ann>
    <ann chan="nam_loc">0</ann>
   </tok>
   <ns/>
   <tok>
    <orth>(</orth>
    <lex disamb="1"><base>(</base><ctag>interp</ctag></lex>
    <ann chan="nam">0</ann>
    <ann chan="nam_org_organization">0</ann>
    <ann chan="nam_loc_gpe_country">0</ann>
    <ann chan="nam_org">0</ann>
    <ann chan="nam_loc">0</ann>
   </tok>
   <ns/>
   <tok>
    <orth>a</orth>
    <lex disamb="1"><base>a</base><ctag>conj</ctag></lex>
    <ann chan="nam">0</ann>
    <ann chan="nam_org_organization">0</ann>
    <ann chan="nam_loc_gpe_country">0</ann>
    <ann chan="nam_org">0</ann>
    <ann chan="nam_loc">0</ann>
   </tok>
   <ns/>
   <tok>
    <orth>)</orth>
    <lex disamb="1"><base>)</base><ctag>interp</ctag></lex>
    <ann chan="nam">0</ann>
    <ann chan="nam_org_organization">0</ann>
    <ann chan="nam_loc_gpe_country">0</ann>
    <ann chan="nam_org">0</ann>
    <ann chan="nam_loc">0</ann>
   </tok>
   <ns/>
   <tok>
    <orth>pirenu</orth>
    <lex disamb="1"><base>pirenu</base><ctag>ign</ctag></lex>
    <ann chan="nam">0</ann>
    <ann chan="nam_org_organization">0</ann>
    <ann chan="nam_loc_gpe_country">0</ann>
    <ann chan="nam_org">0</ann>
    <ann chan="nam_loc">0</ann>
   </tok>
   <tok>
    <orth>i</orth>
    <lex disamb="1"><base>i</base><ctag>conj</ctag></lex>
    <ann chan="nam">0</ann>
    <ann chan="nam_org_organization">0</ann>
    <ann chan="nam_loc_gpe_country">0</ann>
    <ann chan="nam_org">0</ann>
    <ann chan="nam_loc">0</ann>
   </tok>
   <tok>
    <orth>zajmuje</orth>
    <lex disamb="1"><base>zajmować</base><ctag>fin:sg:ter:imperf</ctag></lex>
    <ann chan="nam">0</ann>
    <ann chan="nam_org_organization">0</ann>
    <ann chan="nam_loc_gpe_country">0</ann>
    <ann chan="nam_org">0</ann>
    <ann chan="nam_loc">0</ann>
   </tok>
   <tok>
    <orth>niechlubne</orth>
    <lex disamb="1"><base>niechlubny</base><ctag>adj:sg:nom:n:pos</ctag></lex>
    <ann chan="nam">0</ann>
    <ann chan="nam_org_organization">0</ann>
    <ann chan="nam_loc_gpe_country">0</ann>
    <ann chan="nam_org">0</ann>
    <ann chan="nam_loc">0</ann>
   </tok>
   <tok>
    <orth>pierwsze</orth>
    <lex disamb="1"><base>pierwsza</base><ctag>subst:pl:nom:f</ctag></lex>
    <ann chan="nam">0</ann>
    <ann chan="nam_org_organization">0</ann>
    <ann chan="nam_loc_gpe_country">0</ann>
    <ann chan="nam_org">0</ann>
    <ann chan="nam_loc">0</ann>
   </tok>
   <tok>
    <orth>miejsce</orth>
    <lex disamb="1"><base>miejsce</base><ctag>subst:sg:nom:n</ctag></lex>
    <ann chan="nam">0</ann>
    <ann chan="nam_org_organization">0</ann>
    <ann chan="nam_loc_gpe_country">0</ann>
    <ann chan="nam_org">0</ann>
    <ann chan="nam_loc">0</ann>
   </tok>
   <tok>
    <orth>na</orth>
    <lex disamb="1"><base>na</base><ctag>prep:acc</ctag></lex>
    <ann chan="nam">0</ann>
    <ann chan="nam_org_organization">0</ann>
    <ann chan="nam_loc_gpe_country">0</ann>
    <ann chan="nam_org">0</ann>
    <ann chan="nam_loc">0</ann>
   </tok>
   <tok>
    <orth>liście</orth>
    <lex disamb="1"><base>list</base><ctag>subst:sg:loc:m3</ctag></lex>
    <ann chan="nam">0</ann>
    <ann chan="nam_org_organization">0</ann>
    <ann chan="nam_loc_gpe_country">0</ann>
    <ann chan="nam_org">0</ann>
    <ann chan="nam_loc">0</ann>
   </tok>
   <tok>
    <orth>krajów</orth>
    <lex disamb="1"><base>kraj</base><ctag>subst:pl:gen:m3</ctag></lex>
    <ann chan="nam">0</ann>
    <ann chan="nam_org_organization">0</ann>
    <ann chan="nam_loc_gpe_country">0</ann>
    <ann chan="nam_org">0</ann>
    <ann chan="nam_loc">0</ann>
   </tok>
   <ns/>
   <tok>
    <orth>,</orth>
    <lex disamb="1"><base>,</base><ctag>interp</ctag></lex>
    <ann chan="nam">0</ann>
    <ann chan="nam_org_organization">0</ann>
    <ann chan="nam_loc_gpe_country">0</ann>
    <ann chan="nam_org">0</ann>
    <ann chan="nam_loc">0</ann>
   </tok>
   <tok>
    <orth>w</orth>
    <lex disamb="1"><base>w</base><ctag>prep:acc:nwok</ctag></lex>
    <ann chan="nam">0</ann>
    <ann chan="nam_org_organization">0</ann>
    <ann chan="nam_loc_gpe_country">0</ann>
    <ann chan="nam_org">0</ann>
    <ann chan="nam_loc">0</ann>
   </tok>
   <tok>
    <orth>których</orth>
    <lex disamb="1"><base>który</base><ctag>adj:pl:gen:m1:pos</ctag></lex>
    <ann chan="nam">0</ann>
    <ann chan="nam_org_organization">0</ann>
    <ann chan="nam_loc_gpe_country">0</ann>
    <ann chan="nam_org">0</ann>
    <ann chan="nam_loc">0</ann>
   </tok>
   <tok>
    <orth>stężenie</orth>
    <lex disamb="1"><base>stężenie</base><ctag>subst:sg:nom:n</ctag></lex>
    <ann chan="nam">0</ann>
    <ann chan="nam_org_organization">0</ann>
    <ann chan="nam_loc_gpe_country">0</ann>
    <ann chan="nam_org">0</ann>
    <ann chan="nam_loc">0</ann>
   </tok>
   <tok>
    <orth>benzo</orth>
    <lex disamb="1"><base>benzo</base><ctag>ign</ctag></lex>
    <ann chan="nam">0</ann>
    <ann chan="nam_org_organization">0</ann>
    <ann chan="nam_loc_gpe_country">0</ann>
    <ann chan="nam_org">0</ann>
    <ann chan="nam_loc">0</ann>
   </tok>
   <ns/>
   <tok>
    <orth>(</orth>
    <lex disamb="1"><base>(</base><ctag>interp</ctag></lex>
    <ann chan="nam">0</ann>
    <ann chan="nam_org_organization">0</ann>
    <ann chan="nam_loc_gpe_country">0</ann>
    <ann chan="nam_org">0</ann>
    <ann chan="nam_loc">0</ann>
   </tok>
   <ns/>
   <tok>
    <orth>a</orth>
    <lex disamb="1"><base>a</base><ctag>conj</ctag></lex>
    <ann chan="nam">0</ann>
    <ann chan="nam_org_organization">0</ann>
    <ann chan="nam_loc_gpe_country">0</ann>
    <ann chan="nam_org">0</ann>
    <ann chan="nam_loc">0</ann>
   </tok>
   <ns/>
   <tok>
    <orth>)</orth>
    <lex disamb="1"><base>)</base><ctag>interp</ctag></lex>
    <ann chan="nam">0</ann>
    <ann chan="nam_org_organization">0</ann>
    <ann chan="nam_loc_gpe_country">0</ann>
    <ann chan="nam_org">0</ann>
    <ann chan="nam_loc">0</ann>
   </tok>
   <ns/>
   <tok>
    <orth>pirenu</orth>
    <lex disamb="1"><base>pirenu</base><ctag>ign</ctag></lex>
    <ann chan="nam">0</ann>
    <ann chan="nam_org_organization">0</ann>
    <ann chan="nam_loc_gpe_country">0</ann>
    <ann chan="nam_org">0</ann>
    <ann chan="nam_loc">0</ann>
   </tok>
   <tok>
    <orth>w</orth>
    <lex disamb="1"><base>w</base><ctag>prep:acc:nwok</ctag></lex>
    <ann chan="nam">0</ann>
    <ann chan="nam_org_organization">0</ann>
    <ann chan="nam_loc_gpe_country">0</ann>
    <ann chan="nam_org">0</ann>
    <ann chan="nam_loc">0</ann>
   </tok>
   <tok>
    <orth>powietrzu</orth>
    <lex disamb="1"><base>powietrze</base><ctag>subst:sg:dat:n</ctag></lex>
    <ann chan="nam">0</ann>
    <ann chan="nam_org_organization">0</ann>
    <ann chan="nam_loc_gpe_country">0</ann>
    <ann chan="nam_org">0</ann>
    <ann chan="nam_loc">0</ann>
   </tok>
   <tok>
    <orth>jest</orth>
    <lex disamb="1"><base>być</base><ctag>fin:sg:ter:imperf</ctag></lex>
    <ann chan="nam">0</ann>
    <ann chan="nam_org_organization">0</ann>
    <ann chan="nam_loc_gpe_country">0</ann>
    <ann chan="nam_org">0</ann>
    <ann chan="nam_loc">0</ann>
   </tok>
   <tok>
    <orth>najwyższe</orth>
    <lex disamb="1"><base>najwyższy</base><ctag>depr:pl:nom:m2</ctag></lex>
    <ann chan="nam">0</ann>
    <ann chan="nam_org_organization">0</ann>
    <ann chan="nam_loc_gpe_country">0</ann>
    <ann chan="nam_org">0</ann>
    <ann chan="nam_loc">0</ann>
   </tok>
   <ns/>
   <tok>
    <orth>.</orth>
    <lex disamb="1"><base>.</base><ctag>interp</ctag></lex>
    <ann chan="nam">0</ann>
    <ann chan="nam_org_organization">0</ann>
    <ann chan="nam_loc_gpe_country">0</ann>
    <ann chan="nam_org">0</ann>
    <ann chan="nam_loc">0</ann>
   </tok>
  </sentence>
 </chunk>
</chunkList>