<?xml version="1.0" encoding="UTF-8"?>
<!DOCTYPE chunkList SYSTEM "ccl.dtd">
<chunkList>
 <chunk type="p" id="ch1">
  <sentence id="s1">
   <tok>
    <orth>Ceny</orth>
    <lex disamb="1"><base>cena</base><ctag>subst:sg:gen:f</ctag></lex>
   </tok>
   <tok>
    <orth>LIDL</orth>
    <lex disamb="1"><base>LIDL</base><ctag>ign</ctag></lex>
   </tok>
   <tok>
    <orth>DE</orth>
    <lex disamb="1"><base>de</base><ctag>subst:sg:nom:n</ctag></lex>
   </tok>
   <tok>
    <orth>vs</orth>
    <lex disamb="1"><base>versus</base><ctag>brev:npun</ctag></lex>
   </tok>
   <ns/>
   <tok>
    <orth>.</orth>
    <lex disamb="1"><base>.</base><ctag>interp</ctag></lex>
   </tok>
  </sentence>
 </chunk>
 <chunk type="p" id="ch2">
  <sentence id="s2">
   <tok>
    <orth>LIDL</orth>
    <lex disamb="1"><base>LIDL</base><ctag>ign</ctag></lex>
   </tok>
   <tok>
    <orth>PL</orth>
    <lex disamb="1"><base>Polska</base><ctag>brev:npun</ctag></lex>
   </tok>
   <tok>
    <orth>hit</orth>
    <lex disamb="1"><base>hit</base><ctag>subst:sg:nom:m3</ctag></lex>
   </tok>
   <tok>
    <orth>cenowy</orth>
    <lex disamb="1"><base>cenowy</base><ctag>adj:sg:nom:m1:pos</ctag></lex>
   </tok>
  </sentence>
 </chunk>
</chunkList>