<?xml version="1.0" encoding="UTF-8"?>
<!DOCTYPE chunkList SYSTEM "ccl.dtd">
<chunkList>
 <chunk type="p" id="ch1">
  <sentence id="s1">
   <tok>
    <orth>Kiedy</orth>
    <lex disamb="1"><base>kiedy</base><ctag>comp</ctag></lex>
   </tok>
   <tok>
    <orth>znaleziono</orth>
    <lex disamb="1"><base>znaleźć</base><ctag>imps:perf</ctag></lex>
   </tok>
   <tok>
    <orth>ich</orth>
    <lex disamb="1"><base>on</base><ctag>ppron3:pl:gen:m1:ter:akc:npraep</ctag></lex>
   </tok>
   <tok>
    <orth>zwłoki</orth>
    <lex disamb="1"><base>zwłok</base><ctag>subst:pl:nom:m3</ctag></lex>
   </tok>
   <ns/>
   <tok>
    <orth>,</orth>
    <lex disamb="1"><base>,</base><ctag>interp</ctag></lex>
   </tok>
   <tok>
    <orth>były</orth>
    <lex disamb="1"><base>były</base><ctag>subst:sg:nom:m1</ctag></lex>
   </tok>
   <tok>
    <orth>do</orth>
    <lex disamb="1"><base>do</base><ctag>prep:gen</ctag></lex>
   </tok>
   <tok>
    <orth>tego</orth>
    <lex disamb="1"><base>to</base><ctag>subst:sg:gen:n</ctag></lex>
   </tok>
   <tok>
    <orth>stopnia</orth>
    <lex disamb="1"><base>stopień</base><ctag>subst:sg:gen:m3</ctag></lex>
   </tok>
   <tok>
    <orth>zwęglone</orth>
    <lex disamb="1"><base>zwęglić</base><ctag>ppas:sg:nom:n:perf:aff</ctag></lex>
   </tok>
   <ns/>
   <tok>
    <orth>,</orth>
    <lex disamb="1"><base>,</base><ctag>interp</ctag></lex>
   </tok>
   <tok>
    <orth>że</orth>
    <lex disamb="1"><base>że</base><ctag>comp</ctag></lex>
   </tok>
   <tok>
    <orth>nie</orth>
    <lex disamb="1"><base>nie</base><ctag>conj</ctag></lex>
   </tok>
   <tok>
    <orth>dało</orth>
    <lex disamb="1"><base>dać</base><ctag>praet:sg:n:perf</ctag></lex>
   </tok>
   <tok>
    <orth>się</orth>
    <lex disamb="1"><base>się</base><ctag>qub</ctag></lex>
   </tok>
   <tok>
    <orth>ich</orth>
    <lex disamb="1"><base>on</base><ctag>ppron3:pl:gen:m1:ter:akc:npraep</ctag></lex>
   </tok>
   <tok>
    <orth>zidentyfikować</orth>
    <lex disamb="1"><base>zidentyfikować</base><ctag>inf:perf</ctag></lex>
   </tok>
   <ns/>
   <tok>
    <orth>.</orth>
    <lex disamb="1"><base>.</base><ctag>interp</ctag></lex>
   </tok>
  </sentence>
 </chunk>
 <chunk type="p" id="ch2">
  <sentence id="s2">
   <tok>
    <orth>Witamy</orth>
    <lex disamb="1"><base>witać</base><ctag>fin:pl:pri:imperf</ctag></lex>
    <ann chan="nam">0</ann>
    <ann chan="nam_loc_land_continent">0</ann>
    <ann chan="nam_loc">0</ann>
    <ann chan="nam_org">0</ann>
   </tok>
   <tok>
    <orth>w</orth>
    <lex disamb="1"><base>w</base><ctag>prep:acc:nwok</ctag></lex>
    <ann chan="nam">0</ann>
    <ann chan="nam_loc_land_continent">0</ann>
    <ann chan="nam_loc">0</ann>
    <ann chan="nam_org">0</ann>
   </tok>
   <tok>
    <orth>Ameryce</orth>
    <lex disamb="1"><base>Ameryka</base><ctag>subst:sg:dat:f</ctag></lex>
    <ann chan="nam">1</ann>
    <ann chan="nam_loc_land_continent">1</ann>
    <ann chan="nam_loc">1</ann>
    <ann chan="nam_org">0</ann>
   </tok>
   <tok>
    <orth>-</orth>
    <lex disamb="1"><base>-</base><ctag>interp</ctag></lex>
    <ann chan="nam">0</ann>
    <ann chan="nam_loc_land_continent">0</ann>
    <ann chan="nam_loc">0</ann>
    <ann chan="nam_org">0</ann>
   </tok>
   <tok>
    <orth>kraju</orth>
    <lex disamb="1"><base>kraj</base><ctag>subst:sg:gen:m3</ctag></lex>
    <ann chan="nam">0</ann>
    <ann chan="nam_loc_land_continent">0</ann>
    <ann chan="nam_loc">0</ann>
    <ann chan="nam_org">0</ann>
   </tok>
   <ns/>
   <tok>
    <orth>,</orth>
    <lex disamb="1"><base>,</base><ctag>interp</ctag></lex>
    <ann chan="nam">0</ann>
    <ann chan="nam_loc_land_continent">0</ann>
    <ann chan="nam_loc">0</ann>
    <ann chan="nam_org">0</ann>
   </tok>
   <tok>
    <orth>w</orth>
    <lex disamb="1"><base>w</base><ctag>prep:acc:nwok</ctag></lex>
    <ann chan="nam">0</ann>
    <ann chan="nam_loc_land_continent">0</ann>
    <ann chan="nam_loc">0</ann>
    <ann chan="nam_org">0</ann>
   </tok>
   <tok>
    <orth>którym</orth>
    <lex disamb="1"><base>który</base><ctag>adj:sg:inst:m1:pos</ctag></lex>
    <ann chan="nam">0</ann>
    <ann chan="nam_loc_land_continent">0</ann>
    <ann chan="nam_loc">0</ann>
    <ann chan="nam_org">0</ann>
   </tok>
   <tok>
    <orth>Murzyni</orth>
    <lex disamb="1"><base>Murzyn</base><ctag>subst:pl:nom:m1</ctag></lex>
    <lex disamb="1"><base>murzyn</base><ctag>subst:pl:nom:m1</ctag></lex>
    <ann chan="nam">2</ann>
    <ann chan="nam_loc_land_continent">0</ann>
    <ann chan="nam_loc">0</ann>
    <ann chan="nam_org">1</ann>
   </tok>
   <tok>
    <orth>popełniają</orth>
    <lex disamb="1"><base>popełniać</base><ctag>fin:pl:ter:imperf</ctag></lex>
    <ann chan="nam">0</ann>
    <ann chan="nam_loc_land_continent">0</ann>
    <ann chan="nam_loc">0</ann>
    <ann chan="nam_org">0</ann>
   </tok>
   <tok>
    <orth>ponad</orth>
    <lex disamb="1"><base>ponad</base><ctag>qub</ctag></lex>
    <ann chan="nam">0</ann>
    <ann chan="nam_loc_land_continent">0</ann>
    <ann chan="nam_loc">0</ann>
    <ann chan="nam_org">0</ann>
   </tok>
   <tok>
    <orth>60</orth>
    <lex disamb="1"><base>60</base><ctag>num:pl:nom:m1:rec</ctag></lex>
    <ann chan="nam">0</ann>
    <ann chan="nam_loc_land_continent">0</ann>
    <ann chan="nam_loc">0</ann>
    <ann chan="nam_org">0</ann>
   </tok>
   <ns/>
   <tok>
    <orth>%</orth>
    <lex disamb="1"><base>%</base><ctag>interp</ctag></lex>
    <ann chan="nam">0</ann>
    <ann chan="nam_loc_land_continent">0</ann>
    <ann chan="nam_loc">0</ann>
    <ann chan="nam_org">0</ann>
   </tok>
   <tok>
    <orth>morderstw</orth>
    <lex disamb="1"><base>morderstwo</base><ctag>subst:pl:gen:n</ctag></lex>
    <ann chan="nam">0</ann>
    <ann chan="nam_loc_land_continent">0</ann>
    <ann chan="nam_loc">0</ann>
    <ann chan="nam_org">0</ann>
   </tok>
   <ns/>
   <tok>
    <orth>,</orth>
    <lex disamb="1"><base>,</base><ctag>interp</ctag></lex>
    <ann chan="nam">0</ann>
    <ann chan="nam_loc_land_continent">0</ann>
    <ann chan="nam_loc">0</ann>
    <ann chan="nam_org">0</ann>
   </tok>
   <tok>
    <orth>70</orth>
    <lex disamb="1"><base>70</base><ctag>num:pl:nom:m1:rec</ctag></lex>
    <ann chan="nam">0</ann>
    <ann chan="nam_loc_land_continent">0</ann>
    <ann chan="nam_loc">0</ann>
    <ann chan="nam_org">0</ann>
   </tok>
   <ns/>
   <tok>
    <orth>%</orth>
    <lex disamb="1"><base>%</base><ctag>interp</ctag></lex>
    <ann chan="nam">0</ann>
    <ann chan="nam_loc_land_continent">0</ann>
    <ann chan="nam_loc">0</ann>
    <ann chan="nam_org">0</ann>
   </tok>
   <tok>
    <orth>napadów</orth>
    <lex disamb="1"><base>napad</base><ctag>subst:pl:gen:m3</ctag></lex>
    <ann chan="nam">0</ann>
    <ann chan="nam_loc_land_continent">0</ann>
    <ann chan="nam_loc">0</ann>
    <ann chan="nam_org">0</ann>
   </tok>
   <tok>
    <orth>rabunkowych</orth>
    <lex disamb="1"><base>rabunkowy</base><ctag>adj:pl:gen:m1:pos</ctag></lex>
    <ann chan="nam">0</ann>
    <ann chan="nam_loc_land_continent">0</ann>
    <ann chan="nam_loc">0</ann>
    <ann chan="nam_org">0</ann>
   </tok>
   <tok>
    <orth>i</orth>
    <lex disamb="1"><base>i</base><ctag>conj</ctag></lex>
    <ann chan="nam">0</ann>
    <ann chan="nam_loc_land_continent">0</ann>
    <ann chan="nam_loc">0</ann>
    <ann chan="nam_org">0</ann>
   </tok>
   <tok>
    <orth>przeważającą</orth>
    <lex disamb="1"><base>przeważający</base><ctag>adj:sg:acc:f:pos</ctag></lex>
    <ann chan="nam">0</ann>
    <ann chan="nam_loc_land_continent">0</ann>
    <ann chan="nam_loc">0</ann>
    <ann chan="nam_org">0</ann>
   </tok>
   <tok>
    <orth>większość</orth>
    <lex disamb="1"><base>większość</base><ctag>subst:sg:nom:f</ctag></lex>
    <ann chan="nam">0</ann>
    <ann chan="nam_loc_land_continent">0</ann>
    <ann chan="nam_loc">0</ann>
    <ann chan="nam_org">0</ann>
   </tok>
   <tok>
    <orth>przestępstw</orth>
    <lex disamb="1"><base>przestępstwo</base><ctag>subst:pl:gen:n</ctag></lex>
    <ann chan="nam">0</ann>
    <ann chan="nam_loc_land_continent">0</ann>
    <ann chan="nam_loc">0</ann>
    <ann chan="nam_org">0</ann>
   </tok>
   <tok>
    <orth>międzyrasowych</orth>
    <lex disamb="1"><base>międzyrasowy</base><ctag>adj:pl:gen:m1:pos</ctag></lex>
    <ann chan="nam">0</ann>
    <ann chan="nam_loc_land_continent">0</ann>
    <ann chan="nam_loc">0</ann>
    <ann chan="nam_org">0</ann>
   </tok>
   <ns/>
   <tok>
    <orth>.</orth>
    <lex disamb="1"><base>.</base><ctag>interp</ctag></lex>
    <ann chan="nam">0</ann>
    <ann chan="nam_loc_land_continent">0</ann>
    <ann chan="nam_loc">0</ann>
    <ann chan="nam_org">0</ann>
   </tok>
  </sentence>
 </chunk>
</chunkList>