<?xml version="1.0" encoding="UTF-8"?>
<!DOCTYPE chunkList SYSTEM "ccl.dtd">
<chunkList>
 <chunk type="p" id="ch1">
  <sentence id="s1">
   <tok>
    <orth>Podczas</orth>
    <lex disamb="1"><base>podczas</base><ctag>prep:gen</ctag></lex>
    <ann chan="nam">0</ann>
    <ann chan="nam_loc_gpe_country">0</ann>
    <ann chan="nam_loc">0</ann>
    <ann chan="timex">0</ann>
    <ann chan="t3_date">0</ann>
   </tok>
   <tok>
    <orth>wczorajszych</orth>
    <lex disamb="1"><base>wczorajszy</base><ctag>adj:pl:gen:m1:pos</ctag></lex>
    <ann chan="nam">0</ann>
    <ann chan="nam_loc_gpe_country">0</ann>
    <ann chan="nam_loc">0</ann>
    <ann chan="timex">1</ann>
    <ann chan="t3_date">1</ann>
   </tok>
   <tok>
    <orth>burzliwych</orth>
    <lex disamb="1"><base>burzliwy</base><ctag>adj:pl:gen:m1:pos</ctag></lex>
    <ann chan="nam">0</ann>
    <ann chan="nam_loc_gpe_country">0</ann>
    <ann chan="nam_loc">0</ann>
    <ann chan="timex">0</ann>
    <ann chan="t3_date">0</ann>
   </tok>
   <tok>
    <orth>demonstracji</orth>
    <lex disamb="1"><base>demonstracja</base><ctag>subst:sg:gen:f</ctag></lex>
    <ann chan="nam">0</ann>
    <ann chan="nam_loc_gpe_country">0</ann>
    <ann chan="nam_loc">0</ann>
    <ann chan="timex">0</ann>
    <ann chan="t3_date">0</ann>
   </tok>
   <ns/>
   <tok>
    <orth>,</orth>
    <lex disamb="1"><base>,</base><ctag>interp</ctag></lex>
    <ann chan="nam">0</ann>
    <ann chan="nam_loc_gpe_country">0</ann>
    <ann chan="nam_loc">0</ann>
    <ann chan="timex">0</ann>
    <ann chan="t3_date">0</ann>
   </tok>
   <tok>
    <orth>jakie</orth>
    <lex disamb="1"><base>jaki</base><ctag>adj:sg:nom:n:pos</ctag></lex>
    <ann chan="nam">0</ann>
    <ann chan="nam_loc_gpe_country">0</ann>
    <ann chan="nam_loc">0</ann>
    <ann chan="timex">0</ann>
    <ann chan="t3_date">0</ann>
   </tok>
   <tok>
    <orth>ogarnęły</orth>
    <lex disamb="1"><base>ogarnąć</base><ctag>praet:pl:m2:perf</ctag></lex>
    <ann chan="nam">0</ann>
    <ann chan="nam_loc_gpe_country">0</ann>
    <ann chan="nam_loc">0</ann>
    <ann chan="timex">0</ann>
    <ann chan="t3_date">0</ann>
   </tok>
   <tok>
    <orth>Francję</orth>
    <lex disamb="1"><base>Francja</base><ctag>subst:sg:acc:f</ctag></lex>
    <ann chan="nam">1</ann>
    <ann chan="nam_loc_gpe_country">1</ann>
    <ann chan="nam_loc">1</ann>
    <ann chan="timex">0</ann>
    <ann chan="t3_date">0</ann>
   </tok>
   <ns/>
   <tok>
    <orth>,</orth>
    <lex disamb="1"><base>,</base><ctag>interp</ctag></lex>
    <ann chan="nam">0</ann>
    <ann chan="nam_loc_gpe_country">0</ann>
    <ann chan="nam_loc">0</ann>
    <ann chan="timex">0</ann>
    <ann chan="t3_date">0</ann>
   </tok>
   <tok>
    <orth>jedno</orth>
    <lex disamb="1"><base>jedno</base><ctag>qub</ctag></lex>
    <ann chan="nam">0</ann>
    <ann chan="nam_loc_gpe_country">0</ann>
    <ann chan="nam_loc">0</ann>
    <ann chan="timex">0</ann>
    <ann chan="t3_date">0</ann>
   </tok>
   <tok>
    <orth>zdarzenie</orth>
    <lex disamb="1"><base>zdarzenie</base><ctag>subst:sg:nom:n</ctag></lex>
    <ann chan="nam">0</ann>
    <ann chan="nam_loc_gpe_country">0</ann>
    <ann chan="nam_loc">0</ann>
    <ann chan="timex">0</ann>
    <ann chan="t3_date">0</ann>
   </tok>
   <tok>
    <orth>niezwykle</orth>
    <lex disamb="1"><base>niezwykle</base><ctag>adv:pos</ctag></lex>
    <ann chan="nam">0</ann>
    <ann chan="nam_loc_gpe_country">0</ann>
    <ann chan="nam_loc">0</ann>
    <ann chan="timex">0</ann>
    <ann chan="t3_date">0</ann>
   </tok>
   <tok>
    <orth>wzburzyło</orth>
    <lex disamb="1"><base>wzburzyć</base><ctag>praet:sg:n:perf</ctag></lex>
    <ann chan="nam">0</ann>
    <ann chan="nam_loc_gpe_country">0</ann>
    <ann chan="nam_loc">0</ann>
    <ann chan="timex">0</ann>
    <ann chan="t3_date">0</ann>
   </tok>
   <tok>
    <orth>opinię</orth>
    <lex disamb="1"><base>opinia</base><ctag>subst:sg:acc:f</ctag></lex>
    <ann chan="nam">0</ann>
    <ann chan="nam_loc_gpe_country">0</ann>
    <ann chan="nam_loc">0</ann>
    <ann chan="timex">0</ann>
    <ann chan="t3_date">0</ann>
   </tok>
   <tok>
    <orth>publiczną</orth>
    <lex disamb="1"><base>publiczny</base><ctag>adj:sg:acc:f:pos</ctag></lex>
    <ann chan="nam">0</ann>
    <ann chan="nam_loc_gpe_country">0</ann>
    <ann chan="nam_loc">0</ann>
    <ann chan="timex">0</ann>
    <ann chan="t3_date">0</ann>
   </tok>
   <tok>
    <orth>a</orth>
    <lex disamb="1"><base>a</base><ctag>conj</ctag></lex>
    <ann chan="nam">0</ann>
    <ann chan="nam_loc_gpe_country">0</ann>
    <ann chan="nam_loc">0</ann>
    <ann chan="timex">0</ann>
    <ann chan="t3_date">0</ann>
   </tok>
   <tok>
    <orth>nagranie</orth>
    <lex disamb="1"><base>nagranie</base><ctag>subst:sg:nom:n</ctag></lex>
    <ann chan="nam">0</ann>
    <ann chan="nam_loc_gpe_country">0</ann>
    <ann chan="nam_loc">0</ann>
    <ann chan="timex">0</ann>
    <ann chan="t3_date">0</ann>
   </tok>
   <tok>
    <orth>krąży</orth>
    <lex disamb="1"><base>krążyć</base><ctag>fin:sg:ter:imperf</ctag></lex>
    <ann chan="nam">0</ann>
    <ann chan="nam_loc_gpe_country">0</ann>
    <ann chan="nam_loc">0</ann>
    <ann chan="timex">0</ann>
    <ann chan="t3_date">0</ann>
   </tok>
   <tok>
    <orth>po</orth>
    <lex disamb="1"><base>po</base><ctag>prep:acc</ctag></lex>
    <ann chan="nam">0</ann>
    <ann chan="nam_loc_gpe_country">0</ann>
    <ann chan="nam_loc">0</ann>
    <ann chan="timex">0</ann>
    <ann chan="t3_date">0</ann>
   </tok>
   <tok>
    <orth>internecie</orth>
    <lex disamb="1"><base>internet</base><ctag>subst:sg:loc:m3</ctag></lex>
    <ann chan="nam">0</ann>
    <ann chan="nam_loc_gpe_country">0</ann>
    <ann chan="nam_loc">0</ann>
    <ann chan="timex">0</ann>
    <ann chan="t3_date">0</ann>
   </tok>
   <tok>
    <orth>bijąc</orth>
    <lex disamb="1"><base>bić</base><ctag>pcon:imperf</ctag></lex>
    <ann chan="nam">0</ann>
    <ann chan="nam_loc_gpe_country">0</ann>
    <ann chan="nam_loc">0</ann>
    <ann chan="timex">0</ann>
    <ann chan="t3_date">0</ann>
   </tok>
   <tok>
    <orth>rekordy</orth>
    <lex disamb="1"><base>rekord</base><ctag>subst:pl:nom:m3</ctag></lex>
    <ann chan="nam">0</ann>
    <ann chan="nam_loc_gpe_country">0</ann>
    <ann chan="nam_loc">0</ann>
    <ann chan="timex">0</ann>
    <ann chan="t3_date">0</ann>
   </tok>
   <tok>
    <orth>popularności</orth>
    <lex disamb="1"><base>popularność</base><ctag>subst:sg:gen:f</ctag></lex>
    <ann chan="nam">0</ann>
    <ann chan="nam_loc_gpe_country">0</ann>
    <ann chan="nam_loc">0</ann>
    <ann chan="timex">0</ann>
    <ann chan="t3_date">0</ann>
   </tok>
   <ns/>
   <tok>
    <orth>.</orth>
    <lex disamb="1"><base>.</base><ctag>interp</ctag></lex>
    <ann chan="nam">0</ann>
    <ann chan="nam_loc_gpe_country">0</ann>
    <ann chan="nam_loc">0</ann>
    <ann chan="timex">0</ann>
    <ann chan="t3_date">0</ann>
   </tok>
  </sentence>
 </chunk>
 <chunk type="p" id="ch2">
  <sentence id="s2">
   <tok>
    <orth>W</orth>
    <lex disamb="1"><base>w</base><ctag>prep:acc:nwok</ctag></lex>
    <ann chan="nam">0</ann>
    <ann chan="nam_loc_gpe_city">0</ann>
    <ann chan="nam_loc_gpe_country">0</ann>
    <ann chan="nam_loc">0</ann>
   </tok>
   <tok>
    <orth>Bordeaux</orth>
    <lex disamb="1"><base>Bordeaux</base><ctag>subst:sg:nom:n</ctag></lex>
    <lex disamb="1"><base>bordeaux</base><ctag>subst:sg:nom:n</ctag></lex>
    <ann chan="nam">1</ann>
    <ann chan="nam_loc_gpe_city">1</ann>
    <ann chan="nam_loc_gpe_country">0</ann>
    <ann chan="nam_loc">1</ann>
   </tok>
   <ns/>
   <tok>
    <orth>,</orth>
    <lex disamb="1"><base>,</base><ctag>interp</ctag></lex>
    <ann chan="nam">0</ann>
    <ann chan="nam_loc_gpe_city">0</ann>
    <ann chan="nam_loc_gpe_country">0</ann>
    <ann chan="nam_loc">0</ann>
   </tok>
   <tok>
    <orth>w</orth>
    <lex disamb="1"><base>w</base><ctag>prep:acc:nwok</ctag></lex>
    <ann chan="nam">0</ann>
    <ann chan="nam_loc_gpe_city">0</ann>
    <ann chan="nam_loc_gpe_country">0</ann>
    <ann chan="nam_loc">0</ann>
   </tok>
   <tok>
    <orth>południowo</orth>
    <lex disamb="1"><base>południowo</base><ctag>adv:pos</ctag></lex>
    <ann chan="nam">0</ann>
    <ann chan="nam_loc_gpe_city">0</ann>
    <ann chan="nam_loc_gpe_country">0</ann>
    <ann chan="nam_loc">0</ann>
   </tok>
   <ns/>
   <tok>
    <orth>-</orth>
    <lex disamb="1"><base>-</base><ctag>interp</ctag></lex>
    <ann chan="nam">0</ann>
    <ann chan="nam_loc_gpe_city">0</ann>
    <ann chan="nam_loc_gpe_country">0</ann>
    <ann chan="nam_loc">0</ann>
   </tok>
   <ns/>
   <tok>
    <orth>zachodniej</orth>
    <lex disamb="1"><base>zachodni</base><ctag>adj:sg:gen:f:pos</ctag></lex>
    <ann chan="nam">0</ann>
    <ann chan="nam_loc_gpe_city">0</ann>
    <ann chan="nam_loc_gpe_country">0</ann>
    <ann chan="nam_loc">0</ann>
   </tok>
   <tok>
    <orth>Francji</orth>
    <lex disamb="1"><base>Francja</base><ctag>subst:sg:gen:f</ctag></lex>
    <ann chan="nam">2</ann>
    <ann chan="nam_loc_gpe_city">0</ann>
    <ann chan="nam_loc_gpe_country">1</ann>
    <ann chan="nam_loc">2</ann>
   </tok>
   <ns/>
   <tok>
    <orth>,</orth>
    <lex disamb="1"><base>,</base><ctag>interp</ctag></lex>
    <ann chan="nam">0</ann>
    <ann chan="nam_loc_gpe_city">0</ann>
    <ann chan="nam_loc_gpe_country">0</ann>
    <ann chan="nam_loc">0</ann>
   </tok>
   <tok>
    <orth>na</orth>
    <lex disamb="1"><base>na</base><ctag>prep:acc</ctag></lex>
    <ann chan="nam">0</ann>
    <ann chan="nam_loc_gpe_city">0</ann>
    <ann chan="nam_loc_gpe_country">0</ann>
    <ann chan="nam_loc">0</ann>
   </tok>
   <tok>
    <orth>ulice</orth>
    <lex disamb="1"><base>ulica</base><ctag>subst:pl:nom:f</ctag></lex>
    <ann chan="nam">0</ann>
    <ann chan="nam_loc_gpe_city">0</ann>
    <ann chan="nam_loc_gpe_country">0</ann>
    <ann chan="nam_loc">0</ann>
   </tok>
   <tok>
    <orth>wyległo</orth>
    <lex disamb="1"><base>wylec</base><ctag>praet:sg:n:perf</ctag></lex>
    <ann chan="nam">0</ann>
    <ann chan="nam_loc_gpe_city">0</ann>
    <ann chan="nam_loc_gpe_country">0</ann>
    <ann chan="nam_loc">0</ann>
   </tok>
   <tok>
    <orth>8</orth>
    <lex disamb="1"><base>8</base><ctag>num:pl:nom:m1:rec</ctag></lex>
    <ann chan="nam">0</ann>
    <ann chan="nam_loc_gpe_city">0</ann>
    <ann chan="nam_loc_gpe_country">0</ann>
    <ann chan="nam_loc">0</ann>
   </tok>
   <ns/>
   <tok>
    <orth>-</orth>
    <lex disamb="1"><base>-</base><ctag>interp</ctag></lex>
    <ann chan="nam">0</ann>
    <ann chan="nam_loc_gpe_city">0</ann>
    <ann chan="nam_loc_gpe_country">0</ann>
    <ann chan="nam_loc">0</ann>
   </tok>
   <ns/>
   <tok>
    <orth>10</orth>
    <lex disamb="1"><base>10</base><ctag>num:pl:nom:m1:rec</ctag></lex>
    <ann chan="nam">0</ann>
    <ann chan="nam_loc_gpe_city">0</ann>
    <ann chan="nam_loc_gpe_country">0</ann>
    <ann chan="nam_loc">0</ann>
   </tok>
   <tok>
    <orth>tysięcy</orth>
    <lex disamb="1"><base>tysiąc</base><ctag>subst:pl:gen:m2</ctag></lex>
    <ann chan="nam">0</ann>
    <ann chan="nam_loc_gpe_city">0</ann>
    <ann chan="nam_loc_gpe_country">0</ann>
    <ann chan="nam_loc">0</ann>
   </tok>
   <tok>
    <orth>osób</orth>
    <lex disamb="1"><base>osoba</base><ctag>subst:pl:gen:f</ctag></lex>
    <ann chan="nam">0</ann>
    <ann chan="nam_loc_gpe_city">0</ann>
    <ann chan="nam_loc_gpe_country">0</ann>
    <ann chan="nam_loc">0</ann>
   </tok>
   <tok>
    <orth>(</orth>
    <lex disamb="1"><base>(</base><ctag>interp</ctag></lex>
    <ann chan="nam">0</ann>
    <ann chan="nam_loc_gpe_city">0</ann>
    <ann chan="nam_loc_gpe_country">0</ann>
    <ann chan="nam_loc">0</ann>
   </tok>
   <ns/>
   <tok>
    <orth>wg</orth>
    <lex disamb="1"><base>według</base><ctag>brev:npun</ctag></lex>
    <ann chan="nam">0</ann>
    <ann chan="nam_loc_gpe_city">0</ann>
    <ann chan="nam_loc_gpe_country">0</ann>
    <ann chan="nam_loc">0</ann>
   </tok>
   <tok>
    <orth>szacunków</orth>
    <lex disamb="1"><base>szacunek</base><ctag>subst:pl:gen:m3</ctag></lex>
    <ann chan="nam">0</ann>
    <ann chan="nam_loc_gpe_city">0</ann>
    <ann chan="nam_loc_gpe_country">0</ann>
    <ann chan="nam_loc">0</ann>
   </tok>
   <tok>
    <orth>policji</orth>
    <lex disamb="1"><base>policja</base><ctag>subst:sg:gen:f</ctag></lex>
    <ann chan="nam">0</ann>
    <ann chan="nam_loc_gpe_city">0</ann>
    <ann chan="nam_loc_gpe_country">0</ann>
    <ann chan="nam_loc">0</ann>
   </tok>
   <ns/>
   <tok>
    <orth>)</orth>
    <lex disamb="1"><base>)</base><ctag>interp</ctag></lex>
    <ann chan="nam">0</ann>
    <ann chan="nam_loc_gpe_city">0</ann>
    <ann chan="nam_loc_gpe_country">0</ann>
    <ann chan="nam_loc">0</ann>
   </tok>
   <ns/>
   <tok>
    <orth>.</orth>
    <lex disamb="1"><base>.</base><ctag>interp</ctag></lex>
    <ann chan="nam">0</ann>
    <ann chan="nam_loc_gpe_city">0</ann>
    <ann chan="nam_loc_gpe_country">0</ann>
    <ann chan="nam_loc">0</ann>
   </tok>
   <ns/>
   <tok>
    <orth>.</orth>
    <lex disamb="1"><base>.</base><ctag>interp</ctag></lex>
    <ann chan="nam">0</ann>
    <ann chan="nam_loc_gpe_city">0</ann>
    <ann chan="nam_loc_gpe_country">0</ann>
    <ann chan="nam_loc">0</ann>
   </tok>
   <ns/>
   <tok>
    <orth>.</orth>
    <lex disamb="1"><base>.</base><ctag>interp</ctag></lex>
    <ann chan="nam">0</ann>
    <ann chan="nam_loc_gpe_city">0</ann>
    <ann chan="nam_loc_gpe_country">0</ann>
    <ann chan="nam_loc">0</ann>
   </tok>
   <ns/>
   <tok>
    <orth>.</orth>
    <lex disamb="1"><base>.</base><ctag>interp</ctag></lex>
    <ann chan="nam">0</ann>
    <ann chan="nam_loc_gpe_city">0</ann>
    <ann chan="nam_loc_gpe_country">0</ann>
    <ann chan="nam_loc">0</ann>
   </tok>
  </sentence>
 </chunk>
</chunkList>