<?xml version="1.0" encoding="UTF-8"?>
<!DOCTYPE chunkList SYSTEM "ccl.dtd">
<chunkList>
 <chunk type="p" id="ch1">
  <sentence id="s1">
   <tok>
    <orth>Choć</orth>
    <lex disamb="1"><base>choć</base><ctag>comp</ctag></lex>
    <ann chan="nam">0</ann>
    <ann chan="nam_loc_gpe_country">0</ann>
    <ann chan="nam_loc">0</ann>
   </tok>
   <tok>
    <orth>Niemcy</orth>
    <lex disamb="1"><base>Niemcy</base><ctag>subst:pl:nom:n</ctag></lex>
    <ann chan="nam">1</ann>
    <ann chan="nam_loc_gpe_country">1</ann>
    <ann chan="nam_loc">1</ann>
   </tok>
   <tok>
    <orth>zarabiają</orth>
    <lex disamb="1"><base>zarabiać</base><ctag>fin:pl:ter:imperf</ctag></lex>
    <ann chan="nam">0</ann>
    <ann chan="nam_loc_gpe_country">0</ann>
    <ann chan="nam_loc">0</ann>
   </tok>
   <tok>
    <orth>znacznie</orth>
    <lex disamb="1"><base>znacznie</base><ctag>adv:pos</ctag></lex>
    <ann chan="nam">0</ann>
    <ann chan="nam_loc_gpe_country">0</ann>
    <ann chan="nam_loc">0</ann>
   </tok>
   <tok>
    <orth>więcej</orth>
    <lex disamb="1"><base>dużo</base><ctag>adv:pos</ctag></lex>
    <lex disamb="1"><base>więcej</base><ctag>adv:pos</ctag></lex>
    <ann chan="nam">0</ann>
    <ann chan="nam_loc_gpe_country">0</ann>
    <ann chan="nam_loc">0</ann>
   </tok>
   <tok>
    <orth>od</orth>
    <lex disamb="1"><base>od</base><ctag>prep:gen:nwok</ctag></lex>
    <ann chan="nam">0</ann>
    <ann chan="nam_loc_gpe_country">0</ann>
    <ann chan="nam_loc">0</ann>
   </tok>
   <tok>
    <orth>nas</orth>
    <lex disamb="1"><base>my</base><ctag>ppron12:pl:gen:m1:pri</ctag></lex>
    <ann chan="nam">0</ann>
    <ann chan="nam_loc_gpe_country">0</ann>
    <ann chan="nam_loc">0</ann>
   </tok>
   <ns/>
   <tok>
    <orth>,</orth>
    <lex disamb="1"><base>,</base><ctag>interp</ctag></lex>
    <ann chan="nam">0</ann>
    <ann chan="nam_loc_gpe_country">0</ann>
    <ann chan="nam_loc">0</ann>
   </tok>
   <tok>
    <orth>wiele</orth>
    <lex disamb="1"><base>wiele</base><ctag>adv:pos</ctag></lex>
    <ann chan="nam">0</ann>
    <ann chan="nam_loc_gpe_country">0</ann>
    <ann chan="nam_loc">0</ann>
   </tok>
   <tok>
    <orth>produktów</orth>
    <lex disamb="1"><base>produkt</base><ctag>subst:pl:gen:m3</ctag></lex>
    <ann chan="nam">0</ann>
    <ann chan="nam_loc_gpe_country">0</ann>
    <ann chan="nam_loc">0</ann>
   </tok>
   <tok>
    <orth>w</orth>
    <lex disamb="1"><base>w</base><ctag>prep:acc:nwok</ctag></lex>
    <ann chan="nam">0</ann>
    <ann chan="nam_loc_gpe_country">0</ann>
    <ann chan="nam_loc">0</ann>
   </tok>
   <tok>
    <orth>swoich</orth>
    <lex disamb="1"><base>swoje</base><ctag>subst:pl:gen:n</ctag></lex>
    <ann chan="nam">0</ann>
    <ann chan="nam_loc_gpe_country">0</ann>
    <ann chan="nam_loc">0</ann>
   </tok>
   <tok>
    <orth>sklepach</orth>
    <lex disamb="1"><base>sklep</base><ctag>subst:pl:loc:m3</ctag></lex>
    <ann chan="nam">0</ann>
    <ann chan="nam_loc_gpe_country">0</ann>
    <ann chan="nam_loc">0</ann>
   </tok>
   <tok>
    <orth>mogą</orth>
    <lex disamb="1"><base>móc</base><ctag>fin:pl:ter:imperf</ctag></lex>
    <ann chan="nam">0</ann>
    <ann chan="nam_loc_gpe_country">0</ann>
    <ann chan="nam_loc">0</ann>
   </tok>
   <tok>
    <orth>kupić</orth>
    <lex disamb="1"><base>kupić</base><ctag>inf:imperf</ctag></lex>
    <ann chan="nam">0</ann>
    <ann chan="nam_loc_gpe_country">0</ann>
    <ann chan="nam_loc">0</ann>
   </tok>
   <tok>
    <orth>taniej</orth>
    <lex disamb="1"><base>tanio</base><ctag>adv:pos</ctag></lex>
    <ann chan="nam">0</ann>
    <ann chan="nam_loc_gpe_country">0</ann>
    <ann chan="nam_loc">0</ann>
   </tok>
   <tok>
    <orth>niż</orth>
    <lex disamb="1"><base>niż</base><ctag>conj</ctag></lex>
    <ann chan="nam">0</ann>
    <ann chan="nam_loc_gpe_country">0</ann>
    <ann chan="nam_loc">0</ann>
   </tok>
   <tok>
    <orth>w</orth>
    <lex disamb="1"><base>w</base><ctag>prep:acc:nwok</ctag></lex>
    <ann chan="nam">0</ann>
    <ann chan="nam_loc_gpe_country">0</ann>
    <ann chan="nam_loc">0</ann>
   </tok>
   <tok>
    <orth>Polsce</orth>
    <lex disamb="1"><base>Polska</base><ctag>subst:sg:dat:f</ctag></lex>
    <ann chan="nam">2</ann>
    <ann chan="nam_loc_gpe_country">2</ann>
    <ann chan="nam_loc">2</ann>
   </tok>
   <ns/>
   <tok>
    <orth>.</orth>
    <lex disamb="1"><base>.</base><ctag>interp</ctag></lex>
    <ann chan="nam">0</ann>
    <ann chan="nam_loc_gpe_country">0</ann>
    <ann chan="nam_loc">0</ann>
   </tok>
  </sentence>
 </chunk>
 <chunk type="p" id="ch2">
  <sentence id="s2">
   <tok>
    <orth>Te</orth>
    <lex disamb="1"><base>te</base><ctag>subst:sg:nom:n</ctag></lex>
    <ann chan="nam">0</ann>
    <ann chan="nam_loc_gpe_country">0</ann>
    <ann chan="nam_loc">0</ann>
   </tok>
   <tok>
    <orth>same</orth>
    <lex disamb="1"><base>sam</base><ctag>adj:pl:nom:m2:pos</ctag></lex>
    <ann chan="nam">0</ann>
    <ann chan="nam_loc_gpe_country">0</ann>
    <ann chan="nam_loc">0</ann>
   </tok>
   <tok>
    <orth>towary</orth>
    <lex disamb="1"><base>towar</base><ctag>subst:pl:nom:m3</ctag></lex>
    <ann chan="nam">0</ann>
    <ann chan="nam_loc_gpe_country">0</ann>
    <ann chan="nam_loc">0</ann>
   </tok>
   <tok>
    <orth>tańsze</orth>
    <lex disamb="1"><base>tani</base><ctag>adj:sg:nom:n:com</ctag></lex>
    <ann chan="nam">0</ann>
    <ann chan="nam_loc_gpe_country">0</ann>
    <ann chan="nam_loc">0</ann>
   </tok>
   <tok>
    <orth>niż</orth>
    <lex disamb="1"><base>niż</base><ctag>conj</ctag></lex>
    <ann chan="nam">0</ann>
    <ann chan="nam_loc_gpe_country">0</ann>
    <ann chan="nam_loc">0</ann>
   </tok>
   <tok>
    <orth>u</orth>
    <lex disamb="1"><base>u</base><ctag>prep:gen</ctag></lex>
    <ann chan="nam">0</ann>
    <ann chan="nam_loc_gpe_country">0</ann>
    <ann chan="nam_loc">0</ann>
   </tok>
   <tok>
    <orth>nas</orth>
    <lex disamb="1"><base>my</base><ctag>ppron12:pl:gen:m1:pri</ctag></lex>
    <ann chan="nam">0</ann>
    <ann chan="nam_loc_gpe_country">0</ann>
    <ann chan="nam_loc">0</ann>
   </tok>
   <tok>
    <orth>są</orth>
    <lex disamb="1"><base>być</base><ctag>fin:pl:ter:imperf</ctag></lex>
    <ann chan="nam">0</ann>
    <ann chan="nam_loc_gpe_country">0</ann>
    <ann chan="nam_loc">0</ann>
   </tok>
   <tok>
    <orth>też</orth>
    <lex disamb="1"><base>też</base><ctag>qub</ctag></lex>
    <ann chan="nam">0</ann>
    <ann chan="nam_loc_gpe_country">0</ann>
    <ann chan="nam_loc">0</ann>
   </tok>
   <tok>
    <orth>w</orth>
    <lex disamb="1"><base>w</base><ctag>prep:acc:nwok</ctag></lex>
    <ann chan="nam">0</ann>
    <ann chan="nam_loc_gpe_country">0</ann>
    <ann chan="nam_loc">0</ann>
   </tok>
   <tok>
    <orth>Czechach</orth>
    <lex disamb="1"><base>Czech</base><ctag>subst:pl:loc:m1</ctag></lex>
    <ann chan="nam">1</ann>
    <ann chan="nam_loc_gpe_country">1</ann>
    <ann chan="nam_loc">1</ann>
   </tok>
   <ns/>
   <tok>
    <orth>.</orth>
    <lex disamb="1"><base>.</base><ctag>interp</ctag></lex>
    <ann chan="nam">0</ann>
    <ann chan="nam_loc_gpe_country">0</ann>
    <ann chan="nam_loc">0</ann>
   </tok>
  </sentence>
 </chunk>
 <chunk type="p" id="ch3">
  <sentence id="s3">
   <tok>
    <orth>Główny</orth>
    <lex disamb="1"><base>główny</base><ctag>adj:sg:nom:m1:pos</ctag></lex>
    <ann chan="nam">1</ann>
    <ann chan="nam_org_institution">1</ann>
    <ann chan="nam_loc_gpe_country">0</ann>
    <ann chan="nam_loc_gpe_city">0</ann>
    <ann chan="nam_org">1</ann>
    <ann chan="nam_loc">0</ann>
   </tok>
   <tok>
    <orth>Urząd</orth>
    <lex disamb="1"><base>urząd</base><ctag>subst:sg:nom:m3</ctag></lex>
    <ann chan="nam">1</ann>
    <ann chan="nam_org_institution">1</ann>
    <ann chan="nam_loc_gpe_country">0</ann>
    <ann chan="nam_loc_gpe_city">0</ann>
    <ann chan="nam_org">1</ann>
    <ann chan="nam_loc">0</ann>
   </tok>
   <tok>
    <orth>Statystyczny</orth>
    <lex disamb="1"><base>statystyczny</base><ctag>adj:sg:nom:m1:pos</ctag></lex>
    <ann chan="nam">1</ann>
    <ann chan="nam_org_institution">1</ann>
    <ann chan="nam_loc_gpe_country">0</ann>
    <ann chan="nam_loc_gpe_city">0</ann>
    <ann chan="nam_org">1</ann>
    <ann chan="nam_loc">0</ann>
   </tok>
   <tok>
    <orth>wysłał</orth>
    <lex disamb="1"><base>wysłać</base><ctag>praet:sg:m1:perf</ctag></lex>
    <ann chan="nam">0</ann>
    <ann chan="nam_org_institution">0</ann>
    <ann chan="nam_loc_gpe_country">0</ann>
    <ann chan="nam_loc_gpe_city">0</ann>
    <ann chan="nam_org">0</ann>
    <ann chan="nam_loc">0</ann>
   </tok>
   <tok>
    <orth>swoich</orth>
    <lex disamb="1"><base>swoje</base><ctag>subst:pl:gen:n</ctag></lex>
    <ann chan="nam">0</ann>
    <ann chan="nam_org_institution">0</ann>
    <ann chan="nam_loc_gpe_country">0</ann>
    <ann chan="nam_loc_gpe_city">0</ann>
    <ann chan="nam_org">0</ann>
    <ann chan="nam_loc">0</ann>
   </tok>
   <tok>
    <orth>ankieterów</orth>
    <lex disamb="1"><base>ankieter</base><ctag>subst:pl:gen:m1</ctag></lex>
    <ann chan="nam">0</ann>
    <ann chan="nam_org_institution">0</ann>
    <ann chan="nam_loc_gpe_country">0</ann>
    <ann chan="nam_loc_gpe_city">0</ann>
    <ann chan="nam_org">0</ann>
    <ann chan="nam_loc">0</ann>
   </tok>
   <tok>
    <orth>do</orth>
    <lex disamb="1"><base>do</base><ctag>prep:gen</ctag></lex>
    <ann chan="nam">0</ann>
    <ann chan="nam_org_institution">0</ann>
    <ann chan="nam_loc_gpe_country">0</ann>
    <ann chan="nam_loc_gpe_city">0</ann>
    <ann chan="nam_org">0</ann>
    <ann chan="nam_loc">0</ann>
   </tok>
   <tok>
    <orth>kilkuset</orth>
    <lex disamb="1"><base>kilkaset</base><ctag>num:pl:nom:m1:rec</ctag></lex>
    <lex disamb="1"><base>kilkaset</base><ctag>num:pl:nom:m1:rec</ctag></lex>
    <lex disamb="1"><base>kilkaset</base><ctag>num:pl:nom:m1:rec</ctag></lex>
    <lex disamb="1"><base>kilkaset</base><ctag>num:pl:nom:m1:rec</ctag></lex>
    <lex disamb="1"><base>kilkaset</base><ctag>num:pl:nom:m1:rec</ctag></lex>
    <lex disamb="1"><base>kilkaset</base><ctag>num:pl:nom:m1:rec</ctag></lex>
    <lex disamb="1"><base>kilkaset</base><ctag>num:pl:nom:m1:rec</ctag></lex>
    <lex disamb="1"><base>kilkaset</base><ctag>num:pl:nom:m1:rec</ctag></lex>
    <lex disamb="1"><base>kilkaset</base><ctag>num:pl:nom:m1:rec</ctag></lex>
    <lex disamb="1"><base>kilkaset</base><ctag>num:pl:nom:m1:rec</ctag></lex>
    <lex disamb="1"><base>kilkaset</base><ctag>num:pl:nom:m1:rec</ctag></lex>
    <lex disamb="1"><base>kilkaset</base><ctag>num:pl:nom:m1:rec</ctag></lex>
    <lex disamb="1"><base>kilkaset</base><ctag>num:pl:nom:m1:rec</ctag></lex>
    <lex disamb="1"><base>kilkaset</base><ctag>num:pl:nom:m1:rec</ctag></lex>
    <lex disamb="1"><base>kilkaset</base><ctag>num:pl:nom:m1:rec</ctag></lex>
    <lex disamb="1"><base>kilkaset</base><ctag>num:pl:nom:m1:rec</ctag></lex>
    <lex disamb="1"><base>kilkaset</base><ctag>num:pl:nom:m1:rec</ctag></lex>
    <lex disamb="1"><base>kilkaset</base><ctag>num:pl:nom:m1:rec</ctag></lex>
    <lex disamb="1"><base>kilkaset</base><ctag>num:pl:nom:m1:rec</ctag></lex>
    <lex disamb="1"><base>kilkaset</base><ctag>num:pl:nom:m1:rec</ctag></lex>
    <lex disamb="1"><base>kilkaset</base><ctag>num:pl:nom:m1:rec</ctag></lex>
    <lex disamb="1"><base>kilkaset</base><ctag>num:pl:nom:m1:rec</ctag></lex>
    <lex disamb="1"><base>kilkaset</base><ctag>num:pl:nom:m1:rec</ctag></lex>
    <ann chan="nam">0</ann>
    <ann chan="nam_org_institution">0</ann>
    <ann chan="nam_loc_gpe_country">0</ann>
    <ann chan="nam_loc_gpe_city">0</ann>
    <ann chan="nam_org">0</ann>
    <ann chan="nam_loc">0</ann>
   </tok>
   <tok>
    <orth>sklepów</orth>
    <lex disamb="1"><base>sklep</base><ctag>subst:pl:gen:m3</ctag></lex>
    <ann chan="nam">0</ann>
    <ann chan="nam_org_institution">0</ann>
    <ann chan="nam_loc_gpe_country">0</ann>
    <ann chan="nam_loc_gpe_city">0</ann>
    <ann chan="nam_org">0</ann>
    <ann chan="nam_loc">0</ann>
   </tok>
   <tok>
    <orth>w</orth>
    <lex disamb="1"><base>w</base><ctag>prep:acc:nwok</ctag></lex>
    <ann chan="nam">0</ann>
    <ann chan="nam_org_institution">0</ann>
    <ann chan="nam_loc_gpe_country">0</ann>
    <ann chan="nam_loc_gpe_city">0</ann>
    <ann chan="nam_org">0</ann>
    <ann chan="nam_loc">0</ann>
   </tok>
   <tok>
    <orth>przygranicznych</orth>
    <lex disamb="1"><base>przygraniczny</base><ctag>adj:pl:gen:m1:pos</ctag></lex>
    <ann chan="nam">0</ann>
    <ann chan="nam_org_institution">0</ann>
    <ann chan="nam_loc_gpe_country">0</ann>
    <ann chan="nam_loc_gpe_city">0</ann>
    <ann chan="nam_org">0</ann>
    <ann chan="nam_loc">0</ann>
   </tok>
   <tok>
    <orth>regionach</orth>
    <lex disamb="1"><base>region</base><ctag>subst:pl:loc:m3</ctag></lex>
    <ann chan="nam">0</ann>
    <ann chan="nam_org_institution">0</ann>
    <ann chan="nam_loc_gpe_country">0</ann>
    <ann chan="nam_loc_gpe_city">0</ann>
    <ann chan="nam_org">0</ann>
    <ann chan="nam_loc">0</ann>
   </tok>
   <tok>
    <orth>Czech</orth>
    <lex disamb="1"><base>Czech</base><ctag>subst:sg:nom:m1</ctag></lex>
    <ann chan="nam">2</ann>
    <ann chan="nam_org_institution">0</ann>
    <ann chan="nam_loc_gpe_country">1</ann>
    <ann chan="nam_loc_gpe_city">0</ann>
    <ann chan="nam_org">0</ann>
    <ann chan="nam_loc">1</ann>
   </tok>
   <ns/>
   <tok>
    <orth>,</orth>
    <lex disamb="1"><base>,</base><ctag>interp</ctag></lex>
    <ann chan="nam">0</ann>
    <ann chan="nam_org_institution">0</ann>
    <ann chan="nam_loc_gpe_country">0</ann>
    <ann chan="nam_loc_gpe_city">0</ann>
    <ann chan="nam_org">0</ann>
    <ann chan="nam_loc">0</ann>
   </tok>
   <tok>
    <orth>Niemiec</orth>
    <lex disamb="1"><base>Niemcy</base><ctag>subst:pl:gen:n</ctag></lex>
    <ann chan="nam">3</ann>
    <ann chan="nam_org_institution">0</ann>
    <ann chan="nam_loc_gpe_country">2</ann>
    <ann chan="nam_loc_gpe_city">0</ann>
    <ann chan="nam_org">0</ann>
    <ann chan="nam_loc">2</ann>
   </tok>
   <tok>
    <orth>i</orth>
    <lex disamb="1"><base>i</base><ctag>conj</ctag></lex>
    <ann chan="nam">0</ann>
    <ann chan="nam_org_institution">0</ann>
    <ann chan="nam_loc_gpe_country">0</ann>
    <ann chan="nam_loc_gpe_city">0</ann>
    <ann chan="nam_org">0</ann>
    <ann chan="nam_loc">0</ann>
   </tok>
   <tok>
    <orth>na</orth>
    <lex disamb="1"><base>na</base><ctag>prep:acc</ctag></lex>
    <ann chan="nam">0</ann>
    <ann chan="nam_org_institution">0</ann>
    <ann chan="nam_loc_gpe_country">0</ann>
    <ann chan="nam_loc_gpe_city">0</ann>
    <ann chan="nam_org">0</ann>
    <ann chan="nam_loc">0</ann>
   </tok>
   <tok>
    <orth>Dolnym</orth>
    <lex disamb="1"><base>dolny</base><ctag>adj:sg:inst:m1:pos</ctag></lex>
    <ann chan="nam">4</ann>
    <ann chan="nam_org_institution">0</ann>
    <ann chan="nam_loc_gpe_country">0</ann>
    <ann chan="nam_loc_gpe_city">1</ann>
    <ann chan="nam_org">0</ann>
    <ann chan="nam_loc">3</ann>
   </tok>
   <tok>
    <orth>Śląsku</orth>
    <lex disamb="1"><base>śląski</base><ctag>adjp</ctag></lex>
    <ann chan="nam">4</ann>
    <ann chan="nam_org_institution">0</ann>
    <ann chan="nam_loc_gpe_country">0</ann>
    <ann chan="nam_loc_gpe_city">1</ann>
    <ann chan="nam_org">0</ann>
    <ann chan="nam_loc">3</ann>
   </tok>
  </sentence>
 </chunk>
</chunkList>