<?xml version="1.0" encoding="UTF-8"?>
<!DOCTYPE chunkList SYSTEM "ccl.dtd">
<chunkList>
 <chunk type="p" id="ch1">
  <sentence id="s1">
   <tok>
    <orth>Satysfakcjonujące</orth>
    <lex disamb="1"><base>satysfakcjonujący</base><ctag>adj:sg:nom:n:pos</ctag></lex>
   </tok>
   <tok>
    <orth>wideo</orth>
    <lex disamb="1"><base>wideo</base><ctag>subst:sg:nom:n</ctag></lex>
   </tok>
   <tok>
    <orth>:</orth>
    <lex disamb="1"><base>:</base><ctag>interp</ctag></lex>
   </tok>
   <ns/>
   <tok>
    <orth>)</orth>
    <lex disamb="1"><base>)</base><ctag>interp</ctag></lex>
   </tok>
  </sentence>
 </chunk>
</chunkList>