<?xml version="1.0" encoding="UTF-8"?>
<!DOCTYPE chunkList SYSTEM "ccl.dtd">
<chunkList>
 <chunk type="p" id="ch1">
  <sentence id="s1">
   <tok>
    <orth>Kierowca</orth>
    <lex disamb="1"><base>kierowca</base><ctag>subst:sg:nom:m1</ctag></lex>
    <ann chan="nam">0</ann>
    <ann chan="nam_loc_gpe_city">0</ann>
    <ann chan="nam_loc">0</ann>
   </tok>
   <tok>
    <orth>z</orth>
    <lex disamb="1"><base>z</base><ctag>prep:gen:nwok</ctag></lex>
    <ann chan="nam">0</ann>
    <ann chan="nam_loc_gpe_city">0</ann>
    <ann chan="nam_loc">0</ann>
   </tok>
   <tok>
    <orth>Węgorzewa</orth>
    <lex disamb="1"><base>Węgorzewo</base><ctag>subst:sg:gen:n</ctag></lex>
    <ann chan="nam">1</ann>
    <ann chan="nam_loc_gpe_city">1</ann>
    <ann chan="nam_loc">1</ann>
   </tok>
   <tok>
    <orth>napisał</orth>
    <lex disamb="1"><base>napisać</base><ctag>praet:sg:m1:perf</ctag></lex>
    <ann chan="nam">0</ann>
    <ann chan="nam_loc_gpe_city">0</ann>
    <ann chan="nam_loc">0</ann>
   </tok>
   <tok>
    <orth>list</orth>
    <lex disamb="1"><base>list</base><ctag>subst:sg:nom:m3</ctag></lex>
    <ann chan="nam">0</ann>
    <ann chan="nam_loc_gpe_city">0</ann>
    <ann chan="nam_loc">0</ann>
   </tok>
   <tok>
    <orth>z</orth>
    <lex disamb="1"><base>z</base><ctag>prep:gen:nwok</ctag></lex>
    <ann chan="nam">0</ann>
    <ann chan="nam_loc_gpe_city">0</ann>
    <ann chan="nam_loc">0</ann>
   </tok>
   <tok>
    <orth>podziękowaniami</orth>
    <lex disamb="1"><base>podziękowanie</base><ctag>subst:pl:inst:n</ctag></lex>
    <ann chan="nam">0</ann>
    <ann chan="nam_loc_gpe_city">0</ann>
    <ann chan="nam_loc">0</ann>
   </tok>
   <tok>
    <orth>do</orth>
    <lex disamb="1"><base>do</base><ctag>prep:gen</ctag></lex>
    <ann chan="nam">0</ann>
    <ann chan="nam_loc_gpe_city">0</ann>
    <ann chan="nam_loc">0</ann>
   </tok>
   <tok>
    <orth>policjantów</orth>
    <lex disamb="1"><base>policjant</base><ctag>subst:pl:gen:m1</ctag></lex>
    <ann chan="nam">0</ann>
    <ann chan="nam_loc_gpe_city">0</ann>
    <ann chan="nam_loc">0</ann>
   </tok>
   <ns/>
   <tok>
    <orth>.</orth>
    <lex disamb="1"><base>.</base><ctag>interp</ctag></lex>
    <ann chan="nam">0</ann>
    <ann chan="nam_loc_gpe_city">0</ann>
    <ann chan="nam_loc">0</ann>
   </tok>
  </sentence>
 </chunk>
 <chunk type="p" id="ch2">
  <sentence id="s2">
   <tok>
    <orth>Bo</orth>
    <lex disamb="1"><base>bo</base><ctag>comp</ctag></lex>
   </tok>
   <tok>
    <orth>gdy</orth>
    <lex disamb="1"><base>gdy</base><ctag>adv:pos</ctag></lex>
   </tok>
   <tok>
    <orth>jego</orth>
    <lex disamb="1"><base>on</base><ctag>ppron3:sg:gen:m1:ter:akc:npraep</ctag></lex>
   </tok>
   <tok>
    <orth>auto</orth>
    <lex disamb="1"><base>auto</base><ctag>subst:sg:nom:n</ctag></lex>
   </tok>
   <tok>
    <orth>się</orth>
    <lex disamb="1"><base>się</base><ctag>qub</ctag></lex>
   </tok>
   <tok>
    <orth>zepsuło</orth>
    <lex disamb="1"><base>zepsuć</base><ctag>praet:sg:n:perf</ctag></lex>
   </tok>
   <ns/>
   <tok>
    <orth>,</orth>
    <lex disamb="1"><base>,</base><ctag>interp</ctag></lex>
   </tok>
   <tok>
    <orth>żaden</orth>
    <lex disamb="1"><base>żaden</base><ctag>adj:sg:nom:m1:pos</ctag></lex>
   </tok>
   <tok>
    <orth>z</orth>
    <lex disamb="1"><base>z</base><ctag>prep:gen:nwok</ctag></lex>
   </tok>
   <tok>
    <orth>kierowców</orth>
    <lex disamb="1"><base>kierowca</base><ctag>subst:pl:gen:m1</ctag></lex>
   </tok>
   <tok>
    <orth>nie</orth>
    <lex disamb="1"><base>nie</base><ctag>conj</ctag></lex>
   </tok>
   <tok>
    <orth>wyszedł</orth>
    <lex disamb="1"><base>wyjść</base><ctag>praet:sg:m1:perf</ctag></lex>
    <lex disamb="1"><base>wynijść</base><ctag>praet:sg:m1:perf</ctag></lex>
    <lex disamb="1"><base>wyniść</base><ctag>praet:sg:m1:perf</ctag></lex>
   </tok>
   <tok>
    <orth>mu</orth>
    <lex disamb="1"><base>on</base><ctag>ppron3:sg:dat:m1:ter:nakc:npraep</ctag></lex>
   </tok>
   <tok>
    <orth>pomóc</orth>
    <lex disamb="1"><base>pomóc</base><ctag>inf:perf</ctag></lex>
   </tok>
   <ns/>
   <tok>
    <orth>.</orth>
    <lex disamb="1"><base>.</base><ctag>interp</ctag></lex>
   </tok>
  </sentence>
 </chunk>
 <chunk type="p" id="ch3">
  <sentence id="s3">
   <tok>
    <orth>Pomogli</orth>
    <lex disamb="1"><base>pomóc</base><ctag>praet:pl:m1:perf</ctag></lex>
   </tok>
   <tok>
    <orth>dopiero</orth>
    <lex disamb="1"><base>dopiero</base><ctag>qub</ctag></lex>
   </tok>
   <tok>
    <orth>przejeżdżający</orth>
    <lex disamb="1"><base>przejeżdżający</base><ctag>subst:sg:nom:m1</ctag></lex>
   </tok>
   <tok>
    <orth>tamtędy</orth>
    <lex disamb="1"><base>tamtędy</base><ctag>adv:pos</ctag></lex>
   </tok>
   <tok>
    <orth>funkcjonariusze</orth>
    <lex disamb="1"><base>funkcjonariusz</base><ctag>subst:pl:nom:m1</ctag></lex>
   </tok>
   <tok>
    <orth>policji</orth>
    <lex disamb="1"><base>policja</base><ctag>subst:sg:gen:f</ctag></lex>
   </tok>
   <ns/>
   <tok>
    <orth>.</orth>
    <lex disamb="1"><base>.</base><ctag>interp</ctag></lex>
   </tok>
  </sentence>
 </chunk>
</chunkList>