<?xml version="1.0" encoding="UTF-8"?>
<!DOCTYPE chunkList SYSTEM "ccl.dtd">
<chunkList>
 <chunk type="p" id="ch1">
  <sentence id="s1">
   <tok>
    <orth>Wynagrodzenie</orth>
    <lex disamb="1"><base>wynagrodzenie</base><ctag>subst:sg:nom:n</ctag></lex>
    <ann chan="nam">0</ann>
    <ann chan="nam_oth_currency">0</ann>
    <ann chan="nam_oth">0</ann>
    <ann chan="timex">0</ann>
    <ann chan="t3_date">0</ann>
   </tok>
   <tok>
    <orth>minimalne</orth>
    <lex disamb="1"><base>minimalny</base><ctag>adj:sg:nom:n:pos</ctag></lex>
    <ann chan="nam">0</ann>
    <ann chan="nam_oth_currency">0</ann>
    <ann chan="nam_oth">0</ann>
    <ann chan="timex">0</ann>
    <ann chan="t3_date">0</ann>
   </tok>
   <tok>
    <orth>2019</orth>
    <lex disamb="1"><base>2019</base><ctag>num:pl:nom:m1:rec</ctag></lex>
    <ann chan="nam">0</ann>
    <ann chan="nam_oth_currency">0</ann>
    <ann chan="nam_oth">0</ann>
    <ann chan="timex">1</ann>
    <ann chan="t3_date">1</ann>
   </tok>
   <tok>
    <orth>wzrośnie</orth>
    <lex disamb="1"><base>wzrosnąć</base><ctag>fin:sg:ter:perf</ctag></lex>
    <ann chan="nam">0</ann>
    <ann chan="nam_oth_currency">0</ann>
    <ann chan="nam_oth">0</ann>
    <ann chan="timex">0</ann>
    <ann chan="t3_date">0</ann>
   </tok>
   <tok>
    <orth>aż</orth>
    <lex disamb="1"><base>aż</base><ctag>comp</ctag></lex>
    <ann chan="nam">0</ann>
    <ann chan="nam_oth_currency">0</ann>
    <ann chan="nam_oth">0</ann>
    <ann chan="timex">0</ann>
    <ann chan="t3_date">0</ann>
   </tok>
   <tok>
    <orth>o</orth>
    <lex disamb="1"><base>o</base><ctag>prep:acc</ctag></lex>
    <ann chan="nam">0</ann>
    <ann chan="nam_oth_currency">0</ann>
    <ann chan="nam_oth">0</ann>
    <ann chan="timex">0</ann>
    <ann chan="t3_date">0</ann>
   </tok>
   <tok>
    <orth>150</orth>
    <lex disamb="1"><base>150</base><ctag>num:pl:nom:m1:rec</ctag></lex>
    <ann chan="nam">0</ann>
    <ann chan="nam_oth_currency">0</ann>
    <ann chan="nam_oth">0</ann>
    <ann chan="timex">0</ann>
    <ann chan="t3_date">0</ann>
   </tok>
   <tok>
    <orth>zł</orth>
    <lex disamb="1"><base>złoty</base><ctag>brev:npun</ctag></lex>
    <ann chan="nam">1</ann>
    <ann chan="nam_oth_currency">1</ann>
    <ann chan="nam_oth">1</ann>
    <ann chan="timex">0</ann>
    <ann chan="t3_date">0</ann>
   </tok>
   <tok>
    <orth>i</orth>
    <lex disamb="1"><base>i</base><ctag>conj</ctag></lex>
    <ann chan="nam">0</ann>
    <ann chan="nam_oth_currency">0</ann>
    <ann chan="nam_oth">0</ann>
    <ann chan="timex">0</ann>
    <ann chan="t3_date">0</ann>
   </tok>
   <tok>
    <orth>będzie</orth>
    <lex disamb="1"><base>być</base><ctag>bedzie:sg:ter:imperf</ctag></lex>
    <ann chan="nam">0</ann>
    <ann chan="nam_oth_currency">0</ann>
    <ann chan="nam_oth">0</ann>
    <ann chan="timex">0</ann>
    <ann chan="t3_date">0</ann>
   </tok>
   <tok>
    <orth>najwyższe</orth>
    <lex disamb="1"><base>najwyższy</base><ctag>depr:pl:nom:m2</ctag></lex>
    <ann chan="nam">0</ann>
    <ann chan="nam_oth_currency">0</ann>
    <ann chan="nam_oth">0</ann>
    <ann chan="timex">0</ann>
    <ann chan="t3_date">0</ann>
   </tok>
   <tok>
    <orth>w</orth>
    <lex disamb="1"><base>w</base><ctag>prep:acc:nwok</ctag></lex>
    <ann chan="nam">0</ann>
    <ann chan="nam_oth_currency">0</ann>
    <ann chan="nam_oth">0</ann>
    <ann chan="timex">0</ann>
    <ann chan="t3_date">0</ann>
   </tok>
   <tok>
    <orth>historii</orth>
    <lex disamb="1"><base>historia</base><ctag>subst:sg:gen:f</ctag></lex>
    <ann chan="nam">0</ann>
    <ann chan="nam_oth_currency">0</ann>
    <ann chan="nam_oth">0</ann>
    <ann chan="timex">0</ann>
    <ann chan="t3_date">0</ann>
   </tok>
   <ns/>
   <tok>
    <orth>.</orth>
    <lex disamb="1"><base>.</base><ctag>interp</ctag></lex>
    <ann chan="nam">0</ann>
    <ann chan="nam_oth_currency">0</ann>
    <ann chan="nam_oth">0</ann>
    <ann chan="timex">0</ann>
    <ann chan="t3_date">0</ann>
   </tok>
  </sentence>
 </chunk>
 <chunk type="p" id="ch2">
  <sentence id="s2">
   <tok>
    <orth>Wyniesie</orth>
    <lex disamb="1"><base>wynieść</base><ctag>fin:sg:ter:perf</ctag></lex>
    <ann chan="nam">0</ann>
    <ann chan="nam_oth_currency">0</ann>
    <ann chan="nam_oth">0</ann>
   </tok>
   <tok>
    <orth>aż</orth>
    <lex disamb="1"><base>aż</base><ctag>comp</ctag></lex>
    <ann chan="nam">0</ann>
    <ann chan="nam_oth_currency">0</ann>
    <ann chan="nam_oth">0</ann>
   </tok>
   <tok>
    <orth>2250</orth>
    <lex disamb="1"><base>2250</base><ctag>num:pl:nom:m1:rec</ctag></lex>
    <ann chan="nam">0</ann>
    <ann chan="nam_oth_currency">0</ann>
    <ann chan="nam_oth">0</ann>
   </tok>
   <tok>
    <orth>zł</orth>
    <lex disamb="1"><base>złoty</base><ctag>brev:npun</ctag></lex>
    <ann chan="nam">1</ann>
    <ann chan="nam_oth_currency">1</ann>
    <ann chan="nam_oth">1</ann>
   </tok>
   <ns/>
   <tok>
    <orth>.</orth>
    <lex disamb="1"><base>.</base><ctag>interp</ctag></lex>
    <ann chan="nam">0</ann>
    <ann chan="nam_oth_currency">0</ann>
    <ann chan="nam_oth">0</ann>
   </tok>
  </sentence>
 </chunk>
 <chunk type="p" id="ch3">
  <sentence id="s3">
   <tok>
    <orth>Minimalna</orth>
    <lex disamb="1"><base>minimalny</base><ctag>adj:sg:nom:f:pos</ctag></lex>
    <ann chan="nam">0</ann>
    <ann chan="nam_oth_currency">0</ann>
    <ann chan="nam_oth">0</ann>
    <ann chan="timex">0</ann>
    <ann chan="t3_date">0</ann>
   </tok>
   <tok>
    <orth>stawka</orth>
    <lex disamb="1"><base>stawka</base><ctag>subst:sg:nom:f</ctag></lex>
    <ann chan="nam">0</ann>
    <ann chan="nam_oth_currency">0</ann>
    <ann chan="nam_oth">0</ann>
    <ann chan="timex">0</ann>
    <ann chan="t3_date">0</ann>
   </tok>
   <tok>
    <orth>godzinowa</orth>
    <lex disamb="1"><base>godzinowy</base><ctag>adj:sg:nom:f:pos</ctag></lex>
    <ann chan="nam">0</ann>
    <ann chan="nam_oth_currency">0</ann>
    <ann chan="nam_oth">0</ann>
    <ann chan="timex">0</ann>
    <ann chan="t3_date">0</ann>
   </tok>
   <tok>
    <orth>2019</orth>
    <lex disamb="1"><base>2019</base><ctag>num:pl:nom:m1:rec</ctag></lex>
    <ann chan="nam">0</ann>
    <ann chan="nam_oth_currency">0</ann>
    <ann chan="nam_oth">0</ann>
    <ann chan="timex">1</ann>
    <ann chan="t3_date">1</ann>
   </tok>
   <tok>
    <orth>wzrośnie</orth>
    <lex disamb="1"><base>wzrosnąć</base><ctag>fin:sg:ter:perf</ctag></lex>
    <ann chan="nam">0</ann>
    <ann chan="nam_oth_currency">0</ann>
    <ann chan="nam_oth">0</ann>
    <ann chan="timex">0</ann>
    <ann chan="t3_date">0</ann>
   </tok>
   <tok>
    <orth>do</orth>
    <lex disamb="1"><base>do</base><ctag>prep:gen</ctag></lex>
    <ann chan="nam">0</ann>
    <ann chan="nam_oth_currency">0</ann>
    <ann chan="nam_oth">0</ann>
    <ann chan="timex">0</ann>
    <ann chan="t3_date">0</ann>
   </tok>
   <tok>
    <orth>14</orth>
    <lex disamb="1"><base>14</base><ctag>num:pl:nom:m1:rec</ctag></lex>
    <ann chan="nam">0</ann>
    <ann chan="nam_oth_currency">0</ann>
    <ann chan="nam_oth">0</ann>
    <ann chan="timex">0</ann>
    <ann chan="t3_date">0</ann>
   </tok>
   <ns/>
   <tok>
    <orth>,</orth>
    <lex disamb="1"><base>,</base><ctag>interp</ctag></lex>
    <ann chan="nam">0</ann>
    <ann chan="nam_oth_currency">0</ann>
    <ann chan="nam_oth">0</ann>
    <ann chan="timex">0</ann>
    <ann chan="t3_date">0</ann>
   </tok>
   <ns/>
   <tok>
    <orth>70</orth>
    <lex disamb="1"><base>70</base><ctag>num:pl:nom:m1:rec</ctag></lex>
    <ann chan="nam">0</ann>
    <ann chan="nam_oth_currency">0</ann>
    <ann chan="nam_oth">0</ann>
    <ann chan="timex">0</ann>
    <ann chan="t3_date">0</ann>
   </tok>
   <tok>
    <orth>zł</orth>
    <lex disamb="1"><base>złoty</base><ctag>brev:npun</ctag></lex>
    <ann chan="nam">1</ann>
    <ann chan="nam_oth_currency">1</ann>
    <ann chan="nam_oth">1</ann>
    <ann chan="timex">0</ann>
    <ann chan="t3_date">0</ann>
   </tok>
  </sentence>
 </chunk>
</chunkList>