<?xml version="1.0" encoding="UTF-8"?>
<!DOCTYPE chunkList SYSTEM "ccl.dtd">
<chunkList>
 <chunk type="p" id="ch1">
  <sentence id="s1">
   <tok>
    <orth>ZABAWY</orth>
    <lex disamb="1"><base>zabawa</base><ctag>subst:sg:gen:f</ctag></lex>
   </tok>
   <tok>
    <orth>NA</orth>
    <lex disamb="1"><base>na</base><ctag>prep:acc</ctag></lex>
   </tok>
   <tok>
    <orth>A2</orth>
    <lex disamb="1"><base>A2</base><ctag>ign</ctag></lex>
   </tok>
   <ns/>
   <tok>
    <orth>,</orth>
    <lex disamb="1"><base>,</base><ctag>interp</ctag></lex>
   </tok>
   <tok>
    <orth>BLOKOWANIE</orth>
    <lex disamb="1"><base>blokować</base><ctag>ger:sg:nom:n:imperf:aff</ctag></lex>
   </tok>
  </sentence>
 </chunk>
</chunkList>