<?xml version="1.0" encoding="UTF-8"?>
<!DOCTYPE chunkList SYSTEM "ccl.dtd">
<chunkList>
 <chunk type="p" id="ch1">
  <sentence id="s1">
   <tok>
    <orth>Wiedziała</orth>
    <lex disamb="1"><base>wiedzieć</base><ctag>praet:sg:f:imperf</ctag></lex>
   </tok>
   <ns/>
   <tok>
    <orth>,</orth>
    <lex disamb="1"><base>,</base><ctag>interp</ctag></lex>
   </tok>
   <tok>
    <orth>co</orth>
    <lex disamb="1"><base>co</base><ctag>comp</ctag></lex>
   </tok>
   <tok>
    <orth>robić</orth>
    <lex disamb="1"><base>robić</base><ctag>inf:imperf</ctag></lex>
   </tok>
   <ns/>
   <tok>
    <orth>,</orth>
    <lex disamb="1"><base>,</base><ctag>interp</ctag></lex>
   </tok>
   <tok>
    <orth>bo</orth>
    <lex disamb="1"><base>bo</base><ctag>comp</ctag></lex>
   </tok>
   <tok>
    <orth>ogląda</orth>
    <lex disamb="1"><base>oglądać</base><ctag>fin:sg:ter:imperf</ctag></lex>
   </tok>
   <tok>
    <orth>serial</orth>
    <lex disamb="1"><base>serial</base><ctag>subst:sg:nom:m3</ctag></lex>
   </tok>
   <tok>
    <orth>Na</orth>
    <lex disamb="1"><base>na</base><ctag>prep:acc</ctag></lex>
   </tok>
   <tok>
    <orth>ratunek</orth>
    <lex disamb="1"><base>ratunek</base><ctag>subst:sg:nom:m3</ctag></lex>
   </tok>
   <ns/>
   <tok>
    <orth>.</orth>
    <lex disamb="1"><base>.</base><ctag>interp</ctag></lex>
   </tok>
  </sentence>
 </chunk>
 <chunk type="p" id="ch2">
  <sentence id="s2">
   <tok>
    <orth>Bohaterska</orth>
    <lex disamb="1"><base>bohaterski</base><ctag>adj:sg:nom:f:pos</ctag></lex>
    <ann chan="nam">0</ann>
    <ann chan="nam_liv_person">0</ann>
    <ann chan="nam_liv">0</ann>
   </tok>
   <tok>
    <orth>pani</orth>
    <lex disamb="1"><base>pani</base><ctag>subst:sg:nom:f</ctag></lex>
    <ann chan="nam">0</ann>
    <ann chan="nam_liv_person">0</ann>
    <ann chan="nam_liv">0</ann>
   </tok>
   <tok>
    <orth>Ewa</orth>
    <lex disamb="1"><base>Ewa</base><ctag>subst:sg:nom:f</ctag></lex>
    <ann chan="nam">1</ann>
    <ann chan="nam_liv_person">1</ann>
    <ann chan="nam_liv">1</ann>
   </tok>
   <tok>
    <orth>uratowała</orth>
    <lex disamb="1"><base>uratować</base><ctag>praet:sg:f:perf</ctag></lex>
    <ann chan="nam">0</ann>
    <ann chan="nam_liv_person">0</ann>
    <ann chan="nam_liv">0</ann>
   </tok>
   <tok>
    <orth>życie</orth>
    <lex disamb="1"><base>życie</base><ctag>subst:sg:nom:n</ctag></lex>
    <ann chan="nam">0</ann>
    <ann chan="nam_liv_person">0</ann>
    <ann chan="nam_liv">0</ann>
   </tok>
   <tok>
    <orth>klienta</orth>
    <lex disamb="1"><base>klient</base><ctag>subst:sg:gen:m1</ctag></lex>
    <ann chan="nam">0</ann>
    <ann chan="nam_liv_person">0</ann>
    <ann chan="nam_liv">0</ann>
   </tok>
   <ns/>
   <tok>
    <orth>,</orth>
    <lex disamb="1"><base>,</base><ctag>interp</ctag></lex>
    <ann chan="nam">0</ann>
    <ann chan="nam_liv_person">0</ann>
    <ann chan="nam_liv">0</ann>
   </tok>
   <tok>
    <orth>który</orth>
    <lex disamb="1"><base>który</base><ctag>adj:sg:nom:m1:pos</ctag></lex>
    <ann chan="nam">0</ann>
    <ann chan="nam_liv_person">0</ann>
    <ann chan="nam_liv">0</ann>
   </tok>
   <tok>
    <orth>miał</orth>
    <lex disamb="1"><base>miał</base><ctag>subst:sg:nom:m3</ctag></lex>
    <ann chan="nam">0</ann>
    <ann chan="nam_liv_person">0</ann>
    <ann chan="nam_liv">0</ann>
   </tok>
   <tok>
    <orth>zawał</orth>
    <lex disamb="1"><base>zawał</base><ctag>subst:sg:nom:m3</ctag></lex>
    <ann chan="nam">0</ann>
    <ann chan="nam_liv_person">0</ann>
    <ann chan="nam_liv">0</ann>
   </tok>
   <ns/>
   <tok>
    <orth>.</orth>
    <lex disamb="1"><base>.</base><ctag>interp</ctag></lex>
    <ann chan="nam">0</ann>
    <ann chan="nam_liv_person">0</ann>
    <ann chan="nam_liv">0</ann>
   </tok>
  </sentence>
 </chunk>
 <chunk type="p" id="ch3">
  <sentence id="s3">
   <tok>
    <orth>Po</orth>
    <lex disamb="1"><base>po</base><ctag>prep:acc</ctag></lex>
   </tok>
   <tok>
    <orth>wszystkim</orth>
    <lex disamb="1"><base>wszyscy</base><ctag>subst:pl:dat:m1</ctag></lex>
   </tok>
   <tok>
    <orth>utonęła</orth>
    <lex disamb="1"><base>utonąć</base><ctag>praet:sg:f:perf</ctag></lex>
   </tok>
   <tok>
    <orth>we</orth>
    <lex disamb="1"><base>w</base><ctag>prep:acc:wok</ctag></lex>
   </tok>
   <tok>
    <orth>łzach</orth>
    <lex disamb="1"><base>łza</base><ctag>subst:pl:loc:f</ctag></lex>
   </tok>
   <ns/>
   <tok>
    <orth>:</orth>
    <lex disamb="1"><base>:</base><ctag>interp</ctag></lex>
   </tok>
   <tok>
    <orth>To</orth>
    <lex disamb="1"><base>to</base><ctag>conj</ctag></lex>
   </tok>
   <tok>
    <orth>lepsze</orth>
    <lex disamb="1"><base>lepsza</base><ctag>subst:pl:nom:f</ctag></lex>
   </tok>
   <tok>
    <orth>od</orth>
    <lex disamb="1"><base>od</base><ctag>prep:gen:nwok</ctag></lex>
   </tok>
   <tok>
    <orth>wygranej</orth>
    <lex disamb="1"><base>wygrana</base><ctag>subst:sg:gen:f</ctag></lex>
   </tok>
   <tok>
    <orth>w</orth>
    <lex disamb="1"><base>w</base><ctag>prep:acc:nwok</ctag></lex>
   </tok>
   <tok>
    <orth>lotto</orth>
    <lex disamb="1"><base>lotto</base><ctag>subst:sg:nom:n</ctag></lex>
   </tok>
  </sentence>
 </chunk>
</chunkList>