<?xml version="1.0" encoding="UTF-8"?>
<!DOCTYPE chunkList SYSTEM "ccl.dtd">
<chunkList>
 <chunk type="p" id="ch1">
  <sentence id="s1">
   <tok>
    <orth>Sąd</orth>
    <lex disamb="1"><base>sąd</base><ctag>subst:sg:nom:m3</ctag></lex>
    <ann chan="nam">1</ann>
    <ann chan="nam_liv_person">0</ann>
    <ann chan="nam_org_organization">0</ann>
    <ann chan="nam_oth_currency">0</ann>
    <ann chan="nam_liv">0</ann>
    <ann chan="nam_org">0</ann>
    <ann chan="nam_oth">0</ann>
   </tok>
   <tok>
    <orth>Najwyższy</orth>
    <lex disamb="1"><base>najwyższy</base><ctag>subst:sg:nom:m1</ctag></lex>
    <ann chan="nam">1</ann>
    <ann chan="nam_liv_person">1</ann>
    <ann chan="nam_org_organization">0</ann>
    <ann chan="nam_oth_currency">0</ann>
    <ann chan="nam_liv">1</ann>
    <ann chan="nam_org">0</ann>
    <ann chan="nam_oth">0</ann>
   </tok>
   <tok>
    <orth>nie</orth>
    <lex disamb="1"><base>nie</base><ctag>conj</ctag></lex>
    <ann chan="nam">0</ann>
    <ann chan="nam_liv_person">0</ann>
    <ann chan="nam_org_organization">0</ann>
    <ann chan="nam_oth_currency">0</ann>
    <ann chan="nam_liv">0</ann>
    <ann chan="nam_org">0</ann>
    <ann chan="nam_oth">0</ann>
   </tok>
   <tok>
    <orth>zgodził</orth>
    <lex disamb="1"><base>zgodzić</base><ctag>praet:sg:m1:perf</ctag></lex>
    <ann chan="nam">0</ann>
    <ann chan="nam_liv_person">0</ann>
    <ann chan="nam_org_organization">0</ann>
    <ann chan="nam_oth_currency">0</ann>
    <ann chan="nam_liv">0</ann>
    <ann chan="nam_org">0</ann>
    <ann chan="nam_oth">0</ann>
   </tok>
   <tok>
    <orth>się</orth>
    <lex disamb="1"><base>się</base><ctag>qub</ctag></lex>
    <ann chan="nam">0</ann>
    <ann chan="nam_liv_person">0</ann>
    <ann chan="nam_org_organization">0</ann>
    <ann chan="nam_oth_currency">0</ann>
    <ann chan="nam_liv">0</ann>
    <ann chan="nam_org">0</ann>
    <ann chan="nam_oth">0</ann>
   </tok>
   <tok>
    <orth>na</orth>
    <lex disamb="1"><base>na</base><ctag>prep:acc</ctag></lex>
    <ann chan="nam">0</ann>
    <ann chan="nam_liv_person">0</ann>
    <ann chan="nam_org_organization">0</ann>
    <ann chan="nam_oth_currency">0</ann>
    <ann chan="nam_liv">0</ann>
    <ann chan="nam_org">0</ann>
    <ann chan="nam_oth">0</ann>
   </tok>
   <tok>
    <orth>aresztowanie</orth>
    <lex disamb="1"><base>aresztowanie</base><ctag>subst:sg:nom:n</ctag></lex>
    <ann chan="nam">0</ann>
    <ann chan="nam_liv_person">0</ann>
    <ann chan="nam_org_organization">0</ann>
    <ann chan="nam_oth_currency">0</ann>
    <ann chan="nam_liv">0</ann>
    <ann chan="nam_org">0</ann>
    <ann chan="nam_oth">0</ann>
   </tok>
   <tok>
    <orth>i</orth>
    <lex disamb="1"><base>i</base><ctag>conj</ctag></lex>
    <ann chan="nam">0</ann>
    <ann chan="nam_liv_person">0</ann>
    <ann chan="nam_org_organization">0</ann>
    <ann chan="nam_oth_currency">0</ann>
    <ann chan="nam_liv">0</ann>
    <ann chan="nam_org">0</ann>
    <ann chan="nam_oth">0</ann>
   </tok>
   <tok>
    <orth>wypuścił</orth>
    <lex disamb="1"><base>wypuścić</base><ctag>praet:sg:m1:perf</ctag></lex>
    <ann chan="nam">0</ann>
    <ann chan="nam_liv_person">0</ann>
    <ann chan="nam_org_organization">0</ann>
    <ann chan="nam_oth_currency">0</ann>
    <ann chan="nam_liv">0</ann>
    <ann chan="nam_org">0</ann>
    <ann chan="nam_oth">0</ann>
   </tok>
   <tok>
    <orth>na</orth>
    <lex disamb="1"><base>na</base><ctag>prep:acc</ctag></lex>
    <ann chan="nam">0</ann>
    <ann chan="nam_liv_person">0</ann>
    <ann chan="nam_org_organization">0</ann>
    <ann chan="nam_oth_currency">0</ann>
    <ann chan="nam_liv">0</ann>
    <ann chan="nam_org">0</ann>
    <ann chan="nam_oth">0</ann>
   </tok>
   <tok>
    <orth>wolność</orth>
    <lex disamb="1"><base>wolność</base><ctag>subst:sg:nom:f</ctag></lex>
    <ann chan="nam">0</ann>
    <ann chan="nam_liv_person">0</ann>
    <ann chan="nam_org_organization">0</ann>
    <ann chan="nam_oth_currency">0</ann>
    <ann chan="nam_liv">0</ann>
    <ann chan="nam_org">0</ann>
    <ann chan="nam_oth">0</ann>
   </tok>
   <tok>
    <orth>podpułkownika</orth>
    <lex disamb="1"><base>podpułkownik</base><ctag>subst:sg:gen:m1</ctag></lex>
    <ann chan="nam">0</ann>
    <ann chan="nam_liv_person">0</ann>
    <ann chan="nam_org_organization">0</ann>
    <ann chan="nam_oth_currency">0</ann>
    <ann chan="nam_liv">0</ann>
    <ann chan="nam_org">0</ann>
    <ann chan="nam_oth">0</ann>
   </tok>
   <tok>
    <orth>Sławomira</orth>
    <lex disamb="1"><base>Sławomir</base><ctag>subst:sg:gen:m1</ctag></lex>
    <ann chan="nam">2</ann>
    <ann chan="nam_liv_person">2</ann>
    <ann chan="nam_org_organization">0</ann>
    <ann chan="nam_oth_currency">0</ann>
    <ann chan="nam_liv">2</ann>
    <ann chan="nam_org">0</ann>
    <ann chan="nam_oth">0</ann>
   </tok>
   <tok>
    <orth>S</orth>
    <lex disamb="1"><base>sekunda</base><ctag>brev:npun</ctag></lex>
    <ann chan="nam">2</ann>
    <ann chan="nam_liv_person">2</ann>
    <ann chan="nam_org_organization">0</ann>
    <ann chan="nam_oth_currency">0</ann>
    <ann chan="nam_liv">2</ann>
    <ann chan="nam_org">0</ann>
    <ann chan="nam_oth">0</ann>
   </tok>
   <ns/>
   <tok>
    <orth>.</orth>
    <lex disamb="1"><base>.</base><ctag>interp</ctag></lex>
    <ann chan="nam">2</ann>
    <ann chan="nam_liv_person">2</ann>
    <ann chan="nam_org_organization">0</ann>
    <ann chan="nam_oth_currency">0</ann>
    <ann chan="nam_liv">2</ann>
    <ann chan="nam_org">0</ann>
    <ann chan="nam_oth">0</ann>
   </tok>
   <tok>
    <orth>podejrzanego</orth>
    <lex disamb="1"><base>podejrzany</base><ctag>subst:sg:gen:m1</ctag></lex>
    <ann chan="nam">2</ann>
    <ann chan="nam_liv_person">2</ann>
    <ann chan="nam_org_organization">0</ann>
    <ann chan="nam_oth_currency">0</ann>
    <ann chan="nam_liv">2</ann>
    <ann chan="nam_org">0</ann>
    <ann chan="nam_oth">0</ann>
   </tok>
   <tok>
    <orth>o</orth>
    <lex disamb="1"><base>o</base><ctag>prep:acc</ctag></lex>
    <ann chan="nam">0</ann>
    <ann chan="nam_liv_person">0</ann>
    <ann chan="nam_org_organization">0</ann>
    <ann chan="nam_oth_currency">0</ann>
    <ann chan="nam_liv">0</ann>
    <ann chan="nam_org">0</ann>
    <ann chan="nam_oth">0</ann>
   </tok>
   <tok>
    <orth>wyłudzenie</orth>
    <lex disamb="1"><base>wyłudzenie</base><ctag>subst:sg:nom:n</ctag></lex>
    <ann chan="nam">0</ann>
    <ann chan="nam_liv_person">0</ann>
    <ann chan="nam_org_organization">0</ann>
    <ann chan="nam_oth_currency">0</ann>
    <ann chan="nam_liv">0</ann>
    <ann chan="nam_org">0</ann>
    <ann chan="nam_oth">0</ann>
   </tok>
   <tok>
    <orth>z</orth>
    <lex disamb="1"><base>z</base><ctag>prep:gen:nwok</ctag></lex>
    <ann chan="nam">0</ann>
    <ann chan="nam_liv_person">0</ann>
    <ann chan="nam_org_organization">0</ann>
    <ann chan="nam_oth_currency">0</ann>
    <ann chan="nam_liv">0</ann>
    <ann chan="nam_org">0</ann>
    <ann chan="nam_oth">0</ann>
   </tok>
   <tok>
    <orth>Wojskowego</orth>
    <lex disamb="1"><base>wojskowy</base><ctag>subst:sg:gen:m1</ctag></lex>
    <ann chan="nam">3</ann>
    <ann chan="nam_liv_person">0</ann>
    <ann chan="nam_org_organization">1</ann>
    <ann chan="nam_oth_currency">0</ann>
    <ann chan="nam_liv">0</ann>
    <ann chan="nam_org">1</ann>
    <ann chan="nam_oth">0</ann>
   </tok>
   <tok>
    <orth>Instytuty</orth>
    <lex disamb="1"><base>instytut</base><ctag>subst:pl:nom:m3</ctag></lex>
    <ann chan="nam">3</ann>
    <ann chan="nam_liv_person">0</ann>
    <ann chan="nam_org_organization">1</ann>
    <ann chan="nam_oth_currency">0</ann>
    <ann chan="nam_liv">0</ann>
    <ann chan="nam_org">1</ann>
    <ann chan="nam_oth">0</ann>
   </tok>
   <tok>
    <orth>Technicznego</orth>
    <lex disamb="1"><base>techniczny</base><ctag>adj:sg:gen:m1:pos</ctag></lex>
    <ann chan="nam">3</ann>
    <ann chan="nam_liv_person">0</ann>
    <ann chan="nam_org_organization">1</ann>
    <ann chan="nam_oth_currency">0</ann>
    <ann chan="nam_liv">0</ann>
    <ann chan="nam_org">1</ann>
    <ann chan="nam_oth">0</ann>
   </tok>
   <tok>
    <orth>Uzbrojenia</orth>
    <lex disamb="1"><base>uzbrojenie</base><ctag>subst:sg:gen:n</ctag></lex>
    <ann chan="nam">3</ann>
    <ann chan="nam_liv_person">0</ann>
    <ann chan="nam_org_organization">1</ann>
    <ann chan="nam_oth_currency">0</ann>
    <ann chan="nam_liv">0</ann>
    <ann chan="nam_org">1</ann>
    <ann chan="nam_oth">0</ann>
   </tok>
   <ns/>
   <tok>
    <orth>,</orth>
    <lex disamb="1"><base>,</base><ctag>interp</ctag></lex>
    <ann chan="nam">0</ann>
    <ann chan="nam_liv_person">0</ann>
    <ann chan="nam_org_organization">0</ann>
    <ann chan="nam_oth_currency">0</ann>
    <ann chan="nam_liv">0</ann>
    <ann chan="nam_org">0</ann>
    <ann chan="nam_oth">0</ann>
   </tok>
   <tok>
    <orth>gdzie</orth>
    <lex disamb="1"><base>gdzie</base><ctag>adv:pos</ctag></lex>
    <ann chan="nam">0</ann>
    <ann chan="nam_liv_person">0</ann>
    <ann chan="nam_org_organization">0</ann>
    <ann chan="nam_oth_currency">0</ann>
    <ann chan="nam_liv">0</ann>
    <ann chan="nam_org">0</ann>
    <ann chan="nam_oth">0</ann>
   </tok>
   <tok>
    <orth>był</orth>
    <lex disamb="1"><base>być</base><ctag>praet:sg:m1:imperf</ctag></lex>
    <ann chan="nam">0</ann>
    <ann chan="nam_liv_person">0</ann>
    <ann chan="nam_org_organization">0</ann>
    <ann chan="nam_oth_currency">0</ann>
    <ann chan="nam_liv">0</ann>
    <ann chan="nam_org">0</ann>
    <ann chan="nam_oth">0</ann>
   </tok>
   <tok>
    <orth>kierownikiem</orth>
    <lex disamb="1"><base>kierownik</base><ctag>subst:sg:inst:m1</ctag></lex>
    <ann chan="nam">0</ann>
    <ann chan="nam_liv_person">0</ann>
    <ann chan="nam_org_organization">0</ann>
    <ann chan="nam_oth_currency">0</ann>
    <ann chan="nam_liv">0</ann>
    <ann chan="nam_org">0</ann>
    <ann chan="nam_oth">0</ann>
   </tok>
   <ns/>
   <tok>
    <orth>,</orth>
    <lex disamb="1"><base>,</base><ctag>interp</ctag></lex>
    <ann chan="nam">0</ann>
    <ann chan="nam_liv_person">0</ann>
    <ann chan="nam_org_organization">0</ann>
    <ann chan="nam_oth_currency">0</ann>
    <ann chan="nam_liv">0</ann>
    <ann chan="nam_org">0</ann>
    <ann chan="nam_oth">0</ann>
   </tok>
   <tok>
    <orth>co</orth>
    <lex disamb="1"><base>co</base><ctag>comp</ctag></lex>
    <ann chan="nam">0</ann>
    <ann chan="nam_liv_person">0</ann>
    <ann chan="nam_org_organization">0</ann>
    <ann chan="nam_oth_currency">0</ann>
    <ann chan="nam_liv">0</ann>
    <ann chan="nam_org">0</ann>
    <ann chan="nam_oth">0</ann>
   </tok>
   <tok>
    <orth>najmniej</orth>
    <lex disamb="1"><base>mało</base><ctag>adv:pos</ctag></lex>
    <ann chan="nam">0</ann>
    <ann chan="nam_liv_person">0</ann>
    <ann chan="nam_org_organization">0</ann>
    <ann chan="nam_oth_currency">0</ann>
    <ann chan="nam_liv">0</ann>
    <ann chan="nam_org">0</ann>
    <ann chan="nam_oth">0</ann>
   </tok>
   <tok>
    <orth>13</orth>
    <lex disamb="1"><base>13</base><ctag>num:pl:nom:m1:rec</ctag></lex>
    <ann chan="nam">0</ann>
    <ann chan="nam_liv_person">0</ann>
    <ann chan="nam_org_organization">0</ann>
    <ann chan="nam_oth_currency">0</ann>
    <ann chan="nam_liv">0</ann>
    <ann chan="nam_org">0</ann>
    <ann chan="nam_oth">0</ann>
   </tok>
   <tok>
    <orth>milionów</orth>
    <lex disamb="1"><base>milion</base><ctag>subst:pl:gen:m3</ctag></lex>
    <ann chan="nam">0</ann>
    <ann chan="nam_liv_person">0</ann>
    <ann chan="nam_org_organization">0</ann>
    <ann chan="nam_oth_currency">0</ann>
    <ann chan="nam_liv">0</ann>
    <ann chan="nam_org">0</ann>
    <ann chan="nam_oth">0</ann>
   </tok>
   <tok>
    <orth>złotych</orth>
    <lex disamb="1"><base>złoty</base><ctag>subst:pl:gen:m2</ctag></lex>
    <ann chan="nam">4</ann>
    <ann chan="nam_liv_person">0</ann>
    <ann chan="nam_org_organization">0</ann>
    <ann chan="nam_oth_currency">1</ann>
    <ann chan="nam_liv">0</ann>
    <ann chan="nam_org">0</ann>
    <ann chan="nam_oth">1</ann>
   </tok>
   <ns/>
   <tok>
    <orth>.</orth>
    <lex disamb="1"><base>.</base><ctag>interp</ctag></lex>
    <ann chan="nam">0</ann>
    <ann chan="nam_liv_person">0</ann>
    <ann chan="nam_org_organization">0</ann>
    <ann chan="nam_oth_currency">0</ann>
    <ann chan="nam_liv">0</ann>
    <ann chan="nam_org">0</ann>
    <ann chan="nam_oth">0</ann>
   </tok>
  </sentence>
 </chunk>
 <chunk type="p" id="ch2">
  <sentence id="s2">
   <tok>
    <orth>Na</orth>
    <lex disamb="1"><base>na</base><ctag>prep:acc</ctag></lex>
    <ann chan="timex">0</ann>
    <ann chan="t3_date">0</ann>
   </tok>
   <tok>
    <orth>początku</orth>
    <lex disamb="1"><base>początek</base><ctag>subst:sg:gen:m3</ctag></lex>
    <ann chan="timex">1</ann>
    <ann chan="t3_date">1</ann>
   </tok>
   <tok>
    <orth>listopada</orth>
    <lex disamb="1"><base>listopad</base><ctag>subst:sg:gen:m3</ctag></lex>
    <ann chan="timex">1</ann>
    <ann chan="t3_date">1</ann>
   </tok>
   <tok>
    <orth>CBA</orth>
    <lex disamb="1"><base>CBA</base><ctag>ign</ctag></lex>
    <ann chan="timex">0</ann>
    <ann chan="t3_date">0</ann>
   </tok>
   <tok>
    <orth>zatrzymało</orth>
    <lex disamb="1"><base>zatrzymać</base><ctag>praet:sg:n:perf</ctag></lex>
    <ann chan="timex">0</ann>
    <ann chan="t3_date">0</ann>
   </tok>
   <tok>
    <orth>oficera</orth>
    <lex disamb="1"><base>oficer</base><ctag>subst:sg:gen:m1</ctag></lex>
    <ann chan="timex">0</ann>
    <ann chan="t3_date">0</ann>
   </tok>
   <ns/>
   <tok>
    <orth>,</orth>
    <lex disamb="1"><base>,</base><ctag>interp</ctag></lex>
    <ann chan="timex">0</ann>
    <ann chan="t3_date">0</ann>
   </tok>
   <tok>
    <orth>jego</orth>
    <lex disamb="1"><base>on</base><ctag>ppron3:sg:gen:m1:ter:akc:npraep</ctag></lex>
    <ann chan="timex">0</ann>
    <ann chan="t3_date">0</ann>
   </tok>
   <tok>
    <orth>żonę</orth>
    <lex disamb="1"><base>żona</base><ctag>subst:sg:acc:f</ctag></lex>
    <ann chan="timex">0</ann>
    <ann chan="t3_date">0</ann>
   </tok>
   <ns/>
   <tok>
    <orth>,</orth>
    <lex disamb="1"><base>,</base><ctag>interp</ctag></lex>
    <ann chan="timex">0</ann>
    <ann chan="t3_date">0</ann>
   </tok>
   <tok>
    <orth>kochankę</orth>
    <lex disamb="1"><base>kochanka</base><ctag>subst:sg:acc:f</ctag></lex>
    <ann chan="timex">0</ann>
    <ann chan="t3_date">0</ann>
   </tok>
   <tok>
    <orth>(</orth>
    <lex disamb="1"><base>(</base><ctag>interp</ctag></lex>
    <ann chan="timex">0</ann>
    <ann chan="t3_date">0</ann>
   </tok>
   <ns/>
   <tok>
    <orth>.</orth>
    <lex disamb="1"><base>.</base><ctag>interp</ctag></lex>
    <ann chan="timex">0</ann>
    <ann chan="t3_date">0</ann>
   </tok>
   <ns/>
   <tok>
    <orth>.</orth>
    <lex disamb="1"><base>.</base><ctag>interp</ctag></lex>
    <ann chan="timex">0</ann>
    <ann chan="t3_date">0</ann>
   </tok>
   <ns/>
   <tok>
    <orth>.</orth>
    <lex disamb="1"><base>.</base><ctag>interp</ctag></lex>
    <ann chan="timex">0</ann>
    <ann chan="t3_date">0</ann>
   </tok>
   <ns/>
   <tok>
    <orth>)</orth>
    <lex disamb="1"><base>)</base><ctag>interp</ctag></lex>
    <ann chan="timex">0</ann>
    <ann chan="t3_date">0</ann>
   </tok>
  </sentence>
 </chunk>
</chunkList>