<?xml version="1.0" encoding="UTF-8"?>
<!DOCTYPE chunkList SYSTEM "ccl.dtd">
<chunkList>
 <chunk type="p" id="ch1">
  <sentence id="s1">
   <tok>
    <orth>Dlaczego</orth>
    <lex disamb="1"><base>dlaczego</base><ctag>adv:pos</ctag></lex>
   </tok>
   <tok>
    <orth>nic</orth>
    <lex disamb="1"><base>nic</base><ctag>subst:sg:nom:n</ctag></lex>
   </tok>
   <tok>
    <orth>się</orth>
    <lex disamb="1"><base>się</base><ctag>qub</ctag></lex>
   </tok>
   <tok>
    <orth>o</orth>
    <lex disamb="1"><base>o</base><ctag>prep:acc</ctag></lex>
   </tok>
   <tok>
    <orth>tym</orth>
    <lex disamb="1"><base>tym</base><ctag>conj</ctag></lex>
   </tok>
   <tok>
    <orth>nie</orth>
    <lex disamb="1"><base>nie</base><ctag>conj</ctag></lex>
   </tok>
   <tok>
    <orth>mówi</orth>
    <lex disamb="1"><base>mówić</base><ctag>fin:sg:ter:imperf</ctag></lex>
   </tok>
   <ns/>
   <tok>
    <orth>?</orth>
    <lex disamb="1"><base>?</base><ctag>interp</ctag></lex>
   </tok>
  </sentence>
 </chunk>
 <chunk type="p" id="ch2">
  <sentence id="s2">
   <tok>
    <orth>Festiwal</orth>
    <lex disamb="1"><base>festiwal</base><ctag>subst:sg:nom:m3</ctag></lex>
    <ann chan="nam">0</ann>
    <ann chan="nam_org_institution">1</ann>
    <ann chan="nam_loc_gpe_country">0</ann>
    <ann chan="nam_org_organization">0</ann>
    <ann chan="nam_loc_gpe_city">0</ann>
    <ann chan="nam_loc">0</ann>
    <ann chan="nam_org">0</ann>
   </tok>
   <tok>
    <orth>Kultury</orth>
    <lex disamb="1"><base>kultura</base><ctag>subst:sg:gen:f</ctag></lex>
    <ann chan="nam">0</ann>
    <ann chan="nam_org_institution">1</ann>
    <ann chan="nam_loc_gpe_country">0</ann>
    <ann chan="nam_org_organization">0</ann>
    <ann chan="nam_loc_gpe_city">0</ann>
    <ann chan="nam_loc">0</ann>
    <ann chan="nam_org">0</ann>
   </tok>
   <tok>
    <orth>Polskiej</orth>
    <lex disamb="1"><base>polski</base><ctag>adj:sg:gen:f:pos</ctag></lex>
    <ann chan="nam">0</ann>
    <ann chan="nam_org_institution">1</ann>
    <ann chan="nam_loc_gpe_country">0</ann>
    <ann chan="nam_org_organization">0</ann>
    <ann chan="nam_loc_gpe_city">0</ann>
    <ann chan="nam_loc">0</ann>
    <ann chan="nam_org">0</ann>
   </tok>
   <tok>
    <orth>30</orth>
    <lex disamb="1"><base>30</base><ctag>num:pl:nom:m1:rec</ctag></lex>
    <ann chan="nam">0</ann>
    <ann chan="nam_org_institution">0</ann>
    <ann chan="nam_loc_gpe_country">0</ann>
    <ann chan="nam_org_organization">0</ann>
    <ann chan="nam_loc_gpe_city">0</ann>
    <ann chan="nam_loc">0</ann>
    <ann chan="nam_org">0</ann>
   </tok>
   <ns/>
   <tok>
    <orth>/</orth>
    <lex disamb="1"><base>/</base><ctag>interp</ctag></lex>
    <ann chan="nam">0</ann>
    <ann chan="nam_org_institution">0</ann>
    <ann chan="nam_loc_gpe_country">0</ann>
    <ann chan="nam_org_organization">0</ann>
    <ann chan="nam_loc_gpe_city">0</ann>
    <ann chan="nam_loc">0</ann>
    <ann chan="nam_org">0</ann>
   </tok>
   <ns/>
   <tok>
    <orth>100</orth>
    <lex disamb="1"><base>100</base><ctag>num:pl:nom:m1:rec</ctag></lex>
    <ann chan="nam">0</ann>
    <ann chan="nam_org_institution">0</ann>
    <ann chan="nam_loc_gpe_country">0</ann>
    <ann chan="nam_org_organization">0</ann>
    <ann chan="nam_loc_gpe_city">0</ann>
    <ann chan="nam_loc">0</ann>
    <ann chan="nam_org">0</ann>
   </tok>
   <ns/>
   <tok>
    <orth>,</orth>
    <lex disamb="1"><base>,</base><ctag>interp</ctag></lex>
    <ann chan="nam">0</ann>
    <ann chan="nam_org_institution">0</ann>
    <ann chan="nam_loc_gpe_country">0</ann>
    <ann chan="nam_org_organization">0</ann>
    <ann chan="nam_loc_gpe_city">0</ann>
    <ann chan="nam_loc">0</ann>
    <ann chan="nam_org">0</ann>
   </tok>
   <tok>
    <orth>związany</orth>
    <lex disamb="1"><base>związać</base><ctag>ppas:sg:nom:m1:perf:aff</ctag></lex>
    <ann chan="nam">0</ann>
    <ann chan="nam_org_institution">0</ann>
    <ann chan="nam_loc_gpe_country">0</ann>
    <ann chan="nam_org_organization">0</ann>
    <ann chan="nam_loc_gpe_city">0</ann>
    <ann chan="nam_loc">0</ann>
    <ann chan="nam_org">0</ann>
   </tok>
   <tok>
    <orth>ze</orth>
    <lex disamb="1"><base>z</base><ctag>prep:gen:wok</ctag></lex>
    <ann chan="nam">0</ann>
    <ann chan="nam_org_institution">0</ann>
    <ann chan="nam_loc_gpe_country">0</ann>
    <ann chan="nam_org_organization">0</ann>
    <ann chan="nam_loc_gpe_city">0</ann>
    <ann chan="nam_loc">0</ann>
    <ann chan="nam_org">0</ann>
   </tok>
   <tok>
    <orth>stuleciem</orth>
    <lex disamb="1"><base>stulecie</base><ctag>subst:sg:inst:n</ctag></lex>
    <ann chan="nam">0</ann>
    <ann chan="nam_org_institution">0</ann>
    <ann chan="nam_loc_gpe_country">0</ann>
    <ann chan="nam_org_organization">0</ann>
    <ann chan="nam_loc_gpe_city">0</ann>
    <ann chan="nam_loc">0</ann>
    <ann chan="nam_org">0</ann>
   </tok>
   <tok>
    <orth>odzyskania</orth>
    <lex disamb="1"><base>odzyskanie</base><ctag>subst:sg:gen:n</ctag></lex>
    <ann chan="nam">0</ann>
    <ann chan="nam_org_institution">0</ann>
    <ann chan="nam_loc_gpe_country">0</ann>
    <ann chan="nam_org_organization">0</ann>
    <ann chan="nam_loc_gpe_city">0</ann>
    <ann chan="nam_loc">0</ann>
    <ann chan="nam_org">0</ann>
   </tok>
   <tok>
    <orth>niepodległości</orth>
    <lex disamb="1"><base>niepodległość</base><ctag>subst:sg:gen:f</ctag></lex>
    <ann chan="nam">0</ann>
    <ann chan="nam_org_institution">0</ann>
    <ann chan="nam_loc_gpe_country">0</ann>
    <ann chan="nam_org_organization">0</ann>
    <ann chan="nam_loc_gpe_city">0</ann>
    <ann chan="nam_loc">0</ann>
    <ann chan="nam_org">0</ann>
   </tok>
   <tok>
    <orth>Polski</orth>
    <lex disamb="1"><base>Polska</base><ctag>subst:sg:gen:f</ctag></lex>
    <ann chan="nam">1</ann>
    <ann chan="nam_org_institution">0</ann>
    <ann chan="nam_loc_gpe_country">1</ann>
    <ann chan="nam_org_organization">0</ann>
    <ann chan="nam_loc_gpe_city">0</ann>
    <ann chan="nam_loc">1</ann>
    <ann chan="nam_org">0</ann>
   </tok>
   <tok>
    <orth>i</orth>
    <lex disamb="1"><base>i</base><ctag>conj</ctag></lex>
    <ann chan="nam">0</ann>
    <ann chan="nam_org_institution">0</ann>
    <ann chan="nam_loc_gpe_country">0</ann>
    <ann chan="nam_org_organization">0</ann>
    <ann chan="nam_loc_gpe_city">0</ann>
    <ann chan="nam_loc">0</ann>
    <ann chan="nam_org">0</ann>
   </tok>
   <tok>
    <orth>30</orth>
    <lex disamb="1"><base>30</base><ctag>num:pl:nom:m1:rec</ctag></lex>
    <ann chan="nam">0</ann>
    <ann chan="nam_org_institution">0</ann>
    <ann chan="nam_loc_gpe_country">0</ann>
    <ann chan="nam_org_organization">0</ann>
    <ann chan="nam_loc_gpe_city">0</ann>
    <ann chan="nam_loc">0</ann>
    <ann chan="nam_org">0</ann>
   </tok>
   <ns/>
   <tok>
    <orth>.</orth>
    <lex disamb="1"><base>.</base><ctag>interp</ctag></lex>
    <ann chan="nam">0</ann>
    <ann chan="nam_org_institution">0</ann>
    <ann chan="nam_loc_gpe_country">0</ann>
    <ann chan="nam_org_organization">0</ann>
    <ann chan="nam_loc_gpe_city">0</ann>
    <ann chan="nam_loc">0</ann>
    <ann chan="nam_org">0</ann>
   </tok>
   <tok>
    <orth>rocznicą</orth>
    <lex disamb="1"><base>rocznica</base><ctag>subst:sg:inst:f</ctag></lex>
    <ann chan="nam">0</ann>
    <ann chan="nam_org_institution">0</ann>
    <ann chan="nam_loc_gpe_country">0</ann>
    <ann chan="nam_org_organization">0</ann>
    <ann chan="nam_loc_gpe_city">0</ann>
    <ann chan="nam_loc">0</ann>
    <ann chan="nam_org">0</ann>
   </tok>
   <tok>
    <orth>utworzenia</orth>
    <lex disamb="1"><base>utworzyć</base><ctag>ger:sg:gen:n:perf:aff</ctag></lex>
    <ann chan="nam">0</ann>
    <ann chan="nam_org_institution">0</ann>
    <ann chan="nam_loc_gpe_country">0</ann>
    <ann chan="nam_org_organization">0</ann>
    <ann chan="nam_loc_gpe_city">0</ann>
    <ann chan="nam_loc">0</ann>
    <ann chan="nam_org">0</ann>
   </tok>
   <tok>
    <orth>Instytutu</orth>
    <lex disamb="1"><base>instytut</base><ctag>subst:sg:gen:m3</ctag></lex>
    <ann chan="nam">2</ann>
    <ann chan="nam_org_institution">0</ann>
    <ann chan="nam_loc_gpe_country">0</ann>
    <ann chan="nam_org_organization">1</ann>
    <ann chan="nam_loc_gpe_city">0</ann>
    <ann chan="nam_loc">0</ann>
    <ann chan="nam_org">1</ann>
   </tok>
   <tok>
    <orth>Polskiego</orth>
    <lex disamb="1"><base>polski</base><ctag>subst:sg:gen:m3</ctag></lex>
    <ann chan="nam">2</ann>
    <ann chan="nam_org_institution">0</ann>
    <ann chan="nam_loc_gpe_country">0</ann>
    <ann chan="nam_org_organization">1</ann>
    <ann chan="nam_loc_gpe_city">0</ann>
    <ann chan="nam_loc">0</ann>
    <ann chan="nam_org">1</ann>
   </tok>
   <tok>
    <orth>w</orth>
    <lex disamb="1"><base>w</base><ctag>prep:acc:nwok</ctag></lex>
    <ann chan="nam">0</ann>
    <ann chan="nam_org_institution">0</ann>
    <ann chan="nam_loc_gpe_country">0</ann>
    <ann chan="nam_org_organization">0</ann>
    <ann chan="nam_loc_gpe_city">0</ann>
    <ann chan="nam_loc">0</ann>
    <ann chan="nam_org">0</ann>
   </tok>
   <tok>
    <orth>Moskwie</orth>
    <lex disamb="1"><base>Moskwa</base><ctag>subst:sg:dat:f</ctag></lex>
    <ann chan="nam">3</ann>
    <ann chan="nam_org_institution">0</ann>
    <ann chan="nam_loc_gpe_country">0</ann>
    <ann chan="nam_org_organization">0</ann>
    <ann chan="nam_loc_gpe_city">1</ann>
    <ann chan="nam_loc">2</ann>
    <ann chan="nam_org">0</ann>
   </tok>
   <ns/>
   <tok>
    <orth>.</orth>
    <lex disamb="1"><base>.</base><ctag>interp</ctag></lex>
    <ann chan="nam">0</ann>
    <ann chan="nam_org_institution">0</ann>
    <ann chan="nam_loc_gpe_country">0</ann>
    <ann chan="nam_org_organization">0</ann>
    <ann chan="nam_loc_gpe_city">0</ann>
    <ann chan="nam_loc">0</ann>
    <ann chan="nam_org">0</ann>
   </tok>
  </sentence>
 </chunk>
</chunkList>