<?xml version="1.0" encoding="UTF-8"?>
<!DOCTYPE chunkList SYSTEM "ccl.dtd">
<chunkList>
 <chunk type="p" id="ch1">
  <sentence id="s1">
   <tok>
    <orth>Protest</orth>
    <lex disamb="1"><base>protest</base><ctag>subst:sg:nom:m3</ctag></lex>
   </tok>
   <tok>
    <orth>żółtych</orth>
    <lex disamb="1"><base>żółty</base><ctag>adj:pl:gen:m1:pos</ctag></lex>
   </tok>
   <tok>
    <orth>kamizelek</orth>
    <lex disamb="1"><base>kamizelka</base><ctag>subst:pl:gen:f</ctag></lex>
   </tok>
   <ns/>
   <tok>
    <orth>.</orth>
    <lex disamb="1"><base>.</base><ctag>interp</ctag></lex>
   </tok>
  </sentence>
 </chunk>
 <chunk type="p" id="ch2">
  <sentence id="s2">
   <tok>
    <orth>W</orth>
    <lex disamb="1"><base>w</base><ctag>prep:acc:nwok</ctag></lex>
    <ann chan="nam">0</ann>
    <ann chan="nam_loc_gpe_city">0</ann>
    <ann chan="nam_loc">0</ann>
   </tok>
   <tok>
    <orth>Paryżu</orth>
    <lex disamb="1"><base>Paryż</base><ctag>subst:sg:loc:m3</ctag></lex>
    <ann chan="nam">1</ann>
    <ann chan="nam_loc_gpe_city">1</ann>
    <ann chan="nam_loc">1</ann>
   </tok>
   <tok>
    <orth>starcia</orth>
    <lex disamb="1"><base>starcie</base><ctag>subst:sg:gen:n</ctag></lex>
    <ann chan="nam">0</ann>
    <ann chan="nam_loc_gpe_city">0</ann>
    <ann chan="nam_loc">0</ann>
   </tok>
   <tok>
    <orth>z</orth>
    <lex disamb="1"><base>z</base><ctag>prep:gen:nwok</ctag></lex>
    <ann chan="nam">0</ann>
    <ann chan="nam_loc_gpe_city">0</ann>
    <ann chan="nam_loc">0</ann>
   </tok>
   <tok>
    <orth>policją</orth>
    <lex disamb="1"><base>policja</base><ctag>subst:sg:inst:f</ctag></lex>
    <ann chan="nam">0</ann>
    <ann chan="nam_loc_gpe_city">0</ann>
    <ann chan="nam_loc">0</ann>
   </tok>
   <tok>
    <orth>i</orth>
    <lex disamb="1"><base>i</base><ctag>conj</ctag></lex>
    <ann chan="nam">0</ann>
    <ann chan="nam_loc_gpe_city">0</ann>
    <ann chan="nam_loc">0</ann>
   </tok>
   <tok>
    <orth>setki</orth>
    <lex disamb="1"><base>setka</base><ctag>subst:sg:gen:f</ctag></lex>
    <ann chan="nam">0</ann>
    <ann chan="nam_loc_gpe_city">0</ann>
    <ann chan="nam_loc">0</ann>
   </tok>
   <tok>
    <orth>zatrzymanych</orth>
    <lex disamb="1"><base>zatrzymana</base><ctag>subst:pl:gen:f</ctag></lex>
    <ann chan="nam">0</ann>
    <ann chan="nam_loc_gpe_city">0</ann>
    <ann chan="nam_loc">0</ann>
   </tok>
   <ns/>
   <tok>
    <orth>.</orth>
    <lex disamb="1"><base>.</base><ctag>interp</ctag></lex>
    <ann chan="nam">0</ann>
    <ann chan="nam_loc_gpe_city">0</ann>
    <ann chan="nam_loc">0</ann>
   </tok>
  </sentence>
 </chunk>
</chunkList>