<?xml version="1.0" encoding="UTF-8"?>
<!DOCTYPE chunkList SYSTEM "ccl.dtd">
<chunkList>
 <chunk type="p" id="ch1">
  <sentence id="s1">
   <tok>
    <orth>Nastolatek</orth>
    <lex disamb="1"><base>nastolatek</base><ctag>subst:sg:nom:m1</ctag></lex>
    <ann chan="nam">0</ann>
    <ann chan="nam_org_group_team">0</ann>
    <ann chan="nam_loc_gpe_admin1">0</ann>
    <ann chan="nam_org">0</ann>
    <ann chan="nam_loc">0</ann>
   </tok>
   <tok>
    <orth>z</orth>
    <lex disamb="1"><base>z</base><ctag>prep:gen:nwok</ctag></lex>
    <ann chan="nam">0</ann>
    <ann chan="nam_org_group_team">0</ann>
    <ann chan="nam_loc_gpe_admin1">0</ann>
    <ann chan="nam_org">0</ann>
    <ann chan="nam_loc">0</ann>
   </tok>
   <tok>
    <orth>Nowych</orth>
    <lex disamb="1"><base>nowa</base><ctag>subst:pl:gen:f</ctag></lex>
    <ann chan="nam">1</ann>
    <ann chan="nam_org_group_team">1</ann>
    <ann chan="nam_loc_gpe_admin1">0</ann>
    <ann chan="nam_org">1</ann>
    <ann chan="nam_loc">0</ann>
   </tok>
   <tok>
    <orth>Skalmierzyc</orth>
    <lex disamb="1"><base>Skalmierzyce</base><ctag>subst:pl:gen:n</ctag></lex>
    <ann chan="nam">1</ann>
    <ann chan="nam_org_group_team">1</ann>
    <ann chan="nam_loc_gpe_admin1">0</ann>
    <ann chan="nam_org">1</ann>
    <ann chan="nam_loc">0</ann>
   </tok>
   <tok>
    <orth>(</orth>
    <lex disamb="1"><base>(</base><ctag>interp</ctag></lex>
    <ann chan="nam">0</ann>
    <ann chan="nam_org_group_team">0</ann>
    <ann chan="nam_loc_gpe_admin1">0</ann>
    <ann chan="nam_org">0</ann>
    <ann chan="nam_loc">0</ann>
   </tok>
   <ns/>
   <tok>
    <orth>woj</orth>
    <lex disamb="1"><base>woj</base><ctag>subst:sg:nom:m1</ctag></lex>
    <ann chan="nam">0</ann>
    <ann chan="nam_org_group_team">0</ann>
    <ann chan="nam_loc_gpe_admin1">0</ann>
    <ann chan="nam_org">0</ann>
    <ann chan="nam_loc">0</ann>
   </tok>
   <ns/>
   <tok>
    <orth>.</orth>
    <lex disamb="1"><base>.</base><ctag>interp</ctag></lex>
    <ann chan="nam">0</ann>
    <ann chan="nam_org_group_team">0</ann>
    <ann chan="nam_loc_gpe_admin1">0</ann>
    <ann chan="nam_org">0</ann>
    <ann chan="nam_loc">0</ann>
   </tok>
   <tok>
    <orth>wielkopolskie</orth>
    <lex disamb="1"><base>wielkopolski</base><ctag>adj:sg:nom:n:pos</ctag></lex>
    <ann chan="nam">2</ann>
    <ann chan="nam_org_group_team">0</ann>
    <ann chan="nam_loc_gpe_admin1">1</ann>
    <ann chan="nam_org">0</ann>
    <ann chan="nam_loc">1</ann>
   </tok>
   <ns/>
   <tok>
    <orth>)</orth>
    <lex disamb="1"><base>)</base><ctag>interp</ctag></lex>
    <ann chan="nam">0</ann>
    <ann chan="nam_org_group_team">0</ann>
    <ann chan="nam_loc_gpe_admin1">0</ann>
    <ann chan="nam_org">0</ann>
    <ann chan="nam_loc">0</ann>
   </tok>
   <tok>
    <orth>zabił</orth>
    <lex disamb="1"><base>zabić</base><ctag>praet:sg:m1:perf</ctag></lex>
    <ann chan="nam">0</ann>
    <ann chan="nam_org_group_team">0</ann>
    <ann chan="nam_loc_gpe_admin1">0</ann>
    <ann chan="nam_org">0</ann>
    <ann chan="nam_loc">0</ann>
   </tok>
   <tok>
    <orth>swojego</orth>
    <lex disamb="1"><base>swoje</base><ctag>subst:sg:gen:n</ctag></lex>
    <ann chan="nam">0</ann>
    <ann chan="nam_org_group_team">0</ann>
    <ann chan="nam_loc_gpe_admin1">0</ann>
    <ann chan="nam_org">0</ann>
    <ann chan="nam_loc">0</ann>
   </tok>
   <tok>
    <orth>36</orth>
    <lex disamb="1"><base>36</base><ctag>num:pl:nom:m1:rec</ctag></lex>
    <ann chan="nam">0</ann>
    <ann chan="nam_org_group_team">0</ann>
    <ann chan="nam_loc_gpe_admin1">0</ann>
    <ann chan="nam_org">0</ann>
    <ann chan="nam_loc">0</ann>
   </tok>
   <ns/>
   <tok>
    <orth>-</orth>
    <lex disamb="1"><base>-</base><ctag>interp</ctag></lex>
    <ann chan="nam">0</ann>
    <ann chan="nam_org_group_team">0</ann>
    <ann chan="nam_loc_gpe_admin1">0</ann>
    <ann chan="nam_org">0</ann>
    <ann chan="nam_loc">0</ann>
   </tok>
   <ns/>
   <tok>
    <orth>letniego</orth>
    <lex disamb="1"><base>letni</base><ctag>adj:sg:gen:m1:pos</ctag></lex>
    <ann chan="nam">0</ann>
    <ann chan="nam_org_group_team">0</ann>
    <ann chan="nam_loc_gpe_admin1">0</ann>
    <ann chan="nam_org">0</ann>
    <ann chan="nam_loc">0</ann>
   </tok>
   <tok>
    <orth>ojczyma</orth>
    <lex disamb="1"><base>ojczym</base><ctag>subst:sg:gen:m1</ctag></lex>
    <ann chan="nam">0</ann>
    <ann chan="nam_org_group_team">0</ann>
    <ann chan="nam_loc_gpe_admin1">0</ann>
    <ann chan="nam_org">0</ann>
    <ann chan="nam_loc">0</ann>
   </tok>
   <ns/>
   <tok>
    <orth>.</orth>
    <lex disamb="1"><base>.</base><ctag>interp</ctag></lex>
    <ann chan="nam">0</ann>
    <ann chan="nam_org_group_team">0</ann>
    <ann chan="nam_loc_gpe_admin1">0</ann>
    <ann chan="nam_org">0</ann>
    <ann chan="nam_loc">0</ann>
   </tok>
  </sentence>
 </chunk>
 <chunk type="p" id="ch2">
  <sentence id="s2">
   <tok>
    <orth>Sąsiedzi</orth>
    <lex disamb="1"><base>sąsiad</base><ctag>subst:pl:nom:m1</ctag></lex>
   </tok>
   <tok>
    <orth>twierdzą</orth>
    <lex disamb="1"><base>twierdza</base><ctag>subst:sg:inst:f</ctag></lex>
   </tok>
   <ns/>
   <tok>
    <orth>,</orth>
    <lex disamb="1"><base>,</base><ctag>interp</ctag></lex>
   </tok>
   <tok>
    <orth>że</orth>
    <lex disamb="1"><base>że</base><ctag>comp</ctag></lex>
   </tok>
   <tok>
    <orth>mężczyzna</orth>
    <lex disamb="1"><base>mężczyzna</base><ctag>subst:sg:nom:m1</ctag></lex>
   </tok>
   <tok>
    <orth>znęcał</orth>
    <lex disamb="1"><base>znęcać</base><ctag>praet:sg:m1:imperf</ctag></lex>
   </tok>
   <tok>
    <orth>się</orth>
    <lex disamb="1"><base>się</base><ctag>qub</ctag></lex>
   </tok>
   <tok>
    <orth>nad</orth>
    <lex disamb="1"><base>nad</base><ctag>prep:acc:nwok</ctag></lex>
   </tok>
   <tok>
    <orth>dzieckiem</orth>
    <lex disamb="1"><base>dziecko</base><ctag>subst:sg:inst:n</ctag></lex>
   </tok>
   <ns/>
   <tok>
    <orth>.</orth>
    <lex disamb="1"><base>.</base><ctag>interp</ctag></lex>
   </tok>
  </sentence>
 </chunk>
 <chunk type="p" id="ch3">
  <sentence id="s3">
   <tok>
    <orth>15</orth>
    <lex disamb="1"><base>15</base><ctag>num:pl:nom:m1:rec</ctag></lex>
   </tok>
   <ns/>
   <tok>
    <orth>-</orth>
    <lex disamb="1"><base>-</base><ctag>interp</ctag></lex>
   </tok>
   <ns/>
   <tok>
    <orth>latek</orth>
    <lex disamb="1"><base>latko</base><ctag>subst:pl:gen:n</ctag></lex>
   </tok>
   <tok>
    <orth>miał</orth>
    <lex disamb="1"><base>miał</base><ctag>subst:sg:nom:m3</ctag></lex>
   </tok>
   <tok>
    <orth>zadać</orth>
    <lex disamb="1"><base>zadać</base><ctag>inf:perf</ctag></lex>
   </tok>
   <tok>
    <orth>mu</orth>
    <lex disamb="1"><base>on</base><ctag>ppron3:sg:dat:m1:ter:nakc:npraep</ctag></lex>
   </tok>
   <tok>
    <orth>cios</orth>
    <lex disamb="1"><base>cios</base><ctag>subst:sg:nom:m3</ctag></lex>
   </tok>
   <tok>
    <orth>nożem</orth>
    <lex disamb="1"><base>nóż</base><ctag>subst:sg:inst:m3</ctag></lex>
   </tok>
   <tok>
    <orth>w</orth>
    <lex disamb="1"><base>w</base><ctag>prep:acc:nwok</ctag></lex>
   </tok>
   <tok>
    <orth>trakcie</orth>
    <lex disamb="1"><base>trakt</base><ctag>subst:sg:loc:m3</ctag></lex>
   </tok>
   <tok>
    <orth>jednej</orth>
    <lex disamb="1"><base>jeden</base><ctag>adj:sg:gen:f:pos</ctag></lex>
   </tok>
   <tok>
    <orth>z</orth>
    <lex disamb="1"><base>z</base><ctag>prep:gen:nwok</ctag></lex>
   </tok>
   <tok>
    <orth>awantur</orth>
    <lex disamb="1"><base>awantura</base><ctag>subst:pl:gen:f</ctag></lex>
   </tok>
   <ns/>
   <tok>
    <orth>.</orth>
    <lex disamb="1"><base>.</base><ctag>interp</ctag></lex>
   </tok>
  </sentence>
 </chunk>
</chunkList>