<?xml version="1.0" encoding="UTF-8"?>
<!DOCTYPE chunkList SYSTEM "ccl.dtd">
<chunkList>
 <chunk type="p" id="ch1">
  <sentence id="s1">
   <tok>
    <orth>Uber</orth>
    <lex disamb="1"><base>Uber</base><ctag>ign</ctag></lex>
   </tok>
   <tok>
    <orth>twierdzi</orth>
    <lex disamb="1"><base>twierdzić</base><ctag>fin:sg:ter:imperf</ctag></lex>
   </tok>
   <ns/>
   <tok>
    <orth>,</orth>
    <lex disamb="1"><base>,</base><ctag>interp</ctag></lex>
   </tok>
   <tok>
    <orth>że</orth>
    <lex disamb="1"><base>że</base><ctag>comp</ctag></lex>
   </tok>
   <tok>
    <orth>moja</orth>
    <lex disamb="1"><base>moja</base><ctag>subst:sg:nom:f</ctag></lex>
   </tok>
   <tok>
    <orth>partnerka</orth>
    <lex disamb="1"><base>partnerka</base><ctag>subst:sg:nom:f</ctag></lex>
   </tok>
   <tok>
    <orth>zarzygała</orth>
    <lex disamb="1"><base>zarzygać</base><ctag>praet:sg:f:perf</ctag></lex>
   </tok>
   <tok>
    <orth>auto</orth>
    <lex disamb="1"><base>auto</base><ctag>subst:sg:nom:n</ctag></lex>
   </tok>
   <tok>
    <orth>ich</orth>
    <lex disamb="1"><base>on</base><ctag>ppron3:pl:gen:m1:ter:akc:npraep</ctag></lex>
   </tok>
   <tok>
    <orth>kierowcy</orth>
    <lex disamb="1"><base>kierowca</base><ctag>subst:sg:gen:m1</ctag></lex>
   </tok>
   <ns/>
   <tok>
    <orth>.</orth>
    <lex disamb="1"><base>.</base><ctag>interp</ctag></lex>
   </tok>
   <ns/>
  </sentence>
 </chunk>
 <chunk type="p" id="ch2">
  <sentence id="s2">
   <tok>
    <orth>Obciąża</orth>
    <lex disamb="1"><base>obciążać</base><ctag>fin:sg:ter:imperf</ctag></lex>
    <ann chan="nam">0</ann>
    <ann chan="nam_oth_currency">0</ann>
    <ann chan="nam_oth">0</ann>
   </tok>
   <tok>
    <orth>nas</orth>
    <lex disamb="1"><base>my</base><ctag>ppron12:pl:gen:m1:pri</ctag></lex>
    <ann chan="nam">0</ann>
    <ann chan="nam_oth_currency">0</ann>
    <ann chan="nam_oth">0</ann>
   </tok>
   <tok>
    <orth>kwotą</orth>
    <lex disamb="1"><base>kwota</base><ctag>subst:sg:inst:f</ctag></lex>
    <ann chan="nam">0</ann>
    <ann chan="nam_oth_currency">0</ann>
    <ann chan="nam_oth">0</ann>
   </tok>
   <tok>
    <orth>150</orth>
    <lex disamb="1"><base>150</base><ctag>num:pl:nom:m1:rec</ctag></lex>
    <ann chan="nam">0</ann>
    <ann chan="nam_oth_currency">0</ann>
    <ann chan="nam_oth">0</ann>
   </tok>
   <tok>
    <orth>zł</orth>
    <lex disamb="1"><base>złoty</base><ctag>brev:npun</ctag></lex>
    <ann chan="nam">1</ann>
    <ann chan="nam_oth_currency">1</ann>
    <ann chan="nam_oth">1</ann>
   </tok>
   <tok>
    <orth>za</orth>
    <lex disamb="1"><base>za</base><ctag>qub</ctag></lex>
    <ann chan="nam">0</ann>
    <ann chan="nam_oth_currency">0</ann>
    <ann chan="nam_oth">0</ann>
   </tok>
   <tok>
    <orth>czyszczenie</orth>
    <lex disamb="1"><base>czyszczenie</base><ctag>subst:sg:nom:n</ctag></lex>
    <ann chan="nam">0</ann>
    <ann chan="nam_oth_currency">0</ann>
    <ann chan="nam_oth">0</ann>
   </tok>
   <ns/>
   <tok>
    <orth>.</orth>
    <lex disamb="1"><base>.</base><ctag>interp</ctag></lex>
    <ann chan="nam">0</ann>
    <ann chan="nam_oth_currency">0</ann>
    <ann chan="nam_oth">0</ann>
   </tok>
   <ns/>
  </sentence>
 </chunk>
 <chunk type="p" id="ch3">
  <sentence id="s3">
   <tok>
    <orth>Na</orth>
    <lex disamb="1"><base>na</base><ctag>prep:acc</ctag></lex>
    <ann chan="timex">0</ann>
    <ann chan="t3_date">0</ann>
   </tok>
   <tok>
    <orth>dowód</orth>
    <lex disamb="1"><base>dowód</base><ctag>subst:sg:nom:m3</ctag></lex>
    <ann chan="timex">0</ann>
    <ann chan="t3_date">0</ann>
   </tok>
   <tok>
    <orth>pokazuję</orth>
    <lex disamb="1"><base>pokazować</base><ctag>fin:sg:pri:imperf</ctag></lex>
    <lex disamb="1"><base>pokazywać</base><ctag>fin:sg:pri:imperf</ctag></lex>
    <ann chan="timex">0</ann>
    <ann chan="t3_date">0</ann>
   </tok>
   <tok>
    <orth>zdjęcia</orth>
    <lex disamb="1"><base>zdjęcia</base><ctag>subst:pl:nom:n</ctag></lex>
    <lex disamb="1"><base>zdjęcie</base><ctag>subst:pl:nom:n</ctag></lex>
    <ann chan="timex">0</ann>
    <ann chan="t3_date">0</ann>
   </tok>
   <tok>
    <orth>INNEGO</orth>
    <lex disamb="1"><base>inny</base><ctag>subst:sg:gen:m1</ctag></lex>
    <ann chan="timex">0</ann>
    <ann chan="t3_date">0</ann>
   </tok>
   <tok>
    <orth>auta</orth>
    <lex disamb="1"><base>auto</base><ctag>subst:sg:gen:n</ctag></lex>
    <ann chan="timex">0</ann>
    <ann chan="t3_date">0</ann>
   </tok>
   <ns/>
   <tok>
    <orth>,</orth>
    <lex disamb="1"><base>,</base><ctag>interp</ctag></lex>
    <ann chan="timex">0</ann>
    <ann chan="t3_date">0</ann>
   </tok>
   <tok>
    <orth>zrobione</orth>
    <lex disamb="1"><base>zrobić</base><ctag>ppas:sg:nom:n:perf:aff</ctag></lex>
    <ann chan="timex">0</ann>
    <ann chan="t3_date">0</ann>
   </tok>
   <tok>
    <orth>o</orth>
    <lex disamb="1"><base>o</base><ctag>prep:acc</ctag></lex>
    <ann chan="timex">0</ann>
    <ann chan="t3_date">0</ann>
   </tok>
   <tok>
    <orth>zmroku</orth>
    <lex disamb="1"><base>zmrok</base><ctag>subst:sg:gen:m3</ctag></lex>
    <ann chan="timex">0</ann>
    <ann chan="t3_date">0</ann>
   </tok>
   <tok>
    <orth>chociaż</orth>
    <lex disamb="1"><base>chociaż</base><ctag>comp</ctag></lex>
    <ann chan="timex">0</ann>
    <ann chan="t3_date">0</ann>
   </tok>
   <tok>
    <orth>przejazd</orth>
    <lex disamb="1"><base>przejazd</base><ctag>subst:sg:nom:m3</ctag></lex>
    <ann chan="timex">0</ann>
    <ann chan="t3_date">0</ann>
   </tok>
   <tok>
    <orth>miał</orth>
    <lex disamb="1"><base>miał</base><ctag>subst:sg:nom:m3</ctag></lex>
    <ann chan="timex">0</ann>
    <ann chan="t3_date">0</ann>
   </tok>
   <tok>
    <orth>miejsce</orth>
    <lex disamb="1"><base>miejsce</base><ctag>subst:sg:nom:n</ctag></lex>
    <ann chan="timex">0</ann>
    <ann chan="t3_date">0</ann>
   </tok>
   <tok>
    <orth>o</orth>
    <lex disamb="1"><base>o</base><ctag>prep:acc</ctag></lex>
    <ann chan="timex">0</ann>
    <ann chan="t3_date">0</ann>
   </tok>
   <tok>
    <orth>10</orth>
    <lex disamb="1"><base>10</base><ctag>num:pl:nom:m1:rec</ctag></lex>
    <ann chan="timex">1</ann>
    <ann chan="t3_date">1</ann>
   </tok>
   <tok>
    <orth>rano</orth>
    <lex disamb="1"><base>rano</base><ctag>adv:pos</ctag></lex>
    <ann chan="timex">1</ann>
    <ann chan="t3_date">1</ann>
   </tok>
   <ns/>
   <tok>
    <orth>.</orth>
    <lex disamb="1"><base>.</base><ctag>interp</ctag></lex>
    <ann chan="timex">0</ann>
    <ann chan="t3_date">0</ann>
   </tok>
  </sentence>
 </chunk>
 <chunk type="p" id="ch4">
  <sentence id="s4">
   <tok>
    <orth>Nie</orth>
    <lex disamb="1"><base>nie</base><ctag>conj</ctag></lex>
   </tok>
   <tok>
    <orth>uwzględnia</orth>
    <lex disamb="1"><base>uwzględniać</base><ctag>fin:sg:ter:imperf</ctag></lex>
   </tok>
   <tok>
    <orth>reklamacji</orth>
    <lex disamb="1"><base>reklamacja</base><ctag>subst:sg:gen:f</ctag></lex>
   </tok>
   <ns/>
   <tok>
    <orth>,</orth>
    <lex disamb="1"><base>,</base><ctag>interp</ctag></lex>
   </tok>
   <tok>
    <orth>nie</orth>
    <lex disamb="1"><base>nie</base><ctag>conj</ctag></lex>
   </tok>
   <tok>
    <orth>ma</orth>
    <lex disamb="1"><base>mój</base><ctag>adj:sg:nom:f:pos</ctag></lex>
   </tok>
   <tok>
    <orth>z</orth>
    <lex disamb="1"><base>z</base><ctag>prep:gen:nwok</ctag></lex>
   </tok>
   <tok>
    <orth>nimi</orth>
    <lex disamb="1"><base>on</base><ctag>ppron3:pl:inst:m1:ter:akc:npraep</ctag></lex>
   </tok>
   <tok>
    <orth>możliwości</orth>
    <lex disamb="1"><base>możliwości</base><ctag>subst:pl:nom:n</ctag></lex>
   </tok>
   <tok>
    <orth>dalszego</orth>
    <lex disamb="1"><base>daleki</base><ctag>adj:sg:gen:m1:com</ctag></lex>
   </tok>
   <tok>
    <orth>kontaktu</orth>
    <lex disamb="1"><base>kontakt</base><ctag>subst:sg:gen:m3</ctag></lex>
   </tok>
   <ns/>
   <tok>
    <orth>.</orth>
    <lex disamb="1"><base>.</base><ctag>interp</ctag></lex>
   </tok>
   <ns/>
  </sentence>
 </chunk>
 <chunk type="p" id="ch5">
  <sentence id="s5">
   <tok>
    <orth>Próby</orth>
    <lex disamb="1"><base>próba</base><ctag>subst:sg:gen:f</ctag></lex>
   </tok>
   <tok>
    <orth>kontaktu</orth>
    <lex disamb="1"><base>kontakt</base><ctag>subst:sg:gen:m3</ctag></lex>
   </tok>
   <tok>
    <orth>z</orth>
    <lex disamb="1"><base>z</base><ctag>prep:gen:nwok</ctag></lex>
   </tok>
   <ns/>
   <tok>
    <orth>.</orth>
    <lex disamb="1"><base>.</base><ctag>interp</ctag></lex>
   </tok>
   <ns/>
   <tok>
    <orth>.</orth>
    <lex disamb="1"><base>.</base><ctag>interp</ctag></lex>
   </tok>
   <ns/>
   <tok>
    <orth>.</orth>
    <lex disamb="1"><base>.</base><ctag>interp</ctag></lex>
   </tok>
  </sentence>
 </chunk>
</chunkList>