<?xml version="1.0" encoding="UTF-8"?>
<!DOCTYPE chunkList SYSTEM "ccl.dtd">
<chunkList>
 <chunk type="p" id="ch1">
  <sentence id="s1">
   <tok>
    <orth>Poważny</orth>
    <lex disamb="1"><base>poważny</base><ctag>adj:sg:nom:m1:pos</ctag></lex>
    <ann chan="nam">0</ann>
    <ann chan="nam_loc_gpe_city">0</ann>
    <ann chan="nam_loc">0</ann>
   </tok>
   <tok>
    <orth>wypadek</orth>
    <lex disamb="1"><base>wypadek</base><ctag>subst:sg:nom:m3</ctag></lex>
    <ann chan="nam">0</ann>
    <ann chan="nam_loc_gpe_city">0</ann>
    <ann chan="nam_loc">0</ann>
   </tok>
   <tok>
    <orth>w</orth>
    <lex disamb="1"><base>w</base><ctag>prep:acc:nwok</ctag></lex>
    <ann chan="nam">0</ann>
    <ann chan="nam_loc_gpe_city">0</ann>
    <ann chan="nam_loc">0</ann>
   </tok>
   <tok>
    <orth>Łodzi</orth>
    <lex disamb="1"><base>Łódź</base><ctag>subst:sg:gen:f</ctag></lex>
    <lex disamb="1"><base>łódź</base><ctag>subst:sg:gen:f</ctag></lex>
    <ann chan="nam">1</ann>
    <ann chan="nam_loc_gpe_city">1</ann>
    <ann chan="nam_loc">1</ann>
   </tok>
   <ns/>
   <tok>
    <orth>.</orth>
    <lex disamb="1"><base>.</base><ctag>interp</ctag></lex>
    <ann chan="nam">0</ann>
    <ann chan="nam_loc_gpe_city">0</ann>
    <ann chan="nam_loc">0</ann>
   </tok>
  </sentence>
 </chunk>
 <chunk type="p" id="ch2">
  <sentence id="s2">
   <tok>
    <orth>Taksówka</orth>
    <lex disamb="1"><base>taksówka</base><ctag>subst:sg:nom:f</ctag></lex>
    <ann chan="nam">0</ann>
   </tok>
   <ns/>
   <tok>
    <orth>,</orth>
    <lex disamb="1"><base>,</base><ctag>interp</ctag></lex>
    <ann chan="nam">0</ann>
   </tok>
   <tok>
    <orth>kierowana</orth>
    <lex disamb="1"><base>kierować</base><ctag>ppas:sg:nom:f:imperf:aff</ctag></lex>
    <ann chan="nam">0</ann>
   </tok>
   <tok>
    <orth>przez</orth>
    <lex disamb="1"><base>przez</base><ctag>prep:acc:nwok</ctag></lex>
    <ann chan="nam">0</ann>
   </tok>
   <tok>
    <orth>17</orth>
    <lex disamb="1"><base>17</base><ctag>num:pl:nom:m1:rec</ctag></lex>
    <ann chan="nam">0</ann>
   </tok>
   <ns/>
   <tok>
    <orth>-</orth>
    <lex disamb="1"><base>-</base><ctag>interp</ctag></lex>
    <ann chan="nam">0</ann>
   </tok>
   <ns/>
   <tok>
    <orth>latkę</orth>
    <lex disamb="1"><base>latkę</base><ctag>ign</ctag></lex>
    <ann chan="nam">0</ann>
   </tok>
   <ns/>
   <tok>
    <orth>,</orth>
    <lex disamb="1"><base>,</base><ctag>interp</ctag></lex>
    <ann chan="nam">0</ann>
   </tok>
   <tok>
    <orth>uderzyła</orth>
    <lex disamb="1"><base>uderzyć</base><ctag>praet:sg:f:perf</ctag></lex>
    <ann chan="nam">0</ann>
   </tok>
   <tok>
    <orth>m.in</orth>
    <lex disamb="1"><base>między_innymi</base><ctag>brev:pun</ctag></lex>
    <ann chan="nam">1</ann>
   </tok>
   <ns/>
   <tok>
    <orth>.</orth>
    <lex disamb="1"><base>.</base><ctag>interp</ctag></lex>
    <ann chan="nam">0</ann>
   </tok>
   <tok>
    <orth>w</orth>
    <lex disamb="1"><base>w</base><ctag>prep:acc:nwok</ctag></lex>
    <ann chan="nam">0</ann>
   </tok>
   <tok>
    <orth>dystrybutory</orth>
    <lex disamb="1"><base>dystrybutor</base><ctag>subst:pl:nom:m3</ctag></lex>
    <ann chan="nam">0</ann>
   </tok>
   <tok>
    <orth>paliwa</orth>
    <lex disamb="1"><base>paliwo</base><ctag>subst:sg:gen:n</ctag></lex>
    <ann chan="nam">0</ann>
   </tok>
   <tok>
    <orth>na</orth>
    <lex disamb="1"><base>na</base><ctag>prep:acc</ctag></lex>
    <ann chan="nam">0</ann>
   </tok>
   <tok>
    <orth>stacji</orth>
    <lex disamb="1"><base>stacja</base><ctag>subst:sg:gen:f</ctag></lex>
    <ann chan="nam">0</ann>
   </tok>
   <tok>
    <orth>benzynowej</orth>
    <lex disamb="1"><base>benzynowy</base><ctag>adj:sg:gen:f:pos</ctag></lex>
    <ann chan="nam">0</ann>
   </tok>
   <ns/>
   <tok>
    <orth>.</orth>
    <lex disamb="1"><base>.</base><ctag>interp</ctag></lex>
    <ann chan="nam">0</ann>
   </tok>
  </sentence>
 </chunk>
 <chunk type="p" id="ch3">
  <sentence id="s3">
   <tok>
    <orth>Autem</orth>
    <lex disamb="1"><base>aut</base><ctag>subst:sg:inst:m3</ctag></lex>
    <ann chan="t3_duration">0</ann>
   </tok>
   <tok>
    <orth>-</orth>
    <lex disamb="1"><base>-</base><ctag>interp</ctag></lex>
    <ann chan="t3_duration">0</ann>
   </tok>
   <tok>
    <orth>na</orth>
    <lex disamb="1"><base>na</base><ctag>prep:acc</ctag></lex>
    <ann chan="t3_duration">0</ann>
   </tok>
   <tok>
    <orth>siedzeniu</orth>
    <lex disamb="1"><base>siedzenie</base><ctag>subst:sg:dat:n</ctag></lex>
    <ann chan="t3_duration">0</ann>
   </tok>
   <tok>
    <orth>pasażera</orth>
    <lex disamb="1"><base>pasażer</base><ctag>subst:sg:gen:m1</ctag></lex>
    <ann chan="t3_duration">0</ann>
   </tok>
   <tok>
    <orth>-</orth>
    <lex disamb="1"><base>-</base><ctag>interp</ctag></lex>
    <ann chan="t3_duration">0</ann>
   </tok>
   <tok>
    <orth>jechała</orth>
    <lex disamb="1"><base>jechać</base><ctag>praet:sg:f:imperf</ctag></lex>
    <ann chan="t3_duration">0</ann>
   </tok>
   <tok>
    <orth>również</orth>
    <lex disamb="1"><base>również</base><ctag>qub</ctag></lex>
    <ann chan="t3_duration">0</ann>
   </tok>
   <tok>
    <orth>35</orth>
    <lex disamb="1"><base>35</base><ctag>num:pl:nom:m1:rec</ctag></lex>
    <ann chan="t3_duration">1</ann>
   </tok>
   <ns/>
   <tok>
    <orth>-</orth>
    <lex disamb="1"><base>-</base><ctag>interp</ctag></lex>
    <ann chan="t3_duration">1</ann>
   </tok>
   <ns/>
   <tok>
    <orth>letnia</orth>
    <lex disamb="1"><base>letni</base><ctag>adj:sg:nom:f:pos</ctag></lex>
    <ann chan="t3_duration">1</ann>
   </tok>
   <tok>
    <orth>matka</orth>
    <lex disamb="1"><base>matka</base><ctag>subst:sg:nom:f</ctag></lex>
    <ann chan="t3_duration">0</ann>
   </tok>
   <tok>
    <orth>dziewczyny</orth>
    <lex disamb="1"><base>dziewczyna</base><ctag>subst:sg:gen:f</ctag></lex>
    <ann chan="t3_duration">0</ann>
   </tok>
   <ns/>
   <tok>
    <orth>.</orth>
    <lex disamb="1"><base>.</base><ctag>interp</ctag></lex>
    <ann chan="t3_duration">0</ann>
   </tok>
  </sentence>
 </chunk>
 <chunk type="p" id="ch4">
  <sentence id="s4">
   <tok>
    <orth>Obie</orth>
    <lex disamb="1"><base>Ob</base><ctag>subst:sg:loc:m3</ctag></lex>
   </tok>
   <tok>
    <orth>trafiły</orth>
    <lex disamb="1"><base>trafić</base><ctag>praet:pl:m2:perf</ctag></lex>
   </tok>
   <tok>
    <orth>do</orth>
    <lex disamb="1"><base>do</base><ctag>prep:gen</ctag></lex>
   </tok>
   <tok>
    <orth>szpitala</orth>
    <lex disamb="1"><base>szpital</base><ctag>subst:sg:gen:m3</ctag></lex>
   </tok>
   <ns/>
   <tok>
    <orth>.</orth>
    <lex disamb="1"><base>.</base><ctag>interp</ctag></lex>
   </tok>
  </sentence>
 </chunk>
</chunkList>