<?xml version="1.0" encoding="UTF-8"?>
<!DOCTYPE chunkList SYSTEM "ccl.dtd">
<chunkList>
 <chunk type="p" id="ch1">
  <sentence id="s1">
   <tok>
    <orth>15</orth>
    <lex disamb="1"><base>15</base><ctag>num:pl:nom:m1:rec</ctag></lex>
    <ann chan="nam">0</ann>
    <ann chan="nam_oth_currency">0</ann>
    <ann chan="nam_loc_gpe_city">0</ann>
    <ann chan="nam_oth">0</ann>
    <ann chan="nam_loc">0</ann>
    <ann chan="timex">0</ann>
    <ann chan="t3_duration">0</ann>
   </tok>
   <tok>
    <orth>tysięcy</orth>
    <lex disamb="1"><base>tysiąc</base><ctag>subst:pl:gen:m2</ctag></lex>
    <ann chan="nam">0</ann>
    <ann chan="nam_oth_currency">0</ann>
    <ann chan="nam_loc_gpe_city">0</ann>
    <ann chan="nam_oth">0</ann>
    <ann chan="nam_loc">0</ann>
    <ann chan="timex">0</ann>
    <ann chan="t3_duration">0</ann>
   </tok>
   <tok>
    <orth>złotych</orth>
    <lex disamb="1"><base>złoty</base><ctag>subst:pl:gen:m2</ctag></lex>
    <ann chan="nam">1</ann>
    <ann chan="nam_oth_currency">1</ann>
    <ann chan="nam_loc_gpe_city">0</ann>
    <ann chan="nam_oth">1</ann>
    <ann chan="nam_loc">0</ann>
    <ann chan="timex">0</ann>
    <ann chan="t3_duration">0</ann>
   </tok>
   <tok>
    <orth>oferują</orth>
    <lex disamb="1"><base>oferować</base><ctag>fin:pl:ter:imperf</ctag></lex>
    <ann chan="nam">0</ann>
    <ann chan="nam_oth_currency">0</ann>
    <ann chan="nam_loc_gpe_city">0</ann>
    <ann chan="nam_oth">0</ann>
    <ann chan="nam_loc">0</ann>
    <ann chan="timex">0</ann>
    <ann chan="t3_duration">0</ann>
   </tok>
   <tok>
    <orth>darczyńcy</orth>
    <lex disamb="1"><base>darczyńca</base><ctag>subst:sg:gen:m1</ctag></lex>
    <ann chan="nam">0</ann>
    <ann chan="nam_oth_currency">0</ann>
    <ann chan="nam_loc_gpe_city">0</ann>
    <ann chan="nam_oth">0</ann>
    <ann chan="nam_loc">0</ann>
    <ann chan="timex">0</ann>
    <ann chan="t3_duration">0</ann>
   </tok>
   <tok>
    <orth>za</orth>
    <lex disamb="1"><base>za</base><ctag>qub</ctag></lex>
    <ann chan="nam">0</ann>
    <ann chan="nam_oth_currency">0</ann>
    <ann chan="nam_loc_gpe_city">0</ann>
    <ann chan="nam_oth">0</ann>
    <ann chan="nam_loc">0</ann>
    <ann chan="timex">0</ann>
    <ann chan="t3_duration">0</ann>
   </tok>
   <tok>
    <orth>wskazanie</orth>
    <lex disamb="1"><base>wskazanie</base><ctag>subst:sg:nom:n</ctag></lex>
    <ann chan="nam">0</ann>
    <ann chan="nam_oth_currency">0</ann>
    <ann chan="nam_loc_gpe_city">0</ann>
    <ann chan="nam_oth">0</ann>
    <ann chan="nam_loc">0</ann>
    <ann chan="timex">0</ann>
    <ann chan="t3_duration">0</ann>
   </tok>
   <tok>
    <orth>sprawcy</orth>
    <lex disamb="1"><base>sprawca</base><ctag>subst:sg:gen:m1</ctag></lex>
    <ann chan="nam">0</ann>
    <ann chan="nam_oth_currency">0</ann>
    <ann chan="nam_loc_gpe_city">0</ann>
    <ann chan="nam_oth">0</ann>
    <ann chan="nam_loc">0</ann>
    <ann chan="timex">0</ann>
    <ann chan="t3_duration">0</ann>
   </tok>
   <tok>
    <orth>bestialskiego</orth>
    <lex disamb="1"><base>bestialski</base><ctag>adj:sg:gen:m1:pos</ctag></lex>
    <ann chan="nam">0</ann>
    <ann chan="nam_oth_currency">0</ann>
    <ann chan="nam_loc_gpe_city">0</ann>
    <ann chan="nam_oth">0</ann>
    <ann chan="nam_loc">0</ann>
    <ann chan="timex">0</ann>
    <ann chan="t3_duration">0</ann>
   </tok>
   <tok>
    <orth>powieszenia</orth>
    <lex disamb="1"><base>powiesić</base><ctag>ger:sg:gen:n:perf:aff</ctag></lex>
    <ann chan="nam">0</ann>
    <ann chan="nam_oth_currency">0</ann>
    <ann chan="nam_loc_gpe_city">0</ann>
    <ann chan="nam_oth">0</ann>
    <ann chan="nam_loc">0</ann>
    <ann chan="timex">0</ann>
    <ann chan="t3_duration">0</ann>
   </tok>
   <tok>
    <orth>psa</orth>
    <lex disamb="1"><base>pies</base><ctag>subst:sg:gen:m1</ctag></lex>
    <ann chan="nam">0</ann>
    <ann chan="nam_oth_currency">0</ann>
    <ann chan="nam_loc_gpe_city">0</ann>
    <ann chan="nam_oth">0</ann>
    <ann chan="nam_loc">0</ann>
    <ann chan="timex">0</ann>
    <ann chan="t3_duration">0</ann>
   </tok>
   <ns/>
   <tok>
    <orth>,</orth>
    <lex disamb="1"><base>,</base><ctag>interp</ctag></lex>
    <ann chan="nam">0</ann>
    <ann chan="nam_oth_currency">0</ann>
    <ann chan="nam_loc_gpe_city">0</ann>
    <ann chan="nam_oth">0</ann>
    <ann chan="nam_loc">0</ann>
    <ann chan="timex">0</ann>
    <ann chan="t3_duration">0</ann>
   </tok>
   <tok>
    <orth>do</orth>
    <lex disamb="1"><base>do</base><ctag>prep:gen</ctag></lex>
    <ann chan="nam">0</ann>
    <ann chan="nam_oth_currency">0</ann>
    <ann chan="nam_loc_gpe_city">0</ann>
    <ann chan="nam_oth">0</ann>
    <ann chan="nam_loc">0</ann>
    <ann chan="timex">0</ann>
    <ann chan="t3_duration">0</ann>
   </tok>
   <tok>
    <orth>jakiego</orth>
    <lex disamb="1"><base>jaki</base><ctag>adj:sg:gen:m1:pos</ctag></lex>
    <ann chan="nam">0</ann>
    <ann chan="nam_oth_currency">0</ann>
    <ann chan="nam_loc_gpe_city">0</ann>
    <ann chan="nam_oth">0</ann>
    <ann chan="nam_loc">0</ann>
    <ann chan="timex">0</ann>
    <ann chan="t3_duration">0</ann>
   </tok>
   <tok>
    <orth>doszło</orth>
    <lex disamb="1"><base>dojść</base><ctag>praet:sg:n:perf</ctag></lex>
    <ann chan="nam">0</ann>
    <ann chan="nam_oth_currency">0</ann>
    <ann chan="nam_loc_gpe_city">0</ann>
    <ann chan="nam_oth">0</ann>
    <ann chan="nam_loc">0</ann>
    <ann chan="timex">0</ann>
    <ann chan="t3_duration">0</ann>
   </tok>
   <tok>
    <orth>przed</orth>
    <lex disamb="1"><base>przed</base><ctag>prep:acc:nwok</ctag></lex>
    <ann chan="nam">0</ann>
    <ann chan="nam_oth_currency">0</ann>
    <ann chan="nam_loc_gpe_city">0</ann>
    <ann chan="nam_oth">0</ann>
    <ann chan="nam_loc">0</ann>
    <ann chan="timex">0</ann>
    <ann chan="t3_duration">0</ann>
   </tok>
   <tok>
    <orth>kilkoma</orth>
    <lex disamb="1"><base>kilka</base><ctag>num:pl:nom:m1:rec</ctag></lex>
    <lex disamb="1"><base>kilka</base><ctag>num:pl:nom:m1:rec</ctag></lex>
    <lex disamb="1"><base>kilka</base><ctag>num:pl:nom:m1:rec</ctag></lex>
    <lex disamb="1"><base>kilka</base><ctag>num:pl:nom:m1:rec</ctag></lex>
    <lex disamb="1"><base>kilka</base><ctag>num:pl:nom:m1:rec</ctag></lex>
    <ann chan="nam">0</ann>
    <ann chan="nam_oth_currency">0</ann>
    <ann chan="nam_loc_gpe_city">0</ann>
    <ann chan="nam_oth">0</ann>
    <ann chan="nam_loc">0</ann>
    <ann chan="timex">1</ann>
    <ann chan="t3_duration">1</ann>
   </tok>
   <tok>
    <orth>dniami</orth>
    <lex disamb="1"><base>dzień</base><ctag>subst:pl:inst:m3</ctag></lex>
    <ann chan="nam">0</ann>
    <ann chan="nam_oth_currency">0</ann>
    <ann chan="nam_loc_gpe_city">0</ann>
    <ann chan="nam_oth">0</ann>
    <ann chan="nam_loc">0</ann>
    <ann chan="timex">1</ann>
    <ann chan="t3_duration">1</ann>
   </tok>
   <tok>
    <orth>na</orth>
    <lex disamb="1"><base>na</base><ctag>prep:acc</ctag></lex>
    <ann chan="nam">0</ann>
    <ann chan="nam_oth_currency">0</ann>
    <ann chan="nam_loc_gpe_city">0</ann>
    <ann chan="nam_oth">0</ann>
    <ann chan="nam_loc">0</ann>
    <ann chan="timex">0</ann>
    <ann chan="t3_duration">0</ann>
   </tok>
   <tok>
    <orth>terenie</orth>
    <lex disamb="1"><base>teren</base><ctag>subst:sg:loc:m3</ctag></lex>
    <ann chan="nam">0</ann>
    <ann chan="nam_oth_currency">0</ann>
    <ann chan="nam_loc_gpe_city">0</ann>
    <ann chan="nam_oth">0</ann>
    <ann chan="nam_loc">0</ann>
    <ann chan="timex">0</ann>
    <ann chan="t3_duration">0</ann>
   </tok>
   <tok>
    <orth>Wałbrzycha</orth>
    <lex disamb="1"><base>Wałbrzych</base><ctag>subst:sg:gen:m3</ctag></lex>
    <ann chan="nam">2</ann>
    <ann chan="nam_oth_currency">0</ann>
    <ann chan="nam_loc_gpe_city">1</ann>
    <ann chan="nam_oth">0</ann>
    <ann chan="nam_loc">1</ann>
    <ann chan="timex">0</ann>
    <ann chan="t3_duration">0</ann>
   </tok>
   <ns/>
   <tok>
    <orth>,</orth>
    <lex disamb="1"><base>,</base><ctag>interp</ctag></lex>
    <ann chan="nam">0</ann>
    <ann chan="nam_oth_currency">0</ann>
    <ann chan="nam_loc_gpe_city">0</ann>
    <ann chan="nam_oth">0</ann>
    <ann chan="nam_loc">0</ann>
    <ann chan="timex">0</ann>
    <ann chan="t3_duration">0</ann>
   </tok>
   <tok>
    <orth>nieopodal</orth>
    <lex disamb="1"><base>nieopodal</base><ctag>adv:pos</ctag></lex>
    <ann chan="nam">0</ann>
    <ann chan="nam_oth_currency">0</ann>
    <ann chan="nam_loc_gpe_city">0</ann>
    <ann chan="nam_oth">0</ann>
    <ann chan="nam_loc">0</ann>
    <ann chan="timex">0</ann>
    <ann chan="t3_duration">0</ann>
   </tok>
   <tok>
    <orth>schroniska</orth>
    <lex disamb="1"><base>schronisko</base><ctag>subst:sg:gen:n</ctag></lex>
    <ann chan="nam">0</ann>
    <ann chan="nam_oth_currency">0</ann>
    <ann chan="nam_loc_gpe_city">0</ann>
    <ann chan="nam_oth">0</ann>
    <ann chan="nam_loc">0</ann>
    <ann chan="timex">0</ann>
    <ann chan="t3_duration">0</ann>
   </tok>
   <ns/>
   <tok>
    <orth>.</orth>
    <lex disamb="1"><base>.</base><ctag>interp</ctag></lex>
    <ann chan="nam">0</ann>
    <ann chan="nam_oth_currency">0</ann>
    <ann chan="nam_loc_gpe_city">0</ann>
    <ann chan="nam_oth">0</ann>
    <ann chan="nam_loc">0</ann>
    <ann chan="timex">0</ann>
    <ann chan="t3_duration">0</ann>
   </tok>
  </sentence>
 </chunk>
 <chunk type="p" id="ch2">
  <sentence id="s2">
   <tok>
    <orth>-</orth>
    <lex disamb="1"><base>-</base><ctag>interp</ctag></lex>
    <ann chan="timex">0</ann>
    <ann chan="t3_date">0</ann>
   </tok>
   <tok>
    <orth>W</orth>
    <lex disamb="1"><base>w</base><ctag>prep:acc:nwok</ctag></lex>
    <ann chan="timex">0</ann>
    <ann chan="t3_date">0</ann>
   </tok>
   <tok>
    <orth>czwartek</orth>
    <lex disamb="1"><base>czwartek</base><ctag>subst:sg:nom:m3</ctag></lex>
    <ann chan="timex">1</ann>
    <ann chan="t3_date">1</ann>
   </tok>
   <ns/>
   <tok>
    <orth>,</orth>
    <lex disamb="1"><base>,</base><ctag>interp</ctag></lex>
    <ann chan="timex">0</ann>
    <ann chan="t3_date">0</ann>
   </tok>
  </sentence>
 </chunk>
</chunkList>