<?xml version="1.0" encoding="UTF-8"?>
<!DOCTYPE chunkList SYSTEM "ccl.dtd">
<chunkList>
 <chunk type="p" id="ch1">
  <sentence id="s1">
   <tok>
    <orth>Rozstrzygnięcie</orth>
    <lex disamb="1"><base>rozstrzygnięcie</base><ctag>subst:sg:nom:n</ctag></lex>
    <ann chan="timex">0</ann>
   </tok>
   <tok>
    <orth>plebiscytu</orth>
    <lex disamb="1"><base>plebiscyt</base><ctag>subst:sg:gen:m3</ctag></lex>
    <ann chan="timex">0</ann>
   </tok>
   <tok>
    <orth>na</orth>
    <lex disamb="1"><base>na</base><ctag>prep:acc</ctag></lex>
    <ann chan="timex">0</ann>
   </tok>
   <tok>
    <orth>młodzieżowe</orth>
    <lex disamb="1"><base>młodzieżowy</base><ctag>adj:sg:nom:n:pos</ctag></lex>
    <ann chan="timex">0</ann>
   </tok>
   <tok>
    <orth>słowo</orth>
    <lex disamb="1"><base>słowo</base><ctag>subst:sg:nom:n</ctag></lex>
    <ann chan="timex">0</ann>
   </tok>
   <tok>
    <orth>roku</orth>
    <lex disamb="1"><base>rok</base><ctag>subst:sg:gen:m3</ctag></lex>
    <ann chan="timex">1</ann>
   </tok>
   <tok>
    <orth>xDD</orth>
    <lex disamb="1"><base>xDD</base><ctag>ign</ctag></lex>
    <ann chan="timex">0</ann>
   </tok>
  </sentence>
 </chunk>
</chunkList>