<?xml version="1.0" encoding="UTF-8"?>
<!DOCTYPE chunkList SYSTEM "ccl.dtd">
<chunkList>
 <chunk type="p" id="ch1">
  <sentence id="s1">
   <tok>
    <orth>Pół</orth>
    <lex disamb="1"><base>poła</base><ctag>subst:pl:gen:f</ctag></lex>
    <lex disamb="1"><base>póła</base><ctag>subst:pl:gen:f</ctag></lex>
    <ann chan="nam">0</ann>
    <ann chan="nam_org_institution">0</ann>
    <ann chan="nam_liv_person">0</ann>
    <ann chan="nam_org">0</ann>
    <ann chan="nam_liv">0</ann>
    <ann chan="timex">0</ann>
    <ann chan="t3_set">0</ann>
    <ann chan="t3_date">0</ann>
   </tok>
   <tok>
    <orth>roku</orth>
    <lex disamb="1"><base>rok</base><ctag>subst:sg:gen:m3</ctag></lex>
    <ann chan="nam">0</ann>
    <ann chan="nam_org_institution">0</ann>
    <ann chan="nam_liv_person">0</ann>
    <ann chan="nam_org">0</ann>
    <ann chan="nam_liv">0</ann>
    <ann chan="timex">0</ann>
    <ann chan="t3_set">0</ann>
    <ann chan="t3_date">0</ann>
   </tok>
   <tok>
    <orth>ograniczenia</orth>
    <lex disamb="1"><base>ograniczenie</base><ctag>subst:sg:gen:n</ctag></lex>
    <ann chan="nam">0</ann>
    <ann chan="nam_org_institution">0</ann>
    <ann chan="nam_liv_person">0</ann>
    <ann chan="nam_org">0</ann>
    <ann chan="nam_liv">0</ann>
    <ann chan="timex">0</ann>
    <ann chan="t3_set">0</ann>
    <ann chan="t3_date">0</ann>
   </tok>
   <tok>
    <orth>wolności</orth>
    <lex disamb="1"><base>wolność</base><ctag>subst:sg:gen:f</ctag></lex>
    <ann chan="nam">0</ann>
    <ann chan="nam_org_institution">0</ann>
    <ann chan="nam_liv_person">0</ann>
    <ann chan="nam_org">0</ann>
    <ann chan="nam_liv">0</ann>
    <ann chan="timex">0</ann>
    <ann chan="t3_set">0</ann>
    <ann chan="t3_date">0</ann>
   </tok>
   <tok>
    <orth>w</orth>
    <lex disamb="1"><base>w</base><ctag>prep:acc:nwok</ctag></lex>
    <ann chan="nam">0</ann>
    <ann chan="nam_org_institution">0</ann>
    <ann chan="nam_liv_person">0</ann>
    <ann chan="nam_org">0</ann>
    <ann chan="nam_liv">0</ann>
    <ann chan="timex">0</ann>
    <ann chan="t3_set">0</ann>
    <ann chan="t3_date">0</ann>
   </tok>
   <tok>
    <orth>formie</orth>
    <lex disamb="1"><base>forma</base><ctag>subst:sg:dat:f</ctag></lex>
    <ann chan="nam">0</ann>
    <ann chan="nam_org_institution">0</ann>
    <ann chan="nam_liv_person">0</ann>
    <ann chan="nam_org">0</ann>
    <ann chan="nam_liv">0</ann>
    <ann chan="timex">0</ann>
    <ann chan="t3_set">0</ann>
    <ann chan="t3_date">0</ann>
   </tok>
   <tok>
    <orth>prac</orth>
    <lex disamb="1"><base>praca</base><ctag>subst:pl:gen:f</ctag></lex>
    <ann chan="nam">0</ann>
    <ann chan="nam_org_institution">0</ann>
    <ann chan="nam_liv_person">0</ann>
    <ann chan="nam_org">0</ann>
    <ann chan="nam_liv">0</ann>
    <ann chan="timex">0</ann>
    <ann chan="t3_set">0</ann>
    <ann chan="t3_date">0</ann>
   </tok>
   <tok>
    <orth>społecznych</orth>
    <lex disamb="1"><base>społeczny</base><ctag>adj:pl:gen:m1:pos</ctag></lex>
    <ann chan="nam">0</ann>
    <ann chan="nam_org_institution">0</ann>
    <ann chan="nam_liv_person">0</ann>
    <ann chan="nam_org">0</ann>
    <ann chan="nam_liv">0</ann>
    <ann chan="timex">0</ann>
    <ann chan="t3_set">0</ann>
    <ann chan="t3_date">0</ann>
   </tok>
   <tok>
    <orth>w</orth>
    <lex disamb="1"><base>w</base><ctag>prep:acc:nwok</ctag></lex>
    <ann chan="nam">0</ann>
    <ann chan="nam_org_institution">0</ann>
    <ann chan="nam_liv_person">0</ann>
    <ann chan="nam_org">0</ann>
    <ann chan="nam_liv">0</ann>
    <ann chan="timex">0</ann>
    <ann chan="t3_set">0</ann>
    <ann chan="t3_date">0</ann>
   </tok>
   <tok>
    <orth>wymiarze</orth>
    <lex disamb="1"><base>wymiar</base><ctag>subst:sg:loc:m3</ctag></lex>
    <ann chan="nam">0</ann>
    <ann chan="nam_org_institution">0</ann>
    <ann chan="nam_liv_person">0</ann>
    <ann chan="nam_org">0</ann>
    <ann chan="nam_liv">0</ann>
    <ann chan="timex">0</ann>
    <ann chan="t3_set">0</ann>
    <ann chan="t3_date">0</ann>
   </tok>
   <tok>
    <orth>20</orth>
    <lex disamb="1"><base>20</base><ctag>num:pl:nom:m1:rec</ctag></lex>
    <ann chan="nam">0</ann>
    <ann chan="nam_org_institution">0</ann>
    <ann chan="nam_liv_person">0</ann>
    <ann chan="nam_org">0</ann>
    <ann chan="nam_liv">0</ann>
    <ann chan="timex">1</ann>
    <ann chan="t3_set">1</ann>
    <ann chan="t3_date">0</ann>
   </tok>
   <tok>
    <orth>godzin</orth>
    <lex disamb="1"><base>godzina</base><ctag>subst:pl:gen:f</ctag></lex>
    <ann chan="nam">0</ann>
    <ann chan="nam_org_institution">0</ann>
    <ann chan="nam_liv_person">0</ann>
    <ann chan="nam_org">0</ann>
    <ann chan="nam_liv">0</ann>
    <ann chan="timex">1</ann>
    <ann chan="t3_set">1</ann>
    <ann chan="t3_date">0</ann>
   </tok>
   <tok>
    <orth>w</orth>
    <lex disamb="1"><base>w</base><ctag>prep:acc:nwok</ctag></lex>
    <ann chan="nam">0</ann>
    <ann chan="nam_org_institution">0</ann>
    <ann chan="nam_liv_person">0</ann>
    <ann chan="nam_org">0</ann>
    <ann chan="nam_liv">0</ann>
    <ann chan="timex">1</ann>
    <ann chan="t3_set">1</ann>
    <ann chan="t3_date">0</ann>
   </tok>
   <tok>
    <orth>miesiącu</orth>
    <lex disamb="1"><base>miesiąc</base><ctag>subst:sg:loc:m3</ctag></lex>
    <ann chan="nam">0</ann>
    <ann chan="nam_org_institution">0</ann>
    <ann chan="nam_liv_person">0</ann>
    <ann chan="nam_org">0</ann>
    <ann chan="nam_liv">0</ann>
    <ann chan="timex">1</ann>
    <ann chan="t3_set">1</ann>
    <ann chan="t3_date">0</ann>
   </tok>
   <tok>
    <orth>-</orth>
    <lex disamb="1"><base>-</base><ctag>interp</ctag></lex>
    <ann chan="nam">0</ann>
    <ann chan="nam_org_institution">0</ann>
    <ann chan="nam_liv_person">0</ann>
    <ann chan="nam_org">0</ann>
    <ann chan="nam_liv">0</ann>
    <ann chan="timex">0</ann>
    <ann chan="t3_set">0</ann>
    <ann chan="t3_date">0</ann>
   </tok>
   <tok>
    <orth>taką</orth>
    <lex disamb="1"><base>taka</base><ctag>subst:sg:inst:f</ctag></lex>
    <ann chan="nam">0</ann>
    <ann chan="nam_org_institution">0</ann>
    <ann chan="nam_liv_person">0</ann>
    <ann chan="nam_org">0</ann>
    <ann chan="nam_liv">0</ann>
    <ann chan="timex">0</ann>
    <ann chan="t3_set">0</ann>
    <ann chan="t3_date">0</ann>
   </tok>
   <tok>
    <orth>karę</orth>
    <lex disamb="1"><base>kara</base><ctag>subst:sg:acc:f</ctag></lex>
    <ann chan="nam">0</ann>
    <ann chan="nam_org_institution">0</ann>
    <ann chan="nam_liv_person">0</ann>
    <ann chan="nam_org">0</ann>
    <ann chan="nam_liv">0</ann>
    <ann chan="timex">0</ann>
    <ann chan="t3_set">0</ann>
    <ann chan="t3_date">0</ann>
   </tok>
   <tok>
    <orth>orzekł</orth>
    <lex disamb="1"><base>orzec</base><ctag>praet:sg:m1:perf</ctag></lex>
    <ann chan="nam">0</ann>
    <ann chan="nam_org_institution">0</ann>
    <ann chan="nam_liv_person">0</ann>
    <ann chan="nam_org">0</ann>
    <ann chan="nam_liv">0</ann>
    <ann chan="timex">0</ann>
    <ann chan="t3_set">0</ann>
    <ann chan="t3_date">0</ann>
   </tok>
   <tok>
    <orth>dziś</orth>
    <lex disamb="1"><base>dziś</base><ctag>adv:pos</ctag></lex>
    <ann chan="nam">0</ann>
    <ann chan="nam_org_institution">0</ann>
    <ann chan="nam_liv_person">0</ann>
    <ann chan="nam_org">0</ann>
    <ann chan="nam_liv">0</ann>
    <ann chan="timex">2</ann>
    <ann chan="t3_set">0</ann>
    <ann chan="t3_date">1</ann>
   </tok>
   <tok>
    <orth>Sąd</orth>
    <lex disamb="1"><base>sąd</base><ctag>subst:sg:nom:m3</ctag></lex>
    <ann chan="nam">1</ann>
    <ann chan="nam_org_institution">1</ann>
    <ann chan="nam_liv_person">0</ann>
    <ann chan="nam_org">1</ann>
    <ann chan="nam_liv">0</ann>
    <ann chan="timex">0</ann>
    <ann chan="t3_set">0</ann>
    <ann chan="t3_date">0</ann>
   </tok>
   <tok>
    <orth>Okręgowy</orth>
    <lex disamb="1"><base>okręgowy</base><ctag>adj:sg:nom:m1:pos</ctag></lex>
    <ann chan="nam">1</ann>
    <ann chan="nam_org_institution">1</ann>
    <ann chan="nam_liv_person">0</ann>
    <ann chan="nam_org">1</ann>
    <ann chan="nam_liv">0</ann>
    <ann chan="timex">0</ann>
    <ann chan="t3_set">0</ann>
    <ann chan="t3_date">0</ann>
   </tok>
   <tok>
    <orth>w</orth>
    <lex disamb="1"><base>w</base><ctag>prep:acc:nwok</ctag></lex>
    <ann chan="nam">1</ann>
    <ann chan="nam_org_institution">1</ann>
    <ann chan="nam_liv_person">0</ann>
    <ann chan="nam_org">1</ann>
    <ann chan="nam_liv">0</ann>
    <ann chan="timex">0</ann>
    <ann chan="t3_set">0</ann>
    <ann chan="t3_date">0</ann>
   </tok>
   <tok>
    <orth>Gdańsku</orth>
    <lex disamb="1"><base>gdański</base><ctag>adjp</ctag></lex>
    <ann chan="nam">1</ann>
    <ann chan="nam_org_institution">1</ann>
    <ann chan="nam_liv_person">0</ann>
    <ann chan="nam_org">1</ann>
    <ann chan="nam_liv">0</ann>
    <ann chan="timex">0</ann>
    <ann chan="t3_set">0</ann>
    <ann chan="t3_date">0</ann>
   </tok>
   <tok>
    <orth>dla</orth>
    <lex disamb="1"><base>dla</base><ctag>prep:gen</ctag></lex>
    <ann chan="nam">0</ann>
    <ann chan="nam_org_institution">0</ann>
    <ann chan="nam_liv_person">0</ann>
    <ann chan="nam_org">0</ann>
    <ann chan="nam_liv">0</ann>
    <ann chan="timex">0</ann>
    <ann chan="t3_set">0</ann>
    <ann chan="t3_date">0</ann>
   </tok>
   <tok>
    <orth>wnuka</orth>
    <lex disamb="1"><base>wnuk</base><ctag>subst:sg:gen:m1</ctag></lex>
    <ann chan="nam">0</ann>
    <ann chan="nam_org_institution">0</ann>
    <ann chan="nam_liv_person">0</ann>
    <ann chan="nam_org">0</ann>
    <ann chan="nam_liv">0</ann>
    <ann chan="timex">0</ann>
    <ann chan="t3_set">0</ann>
    <ann chan="t3_date">0</ann>
   </tok>
   <tok>
    <orth>Lecha</orth>
    <lex disamb="1"><base>Lech</base><ctag>subst:sg:gen:m1</ctag></lex>
    <ann chan="nam">2</ann>
    <ann chan="nam_org_institution">0</ann>
    <ann chan="nam_liv_person">1</ann>
    <ann chan="nam_org">0</ann>
    <ann chan="nam_liv">1</ann>
    <ann chan="timex">0</ann>
    <ann chan="t3_set">0</ann>
    <ann chan="t3_date">0</ann>
   </tok>
   <tok>
    <orth>Wałęsy</orth>
    <lex disamb="1"><base>Wałęsa</base><ctag>subst:sg:gen:m1</ctag></lex>
    <lex disamb="1"><base>wałęsa</base><ctag>subst:sg:gen:m1</ctag></lex>
    <ann chan="nam">2</ann>
    <ann chan="nam_org_institution">0</ann>
    <ann chan="nam_liv_person">1</ann>
    <ann chan="nam_org">0</ann>
    <ann chan="nam_liv">1</ann>
    <ann chan="timex">0</ann>
    <ann chan="t3_set">0</ann>
    <ann chan="t3_date">0</ann>
   </tok>
   <ns/>
   <tok>
    <orth>.</orth>
    <lex disamb="1"><base>.</base><ctag>interp</ctag></lex>
    <ann chan="nam">0</ann>
    <ann chan="nam_org_institution">0</ann>
    <ann chan="nam_liv_person">0</ann>
    <ann chan="nam_org">0</ann>
    <ann chan="nam_liv">0</ann>
    <ann chan="timex">0</ann>
    <ann chan="t3_set">0</ann>
    <ann chan="t3_date">0</ann>
   </tok>
  </sentence>
 </chunk>
 <chunk type="p" id="ch2">
  <sentence id="s2">
   <tok>
    <orth>Dominik</orth>
    <lex disamb="1"><base>Dominik</base><ctag>subst:sg:nom:m1</ctag></lex>
    <ann chan="nam_liv_person">1</ann>
    <ann chan="nam_liv">1</ann>
   </tok>
   <tok>
    <orth>W</orth>
    <lex disamb="1"><base>w</base><ctag>prep:acc:nwok</ctag></lex>
    <ann chan="nam_liv_person">1</ann>
    <ann chan="nam_liv">1</ann>
   </tok>
   <ns/>
   <tok>
    <orth>.</orth>
    <lex disamb="1"><base>.</base><ctag>interp</ctag></lex>
    <ann chan="nam_liv_person">1</ann>
    <ann chan="nam_liv">1</ann>
   </tok>
   <tok>
    <orth>został</orth>
    <lex disamb="1"><base>zostać</base><ctag>praet:sg:m1:perf</ctag></lex>
    <ann chan="nam_liv_person">0</ann>
    <ann chan="nam_liv">0</ann>
   </tok>
   <tok>
    <orth>skazany</orth>
    <lex disamb="1"><base>skazany</base><ctag>subst:sg:nom:m1</ctag></lex>
    <ann chan="nam_liv_person">0</ann>
    <ann chan="nam_liv">0</ann>
   </tok>
   <tok>
    <orth>za</orth>
    <lex disamb="1"><base>za</base><ctag>qub</ctag></lex>
    <ann chan="nam_liv_person">0</ann>
    <ann chan="nam_liv">0</ann>
   </tok>
   <tok>
    <orth>naruszenie</orth>
    <lex disamb="1"><base>naruszenie</base><ctag>subst:sg:nom:n</ctag></lex>
    <ann chan="nam_liv_person">0</ann>
    <ann chan="nam_liv">0</ann>
   </tok>
   <tok>
    <orth>nietykalności</orth>
    <lex disamb="1"><base>nietykalność</base><ctag>subst:sg:gen:f</ctag></lex>
    <ann chan="nam_liv_person">0</ann>
    <ann chan="nam_liv">0</ann>
   </tok>
   <tok>
    <orth>osobistej</orth>
    <lex disamb="1"><base>osobisty</base><ctag>adj:sg:gen:f:pos</ctag></lex>
    <ann chan="nam_liv_person">0</ann>
    <ann chan="nam_liv">0</ann>
   </tok>
   <tok>
    <orth>20</orth>
    <lex disamb="1"><base>20</base><ctag>num:pl:nom:m1:rec</ctag></lex>
    <ann chan="nam_liv_person">0</ann>
    <ann chan="nam_liv">0</ann>
   </tok>
   <ns/>
   <tok>
    <orth>-</orth>
    <lex disamb="1"><base>-</base><ctag>interp</ctag></lex>
    <ann chan="nam_liv_person">0</ann>
    <ann chan="nam_liv">0</ann>
   </tok>
   <ns/>
   <tok>
    <orth>letniej</orth>
    <lex disamb="1"><base>letni</base><ctag>adj:sg:gen:f:pos</ctag></lex>
    <ann chan="nam_liv_person">0</ann>
    <ann chan="nam_liv">0</ann>
   </tok>
   <tok>
    <orth>kobiety</orth>
    <lex disamb="1"><base>kobieta</base><ctag>subst:sg:gen:f</ctag></lex>
    <ann chan="nam_liv_person">0</ann>
    <ann chan="nam_liv">0</ann>
   </tok>
   <ns/>
   <tok>
    <orth>.</orth>
    <lex disamb="1"><base>.</base><ctag>interp</ctag></lex>
    <ann chan="nam_liv_person">0</ann>
    <ann chan="nam_liv">0</ann>
   </tok>
  </sentence>
 </chunk>
 <chunk type="p" id="ch3">
  <sentence id="s3">
   <tok>
    <orth>Wyrok</orth>
    <lex disamb="1"><base>wyrok</base><ctag>subst:sg:nom:m3</ctag></lex>
   </tok>
   <tok>
    <orth>jest</orth>
    <lex disamb="1"><base>być</base><ctag>fin:sg:ter:imperf</ctag></lex>
   </tok>
   <tok>
    <orth>prawomocny</orth>
    <lex disamb="1"><base>prawomocny</base><ctag>adj:sg:nom:m1:pos</ctag></lex>
   </tok>
   <ns/>
   <tok>
    <orth>.</orth>
    <lex disamb="1"><base>.</base><ctag>interp</ctag></lex>
   </tok>
  </sentence>
 </chunk>
</chunkList>