<?xml version="1.0" encoding="UTF-8"?>
<!DOCTYPE chunkList SYSTEM "ccl.dtd">
<chunkList>
 <chunk type="p" id="ch1">
  <sentence id="s1">
   <tok>
    <orth>Czy</orth>
    <lex disamb="1"><base>czy</base><ctag>conj</ctag></lex>
   </tok>
   <tok>
    <orth>istnieją</orth>
    <lex disamb="1"><base>istnieć</base><ctag>fin:pl:ter:imperf</ctag></lex>
   </tok>
   <tok>
    <orth>badania</orth>
    <lex disamb="1"><base>badanie</base><ctag>subst:sg:gen:n</ctag></lex>
   </tok>
   <ns/>
   <tok>
    <orth>,</orth>
    <lex disamb="1"><base>,</base><ctag>interp</ctag></lex>
   </tok>
   <tok>
    <orth>porównujące</orth>
    <lex disamb="1"><base>porównywać</base><ctag>pact:sg:nom:n:imperf:aff</ctag></lex>
   </tok>
   <tok>
    <orth>stan</orth>
    <lex disamb="1"><base>stan</base><ctag>subst:sg:nom:m3</ctag></lex>
   </tok>
   <tok>
    <orth>zdrowia</orth>
    <lex disamb="1"><base>zdrowie</base><ctag>subst:sg:gen:n</ctag></lex>
   </tok>
   <tok>
    <orth>dzieci</orth>
    <lex disamb="1"><base>dziecko</base><ctag>subst:pl:nom:n</ctag></lex>
   </tok>
   <tok>
    <orth>szczepionych</orth>
    <lex disamb="1"><base>szczepić</base><ctag>ppas:pl:gen:m1:imperf:aff</ctag></lex>
   </tok>
   <tok>
    <orth>i</orth>
    <lex disamb="1"><base>i</base><ctag>conj</ctag></lex>
   </tok>
   <tok>
    <orth>nieszczepionych</orth>
    <lex disamb="1"><base>szczepić</base><ctag>ppas:pl:gen:m1:imperf:neg</ctag></lex>
   </tok>
   <ns/>
   <tok>
    <orth>?</orth>
    <lex disamb="1"><base>?</base><ctag>interp</ctag></lex>
   </tok>
  </sentence>
 </chunk>
 <chunk type="p" id="ch2">
  <sentence id="s2">
   <tok>
    <orth>A</orth>
    <lex disamb="1"><base>a</base><ctag>conj</ctag></lex>
    <ann chan="nam">0</ann>
    <ann chan="nam_loc">0</ann>
   </tok>
   <tok>
    <orth>zwłaszcza</orth>
    <lex disamb="1"><base>zwłaszcza</base><ctag>conj</ctag></lex>
    <ann chan="nam">0</ann>
    <ann chan="nam_loc">0</ann>
   </tok>
   <tok>
    <orth>sprawdzające</orth>
    <lex disamb="1"><base>sprawdzać</base><ctag>pact:sg:nom:n:imperf:aff</ctag></lex>
    <ann chan="nam">0</ann>
    <ann chan="nam_loc">0</ann>
   </tok>
   <tok>
    <orth>czy</orth>
    <lex disamb="1"><base>czy</base><ctag>conj</ctag></lex>
    <ann chan="nam">0</ann>
    <ann chan="nam_loc">0</ann>
   </tok>
   <tok>
    <orth>dzieci</orth>
    <lex disamb="1"><base>dziecko</base><ctag>subst:pl:nom:n</ctag></lex>
    <ann chan="nam">0</ann>
    <ann chan="nam_loc">0</ann>
   </tok>
   <tok>
    <orth>nieszczepione</orth>
    <lex disamb="1"><base>szczepić</base><ctag>ppas:sg:nom:n:imperf:neg</ctag></lex>
    <ann chan="nam">0</ann>
    <ann chan="nam_loc">0</ann>
   </tok>
   <tok>
    <orth>też</orth>
    <lex disamb="1"><base>też</base><ctag>qub</ctag></lex>
    <ann chan="nam">0</ann>
    <ann chan="nam_loc">0</ann>
   </tok>
   <tok>
    <orth>chorują</orth>
    <lex disamb="1"><base>chorować</base><ctag>fin:pl:ter:imperf</ctag></lex>
    <ann chan="nam">0</ann>
    <ann chan="nam_loc">0</ann>
   </tok>
   <tok>
    <orth>na</orth>
    <lex disamb="1"><base>na</base><ctag>prep:acc</ctag></lex>
    <ann chan="nam">0</ann>
    <ann chan="nam_loc">0</ann>
   </tok>
   <tok>
    <orth>Autyzm</orth>
    <lex disamb="1"><base>autyzm</base><ctag>subst:sg:nom:m3</ctag></lex>
    <ann chan="nam">1</ann>
    <ann chan="nam_loc">1</ann>
   </tok>
   <ns/>
   <tok>
    <orth>?</orth>
    <lex disamb="1"><base>?</base><ctag>interp</ctag></lex>
    <ann chan="nam">0</ann>
    <ann chan="nam_loc">0</ann>
   </tok>
  </sentence>
 </chunk>
 <chunk type="p" id="ch3">
  <sentence id="s3">
   <tok>
    <orth>Takie</orth>
    <lex disamb="1"><base>taki</base><ctag>adj:sg:nom:n:pos</ctag></lex>
    <ann chan="nam">0</ann>
    <ann chan="nam_org_nation">0</ann>
    <ann chan="nam_org">0</ann>
   </tok>
   <tok>
    <orth>badanie</orth>
    <lex disamb="1"><base>badan</base><ctag>subst:sg:loc:m3</ctag></lex>
    <ann chan="nam">0</ann>
    <ann chan="nam_org_nation">0</ann>
    <ann chan="nam_org">0</ann>
   </tok>
   <ns/>
   <tok>
    <orth>,</orth>
    <lex disamb="1"><base>,</base><ctag>interp</ctag></lex>
    <ann chan="nam">0</ann>
    <ann chan="nam_org_nation">0</ann>
    <ann chan="nam_org">0</ann>
   </tok>
   <tok>
    <orth>obejmujące</orth>
    <lex disamb="1"><base>obejmować</base><ctag>pact:sg:nom:n:imperf:aff</ctag></lex>
    <ann chan="nam">0</ann>
    <ann chan="nam_org_nation">0</ann>
    <ann chan="nam_org">0</ann>
   </tok>
   <tok>
    <orth>próbę</orth>
    <lex disamb="1"><base>próba</base><ctag>subst:sg:acc:f</ctag></lex>
    <ann chan="nam">0</ann>
    <ann chan="nam_org_nation">0</ann>
    <ann chan="nam_org">0</ann>
   </tok>
   <tok>
    <orth>pół</orth>
    <lex disamb="1"><base>poła</base><ctag>subst:pl:gen:f</ctag></lex>
    <lex disamb="1"><base>póła</base><ctag>subst:pl:gen:f</ctag></lex>
    <ann chan="nam">0</ann>
    <ann chan="nam_org_nation">0</ann>
    <ann chan="nam_org">0</ann>
   </tok>
   <tok>
    <orth>miliona</orth>
    <lex disamb="1"><base>milion</base><ctag>subst:sg:gen:m3</ctag></lex>
    <ann chan="nam">0</ann>
    <ann chan="nam_org_nation">0</ann>
    <ann chan="nam_org">0</ann>
   </tok>
   <tok>
    <orth>dzieci</orth>
    <lex disamb="1"><base>dziecko</base><ctag>subst:pl:nom:n</ctag></lex>
    <ann chan="nam">0</ann>
    <ann chan="nam_org_nation">0</ann>
    <ann chan="nam_org">0</ann>
   </tok>
   <ns/>
   <tok>
    <orth>,</orth>
    <lex disamb="1"><base>,</base><ctag>interp</ctag></lex>
    <ann chan="nam">0</ann>
    <ann chan="nam_org_nation">0</ann>
    <ann chan="nam_org">0</ann>
   </tok>
   <tok>
    <orth>wykonali</orth>
    <lex disamb="1"><base>wykonać</base><ctag>praet:pl:m1:perf</ctag></lex>
    <ann chan="nam">0</ann>
    <ann chan="nam_org_nation">0</ann>
    <ann chan="nam_org">0</ann>
   </tok>
   <tok>
    <orth>Duńczycy</orth>
    <lex disamb="1"><base>Duńczyk</base><ctag>subst:pl:nom:m1</ctag></lex>
    <ann chan="nam">1</ann>
    <ann chan="nam_org_nation">1</ann>
    <ann chan="nam_org">1</ann>
   </tok>
   <tok>
    <orth>i</orth>
    <lex disamb="1"><base>i</base><ctag>conj</ctag></lex>
    <ann chan="nam">0</ann>
    <ann chan="nam_org_nation">0</ann>
    <ann chan="nam_org">0</ann>
   </tok>
   <tok>
    <orth>wyniki</orth>
    <lex disamb="1"><base>wynik</base><ctag>subst:pl:nom:m3</ctag></lex>
    <ann chan="nam">0</ann>
    <ann chan="nam_org_nation">0</ann>
    <ann chan="nam_org">0</ann>
   </tok>
   <tok>
    <orth>chyba</orth>
    <lex disamb="1"><base>chyba</base><ctag>qub</ctag></lex>
    <ann chan="nam">0</ann>
    <ann chan="nam_org_nation">0</ann>
    <ann chan="nam_org">0</ann>
   </tok>
   <tok>
    <orth>nie</orth>
    <lex disamb="1"><base>nie</base><ctag>conj</ctag></lex>
    <ann chan="nam">0</ann>
    <ann chan="nam_org_nation">0</ann>
    <ann chan="nam_org">0</ann>
   </tok>
   <tok>
    <orth>spodobają</orth>
    <lex disamb="1"><base>spodobać</base><ctag>fin:pl:ter:perf</ctag></lex>
    <ann chan="nam">0</ann>
    <ann chan="nam_org_nation">0</ann>
    <ann chan="nam_org">0</ann>
   </tok>
   <tok>
    <orth>się</orth>
    <lex disamb="1"><base>się</base><ctag>qub</ctag></lex>
    <ann chan="nam">0</ann>
    <ann chan="nam_org_nation">0</ann>
    <ann chan="nam_org">0</ann>
   </tok>
   <tok>
    <orth>przeciwnikom</orth>
    <lex disamb="1"><base>przeciwnik</base><ctag>subst:pl:dat:m1</ctag></lex>
    <ann chan="nam">0</ann>
    <ann chan="nam_org_nation">0</ann>
    <ann chan="nam_org">0</ann>
   </tok>
   <tok>
    <orth>obowiązkowych</orth>
    <lex disamb="1"><base>obowiązkowy</base><ctag>adj:pl:gen:m1:pos</ctag></lex>
    <ann chan="nam">0</ann>
    <ann chan="nam_org_nation">0</ann>
    <ann chan="nam_org">0</ann>
   </tok>
   <tok>
    <orth>szczepień</orth>
    <lex disamb="1"><base>szczepienie</base><ctag>subst:pl:gen:n</ctag></lex>
    <ann chan="nam">0</ann>
    <ann chan="nam_org_nation">0</ann>
    <ann chan="nam_org">0</ann>
   </tok>
   <ns/>
   <tok>
    <orth>.</orth>
    <lex disamb="1"><base>.</base><ctag>interp</ctag></lex>
    <ann chan="nam">0</ann>
    <ann chan="nam_org_nation">0</ann>
    <ann chan="nam_org">0</ann>
   </tok>
  </sentence>
 </chunk>
</chunkList>