<?xml version="1.0" encoding="UTF-8"?>
<!DOCTYPE chunkList SYSTEM "ccl.dtd">
<chunkList>
 <chunk type="p" id="ch1">
  <sentence id="s1">
   <tok>
    <orth>Co</orth>
    <lex disamb="1"><base>co</base><ctag>comp</ctag></lex>
    <ann chan="nam">0</ann>
    <ann chan="nam_loc_gpe_city">0</ann>
    <ann chan="nam_loc">0</ann>
   </tok>
   <tok>
    <orth>najmniej</orth>
    <lex disamb="1"><base>mało</base><ctag>adv:pos</ctag></lex>
    <ann chan="nam">0</ann>
    <ann chan="nam_loc_gpe_city">0</ann>
    <ann chan="nam_loc">0</ann>
   </tok>
   <tok>
    <orth>278</orth>
    <lex disamb="1"><base>278</base><ctag>num:pl:nom:m1:rec</ctag></lex>
    <ann chan="nam">0</ann>
    <ann chan="nam_loc_gpe_city">0</ann>
    <ann chan="nam_loc">0</ann>
   </tok>
   <tok>
    <orth>osób</orth>
    <lex disamb="1"><base>osoba</base><ctag>subst:pl:gen:f</ctag></lex>
    <ann chan="nam">0</ann>
    <ann chan="nam_loc_gpe_city">0</ann>
    <ann chan="nam_loc">0</ann>
   </tok>
   <tok>
    <orth>prewencyjnie</orth>
    <lex disamb="1"><base>prewencyjnie</base><ctag>adv:pos</ctag></lex>
    <ann chan="nam">0</ann>
    <ann chan="nam_loc_gpe_city">0</ann>
    <ann chan="nam_loc">0</ann>
   </tok>
   <tok>
    <orth>zatrzymano</orth>
    <lex disamb="1"><base>zatrzymać</base><ctag>imps:perf</ctag></lex>
    <ann chan="nam">0</ann>
    <ann chan="nam_loc_gpe_city">0</ann>
    <ann chan="nam_loc">0</ann>
   </tok>
   <tok>
    <orth>w</orth>
    <lex disamb="1"><base>w</base><ctag>prep:acc:nwok</ctag></lex>
    <ann chan="nam">0</ann>
    <ann chan="nam_loc_gpe_city">0</ann>
    <ann chan="nam_loc">0</ann>
   </tok>
   <tok>
    <orth>Paryżu</orth>
    <lex disamb="1"><base>Paryż</base><ctag>subst:sg:loc:m3</ctag></lex>
    <ann chan="nam">1</ann>
    <ann chan="nam_loc_gpe_city">1</ann>
    <ann chan="nam_loc">1</ann>
   </tok>
   <tok>
    <orth>i</orth>
    <lex disamb="1"><base>i</base><ctag>conj</ctag></lex>
    <ann chan="nam">0</ann>
    <ann chan="nam_loc_gpe_city">0</ann>
    <ann chan="nam_loc">0</ann>
   </tok>
   <tok>
    <orth>regionie</orth>
    <lex disamb="1"><base>region</base><ctag>subst:sg:loc:m3</ctag></lex>
    <ann chan="nam">0</ann>
    <ann chan="nam_loc_gpe_city">0</ann>
    <ann chan="nam_loc">0</ann>
   </tok>
   <tok>
    <orth>stołecznym</orth>
    <lex disamb="1"><base>stołeczny</base><ctag>adj:sg:inst:m1:pos</ctag></lex>
    <ann chan="nam">0</ann>
    <ann chan="nam_loc_gpe_city">0</ann>
    <ann chan="nam_loc">0</ann>
   </tok>
   <tok>
    <orth>przed</orth>
    <lex disamb="1"><base>przed</base><ctag>prep:acc:nwok</ctag></lex>
    <ann chan="nam">0</ann>
    <ann chan="nam_loc_gpe_city">0</ann>
    <ann chan="nam_loc">0</ann>
   </tok>
   <tok>
    <orth>rozpoczęciem</orth>
    <lex disamb="1"><base>rozpoczęcie</base><ctag>subst:sg:inst:n</ctag></lex>
    <ann chan="nam">0</ann>
    <ann chan="nam_loc_gpe_city">0</ann>
    <ann chan="nam_loc">0</ann>
   </tok>
   <tok>
    <orth>kolejnych</orth>
    <lex disamb="1"><base>kolejny</base><ctag>adj:pl:gen:m1:pos</ctag></lex>
    <ann chan="nam">0</ann>
    <ann chan="nam_loc_gpe_city">0</ann>
    <ann chan="nam_loc">0</ann>
   </tok>
   <tok>
    <orth>protestów</orth>
    <lex disamb="1"><base>protest</base><ctag>subst:pl:gen:m3</ctag></lex>
    <ann chan="nam">0</ann>
    <ann chan="nam_loc_gpe_city">0</ann>
    <ann chan="nam_loc">0</ann>
   </tok>
   <tok>
    <orth>ruchu</orth>
    <lex disamb="1"><base>ruch</base><ctag>subst:sg:gen:m3</ctag></lex>
    <ann chan="nam">0</ann>
    <ann chan="nam_loc_gpe_city">0</ann>
    <ann chan="nam_loc">0</ann>
   </tok>
   <tok>
    <orth>żółtych</orth>
    <lex disamb="1"><base>żółty</base><ctag>adj:pl:gen:m1:pos</ctag></lex>
    <ann chan="nam">0</ann>
    <ann chan="nam_loc_gpe_city">0</ann>
    <ann chan="nam_loc">0</ann>
   </tok>
   <tok>
    <orth>kamizelek</orth>
    <lex disamb="1"><base>kamizelka</base><ctag>subst:pl:gen:f</ctag></lex>
    <ann chan="nam">0</ann>
    <ann chan="nam_loc_gpe_city">0</ann>
    <ann chan="nam_loc">0</ann>
   </tok>
   <ns/>
   <tok>
    <orth>.</orth>
    <lex disamb="1"><base>.</base><ctag>interp</ctag></lex>
    <ann chan="nam">0</ann>
    <ann chan="nam_loc_gpe_city">0</ann>
    <ann chan="nam_loc">0</ann>
   </tok>
  </sentence>
 </chunk>
 <chunk type="p" id="ch2">
  <sentence id="s2">
   <tok>
    <orth>Taką</orth>
    <lex disamb="1"><base>taka</base><ctag>subst:sg:inst:f</ctag></lex>
   </tok>
   <tok>
    <orth>informację</orth>
    <lex disamb="1"><base>informacja</base><ctag>subst:sg:acc:f</ctag></lex>
   </tok>
   <tok>
    <orth>podała</orth>
    <lex disamb="1"><base>podać</base><ctag>praet:sg:f:perf</ctag></lex>
   </tok>
   <tok>
    <orth>prefektura</orth>
    <lex disamb="1"><base>prefektura</base><ctag>subst:sg:nom:f</ctag></lex>
   </tok>
   <tok>
    <orth>policji</orth>
    <lex disamb="1"><base>policja</base><ctag>subst:sg:gen:f</ctag></lex>
   </tok>
   <ns/>
   <tok>
    <orth>.</orth>
    <lex disamb="1"><base>.</base><ctag>interp</ctag></lex>
   </tok>
  </sentence>
 </chunk>
 <chunk type="p" id="ch3">
  <sentence id="s3">
   <tok>
    <orth>Francuskie</orth>
    <lex disamb="1"><base>francuski</base><ctag>subst:pl:nom:m3</ctag></lex>
    <ann chan="nam_adj_country">1</ann>
    <ann chan="nam_adj">1</ann>
   </tok>
   <tok>
    <orth>władze</orth>
    <lex disamb="1"><base>władza</base><ctag>subst:pl:nom:f</ctag></lex>
    <ann chan="nam_adj_country">0</ann>
    <ann chan="nam_adj">0</ann>
   </tok>
   <tok>
    <orth>obawiają</orth>
    <lex disamb="1"><base>obawiać</base><ctag>fin:pl:ter:imperf</ctag></lex>
    <ann chan="nam_adj_country">0</ann>
    <ann chan="nam_adj">0</ann>
   </tok>
   <tok>
    <orth>się</orth>
    <lex disamb="1"><base>się</base><ctag>qub</ctag></lex>
    <ann chan="nam_adj_country">0</ann>
    <ann chan="nam_adj">0</ann>
   </tok>
   <ns/>
   <tok>
    <orth>,</orth>
    <lex disamb="1"><base>,</base><ctag>interp</ctag></lex>
    <ann chan="nam_adj_country">0</ann>
    <ann chan="nam_adj">0</ann>
   </tok>
   <tok>
    <orth>że</orth>
    <lex disamb="1"><base>że</base><ctag>comp</ctag></lex>
    <ann chan="nam_adj_country">0</ann>
    <ann chan="nam_adj">0</ann>
   </tok>
   <tok>
    <orth>protesty</orth>
    <lex disamb="1"><base>protest</base><ctag>subst:pl:nom:m3</ctag></lex>
    <ann chan="nam_adj_country">0</ann>
    <ann chan="nam_adj">0</ann>
   </tok>
   <tok>
    <orth>ponownie</orth>
    <lex disamb="1"><base>ponownie</base><ctag>adv:pos</ctag></lex>
    <ann chan="nam_adj_country">0</ann>
    <ann chan="nam_adj">0</ann>
   </tok>
   <tok>
    <orth>przerodzą</orth>
    <lex disamb="1"><base>przerodzić</base><ctag>fin:pl:ter:perf</ctag></lex>
    <ann chan="nam_adj_country">0</ann>
    <ann chan="nam_adj">0</ann>
   </tok>
   <tok>
    <orth>się</orth>
    <lex disamb="1"><base>się</base><ctag>qub</ctag></lex>
    <ann chan="nam_adj_country">0</ann>
    <ann chan="nam_adj">0</ann>
   </tok>
   <tok>
    <orth>w</orth>
    <lex disamb="1"><base>w</base><ctag>prep:acc:nwok</ctag></lex>
    <ann chan="nam_adj_country">0</ann>
    <ann chan="nam_adj">0</ann>
   </tok>
   <tok>
    <orth>zamieszki</orth>
    <lex disamb="1"><base>zamieszka</base><ctag>subst:sg:gen:f</ctag></lex>
    <ann chan="nam_adj_country">0</ann>
    <ann chan="nam_adj">0</ann>
   </tok>
   <ns/>
   <tok>
    <orth>.</orth>
    <lex disamb="1"><base>.</base><ctag>interp</ctag></lex>
    <ann chan="nam_adj_country">0</ann>
    <ann chan="nam_adj">0</ann>
   </tok>
   <ns/>
   <tok>
    <orth>.</orth>
    <lex disamb="1"><base>.</base><ctag>interp</ctag></lex>
    <ann chan="nam_adj_country">0</ann>
    <ann chan="nam_adj">0</ann>
   </tok>
   <ns/>
   <tok>
    <orth>.</orth>
    <lex disamb="1"><base>.</base><ctag>interp</ctag></lex>
    <ann chan="nam_adj_country">0</ann>
    <ann chan="nam_adj">0</ann>
   </tok>
   <ns/>
   <tok>
    <orth>.</orth>
    <lex disamb="1"><base>.</base><ctag>interp</ctag></lex>
    <ann chan="nam_adj_country">0</ann>
    <ann chan="nam_adj">0</ann>
   </tok>
  </sentence>
 </chunk>
</chunkList>