<?xml version="1.0" encoding="UTF-8"?>
<!DOCTYPE chunkList SYSTEM "ccl.dtd">
<chunkList>
 <chunk type="p" id="ch1">
  <sentence id="s1">
   <tok>
    <orth>W</orth>
    <lex disamb="1"><base>w</base><ctag>prep:acc:nwok</ctag></lex>
    <ann chan="timex">0</ann>
    <ann chan="t3_duration">0</ann>
   </tok>
   <tok>
    <orth>ciągu</orth>
    <lex disamb="1"><base>ciąg</base><ctag>subst:sg:gen:m3</ctag></lex>
    <ann chan="timex">0</ann>
    <ann chan="t3_duration">0</ann>
   </tok>
   <tok>
    <orth>ostatnich</orth>
    <lex disamb="1"><base>ostatni</base><ctag>subst:pl:gen:m1</ctag></lex>
    <ann chan="timex">1</ann>
    <ann chan="t3_duration">1</ann>
   </tok>
   <tok>
    <orth>trzech</orth>
    <lex disamb="1"><base>trzy</base><ctag>num:pl:nom:m1:rec</ctag></lex>
    <lex disamb="1"><base>trzy</base><ctag>num:pl:nom:m1:rec</ctag></lex>
    <lex disamb="1"><base>trzy</base><ctag>num:pl:nom:m1:rec</ctag></lex>
    <lex disamb="1"><base>trzy</base><ctag>num:pl:nom:m1:rec</ctag></lex>
    <lex disamb="1"><base>trzy</base><ctag>num:pl:nom:m1:rec</ctag></lex>
    <lex disamb="1"><base>trzy</base><ctag>num:pl:nom:m1:rec</ctag></lex>
    <lex disamb="1"><base>trzy</base><ctag>num:pl:nom:m1:rec</ctag></lex>
    <lex disamb="1"><base>trzy</base><ctag>num:pl:nom:m1:rec</ctag></lex>
    <lex disamb="1"><base>trzy</base><ctag>num:pl:nom:m1:rec</ctag></lex>
    <lex disamb="1"><base>trzy</base><ctag>num:pl:nom:m1:rec</ctag></lex>
    <lex disamb="1"><base>trzy</base><ctag>num:pl:nom:m1:rec</ctag></lex>
    <lex disamb="1"><base>trzy</base><ctag>num:pl:nom:m1:rec</ctag></lex>
    <lex disamb="1"><base>trzy</base><ctag>num:pl:nom:m1:rec</ctag></lex>
    <ann chan="timex">1</ann>
    <ann chan="t3_duration">1</ann>
   </tok>
   <tok>
    <orth>lat</orth>
    <lex disamb="1"><base>lato</base><ctag>subst:pl:gen:n</ctag></lex>
    <ann chan="timex">1</ann>
    <ann chan="t3_duration">1</ann>
   </tok>
   <tok>
    <orth>liczba</orth>
    <lex disamb="1"><base>liczba</base><ctag>subst:sg:nom:f</ctag></lex>
    <ann chan="timex">0</ann>
    <ann chan="t3_duration">0</ann>
   </tok>
   <tok>
    <orth>firm</orth>
    <lex disamb="1"><base>firma</base><ctag>subst:pl:gen:f</ctag></lex>
    <ann chan="timex">0</ann>
    <ann chan="t3_duration">0</ann>
   </tok>
   <tok>
    <orth>z</orth>
    <lex disamb="1"><base>z</base><ctag>prep:gen:nwok</ctag></lex>
    <ann chan="timex">0</ann>
    <ann chan="t3_duration">0</ann>
   </tok>
   <tok>
    <orth>polskim</orth>
    <lex disamb="1"><base>polski</base><ctag>subst:sg:inst:m3</ctag></lex>
    <ann chan="timex">0</ann>
    <ann chan="t3_duration">0</ann>
   </tok>
   <tok>
    <orth>kapitałem</orth>
    <lex disamb="1"><base>kapitał</base><ctag>subst:sg:inst:m3</ctag></lex>
    <ann chan="timex">0</ann>
    <ann chan="t3_duration">0</ann>
   </tok>
   <tok>
    <orth>wzrosła</orth>
    <lex disamb="1"><base>wzrosły</base><ctag>adj:sg:nom:f:pos</ctag></lex>
    <ann chan="timex">0</ann>
    <ann chan="t3_duration">0</ann>
   </tok>
   <tok>
    <orth>o</orth>
    <lex disamb="1"><base>o</base><ctag>prep:acc</ctag></lex>
    <ann chan="timex">0</ann>
    <ann chan="t3_duration">0</ann>
   </tok>
   <tok>
    <orth>blisko</orth>
    <lex disamb="1"><base>blisko</base><ctag>adv:pos</ctag></lex>
    <ann chan="timex">0</ann>
    <ann chan="t3_duration">0</ann>
   </tok>
   <tok>
    <orth>50</orth>
    <lex disamb="1"><base>50</base><ctag>num:pl:nom:m1:rec</ctag></lex>
    <ann chan="timex">0</ann>
    <ann chan="t3_duration">0</ann>
   </tok>
   <tok>
    <orth>proc</orth>
    <lex disamb="1"><base>proca</base><ctag>subst:pl:gen:f</ctag></lex>
    <ann chan="timex">0</ann>
    <ann chan="t3_duration">0</ann>
   </tok>
   <ns/>
   <tok>
    <orth>.</orth>
    <lex disamb="1"><base>.</base><ctag>interp</ctag></lex>
    <ann chan="timex">0</ann>
    <ann chan="t3_duration">0</ann>
   </tok>
  </sentence>
 </chunk>
 <chunk type="p" id="ch2">
  <sentence id="s2">
   <tok>
    <orth>Przyciąga</orth>
    <lex disamb="1"><base>przyciągać</base><ctag>fin:sg:ter:imperf</ctag></lex>
   </tok>
   <tok>
    <orth>przejrzystszy</orth>
    <lex disamb="1"><base>przejrzysty</base><ctag>adj:sg:nom:m1:com</ctag></lex>
   </tok>
   <tok>
    <orth>system</orth>
    <lex disamb="1"><base>system</base><ctag>subst:sg:nom:m3</ctag></lex>
   </tok>
   <tok>
    <orth>podatkowy</orth>
    <lex disamb="1"><base>podatkowy</base><ctag>adj:sg:nom:m1:pos</ctag></lex>
   </tok>
   <tok>
    <orth>i</orth>
    <lex disamb="1"><base>i</base><ctag>conj</ctag></lex>
   </tok>
   <tok>
    <orth>jednoznaczne</orth>
    <lex disamb="1"><base>jednoznaczny</base><ctag>adj:sg:nom:n:pos</ctag></lex>
   </tok>
   <tok>
    <orth>przepisy</orth>
    <lex disamb="1"><base>przepis</base><ctag>subst:pl:nom:m3</ctag></lex>
   </tok>
   <ns/>
   <tok>
    <orth>.</orth>
    <lex disamb="1"><base>.</base><ctag>interp</ctag></lex>
   </tok>
  </sentence>
 </chunk>
</chunkList>