<?xml version="1.0" encoding="UTF-8"?>
<!DOCTYPE chunkList SYSTEM "ccl.dtd">
<chunkList>
 <chunk type="p" id="ch1">
  <sentence id="s1">
   <tok>
    <orth>Olbrzymie</orth>
    <lex disamb="1"><base>olbrzym</base><ctag>subst:sg:loc:m1</ctag></lex>
   </tok>
   <tok>
    <orth>hydrauliczne</orth>
    <lex disamb="1"><base>hydrauliczny</base><ctag>adj:sg:nom:n:pos</ctag></lex>
   </tok>
   <tok>
    <orth>maszyny</orth>
    <lex disamb="1"><base>maszyna</base><ctag>subst:sg:gen:f</ctag></lex>
   </tok>
   <tok>
    <orth>do</orth>
    <lex disamb="1"><base>do</base><ctag>prep:gen</ctag></lex>
   </tok>
   <tok>
    <orth>kucia</orth>
    <lex disamb="1"><base>kuć</base><ctag>ger:sg:gen:n:imperf:aff</ctag></lex>
   </tok>
   <tok>
    <orth>stali</orth>
    <lex disamb="1"><base>stal</base><ctag>subst:sg:gen:f</ctag></lex>
   </tok>
   <tok>
    <orth>na</orth>
    <lex disamb="1"><base>na</base><ctag>prep:acc</ctag></lex>
   </tok>
   <tok>
    <orth>gorąco</orth>
    <lex disamb="1"><base>gorąco</base><ctag>adv:pos</ctag></lex>
   </tok>
   <tok>
    <orth>i</orth>
    <lex disamb="1"><base>i</base><ctag>conj</ctag></lex>
   </tok>
   <tok>
    <orth>proces</orth>
    <lex disamb="1"><base>proces</base><ctag>subst:sg:nom:m3</ctag></lex>
   </tok>
   <tok>
    <orth>obróbki</orth>
    <lex disamb="1"><base>obróbka</base><ctag>subst:sg:gen:f</ctag></lex>
   </tok>
   <tok>
    <orth>metalu</orth>
    <lex disamb="1"><base>metal</base><ctag>subst:sg:loc:m1</ctag></lex>
   </tok>
   <ns/>
   <tok>
    <orth>.</orth>
    <lex disamb="1"><base>.</base><ctag>interp</ctag></lex>
   </tok>
  </sentence>
 </chunk>
</chunkList>