<?xml version="1.0" encoding="UTF-8"?>
<!DOCTYPE chunkList SYSTEM "ccl.dtd">
<chunkList>
 <chunk type="p" id="ch1">
  <sentence id="s1">
   <tok>
    <orth>Jest</orth>
    <lex disamb="1"><base>być</base><ctag>fin:sg:ter:imperf</ctag></lex>
   </tok>
   <tok>
    <orth>oburzona</orth>
    <lex disamb="1"><base>oburzony</base><ctag>adj:sg:nom:f:pos</ctag></lex>
   </tok>
   <tok>
    <orth>że</orth>
    <lex disamb="1"><base>że</base><ctag>comp</ctag></lex>
   </tok>
   <tok>
    <orth>w</orth>
    <lex disamb="1"><base>w</base><ctag>prep:acc:nwok</ctag></lex>
   </tok>
   <tok>
    <orth>google</orth>
    <lex disamb="1"><base>Google</base><ctag>subst:sg:nom:m3</ctag></lex>
   </tok>
   <tok>
    <orth>podkreśla</orth>
    <lex disamb="1"><base>podkreślać</base><ctag>fin:sg:ter:imperf</ctag></lex>
   </tok>
   <tok>
    <orth>żeńskie</orth>
    <lex disamb="1"><base>żeński</base><ctag>adj:sg:nom:n:pos</ctag></lex>
   </tok>
   <tok>
    <orth>twory</orth>
    <lex disamb="1"><base>twór</base><ctag>subst:pl:nom:m3</ctag></lex>
   </tok>
   <tok>
    <orth>wyrazowe</orth>
    <lex disamb="1"><base>wyrazowy</base><ctag>adj:sg:nom:n:pos</ctag></lex>
   </tok>
   <tok>
    <orth>psycholożka</orth>
    <lex disamb="1"><base>psycholożka</base><ctag>subst:sg:nom:f</ctag></lex>
   </tok>
   <ns/>
   <tok>
    <orth>,</orth>
    <lex disamb="1"><base>,</base><ctag>interp</ctag></lex>
   </tok>
   <tok>
    <orth>ministra</orth>
    <lex disamb="1"><base>minister</base><ctag>subst:sg:gen:m1</ctag></lex>
   </tok>
   <ns/>
   <tok>
    <orth>,</orth>
    <lex disamb="1"><base>,</base><ctag>interp</ctag></lex>
   </tok>
   <tok>
    <orth>chirurżka</orth>
    <lex disamb="1"><base>chirurżka</base><ctag>ign</ctag></lex>
   </tok>
  </sentence>
 </chunk>
</chunkList>