<?xml version="1.0" encoding="UTF-8"?>
<!DOCTYPE chunkList SYSTEM "ccl.dtd">
<chunkList>
 <chunk type="p" id="ch1">
  <sentence id="s1">
   <tok>
    <orth>Nietypowe</orth>
    <lex disamb="1"><base>nietypowy</base><ctag>adj:sg:nom:n:pos</ctag></lex>
   </tok>
   <tok>
    <orth>zachowanie</orth>
    <lex disamb="1"><base>zachowanie</base><ctag>subst:sg:nom:n</ctag></lex>
   </tok>
   <tok>
    <orth>kur</orth>
    <lex disamb="1"><base>kur</base><ctag>subst:sg:nom:m2</ctag></lex>
   </tok>
  </sentence>
 </chunk>
</chunkList>