<?xml version="1.0" encoding="UTF-8"?>
<!DOCTYPE chunkList SYSTEM "ccl.dtd">
<chunkList>
 <chunk type="p" id="ch1">
  <sentence id="s1">
   <tok>
    <orth>W</orth>
    <lex disamb="1"><base>w</base><ctag>prep:acc:nwok</ctag></lex>
    <ann chan="nam">0</ann>
    <ann chan="nam_loc_gpe_country">0</ann>
    <ann chan="nam_loc">0</ann>
   </tok>
   <tok>
    <orth>Polsce</orth>
    <lex disamb="1"><base>Polska</base><ctag>subst:sg:dat:f</ctag></lex>
    <ann chan="nam">1</ann>
    <ann chan="nam_loc_gpe_country">1</ann>
    <ann chan="nam_loc">1</ann>
   </tok>
   <tok>
    <orth>jest</orth>
    <lex disamb="1"><base>być</base><ctag>fin:sg:ter:imperf</ctag></lex>
    <ann chan="nam">0</ann>
    <ann chan="nam_loc_gpe_country">0</ann>
    <ann chan="nam_loc">0</ann>
   </tok>
   <tok>
    <orth>coraz</orth>
    <lex disamb="1"><base>coraz</base><ctag>adv:pos</ctag></lex>
    <ann chan="nam">0</ann>
    <ann chan="nam_loc_gpe_country">0</ann>
    <ann chan="nam_loc">0</ann>
   </tok>
   <tok>
    <orth>więcej</orth>
    <lex disamb="1"><base>dużo</base><ctag>adv:pos</ctag></lex>
    <lex disamb="1"><base>więcej</base><ctag>adv:pos</ctag></lex>
    <ann chan="nam">0</ann>
    <ann chan="nam_loc_gpe_country">0</ann>
    <ann chan="nam_loc">0</ann>
   </tok>
   <tok>
    <orth>zamożnych</orth>
    <lex disamb="1"><base>zamożny</base><ctag>subst:pl:gen:m1</ctag></lex>
    <ann chan="nam">0</ann>
    <ann chan="nam_loc_gpe_country">0</ann>
    <ann chan="nam_loc">0</ann>
   </tok>
   <tok>
    <orth>osób</orth>
    <lex disamb="1"><base>osoba</base><ctag>subst:pl:gen:f</ctag></lex>
    <ann chan="nam">0</ann>
    <ann chan="nam_loc_gpe_country">0</ann>
    <ann chan="nam_loc">0</ann>
   </tok>
   <ns/>
   <tok>
    <orth>,</orth>
    <lex disamb="1"><base>,</base><ctag>interp</ctag></lex>
    <ann chan="nam">0</ann>
    <ann chan="nam_loc_gpe_country">0</ann>
    <ann chan="nam_loc">0</ann>
   </tok>
   <tok>
    <orth>wynika</orth>
    <lex disamb="1"><base>wynikać</base><ctag>fin:sg:ter:imperf</ctag></lex>
    <ann chan="nam">0</ann>
    <ann chan="nam_loc_gpe_country">0</ann>
    <ann chan="nam_loc">0</ann>
   </tok>
   <tok>
    <orth>z</orth>
    <lex disamb="1"><base>z</base><ctag>prep:gen:nwok</ctag></lex>
    <ann chan="nam">0</ann>
    <ann chan="nam_loc_gpe_country">0</ann>
    <ann chan="nam_loc">0</ann>
   </tok>
   <tok>
    <orth>raportu</orth>
    <lex disamb="1"><base>raport</base><ctag>subst:sg:gen:m3</ctag></lex>
    <ann chan="nam">0</ann>
    <ann chan="nam_loc_gpe_country">0</ann>
    <ann chan="nam_loc">0</ann>
   </tok>
   <tok>
    <orth>KPMG</orth>
    <lex disamb="1"><base>KPMG</base><ctag>ign</ctag></lex>
    <ann chan="nam">0</ann>
    <ann chan="nam_loc_gpe_country">0</ann>
    <ann chan="nam_loc">0</ann>
   </tok>
   <ns/>
   <tok>
    <orth>.</orth>
    <lex disamb="1"><base>.</base><ctag>interp</ctag></lex>
    <ann chan="nam">0</ann>
    <ann chan="nam_loc_gpe_country">0</ann>
    <ann chan="nam_loc">0</ann>
   </tok>
  </sentence>
 </chunk>
 <chunk type="p" id="ch2">
  <sentence id="s2">
   <tok>
    <orth>Problem</orth>
    <lex disamb="1"><base>problem</base><ctag>subst:sg:nom:m3</ctag></lex>
    <ann chan="nam">0</ann>
    <ann chan="nam_oth_currency">0</ann>
    <ann chan="nam_oth">0</ann>
    <ann chan="nam_org">0</ann>
   </tok>
   <tok>
    <orth>w</orth>
    <lex disamb="1"><base>w</base><ctag>prep:acc:nwok</ctag></lex>
    <ann chan="nam">0</ann>
    <ann chan="nam_oth_currency">0</ann>
    <ann chan="nam_oth">0</ann>
    <ann chan="nam_org">0</ann>
   </tok>
   <tok>
    <orth>tym</orth>
    <lex disamb="1"><base>tym</base><ctag>conj</ctag></lex>
    <ann chan="nam">0</ann>
    <ann chan="nam_oth_currency">0</ann>
    <ann chan="nam_oth">0</ann>
    <ann chan="nam_org">0</ann>
   </tok>
   <ns/>
   <tok>
    <orth>,</orth>
    <lex disamb="1"><base>,</base><ctag>interp</ctag></lex>
    <ann chan="nam">0</ann>
    <ann chan="nam_oth_currency">0</ann>
    <ann chan="nam_oth">0</ann>
    <ann chan="nam_org">0</ann>
   </tok>
   <tok>
    <orth>że</orth>
    <lex disamb="1"><base>że</base><ctag>comp</ctag></lex>
    <ann chan="nam">0</ann>
    <ann chan="nam_oth_currency">0</ann>
    <ann chan="nam_oth">0</ann>
    <ann chan="nam_org">0</ann>
   </tok>
   <tok>
    <orth>za</orth>
    <lex disamb="1"><base>za</base><ctag>qub</ctag></lex>
    <ann chan="nam">0</ann>
    <ann chan="nam_oth_currency">0</ann>
    <ann chan="nam_oth">0</ann>
    <ann chan="nam_org">0</ann>
   </tok>
   <tok>
    <orth>zamożną</orth>
    <lex disamb="1"><base>zamożny</base><ctag>adj:sg:acc:f:pos</ctag></lex>
    <ann chan="nam">0</ann>
    <ann chan="nam_oth_currency">0</ann>
    <ann chan="nam_oth">0</ann>
    <ann chan="nam_org">0</ann>
   </tok>
   <tok>
    <orth>osobę</orth>
    <lex disamb="1"><base>osoba</base><ctag>subst:sg:acc:f</ctag></lex>
    <ann chan="nam">0</ann>
    <ann chan="nam_oth_currency">0</ann>
    <ann chan="nam_oth">0</ann>
    <ann chan="nam_org">0</ann>
   </tok>
   <tok>
    <orth>uznano</orth>
    <lex disamb="1"><base>uznać</base><ctag>imps:perf</ctag></lex>
    <ann chan="nam">0</ann>
    <ann chan="nam_oth_currency">0</ann>
    <ann chan="nam_oth">0</ann>
    <ann chan="nam_org">0</ann>
   </tok>
   <tok>
    <orth>taką</orth>
    <lex disamb="1"><base>taka</base><ctag>subst:sg:inst:f</ctag></lex>
    <ann chan="nam">0</ann>
    <ann chan="nam_oth_currency">0</ann>
    <ann chan="nam_oth">0</ann>
    <ann chan="nam_org">0</ann>
   </tok>
   <ns/>
   <tok>
    <orth>,</orth>
    <lex disamb="1"><base>,</base><ctag>interp</ctag></lex>
    <ann chan="nam">0</ann>
    <ann chan="nam_oth_currency">0</ann>
    <ann chan="nam_oth">0</ann>
    <ann chan="nam_org">0</ann>
   </tok>
   <tok>
    <orth>która</orth>
    <lex disamb="1"><base>który</base><ctag>adj:sg:nom:f:pos</ctag></lex>
    <ann chan="nam">0</ann>
    <ann chan="nam_oth_currency">0</ann>
    <ann chan="nam_oth">0</ann>
    <ann chan="nam_org">0</ann>
   </tok>
   <tok>
    <orth>zarabia</orth>
    <lex disamb="1"><base>zarabiać</base><ctag>fin:sg:ter:imperf</ctag></lex>
    <ann chan="nam">0</ann>
    <ann chan="nam_oth_currency">0</ann>
    <ann chan="nam_oth">0</ann>
    <ann chan="nam_org">0</ann>
   </tok>
   <tok>
    <orth>min</orth>
    <lex disamb="1"><base>mina</base><ctag>subst:pl:gen:f</ctag></lex>
    <ann chan="nam">0</ann>
    <ann chan="nam_oth_currency">0</ann>
    <ann chan="nam_oth">0</ann>
    <ann chan="nam_org">0</ann>
   </tok>
   <ns/>
   <tok>
    <orth>.</orth>
    <lex disamb="1"><base>.</base><ctag>interp</ctag></lex>
    <ann chan="nam">0</ann>
    <ann chan="nam_oth_currency">0</ann>
    <ann chan="nam_oth">0</ann>
    <ann chan="nam_org">0</ann>
   </tok>
   <tok>
    <orth>7</orth>
    <lex disamb="1"><base>7</base><ctag>num:pl:nom:m1:rec</ctag></lex>
    <ann chan="nam">0</ann>
    <ann chan="nam_oth_currency">0</ann>
    <ann chan="nam_oth">0</ann>
    <ann chan="nam_org">0</ann>
   </tok>
   <ns/>
   <tok>
    <orth>,</orth>
    <lex disamb="1"><base>,</base><ctag>interp</ctag></lex>
    <ann chan="nam">0</ann>
    <ann chan="nam_oth_currency">0</ann>
    <ann chan="nam_oth">0</ann>
    <ann chan="nam_org">0</ann>
   </tok>
   <ns/>
   <tok>
    <orth>1</orth>
    <lex disamb="1"><base>1</base><ctag>num:pl:nom:m1:rec</ctag></lex>
    <ann chan="nam">0</ann>
    <ann chan="nam_oth_currency">0</ann>
    <ann chan="nam_oth">0</ann>
    <ann chan="nam_org">0</ann>
   </tok>
   <tok>
    <orth>tys</orth>
    <lex disamb="1"><base>tys</base><ctag>ign</ctag></lex>
    <ann chan="nam">0</ann>
    <ann chan="nam_oth_currency">0</ann>
    <ann chan="nam_oth">0</ann>
    <ann chan="nam_org">0</ann>
   </tok>
   <ns/>
   <tok>
    <orth>.</orth>
    <lex disamb="1"><base>.</base><ctag>interp</ctag></lex>
    <ann chan="nam">0</ann>
    <ann chan="nam_oth_currency">0</ann>
    <ann chan="nam_oth">0</ann>
    <ann chan="nam_org">0</ann>
   </tok>
   <tok>
    <orth>zł</orth>
    <lex disamb="1"><base>złoty</base><ctag>brev:npun</ctag></lex>
    <ann chan="nam">1</ann>
    <ann chan="nam_oth_currency">1</ann>
    <ann chan="nam_oth">1</ann>
    <ann chan="nam_org">0</ann>
   </tok>
   <ns/>
   <tok>
    <orth>.</orth>
    <lex disamb="1"><base>.</base><ctag>interp</ctag></lex>
    <ann chan="nam">0</ann>
    <ann chan="nam_oth_currency">0</ann>
    <ann chan="nam_oth">0</ann>
    <ann chan="nam_org">0</ann>
   </tok>
   <tok>
    <orth>brutto</orth>
    <lex disamb="1"><base>brutto</base><ctag>adv:pos</ctag></lex>
    <ann chan="nam">0</ann>
    <ann chan="nam_oth_currency">0</ann>
    <ann chan="nam_oth">0</ann>
    <ann chan="nam_org">0</ann>
   </tok>
   <ns/>
   <tok>
    <orth>,</orth>
    <lex disamb="1"><base>,</base><ctag>interp</ctag></lex>
    <ann chan="nam">0</ann>
    <ann chan="nam_oth_currency">0</ann>
    <ann chan="nam_oth">0</ann>
    <ann chan="nam_org">0</ann>
   </tok>
   <tok>
    <orth>czyli</orth>
    <lex disamb="1"><base>czyli</base><ctag>conj</ctag></lex>
    <ann chan="nam">0</ann>
    <ann chan="nam_oth_currency">0</ann>
    <ann chan="nam_oth">0</ann>
    <ann chan="nam_org">0</ann>
   </tok>
   <tok>
    <orth>wchodzi</orth>
    <lex disamb="1"><base>wchodzić</base><ctag>fin:sg:ter:imperf</ctag></lex>
    <ann chan="nam">0</ann>
    <ann chan="nam_oth_currency">0</ann>
    <ann chan="nam_oth">0</ann>
    <ann chan="nam_org">0</ann>
   </tok>
   <tok>
    <orth>w</orth>
    <lex disamb="1"><base>w</base><ctag>prep:acc:nwok</ctag></lex>
    <ann chan="nam">0</ann>
    <ann chan="nam_oth_currency">0</ann>
    <ann chan="nam_oth">0</ann>
    <ann chan="nam_org">0</ann>
   </tok>
   <tok>
    <orth>2</orth>
    <lex disamb="1"><base>2</base><ctag>num:pl:nom:m1:rec</ctag></lex>
    <ann chan="nam">0</ann>
    <ann chan="nam_oth_currency">0</ann>
    <ann chan="nam_oth">0</ann>
    <ann chan="nam_org">0</ann>
   </tok>
   <ns/>
   <tok>
    <orth>.</orth>
    <lex disamb="1"><base>.</base><ctag>interp</ctag></lex>
    <ann chan="nam">0</ann>
    <ann chan="nam_oth_currency">0</ann>
    <ann chan="nam_oth">0</ann>
    <ann chan="nam_org">0</ann>
   </tok>
   <tok>
    <orth>próg</orth>
    <lex disamb="1"><base>próg</base><ctag>subst:sg:nom:m3</ctag></lex>
    <ann chan="nam">0</ann>
    <ann chan="nam_oth_currency">0</ann>
    <ann chan="nam_oth">0</ann>
    <ann chan="nam_org">0</ann>
   </tok>
   <tok>
    <orth>PIT</orth>
    <lex disamb="1"><base>PIT</base><ctag>subst:sg:nom:m3</ctag></lex>
    <ann chan="nam">2</ann>
    <ann chan="nam_oth_currency">0</ann>
    <ann chan="nam_oth">0</ann>
    <ann chan="nam_org">1</ann>
   </tok>
   <ns/>
   <tok>
    <orth>.</orth>
    <lex disamb="1"><base>.</base><ctag>interp</ctag></lex>
    <ann chan="nam">0</ann>
    <ann chan="nam_oth_currency">0</ann>
    <ann chan="nam_oth">0</ann>
    <ann chan="nam_org">0</ann>
   </tok>
  </sentence>
 </chunk>
 <chunk type="p" id="ch3">
  <sentence id="s3">
   <tok>
    <orth>Mamy</orth>
    <lex disamb="1"><base>mama</base><ctag>subst:sg:gen:f</ctag></lex>
   </tok>
   <tok>
    <orth>1</orth>
    <lex disamb="1"><base>1</base><ctag>num:pl:nom:m1:rec</ctag></lex>
   </tok>
   <ns/>
   <tok>
    <orth>,</orth>
    <lex disamb="1"><base>,</base><ctag>interp</ctag></lex>
   </tok>
   <ns/>
   <tok>
    <orth>3</orth>
    <lex disamb="1"><base>3</base><ctag>num:pl:nom:m1:rec</ctag></lex>
   </tok>
   <tok>
    <orth>mln</orth>
    <lex disamb="1"><base>milion</base><ctag>brev:npun</ctag></lex>
   </tok>
   <tok>
    <orth>takich</orth>
    <lex disamb="1"><base>taki</base><ctag>adj:pl:gen:m1:pos</ctag></lex>
   </tok>
   <tok>
    <orth>osób</orth>
    <lex disamb="1"><base>osoba</base><ctag>subst:pl:gen:f</ctag></lex>
   </tok>
   <ns/>
   <tok>
    <orth>.</orth>
    <lex disamb="1"><base>.</base><ctag>interp</ctag></lex>
   </tok>
  </sentence>
 </chunk>
 <chunk type="p" id="ch4">
  <sentence id="s4">
   <tok>
    <orth>To</orth>
    <lex disamb="1"><base>to</base><ctag>conj</ctag></lex>
    <ann chan="nam">0</ann>
    <ann chan="nam_loc_land_region">0</ann>
    <ann chan="nam_loc">0</ann>
   </tok>
   <ns/>
   <tok>
    <orth>,</orth>
    <lex disamb="1"><base>,</base><ctag>interp</ctag></lex>
    <ann chan="nam">0</ann>
    <ann chan="nam_loc_land_region">0</ann>
    <ann chan="nam_loc">0</ann>
   </tok>
   <tok>
    <orth>co</orth>
    <lex disamb="1"><base>co</base><ctag>comp</ctag></lex>
    <ann chan="nam">0</ann>
    <ann chan="nam_loc_land_region">0</ann>
    <ann chan="nam_loc">0</ann>
   </tok>
   <tok>
    <orth>u</orth>
    <lex disamb="1"><base>u</base><ctag>prep:gen</ctag></lex>
    <ann chan="nam">0</ann>
    <ann chan="nam_loc_land_region">0</ann>
    <ann chan="nam_loc">0</ann>
   </tok>
   <tok>
    <orth>nas</orth>
    <lex disamb="1"><base>my</base><ctag>ppron12:pl:gen:m1:pri</ctag></lex>
    <ann chan="nam">0</ann>
    <ann chan="nam_loc_land_region">0</ann>
    <ann chan="nam_loc">0</ann>
   </tok>
   <tok>
    <orth>oznacza</orth>
    <lex disamb="1"><base>oznaczać</base><ctag>fin:sg:ter:imperf</ctag></lex>
    <ann chan="nam">0</ann>
    <ann chan="nam_loc_land_region">0</ann>
    <ann chan="nam_loc">0</ann>
   </tok>
   <tok>
    <orth>dobrą</orth>
    <lex disamb="1"><base>dobry</base><ctag>adj:sg:acc:f:pos</ctag></lex>
    <ann chan="nam">0</ann>
    <ann chan="nam_loc_land_region">0</ann>
    <ann chan="nam_loc">0</ann>
   </tok>
   <tok>
    <orth>pensję</orth>
    <lex disamb="1"><base>pensja</base><ctag>subst:sg:acc:f</ctag></lex>
    <ann chan="nam">0</ann>
    <ann chan="nam_loc_land_region">0</ann>
    <ann chan="nam_loc">0</ann>
   </tok>
   <ns/>
   <tok>
    <orth>,</orth>
    <lex disamb="1"><base>,</base><ctag>interp</ctag></lex>
    <ann chan="nam">0</ann>
    <ann chan="nam_loc_land_region">0</ann>
    <ann chan="nam_loc">0</ann>
   </tok>
   <tok>
    <orth>na</orth>
    <lex disamb="1"><base>na</base><ctag>prep:acc</ctag></lex>
    <ann chan="nam">0</ann>
    <ann chan="nam_loc_land_region">0</ann>
    <ann chan="nam_loc">0</ann>
   </tok>
   <tok>
    <orth>Zachodzie</orth>
    <lex disamb="1"><base>zachód</base><ctag>subst:sg:loc:m3</ctag></lex>
    <ann chan="nam">1</ann>
    <ann chan="nam_loc_land_region">1</ann>
    <ann chan="nam_loc">1</ann>
   </tok>
   <tok>
    <orth>nie</orth>
    <lex disamb="1"><base>nie</base><ctag>conj</ctag></lex>
    <ann chan="nam">0</ann>
    <ann chan="nam_loc_land_region">0</ann>
    <ann chan="nam_loc">0</ann>
   </tok>
   <tok>
    <orth>daje</orth>
    <lex disamb="1"><base>dawać</base><ctag>fin:sg:ter:imperf</ctag></lex>
    <ann chan="nam">0</ann>
    <ann chan="nam_loc_land_region">0</ann>
    <ann chan="nam_loc">0</ann>
   </tok>
   <tok>
    <orth>nawet</orth>
    <lex disamb="1"><base>nawet</base><ctag>qub</ctag></lex>
    <ann chan="nam">0</ann>
    <ann chan="nam_loc_land_region">0</ann>
    <ann chan="nam_loc">0</ann>
   </tok>
   <tok>
    <orth>wstępu</orth>
    <lex disamb="1"><base>wstęp</base><ctag>subst:sg:gen:m3</ctag></lex>
    <ann chan="nam">0</ann>
    <ann chan="nam_loc_land_region">0</ann>
    <ann chan="nam_loc">0</ann>
   </tok>
   <tok>
    <orth>do</orth>
    <lex disamb="1"><base>do</base><ctag>prep:gen</ctag></lex>
    <ann chan="nam">0</ann>
    <ann chan="nam_loc_land_region">0</ann>
    <ann chan="nam_loc">0</ann>
   </tok>
   <tok>
    <orth>klasy</orth>
    <lex disamb="1"><base>klasa</base><ctag>subst:sg:gen:f</ctag></lex>
    <ann chan="nam">0</ann>
    <ann chan="nam_loc_land_region">0</ann>
    <ann chan="nam_loc">0</ann>
   </tok>
   <tok>
    <orth>średniej</orth>
    <lex disamb="1"><base>średnia</base><ctag>subst:sg:gen:f</ctag></lex>
    <ann chan="nam">0</ann>
    <ann chan="nam_loc_land_region">0</ann>
    <ann chan="nam_loc">0</ann>
   </tok>
   <ns/>
   <tok>
    <orth>.</orth>
    <lex disamb="1"><base>.</base><ctag>interp</ctag></lex>
    <ann chan="nam">0</ann>
    <ann chan="nam_loc_land_region">0</ann>
    <ann chan="nam_loc">0</ann>
   </tok>
  </sentence>
 </chunk>
</chunkList>