<?xml version="1.0" encoding="UTF-8"?>
<!DOCTYPE chunkList SYSTEM "ccl.dtd">
<chunkList>
 <chunk type="p" id="ch1">
  <sentence id="s1">
   <tok>
    <orth>W</orth>
    <lex disamb="1"><base>w</base><ctag>prep:acc:nwok</ctag></lex>
    <ann chan="nam">0</ann>
    <ann chan="nam_liv_person">0</ann>
    <ann chan="nam_loc_land_continent">0</ann>
    <ann chan="nam_org_nation">0</ann>
    <ann chan="nam_liv">0</ann>
    <ann chan="nam_loc">0</ann>
    <ann chan="nam_org">0</ann>
    <ann chan="timex">0</ann>
    <ann chan="t3_date">0</ann>
   </tok>
   <tok>
    <orth>1971</orth>
    <lex disamb="1"><base>1971</base><ctag>num:pl:nom:m1:rec</ctag></lex>
    <ann chan="nam">0</ann>
    <ann chan="nam_liv_person">0</ann>
    <ann chan="nam_loc_land_continent">0</ann>
    <ann chan="nam_org_nation">0</ann>
    <ann chan="nam_liv">0</ann>
    <ann chan="nam_loc">0</ann>
    <ann chan="nam_org">0</ann>
    <ann chan="timex">1</ann>
    <ann chan="t3_date">1</ann>
   </tok>
   <tok>
    <orth>roku</orth>
    <lex disamb="1"><base>rok</base><ctag>subst:sg:gen:m3</ctag></lex>
    <ann chan="nam">0</ann>
    <ann chan="nam_liv_person">0</ann>
    <ann chan="nam_loc_land_continent">0</ann>
    <ann chan="nam_org_nation">0</ann>
    <ann chan="nam_liv">0</ann>
    <ann chan="nam_loc">0</ann>
    <ann chan="nam_org">0</ann>
    <ann chan="timex">1</ann>
    <ann chan="t3_date">1</ann>
   </tok>
   <tok>
    <orth>Alan</orth>
    <lex disamb="1"><base>Alan</base><ctag>subst:sg:nom:m1</ctag></lex>
    <ann chan="nam">1</ann>
    <ann chan="nam_liv_person">1</ann>
    <ann chan="nam_loc_land_continent">0</ann>
    <ann chan="nam_org_nation">0</ann>
    <ann chan="nam_liv">1</ann>
    <ann chan="nam_loc">0</ann>
    <ann chan="nam_org">0</ann>
    <ann chan="timex">0</ann>
    <ann chan="t3_date">0</ann>
   </tok>
   <tok>
    <orth>Dundes</orth>
    <lex disamb="1"><base>Dundes</base><ctag>ign</ctag></lex>
    <ann chan="nam">1</ann>
    <ann chan="nam_liv_person">1</ann>
    <ann chan="nam_loc_land_continent">0</ann>
    <ann chan="nam_org_nation">0</ann>
    <ann chan="nam_liv">1</ann>
    <ann chan="nam_loc">0</ann>
    <ann chan="nam_org">0</ann>
    <ann chan="timex">0</ann>
    <ann chan="t3_date">0</ann>
   </tok>
   <ns/>
   <tok>
    <orth>,</orth>
    <lex disamb="1"><base>,</base><ctag>interp</ctag></lex>
    <ann chan="nam">0</ann>
    <ann chan="nam_liv_person">0</ann>
    <ann chan="nam_loc_land_continent">0</ann>
    <ann chan="nam_org_nation">0</ann>
    <ann chan="nam_liv">0</ann>
    <ann chan="nam_loc">0</ann>
    <ann chan="nam_org">0</ann>
    <ann chan="timex">0</ann>
    <ann chan="t3_date">0</ann>
   </tok>
   <tok>
    <orth>wyjaśnił</orth>
    <lex disamb="1"><base>wyjaśnić</base><ctag>praet:sg:m1:perf</ctag></lex>
    <ann chan="nam">0</ann>
    <ann chan="nam_liv_person">0</ann>
    <ann chan="nam_loc_land_continent">0</ann>
    <ann chan="nam_org_nation">0</ann>
    <ann chan="nam_liv">0</ann>
    <ann chan="nam_loc">0</ann>
    <ann chan="nam_org">0</ann>
    <ann chan="timex">0</ann>
    <ann chan="t3_date">0</ann>
   </tok>
   <tok>
    <orth>dlaczego</orth>
    <lex disamb="1"><base>dlaczego</base><ctag>adv:pos</ctag></lex>
    <ann chan="nam">0</ann>
    <ann chan="nam_liv_person">0</ann>
    <ann chan="nam_loc_land_continent">0</ann>
    <ann chan="nam_org_nation">0</ann>
    <ann chan="nam_liv">0</ann>
    <ann chan="nam_loc">0</ann>
    <ann chan="nam_org">0</ann>
    <ann chan="timex">0</ann>
    <ann chan="t3_date">0</ann>
   </tok>
   <tok>
    <orth>Ameryka</orth>
    <lex disamb="1"><base>Ameryka</base><ctag>subst:sg:nom:f</ctag></lex>
    <ann chan="nam">2</ann>
    <ann chan="nam_liv_person">0</ann>
    <ann chan="nam_loc_land_continent">1</ann>
    <ann chan="nam_org_nation">0</ann>
    <ann chan="nam_liv">0</ann>
    <ann chan="nam_loc">1</ann>
    <ann chan="nam_org">0</ann>
    <ann chan="timex">0</ann>
    <ann chan="t3_date">0</ann>
   </tok>
   <tok>
    <orth>zalewana</orth>
    <lex disamb="1"><base>zalewać</base><ctag>ppas:sg:nom:f:imperf:aff</ctag></lex>
    <ann chan="nam">0</ann>
    <ann chan="nam_liv_person">0</ann>
    <ann chan="nam_loc_land_continent">0</ann>
    <ann chan="nam_org_nation">0</ann>
    <ann chan="nam_liv">0</ann>
    <ann chan="nam_loc">0</ann>
    <ann chan="nam_org">0</ann>
    <ann chan="timex">0</ann>
    <ann chan="t3_date">0</ann>
   </tok>
   <tok>
    <orth>jest</orth>
    <lex disamb="1"><base>być</base><ctag>fin:sg:ter:imperf</ctag></lex>
    <ann chan="nam">0</ann>
    <ann chan="nam_liv_person">0</ann>
    <ann chan="nam_loc_land_continent">0</ann>
    <ann chan="nam_org_nation">0</ann>
    <ann chan="nam_liv">0</ann>
    <ann chan="nam_loc">0</ann>
    <ann chan="nam_org">0</ann>
    <ann chan="timex">0</ann>
    <ann chan="t3_date">0</ann>
   </tok>
   <tok>
    <orth>dowcipami</orth>
    <lex disamb="1"><base>dowcip</base><ctag>subst:pl:inst:m3</ctag></lex>
    <ann chan="nam">0</ann>
    <ann chan="nam_liv_person">0</ann>
    <ann chan="nam_loc_land_continent">0</ann>
    <ann chan="nam_org_nation">0</ann>
    <ann chan="nam_liv">0</ann>
    <ann chan="nam_loc">0</ann>
    <ann chan="nam_org">0</ann>
    <ann chan="timex">0</ann>
    <ann chan="t3_date">0</ann>
   </tok>
   <tok>
    <orth>o</orth>
    <lex disamb="1"><base>o</base><ctag>prep:acc</ctag></lex>
    <ann chan="nam">0</ann>
    <ann chan="nam_liv_person">0</ann>
    <ann chan="nam_loc_land_continent">0</ann>
    <ann chan="nam_org_nation">0</ann>
    <ann chan="nam_liv">0</ann>
    <ann chan="nam_loc">0</ann>
    <ann chan="nam_org">0</ann>
    <ann chan="timex">0</ann>
    <ann chan="t3_date">0</ann>
   </tok>
   <tok>
    <orth>„</orth>
    <lex disamb="1"><base>„</base><ctag>interp</ctag></lex>
    <ann chan="nam">0</ann>
    <ann chan="nam_liv_person">0</ann>
    <ann chan="nam_loc_land_continent">0</ann>
    <ann chan="nam_org_nation">0</ann>
    <ann chan="nam_liv">0</ann>
    <ann chan="nam_loc">0</ann>
    <ann chan="nam_org">0</ann>
    <ann chan="timex">0</ann>
    <ann chan="t3_date">0</ann>
   </tok>
   <ns/>
   <tok>
    <orth>głupich</orth>
    <lex disamb="1"><base>głupi</base><ctag>subst:pl:gen:m1</ctag></lex>
    <ann chan="nam">0</ann>
    <ann chan="nam_liv_person">0</ann>
    <ann chan="nam_loc_land_continent">0</ann>
    <ann chan="nam_org_nation">0</ann>
    <ann chan="nam_liv">0</ann>
    <ann chan="nam_loc">0</ann>
    <ann chan="nam_org">0</ann>
    <ann chan="timex">0</ann>
    <ann chan="t3_date">0</ann>
   </tok>
   <tok>
    <orth>Polakach</orth>
    <lex disamb="1"><base>Polak</base><ctag>subst:pl:loc:m1</ctag></lex>
    <ann chan="nam">3</ann>
    <ann chan="nam_liv_person">0</ann>
    <ann chan="nam_loc_land_continent">0</ann>
    <ann chan="nam_org_nation">1</ann>
    <ann chan="nam_liv">0</ann>
    <ann chan="nam_loc">0</ann>
    <ann chan="nam_org">1</ann>
    <ann chan="timex">0</ann>
    <ann chan="t3_date">0</ann>
   </tok>
   <ns/>
   <tok>
    <orth>”</orth>
    <lex disamb="1"><base>”</base><ctag>interp</ctag></lex>
    <ann chan="nam">0</ann>
    <ann chan="nam_liv_person">0</ann>
    <ann chan="nam_loc_land_continent">0</ann>
    <ann chan="nam_org_nation">0</ann>
    <ann chan="nam_liv">0</ann>
    <ann chan="nam_loc">0</ann>
    <ann chan="nam_org">0</ann>
    <ann chan="timex">0</ann>
    <ann chan="t3_date">0</ann>
   </tok>
   <ns/>
   <tok>
    <orth>.</orth>
    <lex disamb="1"><base>.</base><ctag>interp</ctag></lex>
    <ann chan="nam">0</ann>
    <ann chan="nam_liv_person">0</ann>
    <ann chan="nam_loc_land_continent">0</ann>
    <ann chan="nam_org_nation">0</ann>
    <ann chan="nam_liv">0</ann>
    <ann chan="nam_loc">0</ann>
    <ann chan="nam_org">0</ann>
    <ann chan="timex">0</ann>
    <ann chan="t3_date">0</ann>
   </tok>
  </sentence>
 </chunk>
 <chunk type="p" id="ch2">
  <sentence id="s2">
   <tok>
    <orth>Otóż</orth>
    <lex disamb="1"><base>otóż</base><ctag>qub</ctag></lex>
    <ann chan="nam_adj_other">0</ann>
    <ann chan="nam_adj">0</ann>
   </tok>
   <tok>
    <orth>szczyt</orth>
    <lex disamb="1"><base>szczyt</base><ctag>subst:sg:nom:m3</ctag></lex>
    <ann chan="nam_adj_other">0</ann>
    <ann chan="nam_adj">0</ann>
   </tok>
   <tok>
    <orth>popularności</orth>
    <lex disamb="1"><base>popularność</base><ctag>subst:sg:gen:f</ctag></lex>
    <ann chan="nam_adj_other">0</ann>
    <ann chan="nam_adj">0</ann>
   </tok>
   <tok>
    <orth>tych</orth>
    <lex disamb="1"><base>ten</base><ctag>adj:pl:gen:m1:pos</ctag></lex>
    <ann chan="nam_adj_other">0</ann>
    <ann chan="nam_adj">0</ann>
   </tok>
   <tok>
    <orth>dowcipów</orth>
    <lex disamb="1"><base>dowcip</base><ctag>subst:pl:gen:m3</ctag></lex>
    <ann chan="nam_adj_other">0</ann>
    <ann chan="nam_adj">0</ann>
   </tok>
   <tok>
    <orth>przypadł</orth>
    <lex disamb="1"><base>przypaść</base><ctag>praet:sg:m1:perf</ctag></lex>
    <ann chan="nam_adj_other">0</ann>
    <ann chan="nam_adj">0</ann>
   </tok>
   <tok>
    <orth>niedługo</orth>
    <lex disamb="1"><base>niedługo</base><ctag>adv:pos</ctag></lex>
    <ann chan="nam_adj_other">0</ann>
    <ann chan="nam_adj">0</ann>
   </tok>
   <tok>
    <orth>po</orth>
    <lex disamb="1"><base>po</base><ctag>prep:acc</ctag></lex>
    <ann chan="nam_adj_other">0</ann>
    <ann chan="nam_adj">0</ann>
   </tok>
   <tok>
    <orth>rozkwicie</orth>
    <lex disamb="1"><base>rozkwit</base><ctag>subst:sg:loc:m3</ctag></lex>
    <ann chan="nam_adj_other">0</ann>
    <ann chan="nam_adj">0</ann>
   </tok>
   <tok>
    <orth>ruchu</orth>
    <lex disamb="1"><base>ruch</base><ctag>subst:sg:gen:m3</ctag></lex>
    <ann chan="nam_adj_other">0</ann>
    <ann chan="nam_adj">0</ann>
   </tok>
   <tok>
    <orth>na</orth>
    <lex disamb="1"><base>na</base><ctag>prep:acc</ctag></lex>
    <ann chan="nam_adj_other">0</ann>
    <ann chan="nam_adj">0</ann>
   </tok>
   <tok>
    <orth>rzecz</orth>
    <lex disamb="1"><base>rzecz</base><ctag>subst:sg:nom:f</ctag></lex>
    <ann chan="nam_adj_other">0</ann>
    <ann chan="nam_adj">0</ann>
   </tok>
   <tok>
    <orth>praw</orth>
    <lex disamb="1"><base>prawy</base><ctag>adjc</ctag></lex>
    <ann chan="nam_adj_other">0</ann>
    <ann chan="nam_adj">0</ann>
   </tok>
   <tok>
    <orth>obywatelskich</orth>
    <lex disamb="1"><base>obywatelski</base><ctag>adj:pl:gen:m1:pos</ctag></lex>
    <ann chan="nam_adj_other">1</ann>
    <ann chan="nam_adj">1</ann>
   </tok>
   <ns/>
   <tok>
    <orth>.</orth>
    <lex disamb="1"><base>.</base><ctag>interp</ctag></lex>
    <ann chan="nam_adj_other">0</ann>
    <ann chan="nam_adj">0</ann>
   </tok>
  </sentence>
 </chunk>
 <chunk type="p" id="ch3">
  <sentence id="s3">
   <tok>
    <orth>Elity</orth>
    <lex disamb="1"><base>elita</base><ctag>subst:sg:gen:f</ctag></lex>
    <ann chan="nam">0</ann>
    <ann chan="nam_org_nation">0</ann>
    <ann chan="nam_org">0</ann>
   </tok>
   <tok>
    <orth>nie</orth>
    <lex disamb="1"><base>nie</base><ctag>conj</ctag></lex>
    <ann chan="nam">0</ann>
    <ann chan="nam_org_nation">0</ann>
    <ann chan="nam_org">0</ann>
   </tok>
   <tok>
    <orth>mogły</orth>
    <lex disamb="1"><base>móc</base><ctag>praet:pl:m2:imperf</ctag></lex>
    <ann chan="nam">0</ann>
    <ann chan="nam_org_nation">0</ann>
    <ann chan="nam_org">0</ann>
   </tok>
   <tok>
    <orth>drwić</orth>
    <lex disamb="1"><base>drwić</base><ctag>inf:imperf</ctag></lex>
    <ann chan="nam">0</ann>
    <ann chan="nam_org_nation">0</ann>
    <ann chan="nam_org">0</ann>
   </tok>
   <ns/>
   <tok>
    <orth>,</orth>
    <lex disamb="1"><base>,</base><ctag>interp</ctag></lex>
    <ann chan="nam">0</ann>
    <ann chan="nam_org_nation">0</ann>
    <ann chan="nam_org">0</ann>
   </tok>
   <tok>
    <orth>jak</orth>
    <lex disamb="1"><base>jak</base><ctag>conj</ctag></lex>
    <ann chan="nam">0</ann>
    <ann chan="nam_org_nation">0</ann>
    <ann chan="nam_org">0</ann>
   </tok>
   <tok>
    <orth>czyniły</orth>
    <lex disamb="1"><base>czynić</base><ctag>praet:pl:m2:imperf</ctag></lex>
    <ann chan="nam">0</ann>
    <ann chan="nam_org_nation">0</ann>
    <ann chan="nam_org">0</ann>
   </tok>
   <tok>
    <orth>do</orth>
    <lex disamb="1"><base>do</base><ctag>prep:gen</ctag></lex>
    <ann chan="nam">0</ann>
    <ann chan="nam_org_nation">0</ann>
    <ann chan="nam_org">0</ann>
   </tok>
   <tok>
    <orth>tej</orth>
    <lex disamb="1"><base>ten</base><ctag>adj:sg:gen:f:pos</ctag></lex>
    <ann chan="nam">0</ann>
    <ann chan="nam_org_nation">0</ann>
    <ann chan="nam_org">0</ann>
   </tok>
   <tok>
    <orth>pory</orth>
    <lex disamb="1"><base>por</base><ctag>subst:pl:nom:m2</ctag></lex>
    <ann chan="nam">0</ann>
    <ann chan="nam_org_nation">0</ann>
    <ann chan="nam_org">0</ann>
   </tok>
   <ns/>
   <tok>
    <orth>,</orth>
    <lex disamb="1"><base>,</base><ctag>interp</ctag></lex>
    <ann chan="nam">0</ann>
    <ann chan="nam_org_nation">0</ann>
    <ann chan="nam_org">0</ann>
   </tok>
   <tok>
    <orth>z</orth>
    <lex disamb="1"><base>z</base><ctag>prep:gen:nwok</ctag></lex>
    <ann chan="nam">0</ann>
    <ann chan="nam_org_nation">0</ann>
    <ann chan="nam_org">0</ann>
   </tok>
   <tok>
    <orth>dotychczasowych</orth>
    <lex disamb="1"><base>dotychczasowy</base><ctag>adj:pl:gen:m1:pos</ctag></lex>
    <ann chan="nam">0</ann>
    <ann chan="nam_org_nation">0</ann>
    <ann chan="nam_org">0</ann>
   </tok>
   <tok>
    <orth>ofiar</orth>
    <lex disamb="1"><base>ofiara</base><ctag>subst:pl:gen:f</ctag></lex>
    <ann chan="nam">0</ann>
    <ann chan="nam_org_nation">0</ann>
    <ann chan="nam_org">0</ann>
   </tok>
   <ns/>
   <tok>
    <orth>,</orth>
    <lex disamb="1"><base>,</base><ctag>interp</ctag></lex>
    <ann chan="nam">0</ann>
    <ann chan="nam_org_nation">0</ann>
    <ann chan="nam_org">0</ann>
   </tok>
   <tok>
    <orth>czyli</orth>
    <lex disamb="1"><base>czyli</base><ctag>conj</ctag></lex>
    <ann chan="nam">0</ann>
    <ann chan="nam_org_nation">0</ann>
    <ann chan="nam_org">0</ann>
   </tok>
   <tok>
    <orth>Afroamerykanów</orth>
    <lex disamb="1"><base>Afroamerykanin</base><ctag>subst:pl:gen:m1</ctag></lex>
    <ann chan="nam">1</ann>
    <ann chan="nam_org_nation">1</ann>
    <ann chan="nam_org">1</ann>
   </tok>
  </sentence>
 </chunk>
</chunkList>