<?xml version="1.0" encoding="UTF-8"?>
<!DOCTYPE chunkList SYSTEM "ccl.dtd">
<chunkList>
 <chunk type="p" id="ch1">
  <sentence id="s1">
   <tok>
    <orth>Chłopak</orth>
    <lex disamb="1"><base>chłopak</base><ctag>subst:sg:nom:m1</ctag></lex>
   </tok>
   <tok>
    <orth>nie</orth>
    <lex disamb="1"><base>nie</base><ctag>conj</ctag></lex>
   </tok>
   <tok>
    <orth>siedzi</orth>
    <lex disamb="1"><base>siedzieć</base><ctag>fin:sg:ter:imperf</ctag></lex>
   </tok>
   <tok>
    <orth>na</orth>
    <lex disamb="1"><base>na</base><ctag>prep:acc</ctag></lex>
   </tok>
   <tok>
    <orth>dupie</orth>
    <lex disamb="1"><base>dupa</base><ctag>subst:sg:dat:f</ctag></lex>
   </tok>
   <ns/>
   <tok>
    <orth>,</orth>
    <lex disamb="1"><base>,</base><ctag>interp</ctag></lex>
   </tok>
   <tok>
    <orth>jest</orth>
    <lex disamb="1"><base>być</base><ctag>fin:sg:ter:imperf</ctag></lex>
   </tok>
   <tok>
    <orth>ambitny</orth>
    <lex disamb="1"><base>ambitny</base><ctag>adj:sg:nom:m1:pos</ctag></lex>
   </tok>
   <ns/>
   <tok>
    <orth>,</orth>
    <lex disamb="1"><base>,</base><ctag>interp</ctag></lex>
   </tok>
   <tok>
    <orth>rozbudowuje</orth>
    <lex disamb="1"><base>rozbudowywać</base><ctag>fin:sg:ter:imperf</ctag></lex>
   </tok>
   <tok>
    <orth>swoje</orth>
    <lex disamb="1"><base>swoje</base><ctag>subst:sg:nom:n</ctag></lex>
   </tok>
   <tok>
    <orth>portfolio</orth>
    <lex disamb="1"><base>portfolio</base><ctag>subst:sg:nom:n</ctag></lex>
   </tok>
   <tok>
    <orth>i</orth>
    <lex disamb="1"><base>i</base><ctag>conj</ctag></lex>
   </tok>
   <tok>
    <orth>nie</orth>
    <lex disamb="1"><base>nie</base><ctag>conj</ctag></lex>
   </tok>
   <tok>
    <orth>pogardzi</orth>
    <lex disamb="1"><base>pogardzić</base><ctag>fin:sg:ter:perf</ctag></lex>
   </tok>
   <tok>
    <orth>dodatkową</orth>
    <lex disamb="1"><base>dodatkowy</base><ctag>adj:sg:acc:f:pos</ctag></lex>
   </tok>
   <tok>
    <orth>robotą</orth>
    <lex disamb="1"><base>robota</base><ctag>subst:sg:inst:f</ctag></lex>
   </tok>
   <tok>
    <orth>do</orth>
    <lex disamb="1"><base>do</base><ctag>prep:gen</ctag></lex>
   </tok>
   <tok>
    <orth>zrobienia</orth>
    <lex disamb="1"><base>zrobić</base><ctag>ger:sg:gen:n:perf:aff</ctag></lex>
   </tok>
   <ns/>
   <tok>
    <orth>.</orth>
    <lex disamb="1"><base>.</base><ctag>interp</ctag></lex>
   </tok>
  </sentence>
 </chunk>
 <chunk type="p" id="ch2">
  <sentence id="s2">
   <tok>
    <orth>Angażuje</orth>
    <lex disamb="1"><base>angażować</base><ctag>fin:sg:ter:imperf</ctag></lex>
   </tok>
   <tok>
    <orth>się</orth>
    <lex disamb="1"><base>się</base><ctag>qub</ctag></lex>
   </tok>
   <tok>
    <orth>też</orth>
    <lex disamb="1"><base>też</base><ctag>qub</ctag></lex>
   </tok>
   <tok>
    <orth>społecznie</orth>
    <lex disamb="1"><base>społecznie</base><ctag>adv:pos</ctag></lex>
   </tok>
   <tok>
    <orth>i</orth>
    <lex disamb="1"><base>i</base><ctag>conj</ctag></lex>
   </tok>
   <tok>
    <orth>prowadzi</orth>
    <lex disamb="1"><base>prowadzić</base><ctag>fin:sg:ter:imperf</ctag></lex>
   </tok>
   <tok>
    <orth>bezpłatne</orth>
    <lex disamb="1"><base>bezpłatny</base><ctag>adj:sg:nom:n:pos</ctag></lex>
   </tok>
   <tok>
    <orth>zajęcia</orth>
    <lex disamb="1"><base>zajęcia</base><ctag>subst:pl:nom:n</ctag></lex>
    <lex disamb="1"><base>zajęcie</base><ctag>subst:pl:nom:n</ctag></lex>
   </tok>
   <tok>
    <orth>dla</orth>
    <lex disamb="1"><base>dla</base><ctag>prep:gen</ctag></lex>
   </tok>
   <tok>
    <orth>dzieci</orth>
    <lex disamb="1"><base>dziecko</base><ctag>subst:pl:nom:n</ctag></lex>
   </tok>
   <ns/>
   <tok>
    <orth>,</orth>
    <lex disamb="1"><base>,</base><ctag>interp</ctag></lex>
   </tok>
   <tok>
    <orth>uświadamiające</orth>
    <lex disamb="1"><base>uświadamiać</base><ctag>pact:sg:nom:n:imperf:aff</ctag></lex>
   </tok>
   <tok>
    <orth>jak</orth>
    <lex disamb="1"><base>jak</base><ctag>conj</ctag></lex>
   </tok>
   <tok>
    <orth>ludzie</orth>
    <lex disamb="1"><base>człowiek</base><ctag>subst:pl:nom:m1</ctag></lex>
    <lex disamb="1"><base>ludzie</base><ctag>subst:pl:nom:m1</ctag></lex>
   </tok>
   <tok>
    <orth>niewidomi</orth>
    <lex disamb="1"><base>niewidomy</base><ctag>subst:pl:nom:m1</ctag></lex>
   </tok>
   <tok>
    <orth>funkcjonują</orth>
    <lex disamb="1"><base>funkcjonować</base><ctag>fin:pl:ter:imperf</ctag></lex>
   </tok>
   <tok>
    <orth>w</orth>
    <lex disamb="1"><base>w</base><ctag>prep:acc:nwok</ctag></lex>
   </tok>
   <tok>
    <orth>społeczeństwie</orth>
    <lex disamb="1"><base>społeczeństwo</base><ctag>subst:sg:loc:n</ctag></lex>
   </tok>
   <ns/>
   <tok>
    <orth>.</orth>
    <lex disamb="1"><base>.</base><ctag>interp</ctag></lex>
   </tok>
  </sentence>
 </chunk>
 <chunk type="p" id="ch3">
  <sentence id="s3">
   <tok>
    <orth>P</orth>
    <lex disamb="1"><base>P</base><ctag>ign</ctag></lex>
   </tok>
   <ns/>
   <tok>
    <orth>.</orth>
    <lex disamb="1"><base>.</base><ctag>interp</ctag></lex>
   </tok>
   <ns/>
   <tok>
    <orth>s</orth>
    <lex disamb="1"><base>sekunda</base><ctag>brev:npun</ctag></lex>
   </tok>
   <ns/>
   <tok>
    <orth>.</orth>
    <lex disamb="1"><base>.</base><ctag>interp</ctag></lex>
   </tok>
   <ns/>
   <tok>
    <orth>:</orth>
    <lex disamb="1"><base>:</base><ctag>interp</ctag></lex>
   </tok>
   <tok>
    <orth>Dobrym</orth>
    <lex disamb="1"><base>dobre</base><ctag>subst:sg:inst:n</ctag></lex>
   </tok>
   <tok>
    <orth>słowem</orth>
    <lex disamb="1"><base>słowo</base><ctag>subst:sg:inst:n</ctag></lex>
   </tok>
   <tok>
    <orth>pewnie</orth>
    <lex disamb="1"><base>pewnie</base><ctag>adv:pos</ctag></lex>
   </tok>
   <tok>
    <orth>też</orth>
    <lex disamb="1"><base>też</base><ctag>qub</ctag></lex>
   </tok>
   <tok>
    <orth>nie</orth>
    <lex disamb="1"><base>nie</base><ctag>conj</ctag></lex>
   </tok>
   <tok>
    <orth>pogardzi</orth>
    <lex disamb="1"><base>pogardzić</base><ctag>fin:sg:ter:perf</ctag></lex>
   </tok>
   <tok>
    <orth>:</orth>
    <lex disamb="1"><base>:</base><ctag>interp</ctag></lex>
   </tok>
   <ns/>
   <tok>
    <orth>)</orth>
    <lex disamb="1"><base>)</base><ctag>interp</ctag></lex>
   </tok>
  </sentence>
 </chunk>
</chunkList>