<?xml version="1.0" encoding="UTF-8"?>
<!DOCTYPE chunkList SYSTEM "ccl.dtd">
<chunkList>
 <chunk type="p" id="ch1">
  <sentence id="s1">
   <tok>
    <orth>Rozmowa</orth>
    <lex disamb="1"><base>rozmowa</base><ctag>subst:sg:nom:f</ctag></lex>
    <ann chan="nam">0</ann>
    <ann chan="nam_liv_person">0</ann>
    <ann chan="nam_liv">0</ann>
    <ann chan="nam_org">0</ann>
   </tok>
   <tok>
    <orth>z</orth>
    <lex disamb="1"><base>z</base><ctag>prep:gen:nwok</ctag></lex>
    <ann chan="nam">0</ann>
    <ann chan="nam_liv_person">0</ann>
    <ann chan="nam_liv">0</ann>
    <ann chan="nam_org">0</ann>
   </tok>
   <tok>
    <orth>mec</orth>
    <lex disamb="1"><base>mec</base><ctag>ign</ctag></lex>
    <ann chan="nam">0</ann>
    <ann chan="nam_liv_person">0</ann>
    <ann chan="nam_liv">0</ann>
    <ann chan="nam_org">0</ann>
   </tok>
   <ns/>
   <tok>
    <orth>.</orth>
    <lex disamb="1"><base>.</base><ctag>interp</ctag></lex>
    <ann chan="nam">0</ann>
    <ann chan="nam_liv_person">0</ann>
    <ann chan="nam_liv">0</ann>
    <ann chan="nam_org">0</ann>
   </tok>
   <tok>
    <orth>Moniką</orth>
    <lex disamb="1"><base>Monika</base><ctag>subst:sg:inst:f</ctag></lex>
    <ann chan="nam">1</ann>
    <ann chan="nam_liv_person">1</ann>
    <ann chan="nam_liv">1</ann>
    <ann chan="nam_org">0</ann>
   </tok>
   <tok>
    <orth>Brzozowską</orth>
    <lex disamb="1"><base>Brzozowska</base><ctag>subst:sg:acc:f</ctag></lex>
    <ann chan="nam">1</ann>
    <ann chan="nam_liv_person">1</ann>
    <ann chan="nam_liv">1</ann>
    <ann chan="nam_org">0</ann>
   </tok>
   <ns/>
   <tok>
    <orth>-</orth>
    <lex disamb="1"><base>-</base><ctag>interp</ctag></lex>
    <ann chan="nam">1</ann>
    <ann chan="nam_liv_person">1</ann>
    <ann chan="nam_liv">1</ann>
    <ann chan="nam_org">0</ann>
   </tok>
   <ns/>
   <tok>
    <orth>Pasieką</orth>
    <lex disamb="1"><base>pasieka</base><ctag>subst:sg:inst:f</ctag></lex>
    <ann chan="nam">1</ann>
    <ann chan="nam_liv_person">1</ann>
    <ann chan="nam_liv">1</ann>
    <ann chan="nam_org">0</ann>
   </tok>
   <ns/>
   <tok>
    <orth>,</orth>
    <lex disamb="1"><base>,</base><ctag>interp</ctag></lex>
    <ann chan="nam">0</ann>
    <ann chan="nam_liv_person">0</ann>
    <ann chan="nam_liv">0</ann>
    <ann chan="nam_org">0</ann>
   </tok>
   <tok>
    <orth>pełnomocnikiem</orth>
    <lex disamb="1"><base>pełnomocnik</base><ctag>subst:sg:inst:m1</ctag></lex>
    <ann chan="nam">0</ann>
    <ann chan="nam_liv_person">0</ann>
    <ann chan="nam_liv">0</ann>
    <ann chan="nam_org">0</ann>
   </tok>
   <tok>
    <orth>strony</orth>
    <lex disamb="1"><base>strona</base><ctag>subst:sg:gen:f</ctag></lex>
    <ann chan="nam">0</ann>
    <ann chan="nam_liv_person">0</ann>
    <ann chan="nam_liv">0</ann>
    <ann chan="nam_org">0</ann>
   </tok>
   <tok>
    <orth>oskarżającej</orth>
    <lex disamb="1"><base>oskarżający</base><ctag>adj:sg:gen:f:pos</ctag></lex>
    <ann chan="nam">0</ann>
    <ann chan="nam_liv_person">0</ann>
    <ann chan="nam_liv">0</ann>
    <ann chan="nam_org">0</ann>
   </tok>
   <tok>
    <orth>Niemca</orth>
    <lex disamb="1"><base>Niemiec</base><ctag>subst:sg:gen:m1</ctag></lex>
    <lex disamb="1"><base>niemiec</base><ctag>subst:sg:gen:m1</ctag></lex>
    <ann chan="nam">0</ann>
    <ann chan="nam_liv_person">0</ann>
    <ann chan="nam_liv">0</ann>
    <ann chan="nam_org">1</ann>
   </tok>
   <tok>
    <orth>o</orth>
    <lex disamb="1"><base>o</base><ctag>prep:acc</ctag></lex>
    <ann chan="nam">0</ann>
    <ann chan="nam_liv_person">0</ann>
    <ann chan="nam_liv">0</ann>
    <ann chan="nam_org">0</ann>
   </tok>
   <tok>
    <orth>obrażanie</orth>
    <lex disamb="1"><base>obrażać</base><ctag>ger:sg:nom:n:imperf:aff</ctag></lex>
    <ann chan="nam">0</ann>
    <ann chan="nam_liv_person">0</ann>
    <ann chan="nam_liv">0</ann>
    <ann chan="nam_org">0</ann>
   </tok>
   <tok>
    <orth>polskich</orth>
    <lex disamb="1"><base>polski</base><ctag>subst:pl:gen:m3</ctag></lex>
    <ann chan="nam">0</ann>
    <ann chan="nam_liv_person">0</ann>
    <ann chan="nam_liv">0</ann>
    <ann chan="nam_org">0</ann>
   </tok>
   <tok>
    <orth>pracowników</orth>
    <lex disamb="1"><base>pracownik</base><ctag>subst:pl:gen:m1</ctag></lex>
    <ann chan="nam">0</ann>
    <ann chan="nam_liv_person">0</ann>
    <ann chan="nam_liv">0</ann>
    <ann chan="nam_org">0</ann>
   </tok>
   <ns/>
   <tok>
    <orth>.</orth>
    <lex disamb="1"><base>.</base><ctag>interp</ctag></lex>
    <ann chan="nam">0</ann>
    <ann chan="nam_liv_person">0</ann>
    <ann chan="nam_liv">0</ann>
    <ann chan="nam_org">0</ann>
   </tok>
  </sentence>
 </chunk>
</chunkList>