<?xml version="1.0" encoding="UTF-8"?>
<!DOCTYPE chunkList SYSTEM "ccl.dtd">
<chunkList>
 <chunk type="p" id="ch1">
  <sentence id="s1">
   <tok>
    <orth>Dokładnie</orth>
    <lex disamb="1"><base>dokładnie</base><ctag>adv:pos</ctag></lex>
    <ann chan="nam">0</ann>
    <ann chan="nam_org_institution">0</ann>
    <ann chan="nam_eve">0</ann>
    <ann chan="nam_org">0</ann>
    <ann chan="timex">0</ann>
   </tok>
   <tok>
    <orth>od</orth>
    <lex disamb="1"><base>od</base><ctag>prep:gen:nwok</ctag></lex>
    <ann chan="nam">0</ann>
    <ann chan="nam_org_institution">0</ann>
    <ann chan="nam_eve">0</ann>
    <ann chan="nam_org">0</ann>
    <ann chan="timex">0</ann>
   </tok>
   <tok>
    <orth>roku</orth>
    <lex disamb="1"><base>rok</base><ctag>subst:sg:gen:m3</ctag></lex>
    <ann chan="nam">0</ann>
    <ann chan="nam_org_institution">0</ann>
    <ann chan="nam_eve">0</ann>
    <ann chan="nam_org">0</ann>
    <ann chan="timex">1</ann>
   </tok>
   <tok>
    <orth>karabinki</orth>
    <lex disamb="1"><base>karabinek</base><ctag>subst:pl:nom:m3</ctag></lex>
    <ann chan="nam">0</ann>
    <ann chan="nam_org_institution">0</ann>
    <ann chan="nam_eve">0</ann>
    <ann chan="nam_org">0</ann>
    <ann chan="timex">0</ann>
   </tok>
   <tok>
    <orth>Grot</orth>
    <lex disamb="1"><base>Grot</base><ctag>subst:sg:nom:m1</ctag></lex>
    <ann chan="nam">1</ann>
    <ann chan="nam_org_institution">0</ann>
    <ann chan="nam_eve">1</ann>
    <ann chan="nam_org">0</ann>
    <ann chan="timex">0</ann>
   </tok>
   <tok>
    <orth>C16</orth>
    <lex disamb="1"><base>C16</base><ctag>ign</ctag></lex>
    <ann chan="nam">1</ann>
    <ann chan="nam_org_institution">0</ann>
    <ann chan="nam_eve">1</ann>
    <ann chan="nam_org">0</ann>
    <ann chan="timex">0</ann>
   </tok>
   <tok>
    <orth>FB</orth>
    <lex disamb="1"><base>FB</base><ctag>ign</ctag></lex>
    <ann chan="nam">1</ann>
    <ann chan="nam_org_institution">0</ann>
    <ann chan="nam_eve">1</ann>
    <ann chan="nam_org">0</ann>
    <ann chan="timex">0</ann>
   </tok>
   <ns/>
   <tok>
    <orth>-</orth>
    <lex disamb="1"><base>-</base><ctag>interp</ctag></lex>
    <ann chan="nam">1</ann>
    <ann chan="nam_org_institution">0</ann>
    <ann chan="nam_eve">0</ann>
    <ann chan="nam_org">0</ann>
    <ann chan="timex">0</ann>
   </tok>
   <ns/>
   <tok>
    <orth>M1</orth>
    <lex disamb="1"><base>M1</base><ctag>ign</ctag></lex>
    <ann chan="nam">1</ann>
    <ann chan="nam_org_institution">0</ann>
    <ann chan="nam_eve">0</ann>
    <ann chan="nam_org">0</ann>
    <ann chan="timex">0</ann>
   </tok>
   <tok>
    <orth>są</orth>
    <lex disamb="1"><base>być</base><ctag>fin:pl:ter:imperf</ctag></lex>
    <ann chan="nam">0</ann>
    <ann chan="nam_org_institution">0</ann>
    <ann chan="nam_eve">0</ann>
    <ann chan="nam_org">0</ann>
    <ann chan="timex">0</ann>
   </tok>
   <tok>
    <orth>używane</orth>
    <lex disamb="1"><base>używać</base><ctag>ppas:sg:nom:n:imperf:aff</ctag></lex>
    <ann chan="nam">0</ann>
    <ann chan="nam_org_institution">0</ann>
    <ann chan="nam_eve">0</ann>
    <ann chan="nam_org">0</ann>
    <ann chan="timex">0</ann>
   </tok>
   <tok>
    <orth>przez</orth>
    <lex disamb="1"><base>przez</base><ctag>prep:acc:nwok</ctag></lex>
    <ann chan="nam">0</ann>
    <ann chan="nam_org_institution">0</ann>
    <ann chan="nam_eve">0</ann>
    <ann chan="nam_org">0</ann>
    <ann chan="timex">0</ann>
   </tok>
   <tok>
    <orth>żołnierzy</orth>
    <lex disamb="1"><base>żołnierz</base><ctag>subst:pl:gen:m1</ctag></lex>
    <ann chan="nam">0</ann>
    <ann chan="nam_org_institution">0</ann>
    <ann chan="nam_eve">0</ann>
    <ann chan="nam_org">0</ann>
    <ann chan="timex">0</ann>
   </tok>
   <tok>
    <orth>Wojsk</orth>
    <lex disamb="1"><base>wojsko</base><ctag>subst:pl:gen:n</ctag></lex>
    <ann chan="nam">2</ann>
    <ann chan="nam_org_institution">1</ann>
    <ann chan="nam_eve">0</ann>
    <ann chan="nam_org">1</ann>
    <ann chan="timex">0</ann>
   </tok>
   <tok>
    <orth>Obrony</orth>
    <lex disamb="1"><base>obrona</base><ctag>subst:sg:gen:f</ctag></lex>
    <ann chan="nam">2</ann>
    <ann chan="nam_org_institution">1</ann>
    <ann chan="nam_eve">0</ann>
    <ann chan="nam_org">1</ann>
    <ann chan="timex">0</ann>
   </tok>
   <tok>
    <orth>Terytorialnej</orth>
    <lex disamb="1"><base>terytorialny</base><ctag>adj:sg:gen:f:pos</ctag></lex>
    <ann chan="nam">2</ann>
    <ann chan="nam_org_institution">1</ann>
    <ann chan="nam_eve">0</ann>
    <ann chan="nam_org">1</ann>
    <ann chan="timex">0</ann>
   </tok>
   <ns/>
   <tok>
    <orth>.</orth>
    <lex disamb="1"><base>.</base><ctag>interp</ctag></lex>
    <ann chan="nam">0</ann>
    <ann chan="nam_org_institution">0</ann>
    <ann chan="nam_eve">0</ann>
    <ann chan="nam_org">0</ann>
    <ann chan="timex">0</ann>
   </tok>
  </sentence>
 </chunk>
 <chunk type="p" id="ch2">
  <sentence id="s2">
   <tok>
    <orth>Pozwoliło</orth>
    <lex disamb="1"><base>pozwolić</base><ctag>praet:sg:n:perf</ctag></lex>
   </tok>
   <tok>
    <orth>to</orth>
    <lex disamb="1"><base>to</base><ctag>conj</ctag></lex>
   </tok>
   <tok>
    <orth>zebrać</orth>
    <lex disamb="1"><base>zebrać</base><ctag>inf:perf</ctag></lex>
   </tok>
   <tok>
    <orth>doświadczenia</orth>
    <lex disamb="1"><base>doświadczenie</base><ctag>subst:sg:gen:n</ctag></lex>
   </tok>
   <tok>
    <orth>i</orth>
    <lex disamb="1"><base>i</base><ctag>conj</ctag></lex>
   </tok>
   <tok>
    <orth>zgłosić</orth>
    <lex disamb="1"><base>zgłosić</base><ctag>inf:perf</ctag></lex>
   </tok>
   <tok>
    <orth>propozycje</orth>
    <lex disamb="1"><base>propozycja</base><ctag>subst:pl:nom:f</ctag></lex>
   </tok>
   <tok>
    <orth>poprawek</orth>
    <lex disamb="1"><base>poprawka</base><ctag>subst:pl:gen:f</ctag></lex>
   </tok>
   <tok>
    <orth>do</orth>
    <lex disamb="1"><base>do</base><ctag>prep:gen</ctag></lex>
   </tok>
   <tok>
    <orth>konstrukcji</orth>
    <lex disamb="1"><base>konstrukcja</base><ctag>subst:sg:gen:f</ctag></lex>
   </tok>
   <ns/>
   <tok>
    <orth>.</orth>
    <lex disamb="1"><base>.</base><ctag>interp</ctag></lex>
   </tok>
  </sentence>
 </chunk>
</chunkList>