<?xml version="1.0" encoding="UTF-8"?>
<!DOCTYPE chunkList SYSTEM "ccl.dtd">
<chunkList>
 <chunk type="p" id="ch1">
  <sentence id="s1">
   <tok>
    <orth>8</orth>
    <lex disamb="1"><base>8</base><ctag>num:pl:nom:m1:rec</ctag></lex>
    <ann chan="nam">0</ann>
    <ann chan="timex">1</ann>
    <ann chan="t3_duration">1</ann>
   </tok>
   <ns/>
   <tok>
    <orth>-</orth>
    <lex disamb="1"><base>-</base><ctag>interp</ctag></lex>
    <ann chan="nam">0</ann>
    <ann chan="timex">1</ann>
    <ann chan="t3_duration">1</ann>
   </tok>
   <ns/>
   <tok>
    <orth>letnia</orth>
    <lex disamb="1"><base>letni</base><ctag>adj:sg:nom:f:pos</ctag></lex>
    <ann chan="nam">0</ann>
    <ann chan="timex">1</ann>
    <ann chan="t3_duration">1</ann>
   </tok>
   <tok>
    <orth>Yara</orth>
    <lex disamb="1"><base>Yara</base><ctag>ign</ctag></lex>
    <ann chan="nam">1</ann>
    <ann chan="timex">0</ann>
    <ann chan="t3_duration">0</ann>
   </tok>
   <tok>
    <orth>zaczęła</orth>
    <lex disamb="1"><base>zacząć</base><ctag>praet:sg:f:perf</ctag></lex>
    <ann chan="nam">0</ann>
    <ann chan="timex">0</ann>
    <ann chan="t3_duration">0</ann>
   </tok>
   <tok>
    <orth>rok</orth>
    <lex disamb="1"><base>rok</base><ctag>subst:sg:nom:m3</ctag></lex>
    <ann chan="nam">0</ann>
    <ann chan="timex">2</ann>
    <ann chan="t3_duration">0</ann>
   </tok>
   <tok>
    <orth>szkolny</orth>
    <lex disamb="1"><base>szkolny</base><ctag>adj:sg:nom:m1:pos</ctag></lex>
    <ann chan="nam">0</ann>
    <ann chan="timex">0</ann>
    <ann chan="t3_duration">0</ann>
   </tok>
   <tok>
    <orth>w</orth>
    <lex disamb="1"><base>w</base><ctag>prep:acc:nwok</ctag></lex>
    <ann chan="nam">0</ann>
    <ann chan="timex">0</ann>
    <ann chan="t3_duration">0</ann>
   </tok>
   <tok>
    <orth>klasie</orth>
    <lex disamb="1"><base>klasa</base><ctag>subst:sg:dat:f</ctag></lex>
    <ann chan="nam">0</ann>
    <ann chan="timex">0</ann>
    <ann chan="t3_duration">0</ann>
   </tok>
   <ns/>
   <tok>
    <orth>,</orth>
    <lex disamb="1"><base>,</base><ctag>interp</ctag></lex>
    <ann chan="nam">0</ann>
    <ann chan="timex">0</ann>
    <ann chan="t3_duration">0</ann>
   </tok>
   <tok>
    <orth>w</orth>
    <lex disamb="1"><base>w</base><ctag>prep:acc:nwok</ctag></lex>
    <ann chan="nam">0</ann>
    <ann chan="timex">0</ann>
    <ann chan="t3_duration">0</ann>
   </tok>
   <tok>
    <orth>której</orth>
    <lex disamb="1"><base>który</base><ctag>adj:sg:gen:f:pos</ctag></lex>
    <ann chan="nam">0</ann>
    <ann chan="timex">0</ann>
    <ann chan="t3_duration">0</ann>
   </tok>
   <tok>
    <orth>tylko</orth>
    <lex disamb="1"><base>tylko</base><ctag>conj</ctag></lex>
    <ann chan="nam">0</ann>
    <ann chan="timex">0</ann>
    <ann chan="t3_duration">0</ann>
   </tok>
   <tok>
    <orth>on</orth>
    <lex disamb="1"><base>on</base><ctag>ppron3:sg:nom:m1:ter:akc:npraep</ctag></lex>
    <ann chan="nam">0</ann>
    <ann chan="timex">0</ann>
    <ann chan="t3_duration">0</ann>
   </tok>
   <tok>
    <orth>mówiła</orth>
    <lex disamb="1"><base>mówić</base><ctag>praet:sg:f:imperf</ctag></lex>
    <ann chan="nam">0</ann>
    <ann chan="timex">0</ann>
    <ann chan="t3_duration">0</ann>
   </tok>
   <tok>
    <orth>po</orth>
    <lex disamb="1"><base>po</base><ctag>prep:acc</ctag></lex>
    <ann chan="nam">0</ann>
    <ann chan="timex">0</ann>
    <ann chan="t3_duration">0</ann>
   </tok>
   <tok>
    <orth>niemiecku</orth>
    <lex disamb="1"><base>niemiecki</base><ctag>adjp</ctag></lex>
    <ann chan="nam">0</ann>
    <ann chan="timex">0</ann>
    <ann chan="t3_duration">0</ann>
   </tok>
   <ns/>
   <tok>
    <orth>.</orth>
    <lex disamb="1"><base>.</base><ctag>interp</ctag></lex>
    <ann chan="nam">0</ann>
    <ann chan="timex">0</ann>
    <ann chan="t3_duration">0</ann>
   </tok>
  </sentence>
 </chunk>
 <chunk type="p" id="ch2">
  <sentence id="s2">
   <tok>
    <orth>Szybko</orth>
    <lex disamb="1"><base>szybko</base><ctag>adv:pos</ctag></lex>
   </tok>
   <tok>
    <orth>stała</orth>
    <lex disamb="1"><base>stała</base><ctag>subst:sg:nom:f</ctag></lex>
   </tok>
   <tok>
    <orth>się</orth>
    <lex disamb="1"><base>się</base><ctag>qub</ctag></lex>
   </tok>
   <tok>
    <orth>wyrzutkiem</orth>
    <lex disamb="1"><base>wyrzutek</base><ctag>subst:sg:inst:m1</ctag></lex>
   </tok>
   <ns/>
   <tok>
    <orth>.</orth>
    <lex disamb="1"><base>.</base><ctag>interp</ctag></lex>
   </tok>
  </sentence>
 </chunk>
 <chunk type="p" id="ch3">
  <sentence id="s3">
   <tok>
    <orth>Ojciec</orth>
    <lex disamb="1"><base>ojciec</base><ctag>subst:sg:nom:m1</ctag></lex>
    <ann chan="timex">0</ann>
   </tok>
   <tok>
    <orth>twierdzi</orth>
    <lex disamb="1"><base>twierdzić</base><ctag>fin:sg:ter:imperf</ctag></lex>
    <ann chan="timex">0</ann>
   </tok>
   <ns/>
   <tok>
    <orth>,</orth>
    <lex disamb="1"><base>,</base><ctag>interp</ctag></lex>
    <ann chan="timex">0</ann>
   </tok>
   <tok>
    <orth>że</orth>
    <lex disamb="1"><base>że</base><ctag>comp</ctag></lex>
    <ann chan="timex">0</ann>
   </tok>
   <tok>
    <orth>do</orth>
    <lex disamb="1"><base>do</base><ctag>prep:gen</ctag></lex>
    <ann chan="timex">0</ann>
   </tok>
   <tok>
    <orth>ataków</orth>
    <lex disamb="1"><base>atak</base><ctag>subst:pl:gen:m3</ctag></lex>
    <ann chan="timex">0</ann>
   </tok>
   <tok>
    <orth>dochodziło</orth>
    <lex disamb="1"><base>dochodzić</base><ctag>praet:sg:n:imperf</ctag></lex>
    <ann chan="timex">0</ann>
   </tok>
   <tok>
    <orth>codziennie</orth>
    <lex disamb="1"><base>codziennie</base><ctag>adv:pos</ctag></lex>
    <ann chan="timex">1</ann>
   </tok>
   <ns/>
   <tok>
    <orth>.</orth>
    <lex disamb="1"><base>.</base><ctag>interp</ctag></lex>
    <ann chan="timex">0</ann>
   </tok>
  </sentence>
 </chunk>
 <chunk type="p" id="ch4">
  <sentence id="s4">
   <tok>
    <orth>Raz</orth>
    <lex disamb="1"><base>raz</base><ctag>subst:sg:nom:m3</ctag></lex>
   </tok>
   <tok>
    <orth>nawet</orth>
    <lex disamb="1"><base>nawet</base><ctag>qub</ctag></lex>
   </tok>
   <tok>
    <orth>arabskie</orth>
    <lex disamb="1"><base>arabski</base><ctag>subst:pl:nom:m3</ctag></lex>
   </tok>
   <tok>
    <orth>dziecko</orth>
    <lex disamb="1"><base>dziecko</base><ctag>subst:sg:nom:n</ctag></lex>
   </tok>
   <ns/>
   <tok>
    <orth>,</orth>
    <lex disamb="1"><base>,</base><ctag>interp</ctag></lex>
   </tok>
   <tok>
    <orth>którego</orth>
    <lex disamb="1"><base>który</base><ctag>adj:sg:gen:m1:pos</ctag></lex>
   </tok>
   <tok>
    <orth>nawet</orth>
    <lex disamb="1"><base>nawet</base><ctag>qub</ctag></lex>
   </tok>
   <tok>
    <orth>nie</orth>
    <lex disamb="1"><base>nie</base><ctag>conj</ctag></lex>
   </tok>
   <tok>
    <orth>znała</orth>
    <lex disamb="1"><base>znać</base><ctag>praet:sg:f:imperf</ctag></lex>
   </tok>
   <ns/>
   <tok>
    <orth>,</orth>
    <lex disamb="1"><base>,</base><ctag>interp</ctag></lex>
   </tok>
   <tok>
    <orth>popchnęło</orth>
    <lex disamb="1"><base>popchnąć</base><ctag>praet:sg:n:perf</ctag></lex>
   </tok>
   <tok>
    <orth>ją</orth>
    <lex disamb="1"><base>on</base><ctag>ppron3:sg:acc:f:ter:akc:npraep</ctag></lex>
   </tok>
   <tok>
    <orth>i</orth>
    <lex disamb="1"><base>i</base><ctag>conj</ctag></lex>
   </tok>
   <tok>
    <orth>rozcięło</orth>
    <lex disamb="1"><base>rozciąć</base><ctag>praet:sg:n:perf</ctag></lex>
   </tok>
   <tok>
    <orth>brzuch</orth>
    <lex disamb="1"><base>brzuch</base><ctag>subst:sg:nom:m3</ctag></lex>
   </tok>
   <tok>
    <orth>ostrym</orth>
    <lex disamb="1"><base>ostry</base><ctag>adj:sg:inst:m1:pos</ctag></lex>
   </tok>
   <tok>
    <orth>przedmiotem</orth>
    <lex disamb="1"><base>przedmiot</base><ctag>subst:sg:inst:m3</ctag></lex>
   </tok>
   <ns/>
   <tok>
    <orth>.</orth>
    <lex disamb="1"><base>.</base><ctag>interp</ctag></lex>
   </tok>
  </sentence>
 </chunk>
 <chunk type="p" id="ch5">
  <sentence id="s5">
   <tok>
    <orth>Nauczyciel</orth>
    <lex disamb="1"><base>nauczyciel</base><ctag>subst:sg:nom:m1</ctag></lex>
   </tok>
   <tok>
    <orth>zlekceważył</orth>
    <lex disamb="1"><base>zlekceważyć</base><ctag>praet:sg:m1:perf</ctag></lex>
   </tok>
   <tok>
    <orth>zajście</orth>
    <lex disamb="1"><base>zajście</base><ctag>subst:sg:nom:n</ctag></lex>
   </tok>
   <ns/>
   <tok>
    <orth>.</orth>
    <lex disamb="1"><base>.</base><ctag>interp</ctag></lex>
   </tok>
  </sentence>
 </chunk>
</chunkList>