<?xml version="1.0" encoding="UTF-8"?>
<!DOCTYPE chunkList SYSTEM "ccl.dtd">
<chunkList>
 <chunk type="p" id="ch1">
  <sentence id="s1">
   <tok>
    <orth>Bethesda</orth>
    <lex disamb="1"><base>Bethesda</base><ctag>ign</ctag></lex>
    <ann chan="nam">0</ann>
    <ann chan="nam_pro">0</ann>
   </tok>
   <tok>
    <orth>ma</orth>
    <lex disamb="1"><base>mój</base><ctag>adj:sg:nom:f:pos</ctag></lex>
    <ann chan="nam">0</ann>
    <ann chan="nam_pro">0</ann>
   </tok>
   <tok>
    <orth>nie</orth>
    <lex disamb="1"><base>nie</base><ctag>conj</ctag></lex>
    <ann chan="nam">0</ann>
    <ann chan="nam_pro">0</ann>
   </tok>
   <tok>
    <orth>tylko</orth>
    <lex disamb="1"><base>tylko</base><ctag>conj</ctag></lex>
    <ann chan="nam">0</ann>
    <ann chan="nam_pro">0</ann>
   </tok>
   <tok>
    <orth>problem</orth>
    <lex disamb="1"><base>problem</base><ctag>subst:sg:nom:m3</ctag></lex>
    <ann chan="nam">0</ann>
    <ann chan="nam_pro">0</ann>
   </tok>
   <tok>
    <orth>z</orth>
    <lex disamb="1"><base>z</base><ctag>prep:gen:nwok</ctag></lex>
    <ann chan="nam">0</ann>
    <ann chan="nam_pro">0</ann>
   </tok>
   <tok>
    <orth>Fallout</orth>
    <lex disamb="1"><base>Fallout</base><ctag>ign</ctag></lex>
    <ann chan="nam">1</ann>
    <ann chan="nam_pro">1</ann>
   </tok>
   <tok>
    <orth>76</orth>
    <lex disamb="1"><base>76</base><ctag>num:pl:nom:m1:rec</ctag></lex>
    <ann chan="nam">1</ann>
    <ann chan="nam_pro">1</ann>
   </tok>
   <ns/>
   <tok>
    <orth>.</orth>
    <lex disamb="1"><base>.</base><ctag>interp</ctag></lex>
    <ann chan="nam">0</ann>
    <ann chan="nam_pro">0</ann>
   </tok>
  </sentence>
 </chunk>
 <chunk type="p" id="ch2">
  <sentence id="s2">
   <tok>
    <orth>Firma</orth>
    <lex disamb="1"><base>firma</base><ctag>subst:sg:nom:f</ctag></lex>
    <ann chan="nam">0</ann>
   </tok>
   <tok>
    <orth>nie</orth>
    <lex disamb="1"><base>nie</base><ctag>conj</ctag></lex>
    <ann chan="nam">0</ann>
   </tok>
   <tok>
    <orth>zadbała</orth>
    <lex disamb="1"><base>zadbać</base><ctag>praet:sg:f:perf</ctag></lex>
    <ann chan="nam">0</ann>
   </tok>
   <tok>
    <orth>nawet</orth>
    <lex disamb="1"><base>nawet</base><ctag>qub</ctag></lex>
    <ann chan="nam">0</ann>
   </tok>
   <tok>
    <orth>o</orth>
    <lex disamb="1"><base>o</base><ctag>prep:acc</ctag></lex>
    <ann chan="nam">0</ann>
   </tok>
   <tok>
    <orth>swoje</orth>
    <lex disamb="1"><base>swoje</base><ctag>subst:sg:nom:n</ctag></lex>
    <ann chan="nam">0</ann>
   </tok>
   <tok>
    <orth>centrum</orth>
    <lex disamb="1"><base>centrum</base><ctag>subst:sg:nom:n</ctag></lex>
    <ann chan="nam">0</ann>
   </tok>
   <tok>
    <orth>wsparcia</orth>
    <lex disamb="1"><base>wsparcie</base><ctag>subst:sg:gen:n</ctag></lex>
    <ann chan="nam">0</ann>
   </tok>
   <ns/>
   <tok>
    <orth>,</orth>
    <lex disamb="1"><base>,</base><ctag>interp</ctag></lex>
    <ann chan="nam">0</ann>
   </tok>
   <tok>
    <orth>więc</orth>
    <lex disamb="1"><base>więc</base><ctag>conj</ctag></lex>
    <ann chan="nam">0</ann>
   </tok>
   <tok>
    <orth>gracze</orth>
    <lex disamb="1"><base>gracz</base><ctag>subst:pl:nom:m1</ctag></lex>
    <ann chan="nam">0</ann>
   </tok>
   <tok>
    <orth>składający</orth>
    <lex disamb="1"><base>składać</base><ctag>pact:sg:nom:m1:imperf:aff</ctag></lex>
    <ann chan="nam">0</ann>
   </tok>
   <tok>
    <orth>wniosek</orth>
    <lex disamb="1"><base>wniosek</base><ctag>subst:sg:nom:m3</ctag></lex>
    <ann chan="nam">0</ann>
   </tok>
   <tok>
    <orth>o</orth>
    <lex disamb="1"><base>o</base><ctag>prep:acc</ctag></lex>
    <ann chan="nam">0</ann>
   </tok>
   <tok>
    <orth>torby</orth>
    <lex disamb="1"><base>torba</base><ctag>subst:sg:gen:f</ctag></lex>
    <ann chan="nam">0</ann>
   </tok>
   <tok>
    <orth>z</orth>
    <lex disamb="1"><base>z</base><ctag>prep:gen:nwok</ctag></lex>
    <ann chan="nam">0</ann>
   </tok>
   <tok>
    <orth>Power</orth>
    <lex disamb="1"><base>Power</base><ctag>ign</ctag></lex>
    <ann chan="nam">1</ann>
   </tok>
   <tok>
    <orth>Armor</orth>
    <lex disamb="1"><base>Armor</base><ctag>ign</ctag></lex>
    <ann chan="nam">1</ann>
   </tok>
   <tok>
    <orth>Edition</orth>
    <lex disamb="1"><base>Edition</base><ctag>ign</ctag></lex>
    <ann chan="nam">1</ann>
   </tok>
   <tok>
    <orth>otrzymali</orth>
    <lex disamb="1"><base>otrzymać</base><ctag>praet:pl:m1:perf</ctag></lex>
    <ann chan="nam">0</ann>
   </tok>
   <tok>
    <orth>dokładne</orth>
    <lex disamb="1"><base>dokładny</base><ctag>adj:sg:nom:n:pos</ctag></lex>
    <ann chan="nam">0</ann>
   </tok>
   <tok>
    <orth>dane</orth>
    <lex disamb="1"><base>dana</base><ctag>subst:pl:nom:f</ctag></lex>
    <ann chan="nam">0</ann>
   </tok>
   <tok>
    <orth>pozostałych</orth>
    <lex disamb="1"><base>pozostały</base><ctag>adj:pl:gen:m1:pos</ctag></lex>
    <ann chan="nam">0</ann>
   </tok>
   <tok>
    <orth>użytkowników</orth>
    <lex disamb="1"><base>użytkownik</base><ctag>subst:pl:gen:m1</ctag></lex>
    <ann chan="nam">0</ann>
   </tok>
   <tok>
    <orth>(</orth>
    <lex disamb="1"><base>(</base><ctag>interp</ctag></lex>
    <ann chan="nam">0</ann>
   </tok>
   <ns/>
   <tok>
    <orth>numery</orth>
    <lex disamb="1"><base>numer</base><ctag>subst:pl:nom:m3</ctag></lex>
    <ann chan="nam">0</ann>
   </tok>
   <tok>
    <orth>kart</orth>
    <lex disamb="1"><base>kart</base><ctag>subst:sg:nom:m2</ctag></lex>
    <ann chan="nam">0</ann>
   </tok>
   <tok>
    <orth>kredytowych</orth>
    <lex disamb="1"><base>kredytowy</base><ctag>adj:pl:gen:m1:pos</ctag></lex>
    <ann chan="nam">0</ann>
   </tok>
   <ns/>
   <tok>
    <orth>,</orth>
    <lex disamb="1"><base>,</base><ctag>interp</ctag></lex>
    <ann chan="nam">0</ann>
   </tok>
   <tok>
    <orth>adresy</orth>
    <lex disamb="1"><base>adres</base><ctag>subst:pl:nom:m3</ctag></lex>
    <ann chan="nam">0</ann>
   </tok>
   <tok>
    <orth>zamieszkania</orth>
    <lex disamb="1"><base>zamieszkanie</base><ctag>subst:sg:gen:n</ctag></lex>
    <ann chan="nam">0</ann>
   </tok>
   <ns/>
   <tok>
    <orth>,</orth>
    <lex disamb="1"><base>,</base><ctag>interp</ctag></lex>
    <ann chan="nam">0</ann>
   </tok>
   <tok>
    <orth>itp</orth>
    <lex disamb="1"><base>itp</base><ctag>ign</ctag></lex>
    <ann chan="nam">0</ann>
   </tok>
   <ns/>
   <tok>
    <orth>.</orth>
    <lex disamb="1"><base>.</base><ctag>interp</ctag></lex>
    <ann chan="nam">0</ann>
   </tok>
   <ns/>
   <tok>
    <orth>)</orth>
    <lex disamb="1"><base>)</base><ctag>interp</ctag></lex>
    <ann chan="nam">0</ann>
   </tok>
  </sentence>
 </chunk>
</chunkList>