<?xml version="1.0" encoding="UTF-8"?>
<!DOCTYPE chunkList SYSTEM "ccl.dtd">
<chunkList>
 <chunk type="p" id="ch1">
  <sentence id="s1">
   <tok>
    <orth>Ostatnia</orth>
    <lex disamb="1"><base>ostatni</base><ctag>adj:sg:nom:f:pos</ctag></lex>
    <ann chan="nam">0</ann>
    <ann chan="nam_liv_person">0</ann>
    <ann chan="nam_org_nation">0</ann>
    <ann chan="nam_liv">0</ann>
    <ann chan="nam_org">0</ann>
   </tok>
   <tok>
    <orth>rozprawa</orth>
    <lex disamb="1"><base>rozprawa</base><ctag>subst:sg:nom:f</ctag></lex>
    <ann chan="nam">0</ann>
    <ann chan="nam_liv_person">0</ann>
    <ann chan="nam_org_nation">0</ann>
    <ann chan="nam_liv">0</ann>
    <ann chan="nam_org">0</ann>
   </tok>
   <tok>
    <orth>z</orth>
    <lex disamb="1"><base>z</base><ctag>prep:gen:nwok</ctag></lex>
    <ann chan="nam">0</ann>
    <ann chan="nam_liv_person">0</ann>
    <ann chan="nam_org_nation">0</ann>
    <ann chan="nam_liv">0</ann>
    <ann chan="nam_org">0</ann>
   </tok>
   <tok>
    <orth>powództwa</orth>
    <lex disamb="1"><base>powództwo</base><ctag>subst:sg:gen:n</ctag></lex>
    <ann chan="nam">0</ann>
    <ann chan="nam_liv_person">0</ann>
    <ann chan="nam_org_nation">0</ann>
    <ann chan="nam_liv">0</ann>
    <ann chan="nam_org">0</ann>
   </tok>
   <tok>
    <orth>cywilnego</orth>
    <lex disamb="1"><base>cywilny</base><ctag>adj:sg:gen:m1:pos</ctag></lex>
    <ann chan="nam">0</ann>
    <ann chan="nam_liv_person">0</ann>
    <ann chan="nam_org_nation">0</ann>
    <ann chan="nam_liv">0</ann>
    <ann chan="nam_org">0</ann>
   </tok>
   <tok>
    <orth>Natalii</orth>
    <lex disamb="1"><base>Natalia</base><ctag>subst:sg:gen:f</ctag></lex>
    <ann chan="nam">1</ann>
    <ann chan="nam_liv_person">1</ann>
    <ann chan="nam_org_nation">0</ann>
    <ann chan="nam_liv">1</ann>
    <ann chan="nam_org">0</ann>
   </tok>
   <tok>
    <orth>Nitek</orth>
    <lex disamb="1"><base>nitka</base><ctag>subst:pl:gen:f</ctag></lex>
    <ann chan="nam">1</ann>
    <ann chan="nam_liv_person">1</ann>
    <ann chan="nam_org_nation">0</ann>
    <ann chan="nam_liv">1</ann>
    <ann chan="nam_org">0</ann>
   </tok>
   <ns/>
   <tok>
    <orth>-</orth>
    <lex disamb="1"><base>-</base><ctag>interp</ctag></lex>
    <ann chan="nam">0</ann>
    <ann chan="nam_liv_person">1</ann>
    <ann chan="nam_org_nation">0</ann>
    <ann chan="nam_liv">1</ann>
    <ann chan="nam_org">0</ann>
   </tok>
   <ns/>
   <tok>
    <orth>Płażyńskiej</orth>
    <lex disamb="1"><base>Płażyńskiej</base><ctag>ign</ctag></lex>
    <ann chan="nam">0</ann>
    <ann chan="nam_liv_person">1</ann>
    <ann chan="nam_org_nation">0</ann>
    <ann chan="nam_liv">1</ann>
    <ann chan="nam_org">0</ann>
   </tok>
   <tok>
    <orth>przeciwko</orth>
    <lex disamb="1"><base>przeciwko</base><ctag>prep:dat</ctag></lex>
    <ann chan="nam">0</ann>
    <ann chan="nam_liv_person">0</ann>
    <ann chan="nam_org_nation">0</ann>
    <ann chan="nam_liv">0</ann>
    <ann chan="nam_org">0</ann>
   </tok>
   <tok>
    <orth>niemieckiemu</orth>
    <lex disamb="1"><base>niemiecki</base><ctag>subst:sg:dat:m3</ctag></lex>
    <ann chan="nam">0</ann>
    <ann chan="nam_liv_person">0</ann>
    <ann chan="nam_org_nation">0</ann>
    <ann chan="nam_liv">0</ann>
    <ann chan="nam_org">0</ann>
   </tok>
   <tok>
    <orth>biznesmenowi</orth>
    <lex disamb="1"><base>biznesmen</base><ctag>subst:sg:dat:m1</ctag></lex>
    <ann chan="nam">0</ann>
    <ann chan="nam_liv_person">0</ann>
    <ann chan="nam_org_nation">0</ann>
    <ann chan="nam_liv">0</ann>
    <ann chan="nam_org">0</ann>
   </tok>
   <tok>
    <orth>Hansowi</orth>
    <lex disamb="1"><base>Hans</base><ctag>subst:sg:dat:m1</ctag></lex>
    <ann chan="nam">2</ann>
    <ann chan="nam_liv_person">2</ann>
    <ann chan="nam_org_nation">0</ann>
    <ann chan="nam_liv">2</ann>
    <ann chan="nam_org">0</ann>
   </tok>
   <tok>
    <orth>G</orth>
    <lex disamb="1"><base>gram</base><ctag>brev:npun</ctag></lex>
    <ann chan="nam">0</ann>
    <ann chan="nam_liv_person">2</ann>
    <ann chan="nam_org_nation">0</ann>
    <ann chan="nam_liv">2</ann>
    <ann chan="nam_org">0</ann>
   </tok>
   <ns/>
   <tok>
    <orth>.</orth>
    <lex disamb="1"><base>.</base><ctag>interp</ctag></lex>
    <ann chan="nam">0</ann>
    <ann chan="nam_liv_person">0</ann>
    <ann chan="nam_org_nation">0</ann>
    <ann chan="nam_liv">0</ann>
    <ann chan="nam_org">0</ann>
   </tok>
   <ns/>
   <tok>
    <orth>,</orth>
    <lex disamb="1"><base>,</base><ctag>interp</ctag></lex>
    <ann chan="nam">0</ann>
    <ann chan="nam_liv_person">0</ann>
    <ann chan="nam_org_nation">0</ann>
    <ann chan="nam_liv">0</ann>
    <ann chan="nam_org">0</ann>
   </tok>
   <tok>
    <orth>który</orth>
    <lex disamb="1"><base>który</base><ctag>adj:sg:nom:m1:pos</ctag></lex>
    <ann chan="nam">0</ann>
    <ann chan="nam_liv_person">0</ann>
    <ann chan="nam_org_nation">0</ann>
    <ann chan="nam_liv">0</ann>
    <ann chan="nam_org">0</ann>
   </tok>
   <tok>
    <orth>miał</orth>
    <lex disamb="1"><base>miał</base><ctag>subst:sg:nom:m3</ctag></lex>
    <ann chan="nam">0</ann>
    <ann chan="nam_liv_person">0</ann>
    <ann chan="nam_org_nation">0</ann>
    <ann chan="nam_liv">0</ann>
    <ann chan="nam_org">0</ann>
   </tok>
   <tok>
    <orth>wobec</orth>
    <lex disamb="1"><base>wobec</base><ctag>adv:pos</ctag></lex>
    <ann chan="nam">0</ann>
    <ann chan="nam_liv_person">0</ann>
    <ann chan="nam_org_nation">0</ann>
    <ann chan="nam_liv">0</ann>
    <ann chan="nam_org">0</ann>
   </tok>
   <tok>
    <orth>swoich</orth>
    <lex disamb="1"><base>swoje</base><ctag>subst:pl:gen:n</ctag></lex>
    <ann chan="nam">0</ann>
    <ann chan="nam_liv_person">0</ann>
    <ann chan="nam_org_nation">0</ann>
    <ann chan="nam_liv">0</ann>
    <ann chan="nam_org">0</ann>
   </tok>
   <tok>
    <orth>pracowników</orth>
    <lex disamb="1"><base>pracownik</base><ctag>subst:pl:gen:m1</ctag></lex>
    <ann chan="nam">0</ann>
    <ann chan="nam_liv_person">0</ann>
    <ann chan="nam_org_nation">0</ann>
    <ann chan="nam_liv">0</ann>
    <ann chan="nam_org">0</ann>
   </tok>
   <tok>
    <orth>–</orth>
    <lex disamb="1"><base>–</base><ctag>interp</ctag></lex>
    <ann chan="nam">0</ann>
    <ann chan="nam_liv_person">0</ann>
    <ann chan="nam_org_nation">0</ann>
    <ann chan="nam_liv">0</ann>
    <ann chan="nam_org">0</ann>
   </tok>
   <tok>
    <orth>Polaków</orth>
    <lex disamb="1"><base>Polak</base><ctag>subst:pl:gen:m1</ctag></lex>
    <ann chan="nam">3</ann>
    <ann chan="nam_liv_person">0</ann>
    <ann chan="nam_org_nation">1</ann>
    <ann chan="nam_liv">0</ann>
    <ann chan="nam_org">1</ann>
   </tok>
   <tok>
    <orth>–</orth>
    <lex disamb="1"><base>–</base><ctag>interp</ctag></lex>
    <ann chan="nam">0</ann>
    <ann chan="nam_liv_person">0</ann>
    <ann chan="nam_org_nation">0</ann>
    <ann chan="nam_liv">0</ann>
    <ann chan="nam_org">0</ann>
   </tok>
   <tok>
    <orth>używać</orth>
    <lex disamb="1"><base>używać</base><ctag>inf:imperf</ctag></lex>
    <ann chan="nam">0</ann>
    <ann chan="nam_liv_person">0</ann>
    <ann chan="nam_org_nation">0</ann>
    <ann chan="nam_liv">0</ann>
    <ann chan="nam_org">0</ann>
   </tok>
   <tok>
    <orth>poniżających</orth>
    <lex disamb="1"><base>poniżający</base><ctag>adj:pl:gen:m1:pos</ctag></lex>
    <ann chan="nam">0</ann>
    <ann chan="nam_liv_person">0</ann>
    <ann chan="nam_org_nation">0</ann>
    <ann chan="nam_liv">0</ann>
    <ann chan="nam_org">0</ann>
   </tok>
   <tok>
    <orth>sformułowań</orth>
    <lex disamb="1"><base>sformułowanie</base><ctag>subst:pl:gen:n</ctag></lex>
    <ann chan="nam">0</ann>
    <ann chan="nam_liv_person">0</ann>
    <ann chan="nam_org_nation">0</ann>
    <ann chan="nam_liv">0</ann>
    <ann chan="nam_org">0</ann>
   </tok>
   <ns/>
   <tok>
    <orth>,</orth>
    <lex disamb="1"><base>,</base><ctag>interp</ctag></lex>
    <ann chan="nam">0</ann>
    <ann chan="nam_liv_person">0</ann>
    <ann chan="nam_org_nation">0</ann>
    <ann chan="nam_liv">0</ann>
    <ann chan="nam_org">0</ann>
   </tok>
   <tok>
    <orth>zaś</orth>
    <lex disamb="1"><base>zaś</base><ctag>conj</ctag></lex>
    <ann chan="nam">0</ann>
    <ann chan="nam_liv_person">0</ann>
    <ann chan="nam_org_nation">0</ann>
    <ann chan="nam_liv">0</ann>
    <ann chan="nam_org">0</ann>
   </tok>
   <tok>
    <orth>wobec</orth>
    <lex disamb="1"><base>wobec</base><ctag>adv:pos</ctag></lex>
    <ann chan="nam">0</ann>
    <ann chan="nam_liv_person">0</ann>
    <ann chan="nam_org_nation">0</ann>
    <ann chan="nam_liv">0</ann>
    <ann chan="nam_org">0</ann>
   </tok>
   <tok>
    <orth>samej</orth>
    <lex disamb="1"><base>sam</base><ctag>adj:sg:gen:f:pos</ctag></lex>
    <ann chan="nam">0</ann>
    <ann chan="nam_liv_person">0</ann>
    <ann chan="nam_org_nation">0</ann>
    <ann chan="nam_liv">0</ann>
    <ann chan="nam_org">0</ann>
   </tok>
   <tok>
    <orth>powódki</orth>
    <lex disamb="1"><base>powódka</base><ctag>subst:sg:gen:f</ctag></lex>
    <ann chan="nam">0</ann>
    <ann chan="nam_liv_person">0</ann>
    <ann chan="nam_org_nation">0</ann>
    <ann chan="nam_liv">0</ann>
    <ann chan="nam_org">0</ann>
   </tok>
   <tok>
    <orth>stosować</orth>
    <lex disamb="1"><base>stosować</base><ctag>inf:imperf</ctag></lex>
    <ann chan="nam">0</ann>
    <ann chan="nam_liv_person">0</ann>
    <ann chan="nam_org_nation">0</ann>
    <ann chan="nam_liv">0</ann>
    <ann chan="nam_org">0</ann>
   </tok>
   <tok>
    <orth>również</orth>
    <lex disamb="1"><base>również</base><ctag>qub</ctag></lex>
    <ann chan="nam">0</ann>
    <ann chan="nam_liv_person">0</ann>
    <ann chan="nam_org_nation">0</ann>
    <ann chan="nam_liv">0</ann>
    <ann chan="nam_org">0</ann>
   </tok>
   <tok>
    <orth>groźby</orth>
    <lex disamb="1"><base>groźba</base><ctag>subst:sg:gen:f</ctag></lex>
    <ann chan="nam">0</ann>
    <ann chan="nam_liv_person">0</ann>
    <ann chan="nam_org_nation">0</ann>
    <ann chan="nam_liv">0</ann>
    <ann chan="nam_org">0</ann>
   </tok>
   <ns/>
   <tok>
    <orth>.</orth>
    <lex disamb="1"><base>.</base><ctag>interp</ctag></lex>
    <ann chan="nam">0</ann>
    <ann chan="nam_liv_person">0</ann>
    <ann chan="nam_org_nation">0</ann>
    <ann chan="nam_liv">0</ann>
    <ann chan="nam_org">0</ann>
   </tok>
  </sentence>
 </chunk>
 <chunk type="p" id="ch2">
  <sentence id="s2">
   <tok>
    <orth>–</orth>
    <lex disamb="1"><base>–</base><ctag>interp</ctag></lex>
   </tok>
   <ns/>
   <tok>
    <orth>Sam</orth>
    <lex disamb="1"><base>sam</base><ctag>adv:pos</ctag></lex>
   </tok>
   <tok>
    <orth>siebie</orth>
    <lex disamb="1"><base>siebie</base><ctag>siebie:gen</ctag></lex>
   </tok>
   <tok>
    <orth>zwie</orth>
    <lex disamb="1"><base>zew</base><ctag>subst:sg:loc:m3</ctag></lex>
   </tok>
   <tok>
    <orth>nazistą</orth>
    <lex disamb="1"><base>nazista</base><ctag>subst:sg:inst:m1</ctag></lex>
   </tok>
   <ns/>
   <tok>
    <orth>.</orth>
    <lex disamb="1"><base>.</base><ctag>interp</ctag></lex>
   </tok>
  </sentence>
 </chunk>
 <chunk type="p" id="ch3">
  <sentence id="s3">
   <tok>
    <orth>Nawołuje</orth>
    <lex disamb="1"><base>nawoływać</base><ctag>fin:sg:ter:imperf</ctag></lex>
    <ann chan="nam">0</ann>
    <ann chan="nam_org_nation">0</ann>
    <ann chan="nam_org">0</ann>
   </tok>
   <tok>
    <orth>do</orth>
    <lex disamb="1"><base>do</base><ctag>prep:gen</ctag></lex>
    <ann chan="nam">0</ann>
    <ann chan="nam_org_nation">0</ann>
    <ann chan="nam_org">0</ann>
   </tok>
   <tok>
    <orth>zabijania</orth>
    <lex disamb="1"><base>zabijać</base><ctag>ger:sg:gen:n:imperf:aff</ctag></lex>
    <ann chan="nam">0</ann>
    <ann chan="nam_org_nation">0</ann>
    <ann chan="nam_org">0</ann>
   </tok>
   <tok>
    <orth>Polaków</orth>
    <lex disamb="1"><base>Polak</base><ctag>subst:pl:gen:m1</ctag></lex>
    <ann chan="nam">1</ann>
    <ann chan="nam_org_nation">1</ann>
    <ann chan="nam_org">1</ann>
   </tok>
  </sentence>
 </chunk>
</chunkList>