<?xml version="1.0" encoding="UTF-8"?>
<!DOCTYPE chunkList SYSTEM "ccl.dtd">
<chunkList>
 <chunk type="p" id="ch1">
  <sentence id="s1">
   <tok>
    <orth>Państwowe</orth>
    <lex disamb="1"><base>państwowy</base><ctag>adj:sg:nom:n:pos</ctag></lex>
   </tok>
   <tok>
    <orth>w</orth>
    <lex disamb="1"><base>w</base><ctag>prep:acc:nwok</ctag></lex>
   </tok>
   <tok>
    <orth>pełni</orth>
    <lex disamb="1"><base>pełnia</base><ctag>subst:sg:gen:f</ctag></lex>
   </tok>
   <tok>
    <orth>legalne</orth>
    <lex disamb="1"><base>legalny</base><ctag>adj:sg:nom:n:pos</ctag></lex>
   </tok>
   <ns/>
   <tok>
    <orth>,</orth>
    <lex disamb="1"><base>,</base><ctag>interp</ctag></lex>
   </tok>
   <tok>
    <orth>narodowe</orth>
    <lex disamb="1"><base>narodowy</base><ctag>adj:sg:nom:n:pos</ctag></lex>
   </tok>
   <tok>
    <orth>kasyno</orth>
    <lex disamb="1"><base>kasyno</base><ctag>subst:sg:nom:n</ctag></lex>
   </tok>
   <tok>
    <orth>już</orth>
    <lex disamb="1"><base>już</base><ctag>qub</ctag></lex>
   </tok>
   <tok>
    <orth>działa</orth>
    <lex disamb="1"><base>działo</base><ctag>subst:sg:gen:n</ctag></lex>
   </tok>
   <ns/>
   <tok>
    <orth>.</orth>
    <lex disamb="1"><base>.</base><ctag>interp</ctag></lex>
   </tok>
  </sentence>
 </chunk>
 <chunk type="p" id="ch2">
  <sentence id="s2">
   <tok>
    <orth>Można</orth>
    <lex disamb="1"><base>można</base><ctag>pred</ctag></lex>
   </tok>
   <tok>
    <orth>tracić</orth>
    <lex disamb="1"><base>tracić</base><ctag>inf:imperf</ctag></lex>
   </tok>
   <tok>
    <orth>cebuliony</orth>
    <lex disamb="1"><base>cebuliony</base><ctag>ign</ctag></lex>
   </tok>
   <tok>
    <orth>w</orth>
    <lex disamb="1"><base>w</base><ctag>prep:acc:nwok</ctag></lex>
   </tok>
   <tok>
    <orth>świetle</orth>
    <lex disamb="1"><base>światło</base><ctag>subst:sg:loc:n</ctag></lex>
   </tok>
   <tok>
    <orth>prawa</orth>
    <lex disamb="1"><base>prawa</base><ctag>subst:sg:nom:f</ctag></lex>
   </tok>
   <tok>
    <orth>i</orth>
    <lex disamb="1"><base>i</base><ctag>conj</ctag></lex>
   </tok>
   <tok>
    <orth>sprawiedliwości</orth>
    <lex disamb="1"><base>sprawiedliwość</base><ctag>subst:sg:gen:f</ctag></lex>
   </tok>
   <ns/>
   <tok>
    <orth>.</orth>
    <lex disamb="1"><base>.</base><ctag>interp</ctag></lex>
   </tok>
  </sentence>
 </chunk>
</chunkList>