<?xml version="1.0" encoding="UTF-8"?>
<!DOCTYPE chunkList SYSTEM "ccl.dtd">
<chunkList>
 <chunk type="p" id="ch1">
  <sentence id="s1">
   <tok>
    <orth>Brajanek</orth>
    <lex disamb="1"><base>Brajanek</base><ctag>ign</ctag></lex>
   </tok>
   <tok>
    <orth>chce</orth>
    <lex disamb="1"><base>chcieć</base><ctag>fin:sg:ter:imperf</ctag></lex>
   </tok>
   <tok>
    <orth>siusiu</orth>
    <lex disamb="1"><base>siusiu</base><ctag>subst:sg:nom:n</ctag></lex>
   </tok>
   <ns/>
   <tok>
    <orth>,</orth>
    <lex disamb="1"><base>,</base><ctag>interp</ctag></lex>
   </tok>
   <tok>
    <orth>a</orth>
    <lex disamb="1"><base>a</base><ctag>conj</ctag></lex>
   </tok>
   <tok>
    <orth>Karynka</orth>
    <lex disamb="1"><base>Karynka</base><ctag>ign</ctag></lex>
   </tok>
   <tok>
    <orth>nie</orth>
    <lex disamb="1"><base>nie</base><ctag>conj</ctag></lex>
   </tok>
   <tok>
    <orth>potrafi</orth>
    <lex disamb="1"><base>potrafić</base><ctag>fin:sg:ter:imperf</ctag></lex>
   </tok>
   <tok>
    <orth>go</orth>
    <lex disamb="1"><base>go</base><ctag>subst:sg:nom:n</ctag></lex>
   </tok>
   <tok>
    <orth>upilnować</orth>
    <lex disamb="1"><base>upilnować</base><ctag>inf:perf</ctag></lex>
   </tok>
   <ns/>
   <tok>
    <orth>.</orth>
    <lex disamb="1"><base>.</base><ctag>interp</ctag></lex>
   </tok>
  </sentence>
 </chunk>
 <chunk type="p" id="ch2">
  <sentence id="s2">
   <tok>
    <orth>Z</orth>
    <lex disamb="1"><base>z</base><ctag>prep:gen:nwok</ctag></lex>
    <ann chan="nam">0</ann>
    <ann chan="nam_loc_gpe_country">0</ann>
    <ann chan="nam_loc">0</ann>
   </tok>
   <tok>
    <orth>cyklu</orth>
    <lex disamb="1"><base>cykl</base><ctag>subst:sg:gen:m3</ctag></lex>
    <ann chan="nam">0</ann>
    <ann chan="nam_loc_gpe_country">0</ann>
    <ann chan="nam_loc">0</ann>
   </tok>
   <ns/>
   <tok>
    <orth>:</orth>
    <lex disamb="1"><base>:</base><ctag>interp</ctag></lex>
    <ann chan="nam">0</ann>
    <ann chan="nam_loc_gpe_country">0</ann>
    <ann chan="nam_loc">0</ann>
   </tok>
   <ns/>
   <tok>
    <orth>Kolejny</orth>
    <lex disamb="1"><base>kolejny</base><ctag>adj:sg:nom:m1:pos</ctag></lex>
    <ann chan="nam">0</ann>
    <ann chan="nam_loc_gpe_country">0</ann>
    <ann chan="nam_loc">0</ann>
   </tok>
   <tok>
    <orth>szary</orth>
    <lex disamb="1"><base>szary</base><ctag>adj:sg:nom:m1:pos</ctag></lex>
    <ann chan="nam">0</ann>
    <ann chan="nam_loc_gpe_country">0</ann>
    <ann chan="nam_loc">0</ann>
   </tok>
   <tok>
    <orth>dzień</orth>
    <lex disamb="1"><base>dzienia</base><ctag>subst:pl:gen:f</ctag></lex>
    <ann chan="nam">0</ann>
    <ann chan="nam_loc_gpe_country">0</ann>
    <ann chan="nam_loc">0</ann>
   </tok>
   <tok>
    <orth>gdzieś</orth>
    <lex disamb="1"><base>gdzieś</base><ctag>adv:pos</ctag></lex>
    <ann chan="nam">0</ann>
    <ann chan="nam_loc_gpe_country">0</ann>
    <ann chan="nam_loc">0</ann>
   </tok>
   <tok>
    <orth>w</orth>
    <lex disamb="1"><base>w</base><ctag>prep:acc:nwok</ctag></lex>
    <ann chan="nam">0</ann>
    <ann chan="nam_loc_gpe_country">0</ann>
    <ann chan="nam_loc">0</ann>
   </tok>
   <tok>
    <orth>Polsce</orth>
    <lex disamb="1"><base>Polska</base><ctag>subst:sg:dat:f</ctag></lex>
    <ann chan="nam">1</ann>
    <ann chan="nam_loc_gpe_country">1</ann>
    <ann chan="nam_loc">1</ann>
   </tok>
   <ns/>
   <tok>
    <orth>.</orth>
    <lex disamb="1"><base>.</base><ctag>interp</ctag></lex>
    <ann chan="nam">0</ann>
    <ann chan="nam_loc_gpe_country">0</ann>
    <ann chan="nam_loc">0</ann>
   </tok>
  </sentence>
 </chunk>
</chunkList>