<?xml version="1.0" encoding="UTF-8"?>
<!DOCTYPE chunkList SYSTEM "ccl.dtd">
<chunkList>
 <chunk type="p" id="ch1">
  <sentence id="s1">
   <tok>
    <orth>Jedynie</orth>
    <lex disamb="1"><base>jedynie</base><ctag>qub</ctag></lex>
   </tok>
   <tok>
    <orth>4</orth>
    <lex disamb="1"><base>4</base><ctag>num:pl:nom:m1:rec</ctag></lex>
   </tok>
   <ns/>
   <tok>
    <orth>.</orth>
    <lex disamb="1"><base>.</base><ctag>interp</ctag></lex>
   </tok>
   <ns/>
   <tok>
    <orth>77</orth>
    <lex disamb="1"><base>77</base><ctag>num:pl:nom:m1:rec</ctag></lex>
   </tok>
   <ns/>
   <tok>
    <orth>%</orth>
    <lex disamb="1"><base>%</base><ctag>interp</ctag></lex>
   </tok>
   <tok>
    <orth>kandydatów</orth>
    <lex disamb="1"><base>kandydat</base><ctag>subst:pl:gen:m1</ctag></lex>
   </tok>
   <tok>
    <orth>na</orth>
    <lex disamb="1"><base>na</base><ctag>prep:acc</ctag></lex>
   </tok>
   <tok>
    <orth>stanowisko</orth>
    <lex disamb="1"><base>stanowisko</base><ctag>subst:sg:nom:n</ctag></lex>
   </tok>
   <tok>
    <orth>programisty</orth>
    <lex disamb="1"><base>programista</base><ctag>subst:sg:gen:m1</ctag></lex>
   </tok>
   <tok>
    <orth>jest</orth>
    <lex disamb="1"><base>być</base><ctag>fin:sg:ter:imperf</ctag></lex>
   </tok>
   <tok>
    <orth>wstanie</orth>
    <lex disamb="1"><base>wstać</base><ctag>ger:sg:nom:n:perf:aff</ctag></lex>
   </tok>
   <tok>
    <orth>napisać</orth>
    <lex disamb="1"><base>napisać</base><ctag>inf:perf</ctag></lex>
   </tok>
   <tok>
    <orth>logicznie</orth>
    <lex disamb="1"><base>logicznie</base><ctag>adv:pos</ctag></lex>
   </tok>
   <tok>
    <orth>działający</orth>
    <lex disamb="1"><base>działać</base><ctag>pact:sg:nom:m1:imperf:aff</ctag></lex>
   </tok>
   <tok>
    <orth>skrypt</orth>
    <lex disamb="1"><base>skrypt</base><ctag>subst:sg:nom:m3</ctag></lex>
   </tok>
   <tok>
    <orth>i</orth>
    <lex disamb="1"><base>i</base><ctag>conj</ctag></lex>
   </tok>
   <tok>
    <orth>na</orth>
    <lex disamb="1"><base>na</base><ctag>prep:acc</ctag></lex>
   </tok>
   <tok>
    <orth>nim</orth>
    <lex disamb="1"><base>nim</base><ctag>comp</ctag></lex>
   </tok>
   <tok>
    <orth>działać</orth>
    <lex disamb="1"><base>działać</base><ctag>inf:imperf</ctag></lex>
   </tok>
   <ns/>
   <tok>
    <orth>.</orth>
    <lex disamb="1"><base>.</base><ctag>interp</ctag></lex>
   </tok>
  </sentence>
 </chunk>
 <chunk type="p" id="ch2">
  <sentence id="s2">
   <tok>
    <orth>Aż</orth>
    <lex disamb="1"><base>aż</base><ctag>comp</ctag></lex>
   </tok>
   <tok>
    <orth>2</orth>
    <lex disamb="1"><base>2</base><ctag>num:pl:nom:m1:rec</ctag></lex>
   </tok>
   <ns/>
   <tok>
    <orth>/</orth>
    <lex disamb="1"><base>/</base><ctag>interp</ctag></lex>
   </tok>
   <ns/>
   <tok>
    <orth>3</orth>
    <lex disamb="1"><base>3</base><ctag>num:pl:nom:m1:rec</ctag></lex>
   </tok>
   <tok>
    <orth>nie</orth>
    <lex disamb="1"><base>nie</base><ctag>conj</ctag></lex>
   </tok>
   <tok>
    <orth>potrafi</orth>
    <lex disamb="1"><base>potrafić</base><ctag>fin:sg:ter:imperf</ctag></lex>
   </tok>
   <tok>
    <orth>nawet</orth>
    <lex disamb="1"><base>nawet</base><ctag>qub</ctag></lex>
   </tok>
   <tok>
    <orth>napisać</orth>
    <lex disamb="1"><base>napisać</base><ctag>inf:perf</ctag></lex>
   </tok>
   <tok>
    <orth>kodu</orth>
    <lex disamb="1"><base>kod</base><ctag>subst:sg:gen:m3</ctag></lex>
   </tok>
   <ns/>
   <tok>
    <orth>,</orth>
    <lex disamb="1"><base>,</base><ctag>interp</ctag></lex>
   </tok>
   <tok>
    <orth>który</orth>
    <lex disamb="1"><base>który</base><ctag>adj:sg:nom:m1:pos</ctag></lex>
   </tok>
   <tok>
    <orth>wchodził</orth>
    <lex disamb="1"><base>wchodzić</base><ctag>praet:sg:m1:imperf</ctag></lex>
   </tok>
   <ns/>
   <tok>
    <orth>by</orth>
    <lex disamb="1"><base>by</base><ctag>qub</ctag></lex>
   </tok>
   <tok>
    <orth>wskład</orth>
    <lex disamb="1"><base>wskład</base><ctag>ign</ctag></lex>
   </tok>
   <tok>
    <orth>większego</orth>
    <lex disamb="1"><base>duży</base><ctag>adj:sg:gen:m1:com</ctag></lex>
    <lex disamb="1"><base>wielki</base><ctag>adj:sg:gen:m1:com</ctag></lex>
   </tok>
   <tok>
    <orth>oprogramowania</orth>
    <lex disamb="1"><base>oprogramowanie</base><ctag>subst:sg:gen:n</ctag></lex>
   </tok>
   <ns/>
   <tok>
    <orth>.</orth>
    <lex disamb="1"><base>.</base><ctag>interp</ctag></lex>
   </tok>
  </sentence>
 </chunk>
 <chunk type="p" id="ch3">
  <sentence id="s3">
   <tok>
    <orth>Sytuacja</orth>
    <lex disamb="1"><base>sytuacja</base><ctag>subst:sg:nom:f</ctag></lex>
   </tok>
   <tok>
    <orth>jest</orth>
    <lex disamb="1"><base>być</base><ctag>fin:sg:ter:imperf</ctag></lex>
   </tok>
   <tok>
    <orth>na</orth>
    <lex disamb="1"><base>na</base><ctag>prep:acc</ctag></lex>
   </tok>
   <tok>
    <orth>tyle</orth>
    <lex disamb="1"><base>tyle</base><ctag>adv:pos</ctag></lex>
   </tok>
   <tok>
    <orth>tragiczna</orth>
    <lex disamb="1"><base>tragiczny</base><ctag>adj:sg:nom:f:pos</ctag></lex>
   </tok>
   <ns/>
   <tok>
    <orth>,</orth>
    <lex disamb="1"><base>,</base><ctag>interp</ctag></lex>
   </tok>
   <tok>
    <orth>że</orth>
    <lex disamb="1"><base>że</base><ctag>comp</ctag></lex>
   </tok>
   <tok>
    <orth>z</orth>
    <lex disamb="1"><base>z</base><ctag>prep:gen:nwok</ctag></lex>
   </tok>
   <tok>
    <orth>tego</orth>
    <lex disamb="1"><base>to</base><ctag>subst:sg:gen:n</ctag></lex>
   </tok>
   <tok>
    <orth>powodu</orth>
    <lex disamb="1"><base>powód</base><ctag>subst:sg:gen:m3</ctag></lex>
   </tok>
   <tok>
    <orth>kraj</orth>
    <lex disamb="1"><base>kraj</base><ctag>subst:sg:nom:m3</ctag></lex>
   </tok>
   <tok>
    <orth>kuleje</orth>
    <lex disamb="1"><base>kuleć</base><ctag>fin:sg:ter:imperf</ctag></lex>
   </tok>
   <tok>
    <orth>pod</orth>
    <lex disamb="1"><base>pod</base><ctag>prep:acc:nwok</ctag></lex>
   </tok>
   <tok>
    <orth>względem</orth>
    <lex disamb="1"><base>względem</base><ctag>prep:gen</ctag></lex>
   </tok>
   <tok>
    <orth>technologicznym</orth>
    <lex disamb="1"><base>technologiczny</base><ctag>adj:sg:inst:m1:pos</ctag></lex>
   </tok>
   <ns/>
   <tok>
    <orth>.</orth>
    <lex disamb="1"><base>.</base><ctag>interp</ctag></lex>
   </tok>
  </sentence>
 </chunk>
</chunkList>