<?xml version="1.0" encoding="UTF-8"?>
<!DOCTYPE chunkList SYSTEM "ccl.dtd">
<chunkList>
 <chunk type="p" id="ch1">
  <sentence id="s1">
   <tok>
    <orth>Tata</orth>
    <lex disamb="1"><base>tata</base><ctag>subst:sg:nom:m1</ctag></lex>
   </tok>
   <tok>
    <orth>założył</orth>
    <lex disamb="1"><base>założyć</base><ctag>praet:sg:m1:perf</ctag></lex>
   </tok>
   <tok>
    <orth>się</orth>
    <lex disamb="1"><base>się</base><ctag>qub</ctag></lex>
   </tok>
   <tok>
    <orth>z</orth>
    <lex disamb="1"><base>z</base><ctag>prep:gen:nwok</ctag></lex>
   </tok>
   <tok>
    <orth>córką</orth>
    <lex disamb="1"><base>córka</base><ctag>subst:sg:inst:f</ctag></lex>
   </tok>
   <ns/>
   <tok>
    <orth>,</orth>
    <lex disamb="1"><base>,</base><ctag>interp</ctag></lex>
   </tok>
   <tok>
    <orth>że</orth>
    <lex disamb="1"><base>że</base><ctag>comp</ctag></lex>
   </tok>
   <tok>
    <orth>zdąży</orth>
    <lex disamb="1"><base>zdążyć</base><ctag>fin:sg:ter:perf</ctag></lex>
   </tok>
   <tok>
    <orth>wytrzeć</orth>
    <lex disamb="1"><base>wytrzeć</base><ctag>inf:perf</ctag></lex>
   </tok>
   <tok>
    <orth>wodę</orth>
    <lex disamb="1"><base>woda</base><ctag>subst:sg:acc:f</ctag></lex>
   </tok>
   <tok>
    <orth>z</orth>
    <lex disamb="1"><base>z</base><ctag>prep:gen:nwok</ctag></lex>
   </tok>
   <tok>
    <orth>podłogi</orth>
    <lex disamb="1"><base>podłoga</base><ctag>subst:sg:gen:f</ctag></lex>
   </tok>
   <tok>
    <orth>nim</orth>
    <lex disamb="1"><base>nim</base><ctag>comp</ctag></lex>
   </tok>
   <tok>
    <orth>ona</orth>
    <lex disamb="1"><base>on</base><ctag>ppron3:sg:nom:f:ter:akc:npraep</ctag></lex>
   </tok>
   <tok>
    <orth>zdąży</orth>
    <lex disamb="1"><base>zdążyć</base><ctag>fin:sg:ter:perf</ctag></lex>
   </tok>
   <tok>
    <orth>go</orth>
    <lex disamb="1"><base>go</base><ctag>subst:sg:nom:n</ctag></lex>
   </tok>
   <tok>
    <orth>ukłuć</orth>
    <lex disamb="1"><base>ukłuć</base><ctag>inf:perf</ctag></lex>
   </tok>
   <tok>
    <orth>widelcem</orth>
    <lex disamb="1"><base>widelec</base><ctag>subst:sg:inst:m3</ctag></lex>
   </tok>
   <tok>
    <orth>:</orth>
    <lex disamb="1"><base>:</base><ctag>interp</ctag></lex>
   </tok>
   <ns/>
   <tok>
    <orth>)</orth>
    <lex disamb="1"><base>)</base><ctag>interp</ctag></lex>
   </tok>
   <tok>
    <orth>(</orth>
    <lex disamb="1"><base>(</base><ctag>interp</ctag></lex>
   </tok>
   <ns/>
   <tok>
    <orth>no</orth>
    <lex disamb="1"><base>no</base><ctag>qub</ctag></lex>
   </tok>
   <tok>
    <orth>sound</orth>
    <lex disamb="1"><base>sound</base><ctag>ign</ctag></lex>
   </tok>
   <ns/>
   <tok>
    <orth>)</orth>
    <lex disamb="1"><base>)</base><ctag>interp</ctag></lex>
   </tok>
  </sentence>
 </chunk>
</chunkList>