<?xml version="1.0" encoding="UTF-8"?>
<!DOCTYPE chunkList SYSTEM "ccl.dtd">
<chunkList>
 <chunk type="p" id="ch1">
  <sentence id="s1">
   <tok>
    <orth>A</orth>
    <lex disamb="1"><base>a</base><ctag>conj</ctag></lex>
    <ann chan="nam">0</ann>
    <ann chan="nam_loc_gpe_city">0</ann>
   </tok>
   <tok>
    <orth>recent</orth>
    <lex disamb="1"><base>recent</base><ctag>subst:sg:nom:m2</ctag></lex>
    <ann chan="nam">0</ann>
    <ann chan="nam_loc_gpe_city">0</ann>
   </tok>
   <tok>
    <orth>return</orth>
    <lex disamb="1"><base>return</base><ctag>subst:sg:nom:m3</ctag></lex>
    <ann chan="nam">0</ann>
    <ann chan="nam_loc_gpe_city">0</ann>
   </tok>
   <tok>
    <orth>to</orth>
    <lex disamb="1"><base>to</base><ctag>conj</ctag></lex>
    <ann chan="nam">0</ann>
    <ann chan="nam_loc_gpe_city">0</ann>
   </tok>
   <tok>
    <orth>Leipzig</orth>
    <lex disamb="1"><base>Leipzig</base><ctag>ign</ctag></lex>
    <ann chan="nam">0</ann>
    <ann chan="nam_loc_gpe_city">0</ann>
   </tok>
   <tok>
    <orth>reminded</orth>
    <lex disamb="1"><base>reminded</base><ctag>ign</ctag></lex>
    <ann chan="nam">0</ann>
    <ann chan="nam_loc_gpe_city">0</ann>
   </tok>
   <tok>
    <orth>me</orth>
    <lex disamb="1"><base>mój</base><ctag>adj:sg:nom:n:pos</ctag></lex>
    <ann chan="nam">0</ann>
    <ann chan="nam_loc_gpe_city">0</ann>
   </tok>
   <tok>
    <orth>why</orth>
    <lex disamb="1"><base>why</base><ctag>ign</ctag></lex>
    <ann chan="nam">0</ann>
    <ann chan="nam_loc_gpe_city">0</ann>
   </tok>
   <tok>
    <orth>“</orth>
    <lex disamb="1"><base>“</base><ctag>interp</ctag></lex>
    <ann chan="nam">0</ann>
    <ann chan="nam_loc_gpe_city">0</ann>
   </tok>
   <ns/>
   <tok>
    <orth>going</orth>
    <lex disamb="1"><base>going</base><ctag>ign</ctag></lex>
    <ann chan="nam">0</ann>
    <ann chan="nam_loc_gpe_city">0</ann>
   </tok>
   <tok>
    <orth>green</orth>
    <lex disamb="1"><base>green</base><ctag>subst:sg:nom:m3</ctag></lex>
    <ann chan="nam">0</ann>
    <ann chan="nam_loc_gpe_city">0</ann>
   </tok>
   <ns/>
   <tok>
    <orth>”</orth>
    <lex disamb="1"><base>”</base><ctag>interp</ctag></lex>
    <ann chan="nam">0</ann>
    <ann chan="nam_loc_gpe_city">0</ann>
   </tok>
   <tok>
    <orth>in</orth>
    <lex disamb="1"><base>in</base><ctag>subst:sg:nom:n</ctag></lex>
    <ann chan="nam">0</ann>
    <ann chan="nam_loc_gpe_city">0</ann>
   </tok>
   <tok>
    <orth>Germany</orth>
    <lex disamb="1"><base>german</base><ctag>subst:pl:nom:m3</ctag></lex>
    <ann chan="nam">1</ann>
    <ann chan="nam_loc_gpe_city">1</ann>
   </tok>
   <tok>
    <orth>has</orth>
    <lex disamb="1"><base>Has</base><ctag>subst:sg:nom:m1</ctag></lex>
    <ann chan="nam">0</ann>
    <ann chan="nam_loc_gpe_city">0</ann>
   </tok>
   <tok>
    <orth>been</orth>
    <lex disamb="1"><base>been</base><ctag>ign</ctag></lex>
    <ann chan="nam">0</ann>
    <ann chan="nam_loc_gpe_city">0</ann>
   </tok>
   <tok>
    <orth>a</orth>
    <lex disamb="1"><base>a</base><ctag>conj</ctag></lex>
    <ann chan="nam">0</ann>
    <ann chan="nam_loc_gpe_city">0</ann>
   </tok>
   <tok>
    <orth>lot</orth>
    <lex disamb="1"><base>lot</base><ctag>subst:sg:nom:m3</ctag></lex>
    <ann chan="nam">0</ann>
    <ann chan="nam_loc_gpe_city">0</ann>
   </tok>
   <tok>
    <orth>more</orth>
    <lex disamb="1"><base>more</base><ctag>ign</ctag></lex>
    <ann chan="nam">0</ann>
    <ann chan="nam_loc_gpe_city">0</ann>
   </tok>
   <tok>
    <orth>difficult</orth>
    <lex disamb="1"><base>difficult</base><ctag>ign</ctag></lex>
    <ann chan="nam">0</ann>
    <ann chan="nam_loc_gpe_city">0</ann>
   </tok>
   <tok>
    <orth>than</orth>
    <lex disamb="1"><base>than</base><ctag>ign</ctag></lex>
    <ann chan="nam">0</ann>
    <ann chan="nam_loc_gpe_city">0</ann>
   </tok>
   <tok>
    <orth>the</orth>
    <lex disamb="1"><base>the</base><ctag>ign</ctag></lex>
    <ann chan="nam">0</ann>
    <ann chan="nam_loc_gpe_city">0</ann>
   </tok>
   <tok>
    <orth>rhetoric</orth>
    <lex disamb="1"><base>rhetoric</base><ctag>ign</ctag></lex>
    <ann chan="nam">0</ann>
    <ann chan="nam_loc_gpe_city">0</ann>
   </tok>
   <tok>
    <orth>would</orth>
    <lex disamb="1"><base>would</base><ctag>ign</ctag></lex>
    <ann chan="nam">0</ann>
    <ann chan="nam_loc_gpe_city">0</ann>
   </tok>
   <tok>
    <orth>sometimes</orth>
    <lex disamb="1"><base>sometimes</base><ctag>ign</ctag></lex>
    <ann chan="nam">0</ann>
    <ann chan="nam_loc_gpe_city">0</ann>
   </tok>
   <tok>
    <orth>suggest</orth>
    <lex disamb="1"><base>suggest</base><ctag>ign</ctag></lex>
    <ann chan="nam">0</ann>
    <ann chan="nam_loc_gpe_city">0</ann>
   </tok>
   <ns/>
   <tok>
    <orth>.</orth>
    <lex disamb="1"><base>.</base><ctag>interp</ctag></lex>
    <ann chan="nam">0</ann>
    <ann chan="nam_loc_gpe_city">0</ann>
   </tok>
  </sentence>
 </chunk>
 <chunk type="p" id="ch2">
  <sentence id="s2">
   <tok>
    <orth>My</orth>
    <lex disamb="1"><base>my</base><ctag>ppron12:pl:nom:m1:pri</ctag></lex>
    <ann chan="nam">0</ann>
    <ann chan="nam_org_company">0</ann>
    <ann chan="nam_pro">0</ann>
    <ann chan="timex">0</ann>
    <ann chan="t3_date">0</ann>
   </tok>
   <tok>
    <orth>previous</orth>
    <lex disamb="1"><base>previous</base><ctag>ign</ctag></lex>
    <ann chan="nam">0</ann>
    <ann chan="nam_org_company">0</ann>
    <ann chan="nam_pro">0</ann>
    <ann chan="timex">0</ann>
    <ann chan="t3_date">0</ann>
   </tok>
   <tok>
    <orth>visit</orth>
    <lex disamb="1"><base>visit</base><ctag>ign</ctag></lex>
    <ann chan="nam">0</ann>
    <ann chan="nam_org_company">0</ann>
    <ann chan="nam_pro">0</ann>
    <ann chan="timex">0</ann>
    <ann chan="t3_date">0</ann>
   </tok>
   <tok>
    <orth>was</orth>
    <lex disamb="1"><base>wy</base><ctag>ppron12:pl:gen:m1:sec</ctag></lex>
    <ann chan="nam">0</ann>
    <ann chan="nam_org_company">0</ann>
    <ann chan="nam_pro">0</ann>
    <ann chan="timex">0</ann>
    <ann chan="t3_date">0</ann>
   </tok>
   <tok>
    <orth>just</orth>
    <lex disamb="1"><base>Just</base><ctag>subst:sg:nom:m1</ctag></lex>
    <ann chan="nam">1</ann>
    <ann chan="nam_org_company">0</ann>
    <ann chan="nam_pro">0</ann>
    <ann chan="timex">0</ann>
    <ann chan="t3_date">0</ann>
   </tok>
   <tok>
    <orth>after</orth>
    <lex disamb="1"><base>after</base><ctag>ign</ctag></lex>
    <ann chan="nam">1</ann>
    <ann chan="nam_org_company">0</ann>
    <ann chan="nam_pro">0</ann>
    <ann chan="timex">0</ann>
    <ann chan="t3_date">0</ann>
   </tok>
   <tok>
    <orth>the</orth>
    <lex disamb="1"><base>the</base><ctag>ign</ctag></lex>
    <ann chan="nam">1</ann>
    <ann chan="nam_org_company">0</ann>
    <ann chan="nam_pro">1</ann>
    <ann chan="timex">0</ann>
    <ann chan="t3_date">0</ann>
   </tok>
   <tok>
    <orth>reunification</orth>
    <lex disamb="1"><base>reunification</base><ctag>ign</ctag></lex>
    <ann chan="nam">1</ann>
    <ann chan="nam_org_company">0</ann>
    <ann chan="nam_pro">1</ann>
    <ann chan="timex">0</ann>
    <ann chan="t3_date">0</ann>
   </tok>
   <tok>
    <orth>of</orth>
    <lex disamb="1"><base>of</base><ctag>ign</ctag></lex>
    <ann chan="nam">1</ann>
    <ann chan="nam_org_company">0</ann>
    <ann chan="nam_pro">1</ann>
    <ann chan="timex">0</ann>
    <ann chan="t3_date">0</ann>
   </tok>
   <tok>
    <orth>Germany</orth>
    <lex disamb="1"><base>german</base><ctag>subst:pl:nom:m3</ctag></lex>
    <ann chan="nam">1</ann>
    <ann chan="nam_org_company">1</ann>
    <ann chan="nam_pro">1</ann>
    <ann chan="timex">0</ann>
    <ann chan="t3_date">0</ann>
   </tok>
   <tok>
    <orth>in</orth>
    <lex disamb="1"><base>in</base><ctag>subst:sg:nom:n</ctag></lex>
    <ann chan="nam">1</ann>
    <ann chan="nam_org_company">0</ann>
    <ann chan="nam_pro">1</ann>
    <ann chan="timex">0</ann>
    <ann chan="t3_date">0</ann>
   </tok>
   <tok>
    <orth>1990</orth>
    <lex disamb="1"><base>1990</base><ctag>num:pl:nom:m1:rec</ctag></lex>
    <ann chan="nam">1</ann>
    <ann chan="nam_org_company">0</ann>
    <ann chan="nam_pro">1</ann>
    <ann chan="timex">1</ann>
    <ann chan="t3_date">1</ann>
   </tok>
   <tok>
    <orth>and</orth>
    <lex disamb="1"><base>Anda</base><ctag>subst:pl:gen:f</ctag></lex>
    <ann chan="nam">1</ann>
    <ann chan="nam_org_company">0</ann>
    <ann chan="nam_pro">1</ann>
    <ann chan="timex">0</ann>
    <ann chan="t3_date">0</ann>
   </tok>
   <tok>
    <orth>the</orth>
    <lex disamb="1"><base>the</base><ctag>ign</ctag></lex>
    <ann chan="nam">0</ann>
    <ann chan="nam_org_company">0</ann>
    <ann chan="nam_pro">0</ann>
    <ann chan="timex">0</ann>
    <ann chan="t3_date">0</ann>
   </tok>
   <tok>
    <orth>contrast</orth>
    <lex disamb="1"><base>contrast</base><ctag>ign</ctag></lex>
    <ann chan="nam">0</ann>
    <ann chan="nam_org_company">0</ann>
    <ann chan="nam_pro">0</ann>
    <ann chan="timex">0</ann>
    <ann chan="t3_date">0</ann>
   </tok>
   <tok>
    <orth>could</orth>
    <lex disamb="1"><base>could</base><ctag>ign</ctag></lex>
    <ann chan="nam">0</ann>
    <ann chan="nam_org_company">0</ann>
    <ann chan="nam_pro">0</ann>
    <ann chan="timex">0</ann>
    <ann chan="t3_date">0</ann>
   </tok>
   <tok>
    <orth>scarcely</orth>
    <lex disamb="1"><base>scarcely</base><ctag>ign</ctag></lex>
    <ann chan="nam">0</ann>
    <ann chan="nam_org_company">0</ann>
    <ann chan="nam_pro">0</ann>
    <ann chan="timex">0</ann>
    <ann chan="t3_date">0</ann>
   </tok>
   <tok>
    <orth>be</orth>
    <lex disamb="1"><base>be</base><ctag>subst:sg:nom:n</ctag></lex>
    <ann chan="nam">0</ann>
    <ann chan="nam_org_company">0</ann>
    <ann chan="nam_pro">0</ann>
    <ann chan="timex">0</ann>
    <ann chan="t3_date">0</ann>
   </tok>
   <tok>
    <orth>more</orth>
    <lex disamb="1"><base>more</base><ctag>ign</ctag></lex>
    <ann chan="nam">0</ann>
    <ann chan="nam_org_company">0</ann>
    <ann chan="nam_pro">0</ann>
    <ann chan="timex">0</ann>
    <ann chan="t3_date">0</ann>
   </tok>
   <tok>
    <orth>dramatic</orth>
    <lex disamb="1"><base>dramatic</base><ctag>ign</ctag></lex>
    <ann chan="nam">0</ann>
    <ann chan="nam_org_company">0</ann>
    <ann chan="nam_pro">0</ann>
    <ann chan="timex">0</ann>
    <ann chan="t3_date">0</ann>
   </tok>
   <ns/>
   <tok>
    <orth>.</orth>
    <lex disamb="1"><base>.</base><ctag>interp</ctag></lex>
    <ann chan="nam">0</ann>
    <ann chan="nam_org_company">0</ann>
    <ann chan="nam_pro">0</ann>
    <ann chan="timex">0</ann>
    <ann chan="t3_date">0</ann>
   </tok>
  </sentence>
 </chunk>
 <chunk type="p" id="ch3">
  <sentence id="s3">
   <tok>
    <orth>Then</orth>
    <lex disamb="1"><base>Then</base><ctag>ign</ctag></lex>
    <ann chan="nam">0</ann>
    <ann chan="nam_org_group_band">0</ann>
    <ann chan="nam_pro">0</ann>
   </tok>
   <ns/>
   <tok>
    <orth>,</orth>
    <lex disamb="1"><base>,</base><ctag>interp</ctag></lex>
    <ann chan="nam">0</ann>
    <ann chan="nam_org_group_band">0</ann>
    <ann chan="nam_pro">0</ann>
   </tok>
   <tok>
    <orth>Leipzig</orth>
    <lex disamb="1"><base>Leipzig</base><ctag>ign</ctag></lex>
    <ann chan="nam">1</ann>
    <ann chan="nam_org_group_band">1</ann>
    <ann chan="nam_pro">1</ann>
   </tok>
   <tok>
    <orth>and</orth>
    <lex disamb="1"><base>Anda</base><ctag>subst:pl:gen:f</ctag></lex>
    <ann chan="nam">1</ann>
    <ann chan="nam_org_group_band">1</ann>
    <ann chan="nam_pro">1</ann>
   </tok>
   <tok>
    <orth>the</orth>
    <lex disamb="1"><base>the</base><ctag>ign</ctag></lex>
    <ann chan="nam">1</ann>
    <ann chan="nam_org_group_band">0</ann>
    <ann chan="nam_pro">1</ann>
   </tok>
   <ns/>
   <tok>
    <orth>.</orth>
    <lex disamb="1"><base>.</base><ctag>interp</ctag></lex>
    <ann chan="nam">1</ann>
    <ann chan="nam_org_group_band">0</ann>
    <ann chan="nam_pro">1</ann>
   </tok>
   <ns/>
   <tok>
    <orth>.</orth>
    <lex disamb="1"><base>.</base><ctag>interp</ctag></lex>
    <ann chan="nam">1</ann>
    <ann chan="nam_org_group_band">0</ann>
    <ann chan="nam_pro">1</ann>
   </tok>
   <ns/>
   <tok>
    <orth>.</orth>
    <lex disamb="1"><base>.</base><ctag>interp</ctag></lex>
    <ann chan="nam">1</ann>
    <ann chan="nam_org_group_band">0</ann>
    <ann chan="nam_pro">0</ann>
   </tok>
  </sentence>
 </chunk>
</chunkList>