<?xml version="1.0" encoding="UTF-8"?>
<!DOCTYPE chunkList SYSTEM "ccl.dtd">
<chunkList>
 <chunk type="p" id="ch1">
  <sentence id="s1">
   <tok>
    <orth>Sól</orth>
    <lex disamb="1"><base>sól</base><ctag>subst:sg:nom:f</ctag></lex>
   </tok>
   <tok>
    <orth>na</orth>
    <lex disamb="1"><base>na</base><ctag>prep:acc</ctag></lex>
   </tok>
   <tok>
    <orth>drogach</orth>
    <lex disamb="1"><base>droga</base><ctag>subst:pl:loc:f</ctag></lex>
   </tok>
   <tok>
    <orth>niszczy</orth>
    <lex disamb="1"><base>niszczyć</base><ctag>fin:sg:ter:imperf</ctag></lex>
   </tok>
   <tok>
    <orth>rośliny</orth>
    <lex disamb="1"><base>roślina</base><ctag>subst:sg:gen:f</ctag></lex>
   </tok>
   <ns/>
   <tok>
    <orth>,</orth>
    <lex disamb="1"><base>,</base><ctag>interp</ctag></lex>
   </tok>
   <tok>
    <orth>okalecza</orth>
    <lex disamb="1"><base>okaleczać</base><ctag>fin:sg:ter:imperf</ctag></lex>
   </tok>
   <tok>
    <orth>zwierzęta</orth>
    <lex disamb="1"><base>zwierzę</base><ctag>subst:pl:nom:n</ctag></lex>
   </tok>
   <ns/>
   <tok>
    <orth>,</orth>
    <lex disamb="1"><base>,</base><ctag>interp</ctag></lex>
   </tok>
   <tok>
    <orth>sprzyja</orth>
    <lex disamb="1"><base>sprzyjać</base><ctag>fin:sg:ter:imperf</ctag></lex>
   </tok>
   <tok>
    <orth>korozji</orth>
    <lex disamb="1"><base>korozja</base><ctag>subst:sg:gen:f</ctag></lex>
   </tok>
   <tok>
    <orth>samochodów</orth>
    <lex disamb="1"><base>samochód</base><ctag>subst:pl:gen:m3</ctag></lex>
   </tok>
   <tok>
    <orth>i</orth>
    <lex disamb="1"><base>i</base><ctag>conj</ctag></lex>
   </tok>
   <tok>
    <orth>dróg</orth>
    <lex disamb="1"><base>droga</base><ctag>subst:pl:gen:f</ctag></lex>
   </tok>
   <ns/>
   <tok>
    <orth>.</orth>
    <lex disamb="1"><base>.</base><ctag>interp</ctag></lex>
   </tok>
  </sentence>
 </chunk>
 <chunk type="p" id="ch2">
  <sentence id="s2">
   <tok>
    <orth>Jest</orth>
    <lex disamb="1"><base>być</base><ctag>fin:sg:ter:imperf</ctag></lex>
   </tok>
   <tok>
    <orth>jednak</orth>
    <lex disamb="1"><base>jednak</base><ctag>conj</ctag></lex>
   </tok>
   <tok>
    <orth>najtańszym</orth>
    <lex disamb="1"><base>tani</base><ctag>adj:sg:inst:m1:sup</ctag></lex>
   </tok>
   <tok>
    <orth>rozwiązaniem</orth>
    <lex disamb="1"><base>rozwiązanie</base><ctag>subst:sg:inst:n</ctag></lex>
   </tok>
   <ns/>
   <tok>
    <orth>,</orth>
    <lex disamb="1"><base>,</base><ctag>interp</ctag></lex>
   </tok>
   <tok>
    <orth>więc</orth>
    <lex disamb="1"><base>więc</base><ctag>conj</ctag></lex>
   </tok>
   <tok>
    <orth>jesteśmy</orth>
    <lex disamb="1"><base>być</base><ctag>fin:pl:pri:imperf</ctag></lex>
   </tok>
   <tok>
    <orth>na</orth>
    <lex disamb="1"><base>na</base><ctag>prep:acc</ctag></lex>
   </tok>
   <tok>
    <orth>nią</orth>
    <lex disamb="1"><base>on</base><ctag>ppron3:sg:inst:f:ter:akc:npraep</ctag></lex>
   </tok>
   <tok>
    <orth>skazani</orth>
    <lex disamb="1"><base>skazany</base><ctag>subst:pl:nom:m1</ctag></lex>
   </tok>
   <ns/>
   <tok>
    <orth>.</orth>
    <lex disamb="1"><base>.</base><ctag>interp</ctag></lex>
   </tok>
  </sentence>
 </chunk>
 <chunk type="p" id="ch3">
  <sentence id="s3">
   <tok>
    <orth>Alternatywy</orth>
    <lex disamb="1"><base>alternatywa</base><ctag>subst:sg:gen:f</ctag></lex>
   </tok>
   <tok>
    <orth>są</orth>
    <lex disamb="1"><base>być</base><ctag>fin:pl:ter:imperf</ctag></lex>
   </tok>
   <tok>
    <orth>zbyt</orth>
    <lex disamb="1"><base>zbyt</base><ctag>adv:pos</ctag></lex>
   </tok>
   <tok>
    <orth>drogie</orth>
    <lex disamb="1"><base>drogi</base><ctag>adj:sg:nom:n:pos</ctag></lex>
   </tok>
   <ns/>
   <tok>
    <orth>.</orth>
    <lex disamb="1"><base>.</base><ctag>interp</ctag></lex>
   </tok>
  </sentence>
 </chunk>
</chunkList>