<?xml version="1.0" encoding="UTF-8"?>
<!DOCTYPE chunkList SYSTEM "ccl.dtd">
<chunkList>
 <chunk type="p" id="ch1">
  <sentence id="s1">
   <tok>
    <orth>i</orth>
    <lex disamb="1"><base>i</base><ctag>conj</ctag></lex>
   </tok>
   <tok>
    <orth>w</orth>
    <lex disamb="1"><base>w</base><ctag>prep:acc:nwok</ctag></lex>
   </tok>
   <tok>
    <orth>pewnym</orth>
    <lex disamb="1"><base>pewne</base><ctag>subst:sg:inst:n</ctag></lex>
   </tok>
   <tok>
    <orth>momencie</orth>
    <lex disamb="1"><base>moment</base><ctag>subst:sg:loc:m3</ctag></lex>
   </tok>
   <tok>
    <orth>do</orth>
    <lex disamb="1"><base>do</base><ctag>prep:gen</ctag></lex>
   </tok>
   <tok>
    <orth>zajęć</orth>
    <lex disamb="1"><base>zajęcia</base><ctag>subst:pl:gen:n</ctag></lex>
    <lex disamb="1"><base>zajęcie</base><ctag>subst:pl:gen:n</ctag></lex>
   </tok>
   <tok>
    <orth>wkracza</orth>
    <lex disamb="1"><base>wkraczać</base><ctag>fin:sg:ter:imperf</ctag></lex>
   </tok>
   <tok>
    <orth>niepozorny</orth>
    <lex disamb="1"><base>niepozorny</base><ctag>adj:sg:nom:m1:pos</ctag></lex>
   </tok>
   <tok>
    <orth>On</orth>
    <lex disamb="1"><base>on</base><ctag>ppron3:sg:nom:m1:ter:akc:npraep</ctag></lex>
   </tok>
   <ns/>
   <tok>
    <orth>.</orth>
    <lex disamb="1"><base>.</base><ctag>interp</ctag></lex>
   </tok>
   <ns/>
   <tok>
    <orth>.</orth>
    <lex disamb="1"><base>.</base><ctag>interp</ctag></lex>
   </tok>
   <ns/>
   <tok>
    <orth>.</orth>
    <lex disamb="1"><base>.</base><ctag>interp</ctag></lex>
   </tok>
  </sentence>
 </chunk>
</chunkList>