<?xml version="1.0" encoding="UTF-8"?>
<!DOCTYPE chunkList SYSTEM "ccl.dtd">
<chunkList>
 <chunk type="p" id="ch1">
  <sentence id="s1">
   <tok>
    <orth>Wojsko</orth>
    <lex disamb="1"><base>wojsko</base><ctag>subst:sg:nom:n</ctag></lex>
    <ann chan="nam_adj_country">0</ann>
    <ann chan="nam_adj">0</ann>
   </tok>
   <tok>
    <orth>Polskie</orth>
    <lex disamb="1"><base>polski</base><ctag>subst:pl:nom:m3</ctag></lex>
    <ann chan="nam_adj_country">1</ann>
    <ann chan="nam_adj">1</ann>
   </tok>
   <tok>
    <orth>podjęło</orth>
    <lex disamb="1"><base>podjąć</base><ctag>praet:sg:n:perf</ctag></lex>
    <ann chan="nam_adj_country">0</ann>
    <ann chan="nam_adj">0</ann>
   </tok>
   <tok>
    <orth>decyzję</orth>
    <lex disamb="1"><base>decyzja</base><ctag>subst:sg:acc:f</ctag></lex>
    <ann chan="nam_adj_country">0</ann>
    <ann chan="nam_adj">0</ann>
   </tok>
   <tok>
    <orth>o</orth>
    <lex disamb="1"><base>o</base><ctag>prep:acc</ctag></lex>
    <ann chan="nam_adj_country">0</ann>
    <ann chan="nam_adj">0</ann>
   </tok>
   <tok>
    <orth>zakończeniu</orth>
    <lex disamb="1"><base>zakończenie</base><ctag>subst:sg:dat:n</ctag></lex>
    <ann chan="nam_adj_country">0</ann>
    <ann chan="nam_adj">0</ann>
   </tok>
   <tok>
    <orth>zakupów</orth>
    <lex disamb="1"><base>zakup</base><ctag>subst:pl:gen:m3</ctag></lex>
    <ann chan="nam_adj_country">0</ann>
    <ann chan="nam_adj">0</ann>
   </tok>
   <tok>
    <orth>hełmów</orth>
    <lex disamb="1"><base>hełm</base><ctag>subst:pl:gen:m3</ctag></lex>
    <ann chan="nam_adj_country">0</ann>
    <ann chan="nam_adj">0</ann>
   </tok>
   <tok>
    <orth>wz</orth>
    <lex disamb="1"><base>wzorowy</base><ctag>brev:pun</ctag></lex>
    <ann chan="nam_adj_country">0</ann>
    <ann chan="nam_adj">0</ann>
   </tok>
   <ns/>
   <tok>
    <orth>.</orth>
    <lex disamb="1"><base>.</base><ctag>interp</ctag></lex>
    <ann chan="nam_adj_country">0</ann>
    <ann chan="nam_adj">0</ann>
   </tok>
  </sentence>
 </chunk>
 <chunk type="p" id="ch2">
  <sentence id="s2">
   <tok>
    <orth>2005</orth>
    <lex disamb="1"><base>2005</base><ctag>num:pl:nom:m1:rec</ctag></lex>
    <ann chan="timex">1</ann>
    <ann chan="t3_date">1</ann>
   </tok>
   <ns/>
   <tok>
    <orth>.</orth>
    <lex disamb="1"><base>.</base><ctag>interp</ctag></lex>
    <ann chan="timex">0</ann>
    <ann chan="t3_date">0</ann>
   </tok>
  </sentence>
 </chunk>
 <chunk type="p" id="ch3">
  <sentence id="s3">
   <tok>
    <orth>Zastąpią</orth>
    <lex disamb="1"><base>zastąpić</base><ctag>fin:pl:ter:perf</ctag></lex>
   </tok>
   <tok>
    <orth>go</orth>
    <lex disamb="1"><base>go</base><ctag>subst:sg:nom:n</ctag></lex>
   </tok>
   <tok>
    <orth>w</orth>
    <lex disamb="1"><base>w</base><ctag>prep:acc:nwok</ctag></lex>
   </tok>
   <tok>
    <orth>linii</orth>
    <lex disamb="1"><base>linia</base><ctag>subst:sg:gen:f</ctag></lex>
   </tok>
   <tok>
    <orth>dwa</orth>
    <lex disamb="1"><base>dwa</base><ctag>num:pl:nom:m1:rec</ctag></lex>
    <lex disamb="1"><base>dwa</base><ctag>num:pl:nom:m1:rec</ctag></lex>
    <lex disamb="1"><base>dwa</base><ctag>num:pl:nom:m1:rec</ctag></lex>
    <lex disamb="1"><base>dwa</base><ctag>num:pl:nom:m1:rec</ctag></lex>
    <lex disamb="1"><base>dwa</base><ctag>num:pl:nom:m1:rec</ctag></lex>
    <lex disamb="1"><base>dwa</base><ctag>num:pl:nom:m1:rec</ctag></lex>
    <lex disamb="1"><base>dwa</base><ctag>num:pl:nom:m1:rec</ctag></lex>
    <lex disamb="1"><base>dwa</base><ctag>num:pl:nom:m1:rec</ctag></lex>
    <lex disamb="1"><base>dwa</base><ctag>num:pl:nom:m1:rec</ctag></lex>
   </tok>
   <tok>
    <orth>nowe</orth>
    <lex disamb="1"><base>nowa</base><ctag>subst:pl:nom:f</ctag></lex>
   </tok>
   <tok>
    <orth>modele</orth>
    <lex disamb="1"><base>model</base><ctag>subst:pl:nom:m1</ctag></lex>
   </tok>
   <tok>
    <orth>kompozytowych</orth>
    <lex disamb="1"><base>kompozytowy</base><ctag>adj:pl:gen:m1:pos</ctag></lex>
   </tok>
   <tok>
    <orth>osłon</orth>
    <lex disamb="1"><base>osłona</base><ctag>subst:pl:gen:f</ctag></lex>
   </tok>
   <tok>
    <orth>głowy</orth>
    <lex disamb="1"><base>głowa</base><ctag>subst:sg:gen:f</ctag></lex>
   </tok>
   <ns/>
   <tok>
    <orth>,</orth>
    <lex disamb="1"><base>,</base><ctag>interp</ctag></lex>
   </tok>
   <tok>
    <orth>lepiej</orth>
    <lex disamb="1"><base>dobrze</base><ctag>adv:pos</ctag></lex>
   </tok>
   <tok>
    <orth>dostosowane</orth>
    <lex disamb="1"><base>dostosować</base><ctag>ppas:sg:nom:n:perf:aff</ctag></lex>
   </tok>
   <tok>
    <orth>do</orth>
    <lex disamb="1"><base>do</base><ctag>prep:gen</ctag></lex>
   </tok>
   <tok>
    <orth>wymagań</orth>
    <lex disamb="1"><base>wymaganie</base><ctag>subst:pl:gen:n</ctag></lex>
   </tok>
   <tok>
    <orth>współczesnego</orth>
    <lex disamb="1"><base>współczesny</base><ctag>subst:sg:gen:m1</ctag></lex>
   </tok>
   <tok>
    <orth>pola</orth>
    <lex disamb="1"><base>pole</base><ctag>subst:sg:gen:n</ctag></lex>
   </tok>
   <tok>
    <orth>walki</orth>
    <lex disamb="1"><base>walka</base><ctag>subst:sg:gen:f</ctag></lex>
   </tok>
   <ns/>
   <tok>
    <orth>.</orth>
    <lex disamb="1"><base>.</base><ctag>interp</ctag></lex>
   </tok>
  </sentence>
 </chunk>
 <chunk type="p" id="ch4">
  <sentence id="s4">
   <tok>
    <orth>Docelowo</orth>
    <lex disamb="1"><base>docelowo</base><ctag>adv:pos</ctag></lex>
   </tok>
   <tok>
    <orth>ma</orth>
    <lex disamb="1"><base>mój</base><ctag>adj:sg:nom:f:pos</ctag></lex>
   </tok>
   <tok>
    <orth>to</orth>
    <lex disamb="1"><base>to</base><ctag>conj</ctag></lex>
   </tok>
   <tok>
    <orth>zapewnić</orth>
    <lex disamb="1"><base>zapewnić</base><ctag>inf:perf</ctag></lex>
   </tok>
   <tok>
    <orth>wycofanie</orth>
    <lex disamb="1"><base>wycofanie</base><ctag>subst:sg:nom:n</ctag></lex>
   </tok>
   <tok>
    <orth>hełmów</orth>
    <lex disamb="1"><base>hełm</base><ctag>subst:pl:gen:m3</ctag></lex>
   </tok>
   <tok>
    <orth>stalowych</orth>
    <lex disamb="1"><base>stalowy</base><ctag>adj:pl:gen:m1:pos</ctag></lex>
   </tok>
   <tok>
    <orth>wz</orth>
    <lex disamb="1"><base>wzorowy</base><ctag>brev:pun</ctag></lex>
   </tok>
   <ns/>
   <tok>
    <orth>.</orth>
    <lex disamb="1"><base>.</base><ctag>interp</ctag></lex>
   </tok>
  </sentence>
 </chunk>
 <chunk type="p" id="ch5">
  <sentence id="s5">
   <tok>
    <orth>67</orth>
    <lex disamb="1"><base>67</base><ctag>num:pl:nom:m1:rec</ctag></lex>
   </tok>
   <ns/>
   <tok>
    <orth>.</orth>
    <lex disamb="1"><base>.</base><ctag>interp</ctag></lex>
   </tok>
  </sentence>
 </chunk>
</chunkList>