<?xml version="1.0" encoding="UTF-8"?>
<!DOCTYPE chunkList SYSTEM "ccl.dtd">
<chunkList>
 <chunk type="p" id="ch1">
  <sentence id="s1">
   <tok>
    <orth>Stado</orth>
    <lex disamb="1"><base>stado</base><ctag>subst:sg:nom:n</ctag></lex>
   </tok>
   <tok>
    <orth>atakuje</orth>
    <lex disamb="1"><base>atakować</base><ctag>fin:sg:ter:imperf</ctag></lex>
   </tok>
   <tok>
    <orth>buddystę</orth>
    <lex disamb="1"><base>buddysta</base><ctag>subst:sg:acc:m1</ctag></lex>
   </tok>
   <tok>
    <orth>myląc</orth>
    <lex disamb="1"><base>mylić</base><ctag>pcon:imperf</ctag></lex>
   </tok>
   <tok>
    <orth>tatuaż</orth>
    <lex disamb="1"><base>tatuaż</base><ctag>subst:sg:nom:m3</ctag></lex>
   </tok>
   <tok>
    <orth>na</orth>
    <lex disamb="1"><base>na</base><ctag>prep:acc</ctag></lex>
   </tok>
   <tok>
    <orth>jego</orth>
    <lex disamb="1"><base>on</base><ctag>ppron3:sg:gen:m1:ter:akc:npraep</ctag></lex>
   </tok>
   <tok>
    <orth>ciele</orth>
    <lex disamb="1"><base>ciało</base><ctag>subst:sg:loc:n</ctag></lex>
   </tok>
   <tok>
    <orth>ze</orth>
    <lex disamb="1"><base>z</base><ctag>prep:gen:wok</ctag></lex>
   </tok>
   <tok>
    <orth>swastyką</orth>
    <lex disamb="1"><base>swastyka</base><ctag>subst:sg:inst:f</ctag></lex>
   </tok>
   <tok>
    <orth>i</orth>
    <lex disamb="1"><base>i</base><ctag>conj</ctag></lex>
   </tok>
   <tok>
    <orth>oskarżając</orth>
    <lex disamb="1"><base>oskarżać</base><ctag>pcon:imperf</ctag></lex>
   </tok>
   <tok>
    <orth>go</orth>
    <lex disamb="1"><base>go</base><ctag>subst:sg:nom:n</ctag></lex>
   </tok>
   <tok>
    <orth>o</orth>
    <lex disamb="1"><base>o</base><ctag>prep:acc</ctag></lex>
   </tok>
   <tok>
    <orth>bycie</orth>
    <lex disamb="1"><base>bycie</base><ctag>subst:sg:nom:n</ctag></lex>
   </tok>
   <tok>
    <orth>nazistą</orth>
    <lex disamb="1"><base>nazista</base><ctag>subst:sg:inst:m1</ctag></lex>
   </tok>
   <ns/>
   <tok>
    <orth>.</orth>
    <lex disamb="1"><base>.</base><ctag>interp</ctag></lex>
   </tok>
  </sentence>
 </chunk>
</chunkList>