<?xml version="1.0" encoding="UTF-8"?>
<!DOCTYPE chunkList SYSTEM "ccl.dtd">
<chunkList>
 <chunk type="p" id="ch1">
  <sentence id="s1">
   <tok>
    <orth>polecam</orth>
    <lex disamb="1"><base>polecać</base><ctag>fin:sg:pri:imperf</ctag></lex>
   </tok>
   <tok>
    <orth>cały</orth>
    <lex disamb="1"><base>cały</base><ctag>adj:sg:nom:m1:pos</ctag></lex>
   </tok>
   <tok>
    <orth>kanał</orth>
    <lex disamb="1"><base>kanał</base><ctag>subst:sg:nom:m3</ctag></lex>
   </tok>
   <tok>
    <orth>bardzo</orth>
    <lex disamb="1"><base>bardzo</base><ctag>adv:pos</ctag></lex>
   </tok>
   <tok>
    <orth>relaksujące</orth>
    <lex disamb="1"><base>relaksujący</base><ctag>adj:sg:nom:n:pos</ctag></lex>
   </tok>
  </sentence>
 </chunk>
</chunkList>