<?xml version="1.0" encoding="UTF-8"?>
<!DOCTYPE chunkList SYSTEM "ccl.dtd">
<chunkList>
 <chunk type="p" id="ch1">
  <sentence id="s1">
   <tok>
    <orth>Wybrał</orth>
    <lex disamb="1"><base>wybrać</base><ctag>praet:sg:m1:perf</ctag></lex>
    <ann chan="nam">0</ann>
    <ann chan="nam_loc_gpe_country">0</ann>
    <ann chan="nam_loc_gpe_city">0</ann>
    <ann chan="nam_adj_country">0</ann>
    <ann chan="nam_loc">0</ann>
    <ann chan="nam_adj">0</ann>
   </tok>
   <ns/>
   <tok>
    <orth>em</orth>
    <lex disamb="1"><base>być</base><ctag>aglt:sg:pri:imperf:wok</ctag></lex>
    <ann chan="nam">0</ann>
    <ann chan="nam_loc_gpe_country">0</ann>
    <ann chan="nam_loc_gpe_city">0</ann>
    <ann chan="nam_adj_country">0</ann>
    <ann chan="nam_loc">0</ann>
    <ann chan="nam_adj">0</ann>
   </tok>
   <tok>
    <orth>się</orth>
    <lex disamb="1"><base>się</base><ctag>qub</ctag></lex>
    <ann chan="nam">0</ann>
    <ann chan="nam_loc_gpe_country">0</ann>
    <ann chan="nam_loc_gpe_city">0</ann>
    <ann chan="nam_adj_country">0</ann>
    <ann chan="nam_loc">0</ann>
    <ann chan="nam_adj">0</ann>
   </tok>
   <tok>
    <orth>na</orth>
    <lex disamb="1"><base>na</base><ctag>prep:acc</ctag></lex>
    <ann chan="nam">0</ann>
    <ann chan="nam_loc_gpe_country">0</ann>
    <ann chan="nam_loc_gpe_city">0</ann>
    <ann chan="nam_adj_country">0</ann>
    <ann chan="nam_loc">0</ann>
    <ann chan="nam_adj">0</ann>
   </tok>
   <tok>
    <orth>Polski</orth>
    <lex disamb="1"><base>Polska</base><ctag>subst:sg:gen:f</ctag></lex>
    <ann chan="nam">1</ann>
    <ann chan="nam_loc_gpe_country">1</ann>
    <ann chan="nam_loc_gpe_city">0</ann>
    <ann chan="nam_adj_country">0</ann>
    <ann chan="nam_loc">1</ann>
    <ann chan="nam_adj">0</ann>
   </tok>
   <tok>
    <orth>Festiwal</orth>
    <lex disamb="1"><base>festiwal</base><ctag>subst:sg:nom:m3</ctag></lex>
    <ann chan="nam">1</ann>
    <ann chan="nam_loc_gpe_country">0</ann>
    <ann chan="nam_loc_gpe_city">0</ann>
    <ann chan="nam_adj_country">0</ann>
    <ann chan="nam_loc">1</ann>
    <ann chan="nam_adj">0</ann>
   </tok>
   <tok>
    <orth>w</orth>
    <lex disamb="1"><base>w</base><ctag>prep:acc:nwok</ctag></lex>
    <ann chan="nam">0</ann>
    <ann chan="nam_loc_gpe_country">0</ann>
    <ann chan="nam_loc_gpe_city">0</ann>
    <ann chan="nam_adj_country">0</ann>
    <ann chan="nam_loc">0</ann>
    <ann chan="nam_adj">0</ann>
   </tok>
   <tok>
    <orth>Melbourne</orth>
    <lex disamb="1"><base>Melbourne</base><ctag>subst:sg:nom:n</ctag></lex>
    <ann chan="nam">2</ann>
    <ann chan="nam_loc_gpe_country">0</ann>
    <ann chan="nam_loc_gpe_city">1</ann>
    <ann chan="nam_adj_country">0</ann>
    <ann chan="nam_loc">2</ann>
    <ann chan="nam_adj">0</ann>
   </tok>
   <tok>
    <orth>w</orth>
    <lex disamb="1"><base>w</base><ctag>prep:acc:nwok</ctag></lex>
    <ann chan="nam">0</ann>
    <ann chan="nam_loc_gpe_country">0</ann>
    <ann chan="nam_loc_gpe_city">0</ann>
    <ann chan="nam_adj_country">0</ann>
    <ann chan="nam_loc">0</ann>
    <ann chan="nam_adj">0</ann>
   </tok>
   <tok>
    <orth>Australii</orth>
    <lex disamb="1"><base>Australia</base><ctag>subst:sg:gen:f</ctag></lex>
    <ann chan="nam">3</ann>
    <ann chan="nam_loc_gpe_country">2</ann>
    <ann chan="nam_loc_gpe_city">0</ann>
    <ann chan="nam_adj_country">0</ann>
    <ann chan="nam_loc">3</ann>
    <ann chan="nam_adj">0</ann>
   </tok>
   <ns/>
   <tok>
    <orth>,</orth>
    <lex disamb="1"><base>,</base><ctag>interp</ctag></lex>
    <ann chan="nam">0</ann>
    <ann chan="nam_loc_gpe_country">0</ann>
    <ann chan="nam_loc_gpe_city">0</ann>
    <ann chan="nam_adj_country">0</ann>
    <ann chan="nam_loc">0</ann>
    <ann chan="nam_adj">0</ann>
   </tok>
   <tok>
    <orth>oczywiście</orth>
    <lex disamb="1"><base>oczywiście</base><ctag>adv:pos</ctag></lex>
    <ann chan="nam">0</ann>
    <ann chan="nam_loc_gpe_country">0</ann>
    <ann chan="nam_loc_gpe_city">0</ann>
    <ann chan="nam_adj_country">0</ann>
    <ann chan="nam_loc">0</ann>
    <ann chan="nam_adj">0</ann>
   </tok>
   <tok>
    <orth>nie</orth>
    <lex disamb="1"><base>nie</base><ctag>conj</ctag></lex>
    <ann chan="nam">0</ann>
    <ann chan="nam_loc_gpe_country">0</ann>
    <ann chan="nam_loc_gpe_city">0</ann>
    <ann chan="nam_adj_country">0</ann>
    <ann chan="nam_loc">0</ann>
    <ann chan="nam_adj">0</ann>
   </tok>
   <tok>
    <orth>sam</orth>
    <lex disamb="1"><base>sam</base><ctag>adv:pos</ctag></lex>
    <ann chan="nam">0</ann>
    <ann chan="nam_loc_gpe_country">0</ann>
    <ann chan="nam_loc_gpe_city">0</ann>
    <ann chan="nam_adj_country">0</ann>
    <ann chan="nam_loc">0</ann>
    <ann chan="nam_adj">0</ann>
   </tok>
   <tok>
    <orth>-</orth>
    <lex disamb="1"><base>-</base><ctag>interp</ctag></lex>
    <ann chan="nam">0</ann>
    <ann chan="nam_loc_gpe_country">0</ann>
    <ann chan="nam_loc_gpe_city">0</ann>
    <ann chan="nam_adj_country">0</ann>
    <ann chan="nam_loc">0</ann>
    <ann chan="nam_adj">0</ann>
   </tok>
   <tok>
    <orth>zabrał</orth>
    <lex disamb="1"><base>zabrać</base><ctag>praet:sg:m1:perf</ctag></lex>
    <ann chan="nam">0</ann>
    <ann chan="nam_loc_gpe_country">0</ann>
    <ann chan="nam_loc_gpe_city">0</ann>
    <ann chan="nam_adj_country">0</ann>
    <ann chan="nam_loc">0</ann>
    <ann chan="nam_adj">0</ann>
   </tok>
   <ns/>
   <tok>
    <orth>em</orth>
    <lex disamb="1"><base>być</base><ctag>aglt:sg:pri:imperf:wok</ctag></lex>
    <ann chan="nam">0</ann>
    <ann chan="nam_loc_gpe_country">0</ann>
    <ann chan="nam_loc_gpe_city">0</ann>
    <ann chan="nam_adj_country">0</ann>
    <ann chan="nam_loc">0</ann>
    <ann chan="nam_adj">0</ann>
   </tok>
   <tok>
    <orth>ze</orth>
    <lex disamb="1"><base>z</base><ctag>prep:gen:wok</ctag></lex>
    <ann chan="nam">0</ann>
    <ann chan="nam_loc_gpe_country">0</ann>
    <ann chan="nam_loc_gpe_city">0</ann>
    <ann chan="nam_adj_country">0</ann>
    <ann chan="nam_loc">0</ann>
    <ann chan="nam_adj">0</ann>
   </tok>
   <tok>
    <orth>sobą</orth>
    <lex disamb="1"><base>siebie</base><ctag>siebie:inst</ctag></lex>
    <ann chan="nam">0</ann>
    <ann chan="nam_loc_gpe_country">0</ann>
    <ann chan="nam_loc_gpe_city">0</ann>
    <ann chan="nam_adj_country">0</ann>
    <ann chan="nam_loc">0</ann>
    <ann chan="nam_adj">0</ann>
   </tok>
   <tok>
    <orth>swoich</orth>
    <lex disamb="1"><base>swoje</base><ctag>subst:pl:gen:n</ctag></lex>
    <ann chan="nam">0</ann>
    <ann chan="nam_loc_gpe_country">0</ann>
    <ann chan="nam_loc_gpe_city">0</ann>
    <ann chan="nam_adj_country">0</ann>
    <ann chan="nam_loc">0</ann>
    <ann chan="nam_adj">0</ann>
   </tok>
   <tok>
    <orth>Tajskich</orth>
    <lex disamb="1"><base>tajski</base><ctag>adj:pl:gen:m1:pos</ctag></lex>
    <ann chan="nam">0</ann>
    <ann chan="nam_loc_gpe_country">0</ann>
    <ann chan="nam_loc_gpe_city">0</ann>
    <ann chan="nam_adj_country">1</ann>
    <ann chan="nam_loc">0</ann>
    <ann chan="nam_adj">1</ann>
   </tok>
   <tok>
    <orth>przyjaciół</orth>
    <lex disamb="1"><base>przyjaciel</base><ctag>subst:pl:gen:m1</ctag></lex>
    <ann chan="nam">0</ann>
    <ann chan="nam_loc_gpe_country">0</ann>
    <ann chan="nam_loc_gpe_city">0</ann>
    <ann chan="nam_adj_country">0</ann>
    <ann chan="nam_loc">0</ann>
    <ann chan="nam_adj">0</ann>
   </tok>
   <ns/>
   <tok>
    <orth>!</orth>
    <lex disamb="1"><base>!</base><ctag>interp</ctag></lex>
    <ann chan="nam">0</ann>
    <ann chan="nam_loc_gpe_country">0</ann>
    <ann chan="nam_loc_gpe_city">0</ann>
    <ann chan="nam_adj_country">0</ann>
    <ann chan="nam_loc">0</ann>
    <ann chan="nam_adj">0</ann>
   </tok>
  </sentence>
 </chunk>
 <chunk type="p" id="ch2">
  <sentence id="s2">
   <tok>
    <orth>:</orth>
    <lex disamb="1"><base>:</base><ctag>interp</ctag></lex>
    <ann chan="nam">0</ann>
   </tok>
   <ns/>
   <tok>
    <orth>D</orth>
    <lex disamb="1"><base>D</base><ctag>num:pl:nom:m1:rec</ctag></lex>
    <ann chan="nam">1</ann>
   </tok>
  </sentence>
 </chunk>
</chunkList>