<?xml version="1.0" encoding="UTF-8"?>
<!DOCTYPE chunkList SYSTEM "ccl.dtd">
<chunkList>
 <chunk type="p" id="ch1">
  <sentence id="s1">
   <tok>
    <orth>Ringier</orth>
    <lex disamb="1"><base>Ringier</base><ctag>ign</ctag></lex>
    <ann chan="nam">0</ann>
    <ann chan="nam_liv_person">0</ann>
    <ann chan="nam_loc_gpe_country">0</ann>
    <ann chan="nam_org_company">0</ann>
    <ann chan="nam_liv">0</ann>
    <ann chan="nam_org">0</ann>
   </tok>
   <tok>
    <orth>Axel</orth>
    <lex disamb="1"><base>axel</base><ctag>subst:sg:nom:m3</ctag></lex>
    <ann chan="nam">1</ann>
    <ann chan="nam_liv_person">1</ann>
    <ann chan="nam_loc_gpe_country">0</ann>
    <ann chan="nam_org_company">0</ann>
    <ann chan="nam_liv">1</ann>
    <ann chan="nam_org">0</ann>
   </tok>
   <tok>
    <orth>Springer</orth>
    <lex disamb="1"><base>Springer</base><ctag>subst:sg:nom:m1</ctag></lex>
    <ann chan="nam">1</ann>
    <ann chan="nam_liv_person">1</ann>
    <ann chan="nam_loc_gpe_country">0</ann>
    <ann chan="nam_org_company">0</ann>
    <ann chan="nam_liv">1</ann>
    <ann chan="nam_org">0</ann>
   </tok>
   <tok>
    <orth>Polska</orth>
    <lex disamb="1"><base>Polska</base><ctag>subst:sg:nom:f</ctag></lex>
    <ann chan="nam">1</ann>
    <ann chan="nam_liv_person">0</ann>
    <ann chan="nam_loc_gpe_country">1</ann>
    <ann chan="nam_org_company">0</ann>
    <ann chan="nam_liv">1</ann>
    <ann chan="nam_org">0</ann>
   </tok>
   <tok>
    <orth>wysłało</orth>
    <lex disamb="1"><base>wysłać</base><ctag>praet:sg:n:perf</ctag></lex>
    <ann chan="nam">0</ann>
    <ann chan="nam_liv_person">0</ann>
    <ann chan="nam_loc_gpe_country">0</ann>
    <ann chan="nam_org_company">0</ann>
    <ann chan="nam_liv">0</ann>
    <ann chan="nam_org">0</ann>
   </tok>
   <tok>
    <orth>pozew</orth>
    <lex disamb="1"><base>pozew</base><ctag>subst:sg:nom:m3</ctag></lex>
    <ann chan="nam">0</ann>
    <ann chan="nam_liv_person">0</ann>
    <ann chan="nam_loc_gpe_country">0</ann>
    <ann chan="nam_org_company">0</ann>
    <ann chan="nam_liv">0</ann>
    <ann chan="nam_org">0</ann>
   </tok>
   <tok>
    <orth>cywilny</orth>
    <lex disamb="1"><base>cywilny</base><ctag>adj:sg:nom:m1:pos</ctag></lex>
    <ann chan="nam">0</ann>
    <ann chan="nam_liv_person">0</ann>
    <ann chan="nam_loc_gpe_country">0</ann>
    <ann chan="nam_org_company">0</ann>
    <ann chan="nam_liv">0</ann>
    <ann chan="nam_org">0</ann>
   </tok>
   <tok>
    <orth>do</orth>
    <lex disamb="1"><base>do</base><ctag>prep:gen</ctag></lex>
    <ann chan="nam">0</ann>
    <ann chan="nam_liv_person">0</ann>
    <ann chan="nam_loc_gpe_country">0</ann>
    <ann chan="nam_org_company">0</ann>
    <ann chan="nam_liv">0</ann>
    <ann chan="nam_org">0</ann>
   </tok>
   <tok>
    <orth>Samuela</orth>
    <lex disamb="1"><base>Samuel</base><ctag>subst:sg:gen:m1</ctag></lex>
    <ann chan="nam">2</ann>
    <ann chan="nam_liv_person">2</ann>
    <ann chan="nam_loc_gpe_country">0</ann>
    <ann chan="nam_org_company">0</ann>
    <ann chan="nam_liv">2</ann>
    <ann chan="nam_org">0</ann>
   </tok>
   <tok>
    <orth>Pereiry</orth>
    <lex disamb="1"><base>Pereiry</base><ctag>ign</ctag></lex>
    <ann chan="nam">2</ann>
    <ann chan="nam_liv_person">2</ann>
    <ann chan="nam_loc_gpe_country">0</ann>
    <ann chan="nam_org_company">0</ann>
    <ann chan="nam_liv">2</ann>
    <ann chan="nam_org">0</ann>
   </tok>
   <ns/>
   <tok>
    <orth>,</orth>
    <lex disamb="1"><base>,</base><ctag>interp</ctag></lex>
    <ann chan="nam">0</ann>
    <ann chan="nam_liv_person">0</ann>
    <ann chan="nam_loc_gpe_country">0</ann>
    <ann chan="nam_org_company">0</ann>
    <ann chan="nam_liv">0</ann>
    <ann chan="nam_org">0</ann>
   </tok>
   <tok>
    <orth>szefa</orth>
    <lex disamb="1"><base>szef</base><ctag>subst:sg:gen:m1</ctag></lex>
    <ann chan="nam">0</ann>
    <ann chan="nam_liv_person">0</ann>
    <ann chan="nam_loc_gpe_country">0</ann>
    <ann chan="nam_org_company">0</ann>
    <ann chan="nam_liv">0</ann>
    <ann chan="nam_org">0</ann>
   </tok>
   <tok>
    <orth>portalu</orth>
    <lex disamb="1"><base>portal</base><ctag>subst:sg:gen:m3</ctag></lex>
    <ann chan="nam">0</ann>
    <ann chan="nam_liv_person">0</ann>
    <ann chan="nam_loc_gpe_country">0</ann>
    <ann chan="nam_org_company">0</ann>
    <ann chan="nam_liv">0</ann>
    <ann chan="nam_org">0</ann>
   </tok>
   <tok>
    <orth>TVP</orth>
    <lex disamb="1"><base>TVP</base><ctag>subst:sg:nom:f</ctag></lex>
    <ann chan="nam">3</ann>
    <ann chan="nam_liv_person">0</ann>
    <ann chan="nam_loc_gpe_country">0</ann>
    <ann chan="nam_org_company">1</ann>
    <ann chan="nam_liv">0</ann>
    <ann chan="nam_org">1</ann>
   </tok>
   <ns/>
   <tok>
    <orth>.</orth>
    <lex disamb="1"><base>.</base><ctag>interp</ctag></lex>
    <ann chan="nam">0</ann>
    <ann chan="nam_liv_person">0</ann>
    <ann chan="nam_loc_gpe_country">0</ann>
    <ann chan="nam_org_company">0</ann>
    <ann chan="nam_liv">0</ann>
    <ann chan="nam_org">0</ann>
   </tok>
   <ns/>
  </sentence>
 </chunk>
 <chunk type="p" id="ch2">
  <sentence id="s2">
   <tok>
    <orth>Info</orth>
    <lex disamb="1"><base>info</base><ctag>subst:sg:nom:n</ctag></lex>
    <ann chan="nam">0</ann>
    <ann chan="nam_org_company">0</ann>
    <ann chan="nam_pro_brand">0</ann>
    <ann chan="nam_org">0</ann>
    <ann chan="nam_pro">0</ann>
   </tok>
   <tok>
    <orth>za</orth>
    <lex disamb="1"><base>za</base><ctag>qub</ctag></lex>
    <ann chan="nam">0</ann>
    <ann chan="nam_org_company">0</ann>
    <ann chan="nam_pro_brand">0</ann>
    <ann chan="nam_org">0</ann>
    <ann chan="nam_pro">0</ann>
   </tok>
   <tok>
    <orth>jego</orth>
    <lex disamb="1"><base>on</base><ctag>ppron3:sg:gen:m1:ter:akc:npraep</ctag></lex>
    <ann chan="nam">0</ann>
    <ann chan="nam_org_company">0</ann>
    <ann chan="nam_pro_brand">0</ann>
    <ann chan="nam_org">0</ann>
    <ann chan="nam_pro">0</ann>
   </tok>
   <tok>
    <orth>krytyczne</orth>
    <lex disamb="1"><base>krytyczny</base><ctag>adj:sg:nom:n:pos</ctag></lex>
    <ann chan="nam">0</ann>
    <ann chan="nam_org_company">0</ann>
    <ann chan="nam_pro_brand">0</ann>
    <ann chan="nam_org">0</ann>
    <ann chan="nam_pro">0</ann>
   </tok>
   <tok>
    <orth>wpisy</orth>
    <lex disamb="1"><base>wpis</base><ctag>subst:pl:nom:m3</ctag></lex>
    <ann chan="nam">0</ann>
    <ann chan="nam_org_company">0</ann>
    <ann chan="nam_pro_brand">0</ann>
    <ann chan="nam_org">0</ann>
    <ann chan="nam_pro">0</ann>
   </tok>
   <tok>
    <orth>z</orth>
    <lex disamb="1"><base>z</base><ctag>prep:gen:nwok</ctag></lex>
    <ann chan="nam">0</ann>
    <ann chan="nam_org_company">0</ann>
    <ann chan="nam_pro_brand">0</ann>
    <ann chan="nam_org">0</ann>
    <ann chan="nam_pro">0</ann>
   </tok>
   <tok>
    <orth>Facebooka</orth>
    <lex disamb="1"><base>facebook</base><ctag>subst:sg:gen:m2</ctag></lex>
    <ann chan="nam">1</ann>
    <ann chan="nam_org_company">1</ann>
    <ann chan="nam_pro_brand">0</ann>
    <ann chan="nam_org">1</ann>
    <ann chan="nam_pro">0</ann>
   </tok>
   <tok>
    <orth>i</orth>
    <lex disamb="1"><base>i</base><ctag>conj</ctag></lex>
    <ann chan="nam">0</ann>
    <ann chan="nam_org_company">0</ann>
    <ann chan="nam_pro_brand">0</ann>
    <ann chan="nam_org">0</ann>
    <ann chan="nam_pro">0</ann>
   </tok>
   <tok>
    <orth>Twittera</orth>
    <lex disamb="1"><base>twitter</base><ctag>subst:sg:gen:m2</ctag></lex>
    <ann chan="nam">2</ann>
    <ann chan="nam_org_company">0</ann>
    <ann chan="nam_pro_brand">1</ann>
    <ann chan="nam_org">0</ann>
    <ann chan="nam_pro">1</ann>
   </tok>
   <ns/>
   <tok>
    <orth>,</orth>
    <lex disamb="1"><base>,</base><ctag>interp</ctag></lex>
    <ann chan="nam">0</ann>
    <ann chan="nam_org_company">0</ann>
    <ann chan="nam_pro_brand">0</ann>
    <ann chan="nam_org">0</ann>
    <ann chan="nam_pro">0</ann>
   </tok>
   <tok>
    <orth>dotyczące</orth>
    <lex disamb="1"><base>dotyczyć</base><ctag>pact:sg:nom:n:imperf:aff</ctag></lex>
    <ann chan="nam">0</ann>
    <ann chan="nam_org_company">0</ann>
    <ann chan="nam_pro_brand">0</ann>
    <ann chan="nam_org">0</ann>
    <ann chan="nam_pro">0</ann>
   </tok>
   <tok>
    <orth>publikacji</orth>
    <lex disamb="1"><base>publikacja</base><ctag>subst:sg:gen:f</ctag></lex>
    <ann chan="nam">0</ann>
    <ann chan="nam_org_company">0</ann>
    <ann chan="nam_pro_brand">0</ann>
    <ann chan="nam_org">0</ann>
    <ann chan="nam_pro">0</ann>
   </tok>
   <ns/>
   <tok>
    <orth>,</orth>
    <lex disamb="1"><base>,</base><ctag>interp</ctag></lex>
    <ann chan="nam">0</ann>
    <ann chan="nam_org_company">0</ann>
    <ann chan="nam_pro_brand">0</ann>
    <ann chan="nam_org">0</ann>
    <ann chan="nam_pro">0</ann>
   </tok>
   <tok>
    <orth>jakie</orth>
    <lex disamb="1"><base>jaki</base><ctag>adj:sg:nom:n:pos</ctag></lex>
    <ann chan="nam">0</ann>
    <ann chan="nam_org_company">0</ann>
    <ann chan="nam_pro_brand">0</ann>
    <ann chan="nam_org">0</ann>
    <ann chan="nam_pro">0</ann>
   </tok>
   <tok>
    <orth>ukazały</orth>
    <lex disamb="1"><base>ukazać</base><ctag>praet:pl:m2:perf</ctag></lex>
    <ann chan="nam">0</ann>
    <ann chan="nam_org_company">0</ann>
    <ann chan="nam_pro_brand">0</ann>
    <ann chan="nam_org">0</ann>
    <ann chan="nam_pro">0</ann>
   </tok>
   <tok>
    <orth>się</orth>
    <lex disamb="1"><base>się</base><ctag>qub</ctag></lex>
    <ann chan="nam">0</ann>
    <ann chan="nam_org_company">0</ann>
    <ann chan="nam_pro_brand">0</ann>
    <ann chan="nam_org">0</ann>
    <ann chan="nam_pro">0</ann>
   </tok>
   <tok>
    <orth>nakładem</orth>
    <lex disamb="1"><base>nakład</base><ctag>subst:sg:inst:m3</ctag></lex>
    <ann chan="nam">0</ann>
    <ann chan="nam_org_company">0</ann>
    <ann chan="nam_pro_brand">0</ann>
    <ann chan="nam_org">0</ann>
    <ann chan="nam_pro">0</ann>
   </tok>
   <tok>
    <orth>tego</orth>
    <lex disamb="1"><base>to</base><ctag>subst:sg:gen:n</ctag></lex>
    <ann chan="nam">0</ann>
    <ann chan="nam_org_company">0</ann>
    <ann chan="nam_pro_brand">0</ann>
    <ann chan="nam_org">0</ann>
    <ann chan="nam_pro">0</ann>
   </tok>
   <tok>
    <orth>wydawnictwa</orth>
    <lex disamb="1"><base>wydawnictwo</base><ctag>subst:sg:gen:n</ctag></lex>
    <ann chan="nam">0</ann>
    <ann chan="nam_org_company">0</ann>
    <ann chan="nam_pro_brand">0</ann>
    <ann chan="nam_org">0</ann>
    <ann chan="nam_pro">0</ann>
   </tok>
   <ns/>
   <tok>
    <orth>.</orth>
    <lex disamb="1"><base>.</base><ctag>interp</ctag></lex>
    <ann chan="nam">0</ann>
    <ann chan="nam_org_company">0</ann>
    <ann chan="nam_pro_brand">0</ann>
    <ann chan="nam_org">0</ann>
    <ann chan="nam_pro">0</ann>
   </tok>
  </sentence>
 </chunk>
 <chunk type="p" id="ch3">
  <sentence id="s3">
   <tok>
    <orth>-</orth>
    <lex disamb="1"><base>-</base><ctag>interp</ctag></lex>
   </tok>
   <tok>
    <orth>Dla</orth>
    <lex disamb="1"><base>dla</base><ctag>prep:gen</ctag></lex>
   </tok>
   <tok>
    <orth>mnie</orth>
    <lex disamb="1"><base>ja</base><ctag>ppron12:sg:gen:m1:pri:akc</ctag></lex>
   </tok>
   <tok>
    <orth>kluczowe</orth>
    <lex disamb="1"><base>kluczowy</base><ctag>adj:sg:nom:n:pos</ctag></lex>
   </tok>
   <tok>
    <orth>jest</orth>
    <lex disamb="1"><base>być</base><ctag>fin:sg:ter:imperf</ctag></lex>
   </tok>
   <tok>
    <orth>to</orth>
    <lex disamb="1"><base>to</base><ctag>conj</ctag></lex>
   </tok>
   <ns/>
   <tok>
    <orth>,</orth>
    <lex disamb="1"><base>,</base><ctag>interp</ctag></lex>
   </tok>
   <tok>
    <orth>że</orth>
    <lex disamb="1"><base>że</base><ctag>comp</ctag></lex>
   </tok>
   <tok>
    <orth>de</orth>
    <lex disamb="1"><base>de</base><ctag>subst:sg:nom:n</ctag></lex>
   </tok>
   <tok>
    <orth>facto</orth>
    <lex disamb="1"><base>facto</base><ctag>ign</ctag></lex>
   </tok>
   <tok>
    <orth>to</orth>
    <lex disamb="1"><base>to</base><ctag>conj</ctag></lex>
   </tok>
   <tok>
    <orth>próba</orth>
    <lex disamb="1"><base>próba</base><ctag>subst:sg:nom:f</ctag></lex>
   </tok>
   <tok>
    <orth>zablokowania</orth>
    <lex disamb="1"><base>zablokować</base><ctag>ger:sg:gen:n:perf:aff</ctag></lex>
   </tok>
   <tok>
    <orth>krytyki</orth>
    <lex disamb="1"><base>krytyka</base><ctag>subst:sg:gen:f</ctag></lex>
   </tok>
   <tok>
    <orth>medialnej</orth>
    <lex disamb="1"><base>medialny</base><ctag>adj:sg:gen:f:pos</ctag></lex>
   </tok>
   <tok>
    <orth>-</orth>
    <lex disamb="1"><base>-</base><ctag>interp</ctag></lex>
   </tok>
   <tok>
    <orth>mówi</orth>
    <lex disamb="1"><base>mówić</base><ctag>fin:sg:ter:imperf</ctag></lex>
   </tok>
   <ns/>
   <tok>
    <orth>.</orth>
    <lex disamb="1"><base>.</base><ctag>interp</ctag></lex>
   </tok>
  </sentence>
 </chunk>
</chunkList>