<?xml version="1.0" encoding="UTF-8"?>
<!DOCTYPE chunkList SYSTEM "ccl.dtd">
<chunkList>
 <chunk type="p" id="ch1">
  <sentence id="s1">
   <tok>
    <orth>Opłaty</orth>
    <lex disamb="1"><base>opłata</base><ctag>subst:sg:gen:f</ctag></lex>
   </tok>
   <tok>
    <orth>za</orth>
    <lex disamb="1"><base>za</base><ctag>qub</ctag></lex>
   </tok>
   <tok>
    <orth>mieszkanie</orth>
    <lex disamb="1"><base>mieszkanie</base><ctag>subst:sg:nom:n</ctag></lex>
   </tok>
   <tok>
    <orth>można</orth>
    <lex disamb="1"><base>można</base><ctag>pred</ctag></lex>
   </tok>
   <tok>
    <orth>wrzucić</orth>
    <lex disamb="1"><base>wrzucić</base><ctag>inf:perf</ctag></lex>
   </tok>
   <tok>
    <orth>w</orth>
    <lex disamb="1"><base>w</base><ctag>prep:acc:nwok</ctag></lex>
   </tok>
   <tok>
    <orth>koszty</orth>
    <lex disamb="1"><base>koszt</base><ctag>subst:pl:nom:m3</ctag></lex>
   </tok>
   <tok>
    <orth>nawet</orth>
    <lex disamb="1"><base>nawet</base><ctag>qub</ctag></lex>
   </tok>
   <tok>
    <orth>gdy</orth>
    <lex disamb="1"><base>gdy</base><ctag>adv:pos</ctag></lex>
   </tok>
   <tok>
    <orth>w</orth>
    <lex disamb="1"><base>w</base><ctag>prep:acc:nwok</ctag></lex>
   </tok>
   <tok>
    <orth>lokalu</orth>
    <lex disamb="1"><base>lokal</base><ctag>subst:sg:gen:m3</ctag></lex>
   </tok>
   <tok>
    <orth>nie</orth>
    <lex disamb="1"><base>nie</base><ctag>conj</ctag></lex>
   </tok>
   <tok>
    <orth>wyodrębniono</orth>
    <lex disamb="1"><base>wyodrębnić</base><ctag>imps:perf</ctag></lex>
   </tok>
   <tok>
    <orth>specjalnego</orth>
    <lex disamb="1"><base>specjalny</base><ctag>adj:sg:gen:m1:pos</ctag></lex>
   </tok>
   <tok>
    <orth>pomieszczenia</orth>
    <lex disamb="1"><base>pomieszczenie</base><ctag>subst:sg:gen:n</ctag></lex>
   </tok>
   <tok>
    <orth>wyłącznie</orth>
    <lex disamb="1"><base>wyłącznie</base><ctag>adv:pos</ctag></lex>
   </tok>
   <tok>
    <orth>do</orth>
    <lex disamb="1"><base>do</base><ctag>prep:gen</ctag></lex>
   </tok>
   <tok>
    <orth>pracy</orth>
    <lex disamb="1"><base>praca</base><ctag>subst:sg:gen:f</ctag></lex>
   </tok>
   <ns/>
   <tok>
    <orth>.</orth>
    <lex disamb="1"><base>.</base><ctag>interp</ctag></lex>
   </tok>
  </sentence>
 </chunk>
 <chunk type="p" id="ch2">
  <sentence id="s2">
   <tok>
    <orth>Zmiana</orth>
    <lex disamb="1"><base>zmiana</base><ctag>subst:sg:nom:f</ctag></lex>
    <ann chan="nam">0</ann>
   </tok>
   <tok>
    <orth>interpretacji</orth>
    <lex disamb="1"><base>interpretacja</base><ctag>subst:sg:gen:f</ctag></lex>
    <ann chan="nam">0</ann>
   </tok>
   <tok>
    <orth>KAS</orth>
    <lex disamb="1"><base>kasa</base><ctag>subst:pl:gen:f</ctag></lex>
    <ann chan="nam">1</ann>
   </tok>
   <ns/>
   <tok>
    <orth>.</orth>
    <lex disamb="1"><base>.</base><ctag>interp</ctag></lex>
    <ann chan="nam">0</ann>
   </tok>
  </sentence>
 </chunk>
</chunkList>