<?xml version="1.0" encoding="UTF-8"?>
<!DOCTYPE chunkList SYSTEM "ccl.dtd">
<chunkList>
 <chunk type="p" id="ch1">
  <sentence id="s1">
   <tok>
    <orth>Fallout</orth>
    <lex disamb="1"><base>Fallout</base><ctag>ign</ctag></lex>
   </tok>
   <tok>
    <orth>76</orth>
    <lex disamb="1"><base>76</base><ctag>num:pl:nom:m1:rec</ctag></lex>
   </tok>
   <tok>
    <orth>to</orth>
    <lex disamb="1"><base>to</base><ctag>conj</ctag></lex>
   </tok>
   <tok>
    <orth>padaka</orth>
    <lex disamb="1"><base>padaka</base><ctag>ign</ctag></lex>
   </tok>
   <ns/>
   <tok>
    <orth>.</orth>
    <lex disamb="1"><base>.</base><ctag>interp</ctag></lex>
   </tok>
  </sentence>
 </chunk>
 <chunk type="p" id="ch2">
  <sentence id="s2">
   <tok>
    <orth>Dla</orth>
    <lex disamb="1"><base>dla</base><ctag>prep:gen</ctag></lex>
    <ann chan="nam">0</ann>
    <ann chan="nam_loc_gpe_city">0</ann>
    <ann chan="nam_loc">0</ann>
   </tok>
   <tok>
    <orth>wielu</orth>
    <lex disamb="1"><base>wiele</base><ctag>num:pl:nom:m1:rec</ctag></lex>
    <lex disamb="1"><base>wiele</base><ctag>num:pl:nom:m1:rec</ctag></lex>
    <lex disamb="1"><base>wiele</base><ctag>num:pl:nom:m1:rec</ctag></lex>
    <lex disamb="1"><base>wiele</base><ctag>num:pl:nom:m1:rec</ctag></lex>
    <lex disamb="1"><base>wiele</base><ctag>num:pl:nom:m1:rec</ctag></lex>
    <lex disamb="1"><base>wiele</base><ctag>num:pl:nom:m1:rec</ctag></lex>
    <lex disamb="1"><base>wiele</base><ctag>num:pl:nom:m1:rec</ctag></lex>
    <lex disamb="1"><base>wiele</base><ctag>num:pl:nom:m1:rec</ctag></lex>
    <lex disamb="1"><base>wiele</base><ctag>num:pl:nom:m1:rec</ctag></lex>
    <lex disamb="1"><base>wiele</base><ctag>num:pl:nom:m1:rec</ctag></lex>
    <lex disamb="1"><base>wiele</base><ctag>num:pl:nom:m1:rec</ctag></lex>
    <lex disamb="1"><base>wiele</base><ctag>num:pl:nom:m1:rec</ctag></lex>
    <lex disamb="1"><base>wiele</base><ctag>num:pl:nom:m1:rec</ctag></lex>
    <lex disamb="1"><base>wiele</base><ctag>num:pl:nom:m1:rec</ctag></lex>
    <lex disamb="1"><base>wiele</base><ctag>num:pl:nom:m1:rec</ctag></lex>
    <lex disamb="1"><base>wiele</base><ctag>num:pl:nom:m1:rec</ctag></lex>
    <lex disamb="1"><base>wiele</base><ctag>num:pl:nom:m1:rec</ctag></lex>
    <lex disamb="1"><base>wiele</base><ctag>num:pl:nom:m1:rec</ctag></lex>
    <lex disamb="1"><base>wiele</base><ctag>num:pl:nom:m1:rec</ctag></lex>
    <lex disamb="1"><base>wiele</base><ctag>num:pl:nom:m1:rec</ctag></lex>
    <lex disamb="1"><base>wiele</base><ctag>num:pl:nom:m1:rec</ctag></lex>
    <lex disamb="1"><base>wiele</base><ctag>num:pl:nom:m1:rec</ctag></lex>
    <lex disamb="1"><base>wiele</base><ctag>num:pl:nom:m1:rec</ctag></lex>
    <ann chan="nam">0</ann>
    <ann chan="nam_loc_gpe_city">0</ann>
    <ann chan="nam_loc">0</ann>
   </tok>
   <tok>
    <orth>najlepszym</orth>
    <lex disamb="1"><base>dobry</base><ctag>adj:sg:inst:m1:sup</ctag></lex>
    <ann chan="nam">0</ann>
    <ann chan="nam_loc_gpe_city">0</ann>
    <ann chan="nam_loc">0</ann>
   </tok>
   <tok>
    <orth>Falloutem</orth>
    <lex disamb="1"><base>Falloutem</base><ctag>ign</ctag></lex>
    <ann chan="nam">0</ann>
    <ann chan="nam_loc_gpe_city">0</ann>
    <ann chan="nam_loc">0</ann>
   </tok>
   <tok>
    <orth>było</orth>
    <lex disamb="1"><base>być</base><ctag>praet:sg:n:imperf</ctag></lex>
    <ann chan="nam">0</ann>
    <ann chan="nam_loc_gpe_city">0</ann>
    <ann chan="nam_loc">0</ann>
   </tok>
   <tok>
    <orth>New</orth>
    <lex disamb="1"><base>Newa</base><ctag>subst:pl:gen:f</ctag></lex>
    <ann chan="nam">1</ann>
    <ann chan="nam_loc_gpe_city">1</ann>
    <ann chan="nam_loc">1</ann>
   </tok>
   <tok>
    <orth>Vegas</orth>
    <lex disamb="1"><base>Vegas</base><ctag>burk</ctag></lex>
    <ann chan="nam">1</ann>
    <ann chan="nam_loc_gpe_city">1</ann>
    <ann chan="nam_loc">1</ann>
   </tok>
   <ns/>
   <tok>
    <orth>,</orth>
    <lex disamb="1"><base>,</base><ctag>interp</ctag></lex>
    <ann chan="nam">0</ann>
    <ann chan="nam_loc_gpe_city">0</ann>
    <ann chan="nam_loc">0</ann>
   </tok>
   <tok>
    <orth>skutkiem</orth>
    <lex disamb="1"><base>skutek</base><ctag>subst:sg:inst:m3</ctag></lex>
    <ann chan="nam">0</ann>
    <ann chan="nam_loc_gpe_city">0</ann>
    <ann chan="nam_loc">0</ann>
   </tok>
   <tok>
    <orth>czego</orth>
    <lex disamb="1"><base>czego</base><ctag>adv:pos</ctag></lex>
    <ann chan="nam">0</ann>
    <ann chan="nam_loc_gpe_city">0</ann>
    <ann chan="nam_loc">0</ann>
   </tok>
   <tok>
    <orth>wielu</orth>
    <lex disamb="1"><base>wiele</base><ctag>num:pl:nom:m1:rec</ctag></lex>
    <lex disamb="1"><base>wiele</base><ctag>num:pl:nom:m1:rec</ctag></lex>
    <lex disamb="1"><base>wiele</base><ctag>num:pl:nom:m1:rec</ctag></lex>
    <lex disamb="1"><base>wiele</base><ctag>num:pl:nom:m1:rec</ctag></lex>
    <lex disamb="1"><base>wiele</base><ctag>num:pl:nom:m1:rec</ctag></lex>
    <lex disamb="1"><base>wiele</base><ctag>num:pl:nom:m1:rec</ctag></lex>
    <lex disamb="1"><base>wiele</base><ctag>num:pl:nom:m1:rec</ctag></lex>
    <lex disamb="1"><base>wiele</base><ctag>num:pl:nom:m1:rec</ctag></lex>
    <lex disamb="1"><base>wiele</base><ctag>num:pl:nom:m1:rec</ctag></lex>
    <lex disamb="1"><base>wiele</base><ctag>num:pl:nom:m1:rec</ctag></lex>
    <lex disamb="1"><base>wiele</base><ctag>num:pl:nom:m1:rec</ctag></lex>
    <lex disamb="1"><base>wiele</base><ctag>num:pl:nom:m1:rec</ctag></lex>
    <lex disamb="1"><base>wiele</base><ctag>num:pl:nom:m1:rec</ctag></lex>
    <lex disamb="1"><base>wiele</base><ctag>num:pl:nom:m1:rec</ctag></lex>
    <lex disamb="1"><base>wiele</base><ctag>num:pl:nom:m1:rec</ctag></lex>
    <lex disamb="1"><base>wiele</base><ctag>num:pl:nom:m1:rec</ctag></lex>
    <lex disamb="1"><base>wiele</base><ctag>num:pl:nom:m1:rec</ctag></lex>
    <lex disamb="1"><base>wiele</base><ctag>num:pl:nom:m1:rec</ctag></lex>
    <lex disamb="1"><base>wiele</base><ctag>num:pl:nom:m1:rec</ctag></lex>
    <lex disamb="1"><base>wiele</base><ctag>num:pl:nom:m1:rec</ctag></lex>
    <lex disamb="1"><base>wiele</base><ctag>num:pl:nom:m1:rec</ctag></lex>
    <lex disamb="1"><base>wiele</base><ctag>num:pl:nom:m1:rec</ctag></lex>
    <lex disamb="1"><base>wiele</base><ctag>num:pl:nom:m1:rec</ctag></lex>
    <ann chan="nam">0</ann>
    <ann chan="nam_loc_gpe_city">0</ann>
    <ann chan="nam_loc">0</ann>
   </tok>
   <tok>
    <orth>graczy</orth>
    <lex disamb="1"><base>gracz</base><ctag>subst:pl:gen:m1</ctag></lex>
    <ann chan="nam">0</ann>
    <ann chan="nam_loc_gpe_city">0</ann>
    <ann chan="nam_loc">0</ann>
   </tok>
   <tok>
    <orth>oczekiwało</orth>
    <lex disamb="1"><base>oczekiwać</base><ctag>praet:sg:n:imperf</ctag></lex>
    <ann chan="nam">0</ann>
    <ann chan="nam_loc_gpe_city">0</ann>
    <ann chan="nam_loc">0</ann>
   </tok>
   <tok>
    <orth>kontynuacji</orth>
    <lex disamb="1"><base>kontynuacja</base><ctag>subst:sg:gen:f</ctag></lex>
    <ann chan="nam">0</ann>
    <ann chan="nam_loc_gpe_city">0</ann>
    <ann chan="nam_loc">0</ann>
   </tok>
   <ns/>
   <tok>
    <orth>.</orth>
    <lex disamb="1"><base>.</base><ctag>interp</ctag></lex>
    <ann chan="nam">0</ann>
    <ann chan="nam_loc_gpe_city">0</ann>
    <ann chan="nam_loc">0</ann>
   </tok>
  </sentence>
 </chunk>
 <chunk type="p" id="ch3">
  <sentence id="s3">
   <tok>
    <orth>Obsidian</orth>
    <lex disamb="1"><base>Obsidian</base><ctag>ign</ctag></lex>
    <ann chan="nam">0</ann>
   </tok>
   <tok>
    <orth>nie</orth>
    <lex disamb="1"><base>nie</base><ctag>conj</ctag></lex>
    <ann chan="nam">0</ann>
   </tok>
   <tok>
    <orth>ma</orth>
    <lex disamb="1"><base>mój</base><ctag>adj:sg:nom:f:pos</ctag></lex>
    <ann chan="nam">0</ann>
   </tok>
   <tok>
    <orth>niestety</orth>
    <lex disamb="1"><base>niestety</base><ctag>qub</ctag></lex>
    <ann chan="nam">0</ann>
   </tok>
   <tok>
    <orth>praw</orth>
    <lex disamb="1"><base>prawy</base><ctag>adjc</ctag></lex>
    <ann chan="nam">0</ann>
   </tok>
   <tok>
    <orth>do</orth>
    <lex disamb="1"><base>do</base><ctag>prep:gen</ctag></lex>
    <ann chan="nam">0</ann>
   </tok>
   <tok>
    <orth>tej</orth>
    <lex disamb="1"><base>ten</base><ctag>adj:sg:gen:f:pos</ctag></lex>
    <ann chan="nam">0</ann>
   </tok>
   <tok>
    <orth>marki</orth>
    <lex disamb="1"><base>marek</base><ctag>subst:pl:nom:m2</ctag></lex>
    <ann chan="nam">0</ann>
   </tok>
   <ns/>
   <tok>
    <orth>,</orth>
    <lex disamb="1"><base>,</base><ctag>interp</ctag></lex>
    <ann chan="nam">0</ann>
   </tok>
   <tok>
    <orth>więc</orth>
    <lex disamb="1"><base>więc</base><ctag>conj</ctag></lex>
    <ann chan="nam">0</ann>
   </tok>
   <tok>
    <orth>studio</orth>
    <lex disamb="1"><base>studio</base><ctag>subst:sg:nom:n</ctag></lex>
    <ann chan="nam">0</ann>
   </tok>
   <tok>
    <orth>stworzyło</orth>
    <lex disamb="1"><base>stworzyć</base><ctag>praet:sg:n:perf</ctag></lex>
    <ann chan="nam">0</ann>
   </tok>
   <tok>
    <orth>swoją</orth>
    <lex disamb="1"><base>swój</base><ctag>adj:sg:acc:f:pos</ctag></lex>
    <ann chan="nam">0</ann>
   </tok>
   <tok>
    <orth>grę</orth>
    <lex disamb="1"><base>gra</base><ctag>subst:sg:acc:f</ctag></lex>
    <ann chan="nam">0</ann>
   </tok>
   <ns/>
   <tok>
    <orth>,</orth>
    <lex disamb="1"><base>,</base><ctag>interp</ctag></lex>
    <ann chan="nam">0</ann>
   </tok>
   <tok>
    <orth>którą</orth>
    <lex disamb="1"><base>który</base><ctag>adj:sg:acc:f:pos</ctag></lex>
    <ann chan="nam">0</ann>
   </tok>
   <tok>
    <orth>można</orth>
    <lex disamb="1"><base>można</base><ctag>pred</ctag></lex>
    <ann chan="nam">0</ann>
   </tok>
   <tok>
    <orth>uznać</orth>
    <lex disamb="1"><base>uznać</base><ctag>inf:perf</ctag></lex>
    <ann chan="nam">0</ann>
   </tok>
   <tok>
    <orth>za</orth>
    <lex disamb="1"><base>za</base><ctag>qub</ctag></lex>
    <ann chan="nam">0</ann>
   </tok>
   <tok>
    <orth>nowego</orth>
    <lex disamb="1"><base>nowy</base><ctag>subst:sg:gen:m1</ctag></lex>
    <ann chan="nam">0</ann>
   </tok>
   <ns/>
   <tok>
    <orth>,</orth>
    <lex disamb="1"><base>,</base><ctag>interp</ctag></lex>
    <ann chan="nam">0</ann>
   </tok>
   <tok>
    <orth>lepszego</orth>
    <lex disamb="1"><base>lepsze</base><ctag>subst:sg:gen:n</ctag></lex>
    <ann chan="nam">0</ann>
   </tok>
   <tok>
    <orth>Fallouta</orth>
    <lex disamb="1"><base>Fallouta</base><ctag>ign</ctag></lex>
    <ann chan="nam">1</ann>
   </tok>
   <ns/>
   <tok>
    <orth>.</orth>
    <lex disamb="1"><base>.</base><ctag>interp</ctag></lex>
    <ann chan="nam">0</ann>
   </tok>
  </sentence>
 </chunk>
</chunkList>