<?xml version="1.0" encoding="UTF-8"?>
<!DOCTYPE chunkList SYSTEM "ccl.dtd">
<chunkList>
 <chunk type="p" id="ch1">
  <sentence id="s1">
   <tok>
    <orth>Prokuratura</orth>
    <lex disamb="1"><base>prokuratura</base><ctag>subst:sg:nom:f</ctag></lex>
    <ann chan="nam">0</ann>
    <ann chan="nam_loc_gpe_city">0</ann>
    <ann chan="nam_loc">0</ann>
   </tok>
   <tok>
    <orth>w</orth>
    <lex disamb="1"><base>w</base><ctag>prep:acc:nwok</ctag></lex>
    <ann chan="nam">0</ann>
    <ann chan="nam_loc_gpe_city">0</ann>
    <ann chan="nam_loc">0</ann>
   </tok>
   <tok>
    <orth>Ropczycach</orth>
    <lex disamb="1"><base>Ropczyce</base><ctag>subst:pl:loc:n</ctag></lex>
    <ann chan="nam">1</ann>
    <ann chan="nam_loc_gpe_city">1</ann>
    <ann chan="nam_loc">1</ann>
   </tok>
   <tok>
    <orth>na</orth>
    <lex disamb="1"><base>na</base><ctag>prep:acc</ctag></lex>
    <ann chan="nam">0</ann>
    <ann chan="nam_loc_gpe_city">0</ann>
    <ann chan="nam_loc">0</ann>
   </tok>
   <tok>
    <orth>Podkarpaciu</orth>
    <lex disamb="1"><base>Podkarpacie</base><ctag>subst:sg:dat:n</ctag></lex>
    <ann chan="nam">2</ann>
    <ann chan="nam_loc_gpe_city">0</ann>
    <ann chan="nam_loc">2</ann>
   </tok>
   <tok>
    <orth>wszczęła</orth>
    <lex disamb="1"><base>wszcząć</base><ctag>praet:sg:f:perf</ctag></lex>
    <ann chan="nam">0</ann>
    <ann chan="nam_loc_gpe_city">0</ann>
    <ann chan="nam_loc">0</ann>
   </tok>
   <tok>
    <orth>postępowanie</orth>
    <lex disamb="1"><base>postępowanie</base><ctag>subst:sg:nom:n</ctag></lex>
    <ann chan="nam">0</ann>
    <ann chan="nam_loc_gpe_city">0</ann>
    <ann chan="nam_loc">0</ann>
   </tok>
   <tok>
    <orth>w</orth>
    <lex disamb="1"><base>w</base><ctag>prep:acc:nwok</ctag></lex>
    <ann chan="nam">0</ann>
    <ann chan="nam_loc_gpe_city">0</ann>
    <ann chan="nam_loc">0</ann>
   </tok>
   <tok>
    <orth>sprawie</orth>
    <lex disamb="1"><base>sprawa</base><ctag>subst:sg:dat:f</ctag></lex>
    <ann chan="nam">0</ann>
    <ann chan="nam_loc_gpe_city">0</ann>
    <ann chan="nam_loc">0</ann>
   </tok>
   <tok>
    <orth>porodu</orth>
    <lex disamb="1"><base>poród</base><ctag>subst:sg:gen:m3</ctag></lex>
    <ann chan="nam">0</ann>
    <ann chan="nam_loc_gpe_city">0</ann>
    <ann chan="nam_loc">0</ann>
   </tok>
   <ns/>
   <tok>
    <orth>,</orth>
    <lex disamb="1"><base>,</base><ctag>interp</ctag></lex>
    <ann chan="nam">0</ann>
    <ann chan="nam_loc_gpe_city">0</ann>
    <ann chan="nam_loc">0</ann>
   </tok>
   <tok>
    <orth>jaki</orth>
    <lex disamb="1"><base>jak</base><ctag>subst:pl:nom:m2</ctag></lex>
    <ann chan="nam">0</ann>
    <ann chan="nam_loc_gpe_city">0</ann>
    <ann chan="nam_loc">0</ann>
   </tok>
   <tok>
    <orth>miał</orth>
    <lex disamb="1"><base>miał</base><ctag>subst:sg:nom:m3</ctag></lex>
    <ann chan="nam">0</ann>
    <ann chan="nam_loc_gpe_city">0</ann>
    <ann chan="nam_loc">0</ann>
   </tok>
   <tok>
    <orth>miejsce</orth>
    <lex disamb="1"><base>miejsce</base><ctag>subst:sg:nom:n</ctag></lex>
    <ann chan="nam">0</ann>
    <ann chan="nam_loc_gpe_city">0</ann>
    <ann chan="nam_loc">0</ann>
   </tok>
   <tok>
    <orth>na</orth>
    <lex disamb="1"><base>na</base><ctag>prep:acc</ctag></lex>
    <ann chan="nam">0</ann>
    <ann chan="nam_loc_gpe_city">0</ann>
    <ann chan="nam_loc">0</ann>
   </tok>
   <tok>
    <orth>terenie</orth>
    <lex disamb="1"><base>teren</base><ctag>subst:sg:loc:m3</ctag></lex>
    <ann chan="nam">0</ann>
    <ann chan="nam_loc_gpe_city">0</ann>
    <ann chan="nam_loc">0</ann>
   </tok>
   <tok>
    <orth>tamtejszego</orth>
    <lex disamb="1"><base>tamtejszy</base><ctag>adj:sg:gen:m1:pos</ctag></lex>
    <ann chan="nam">0</ann>
    <ann chan="nam_loc_gpe_city">0</ann>
    <ann chan="nam_loc">0</ann>
   </tok>
   <tok>
    <orth>ośrodka</orth>
    <lex disamb="1"><base>ośrodek</base><ctag>subst:sg:gen:m3</ctag></lex>
    <ann chan="nam">0</ann>
    <ann chan="nam_loc_gpe_city">0</ann>
    <ann chan="nam_loc">0</ann>
   </tok>
   <tok>
    <orth>zdrowia</orth>
    <lex disamb="1"><base>zdrowie</base><ctag>subst:sg:gen:n</ctag></lex>
    <ann chan="nam">0</ann>
    <ann chan="nam_loc_gpe_city">0</ann>
    <ann chan="nam_loc">0</ann>
   </tok>
   <ns/>
   <tok>
    <orth>.</orth>
    <lex disamb="1"><base>.</base><ctag>interp</ctag></lex>
    <ann chan="nam">0</ann>
    <ann chan="nam_loc_gpe_city">0</ann>
    <ann chan="nam_loc">0</ann>
   </tok>
  </sentence>
 </chunk>
 <chunk type="p" id="ch2">
  <sentence id="s2">
   <tok>
    <orth>38</orth>
    <lex disamb="1"><base>38</base><ctag>num:pl:nom:m1:rec</ctag></lex>
   </tok>
   <ns/>
   <tok>
    <orth>-</orth>
    <lex disamb="1"><base>-</base><ctag>interp</ctag></lex>
   </tok>
   <ns/>
   <tok>
    <orth>letnia</orth>
    <lex disamb="1"><base>letni</base><ctag>adj:sg:nom:f:pos</ctag></lex>
   </tok>
   <tok>
    <orth>kobieta</orth>
    <lex disamb="1"><base>kobieta</base><ctag>subst:sg:nom:f</ctag></lex>
   </tok>
   <tok>
    <orth>urodziła</orth>
    <lex disamb="1"><base>urodzić</base><ctag>praet:sg:f:perf</ctag></lex>
   </tok>
   <tok>
    <orth>dziecko</orth>
    <lex disamb="1"><base>dziecko</base><ctag>subst:sg:nom:n</ctag></lex>
   </tok>
   <tok>
    <orth>na</orth>
    <lex disamb="1"><base>na</base><ctag>prep:acc</ctag></lex>
   </tok>
   <tok>
    <orth>korytarzu</orth>
    <lex disamb="1"><base>korytarz</base><ctag>subst:sg:loc:m3</ctag></lex>
   </tok>
   <ns/>
   <tok>
    <orth>.</orth>
    <lex disamb="1"><base>.</base><ctag>interp</ctag></lex>
   </tok>
  </sentence>
 </chunk>
 <chunk type="p" id="ch3">
  <sentence id="s3">
   <tok>
    <orth>Poród</orth>
    <lex disamb="1"><base>poród</base><ctag>subst:sg:nom:m3</ctag></lex>
   </tok>
   <tok>
    <orth>odebrał</orth>
    <lex disamb="1"><base>odebrać</base><ctag>praet:sg:m1:perf</ctag></lex>
   </tok>
   <tok>
    <orth>ojciec</orth>
    <lex disamb="1"><base>ojciec</base><ctag>subst:sg:nom:m1</ctag></lex>
   </tok>
   <tok>
    <orth>dziecka</orth>
    <lex disamb="1"><base>dziecko</base><ctag>subst:sg:gen:n</ctag></lex>
   </tok>
   <ns/>
   <tok>
    <orth>.</orth>
    <lex disamb="1"><base>.</base><ctag>interp</ctag></lex>
   </tok>
  </sentence>
 </chunk>
 <chunk type="p" id="ch4">
  <sentence id="s4">
   <tok>
    <orth>Personel</orth>
    <lex disamb="1"><base>personel</base><ctag>subst:sg:nom:m3</ctag></lex>
   </tok>
   <tok>
    <orth>placówki</orth>
    <lex disamb="1"><base>placówka</base><ctag>subst:sg:gen:f</ctag></lex>
   </tok>
   <tok>
    <orth>się</orth>
    <lex disamb="1"><base>się</base><ctag>qub</ctag></lex>
   </tok>
   <tok>
    <orth>nie</orth>
    <lex disamb="1"><base>nie</base><ctag>conj</ctag></lex>
   </tok>
   <tok>
    <orth>pojawił</orth>
    <lex disamb="1"><base>pojawić</base><ctag>praet:sg:m1:perf</ctag></lex>
   </tok>
   <ns/>
   <tok>
    <orth>,</orth>
    <lex disamb="1"><base>,</base><ctag>interp</ctag></lex>
   </tok>
   <tok>
    <orth>mimo</orth>
    <lex disamb="1"><base>mimo</base><ctag>adv:pos</ctag></lex>
   </tok>
   <tok>
    <orth>wezwań</orth>
    <lex disamb="1"><base>wezwanie</base><ctag>subst:pl:gen:n</ctag></lex>
   </tok>
   <tok>
    <orth>dzwonkiem</orth>
    <lex disamb="1"><base>dzwonek</base><ctag>subst:sg:inst:m3</ctag></lex>
   </tok>
   <ns/>
   <tok>
    <orth>.</orth>
    <lex disamb="1"><base>.</base><ctag>interp</ctag></lex>
   </tok>
  </sentence>
 </chunk>
</chunkList>