<?xml version="1.0" encoding="UTF-8"?>
<!DOCTYPE chunkList SYSTEM "ccl.dtd">
<chunkList>
 <chunk type="p" id="ch1">
  <sentence id="s1">
   <tok>
    <orth>Od</orth>
    <lex disamb="1"><base>od</base><ctag>prep:gen:nwok</ctag></lex>
    <ann chan="timex">0</ann>
   </tok>
   <tok>
    <orth>lat</orth>
    <lex disamb="1"><base>lato</base><ctag>subst:pl:gen:n</ctag></lex>
    <ann chan="timex">1</ann>
   </tok>
   <tok>
    <orth>prowadzi</orth>
    <lex disamb="1"><base>prowadzić</base><ctag>fin:sg:ter:imperf</ctag></lex>
    <ann chan="timex">0</ann>
   </tok>
   <tok>
    <orth>na</orth>
    <lex disamb="1"><base>na</base><ctag>prep:acc</ctag></lex>
    <ann chan="timex">0</ann>
   </tok>
   <tok>
    <orth>warszawskiej</orth>
    <lex disamb="1"><base>warszawski</base><ctag>adj:sg:gen:f:pos</ctag></lex>
    <ann chan="timex">0</ann>
   </tok>
   <tok>
    <orth>Woli</orth>
    <lex disamb="1"><base>wola</base><ctag>subst:sg:gen:f</ctag></lex>
    <ann chan="timex">0</ann>
   </tok>
   <tok>
    <orth>restaurację</orth>
    <lex disamb="1"><base>restauracja</base><ctag>subst:sg:acc:f</ctag></lex>
    <ann chan="timex">0</ann>
   </tok>
   <ns/>
   <tok>
    <orth>.</orth>
    <lex disamb="1"><base>.</base><ctag>interp</ctag></lex>
    <ann chan="timex">0</ann>
   </tok>
  </sentence>
 </chunk>
 <chunk type="p" id="ch2">
  <sentence id="s2">
   <tok>
    <orth>Ale</orth>
    <lex disamb="1"><base>ale</base><ctag>conj</ctag></lex>
   </tok>
   <tok>
    <orth>to</orth>
    <lex disamb="1"><base>to</base><ctag>conj</ctag></lex>
   </tok>
   <tok>
    <orth>nie</orth>
    <lex disamb="1"><base>nie</base><ctag>conj</ctag></lex>
   </tok>
   <tok>
    <orth>jest</orth>
    <lex disamb="1"><base>być</base><ctag>fin:sg:ter:imperf</ctag></lex>
   </tok>
   <tok>
    <orth>zwykła</orth>
    <lex disamb="1"><base>zwykły</base><ctag>adj:sg:nom:f:pos</ctag></lex>
   </tok>
   <tok>
    <orth>knajpka</orth>
    <lex disamb="1"><base>knajpka</base><ctag>subst:sg:nom:f</ctag></lex>
   </tok>
   <ns/>
   <tok>
    <orth>.</orth>
    <lex disamb="1"><base>.</base><ctag>interp</ctag></lex>
   </tok>
  </sentence>
 </chunk>
 <chunk type="p" id="ch3">
  <sentence id="s3">
   <tok>
    <orth>Pomaga</orth>
    <lex disamb="1"><base>pomagać</base><ctag>fin:sg:ter:imperf</ctag></lex>
   </tok>
   <tok>
    <orth>tam</orth>
    <lex disamb="1"><base>tam</base><ctag>adv:pos</ctag></lex>
   </tok>
   <tok>
    <orth>kobietom</orth>
    <lex disamb="1"><base>kobieta</base><ctag>subst:pl:dat:f</ctag></lex>
   </tok>
   <tok>
    <orth>w</orth>
    <lex disamb="1"><base>w</base><ctag>prep:acc:nwok</ctag></lex>
   </tok>
   <tok>
    <orth>trudnej</orth>
    <lex disamb="1"><base>trudny</base><ctag>adj:sg:gen:f:pos</ctag></lex>
   </tok>
   <tok>
    <orth>życiowej</orth>
    <lex disamb="1"><base>życiowy</base><ctag>adj:sg:gen:f:pos</ctag></lex>
   </tok>
   <tok>
    <orth>sytuacji</orth>
    <lex disamb="1"><base>sytuacja</base><ctag>subst:sg:gen:f</ctag></lex>
   </tok>
   <tok>
    <orth>i</orth>
    <lex disamb="1"><base>i</base><ctag>conj</ctag></lex>
   </tok>
   <tok>
    <orth>rozwozi</orth>
    <lex disamb="1"><base>rozwozić</base><ctag>fin:sg:ter:imperf</ctag></lex>
   </tok>
   <tok>
    <orth>jedzenie</orth>
    <lex disamb="1"><base>jedzenie</base><ctag>subst:sg:nom:n</ctag></lex>
   </tok>
   <tok>
    <orth>osobom</orth>
    <lex disamb="1"><base>osoba</base><ctag>subst:pl:dat:f</ctag></lex>
   </tok>
   <tok>
    <orth>bezdomnym</orth>
    <lex disamb="1"><base>bezdomna</base><ctag>subst:pl:dat:f</ctag></lex>
   </tok>
   <ns/>
   <tok>
    <orth>.</orth>
    <lex disamb="1"><base>.</base><ctag>interp</ctag></lex>
   </tok>
  </sentence>
 </chunk>
 <chunk type="p" id="ch4">
  <sentence id="s4">
   <tok>
    <orth>Urzędnicy</orth>
    <lex disamb="1"><base>urzędnik</base><ctag>subst:pl:nom:m1</ctag></lex>
   </tok>
   <tok>
    <orth>chcą</orth>
    <lex disamb="1"><base>chcieć</base><ctag>fin:pl:ter:imperf</ctag></lex>
   </tok>
   <tok>
    <orth>jej</orth>
    <lex disamb="1"><base>on</base><ctag>ppron3:sg:gen:f:ter:akc:npraep</ctag></lex>
   </tok>
   <tok>
    <orth>jednak</orth>
    <lex disamb="1"><base>jednak</base><ctag>conj</ctag></lex>
   </tok>
   <tok>
    <orth>odebrać</orth>
    <lex disamb="1"><base>odebrać</base><ctag>inf:perf</ctag></lex>
   </tok>
   <tok>
    <orth>to</orth>
    <lex disamb="1"><base>to</base><ctag>conj</ctag></lex>
   </tok>
   <tok>
    <orth>miejsce</orth>
    <lex disamb="1"><base>miejsce</base><ctag>subst:sg:nom:n</ctag></lex>
   </tok>
   <ns/>
   <tok>
    <orth>.</orth>
    <lex disamb="1"><base>.</base><ctag>interp</ctag></lex>
   </tok>
  </sentence>
 </chunk>
 <chunk type="p" id="ch5">
  <sentence id="s5">
   <tok>
    <orth>Zabrali</orth>
    <lex disamb="1"><base>zabrać</base><ctag>praet:pl:m1:perf</ctag></lex>
   </tok>
   <tok>
    <orth>jej</orth>
    <lex disamb="1"><base>on</base><ctag>ppron3:sg:gen:f:ter:akc:npraep</ctag></lex>
   </tok>
   <tok>
    <orth>kuchenne</orth>
    <lex disamb="1"><base>kuchenna</base><ctag>subst:pl:nom:f</ctag></lex>
   </tok>
   <tok>
    <orth>sprzęty</orth>
    <lex disamb="1"><base>sprzęt</base><ctag>subst:pl:nom:m3</ctag></lex>
   </tok>
   <ns/>
   <tok>
    <orth>,</orth>
    <lex disamb="1"><base>,</base><ctag>interp</ctag></lex>
   </tok>
   <tok>
    <orth>ale</orth>
    <lex disamb="1"><base>ale</base><ctag>conj</ctag></lex>
   </tok>
   <tok>
    <orth>szybko</orth>
    <lex disamb="1"><base>szybko</base><ctag>adv:pos</ctag></lex>
   </tok>
   <tok>
    <orth>dostała</orth>
    <lex disamb="1"><base>dostały</base><ctag>adj:sg:nom:f:pos</ctag></lex>
   </tok>
   <tok>
    <orth>wsparcie</orth>
    <lex disamb="1"><base>wsparcie</base><ctag>subst:sg:nom:n</ctag></lex>
   </tok>
   <ns/>
   <tok>
    <orth>.</orth>
    <lex disamb="1"><base>.</base><ctag>interp</ctag></lex>
   </tok>
   <ns/>
   <tok>
    <orth>.</orth>
    <lex disamb="1"><base>.</base><ctag>interp</ctag></lex>
   </tok>
   <ns/>
   <tok>
    <orth>.</orth>
    <lex disamb="1"><base>.</base><ctag>interp</ctag></lex>
   </tok>
  </sentence>
 </chunk>
</chunkList>