<?xml version="1.0" encoding="UTF-8"?>
<!DOCTYPE chunkList SYSTEM "ccl.dtd">
<chunkList>
 <chunk type="p" id="ch1">
  <sentence id="s1">
   <tok>
    <orth>Forum</orth>
    <lex disamb="1"><base>forum</base><ctag>subst:sg:nom:n</ctag></lex>
    <ann chan="nam">1</ann>
    <ann chan="nam_org_institution">1</ann>
    <ann chan="nam_loc_land_continent">0</ann>
    <ann chan="nam_org">1</ann>
    <ann chan="nam_loc">0</ann>
   </tok>
   <tok>
    <orth>Żydów</orth>
    <lex disamb="1"><base>Żyd</base><ctag>subst:pl:gen:m1</ctag></lex>
    <lex disamb="1"><base>żyd</base><ctag>subst:pl:gen:m1</ctag></lex>
    <ann chan="nam">1</ann>
    <ann chan="nam_org_institution">1</ann>
    <ann chan="nam_loc_land_continent">0</ann>
    <ann chan="nam_org">1</ann>
    <ann chan="nam_loc">0</ann>
   </tok>
   <tok>
    <orth>Polskich</orth>
    <lex disamb="1"><base>polski</base><ctag>subst:pl:gen:m3</ctag></lex>
    <ann chan="nam">1</ann>
    <ann chan="nam_org_institution">1</ann>
    <ann chan="nam_loc_land_continent">0</ann>
    <ann chan="nam_org">1</ann>
    <ann chan="nam_loc">0</ann>
   </tok>
   <tok>
    <orth>na</orth>
    <lex disamb="1"><base>na</base><ctag>prep:acc</ctag></lex>
    <ann chan="nam">0</ann>
    <ann chan="nam_org_institution">0</ann>
    <ann chan="nam_loc_land_continent">0</ann>
    <ann chan="nam_org">0</ann>
    <ann chan="nam_loc">0</ann>
   </tok>
   <tok>
    <orth>swoim</orth>
    <lex disamb="1"><base>swoje</base><ctag>subst:sg:inst:n</ctag></lex>
    <ann chan="nam">0</ann>
    <ann chan="nam_org_institution">0</ann>
    <ann chan="nam_loc_land_continent">0</ann>
    <ann chan="nam_org">0</ann>
    <ann chan="nam_loc">0</ann>
   </tok>
   <tok>
    <orth>profilu</orth>
    <lex disamb="1"><base>profil</base><ctag>subst:sg:gen:m3</ctag></lex>
    <ann chan="nam">0</ann>
    <ann chan="nam_org_institution">0</ann>
    <ann chan="nam_loc_land_continent">0</ann>
    <ann chan="nam_org">0</ann>
    <ann chan="nam_loc">0</ann>
   </tok>
   <tok>
    <orth>facebookowym</orth>
    <lex disamb="1"><base>facebookowy</base><ctag>adj:sg:inst:m1:pos</ctag></lex>
    <ann chan="nam">0</ann>
    <ann chan="nam_org_institution">0</ann>
    <ann chan="nam_loc_land_continent">0</ann>
    <ann chan="nam_org">0</ann>
    <ann chan="nam_loc">0</ann>
   </tok>
   <tok>
    <orth>zarzuca</orth>
    <lex disamb="1"><base>zarzucać</base><ctag>fin:sg:ter:imperf</ctag></lex>
    <ann chan="nam">0</ann>
    <ann chan="nam_org_institution">0</ann>
    <ann chan="nam_loc_land_continent">0</ann>
    <ann chan="nam_org">0</ann>
    <ann chan="nam_loc">0</ann>
   </tok>
   <tok>
    <orth>tygodnikowi</orth>
    <lex disamb="1"><base>tygodnik</base><ctag>subst:sg:dat:m3</ctag></lex>
    <ann chan="nam">0</ann>
    <ann chan="nam_org_institution">0</ann>
    <ann chan="nam_loc_land_continent">0</ann>
    <ann chan="nam_org">0</ann>
    <ann chan="nam_loc">0</ann>
   </tok>
   <tok>
    <orth>Newsweek</orth>
    <lex disamb="1"><base>Newsweek</base><ctag>ign</ctag></lex>
    <ann chan="nam">0</ann>
    <ann chan="nam_org_institution">0</ann>
    <ann chan="nam_loc_land_continent">0</ann>
    <ann chan="nam_org">0</ann>
    <ann chan="nam_loc">0</ann>
   </tok>
   <tok>
    <orth>manipulację</orth>
    <lex disamb="1"><base>manipulacja</base><ctag>subst:sg:acc:f</ctag></lex>
    <ann chan="nam">0</ann>
    <ann chan="nam_org_institution">0</ann>
    <ann chan="nam_loc_land_continent">0</ann>
    <ann chan="nam_org">0</ann>
    <ann chan="nam_loc">0</ann>
   </tok>
   <tok>
    <orth>w</orth>
    <lex disamb="1"><base>w</base><ctag>prep:acc:nwok</ctag></lex>
    <ann chan="nam">0</ann>
    <ann chan="nam_org_institution">0</ann>
    <ann chan="nam_loc_land_continent">0</ann>
    <ann chan="nam_org">0</ann>
    <ann chan="nam_loc">0</ann>
   </tok>
   <tok>
    <orth>artykule</orth>
    <lex disamb="1"><base>artykuł</base><ctag>subst:sg:loc:m3</ctag></lex>
    <ann chan="nam">0</ann>
    <ann chan="nam_org_institution">0</ann>
    <ann chan="nam_loc_land_continent">0</ann>
    <ann chan="nam_org">0</ann>
    <ann chan="nam_loc">0</ann>
   </tok>
   <tok>
    <orth>Europa</orth>
    <lex disamb="1"><base>Europa</base><ctag>subst:sg:nom:f</ctag></lex>
    <ann chan="nam">2</ann>
    <ann chan="nam_org_institution">0</ann>
    <ann chan="nam_loc_land_continent">1</ann>
    <ann chan="nam_org">0</ann>
    <ann chan="nam_loc">1</ann>
   </tok>
   <tok>
    <orth>wciąż</orth>
    <lex disamb="1"><base>wciąż</base><ctag>adv:pos</ctag></lex>
    <ann chan="nam">0</ann>
    <ann chan="nam_org_institution">0</ann>
    <ann chan="nam_loc_land_continent">0</ann>
    <ann chan="nam_org">0</ann>
    <ann chan="nam_loc">0</ann>
   </tok>
   <tok>
    <orth>antysemicka</orth>
    <lex disamb="1"><base>antysemicki</base><ctag>adj:sg:nom:f:pos</ctag></lex>
    <ann chan="nam">0</ann>
    <ann chan="nam_org_institution">0</ann>
    <ann chan="nam_loc_land_continent">0</ann>
    <ann chan="nam_org">0</ann>
    <ann chan="nam_loc">0</ann>
   </tok>
   <ns/>
   <tok>
    <orth>.</orth>
    <lex disamb="1"><base>.</base><ctag>interp</ctag></lex>
    <ann chan="nam">0</ann>
    <ann chan="nam_org_institution">0</ann>
    <ann chan="nam_loc_land_continent">0</ann>
    <ann chan="nam_org">0</ann>
    <ann chan="nam_loc">0</ann>
   </tok>
  </sentence>
 </chunk>
 <chunk type="p" id="ch2">
  <sentence id="s2">
   <tok>
    <orth>Polska</orth>
    <lex disamb="1"><base>Polska</base><ctag>subst:sg:nom:f</ctag></lex>
    <ann chan="nam">1</ann>
    <ann chan="nam_loc_gpe_country">1</ann>
    <ann chan="nam_loc">1</ann>
   </tok>
   <tok>
    <orth>w</orth>
    <lex disamb="1"><base>w</base><ctag>prep:acc:nwok</ctag></lex>
    <ann chan="nam">0</ann>
    <ann chan="nam_loc_gpe_country">0</ann>
    <ann chan="nam_loc">0</ann>
   </tok>
   <tok>
    <orth>czołówce</orth>
    <lex disamb="1"><base>czołówka</base><ctag>subst:sg:dat:f</ctag></lex>
    <ann chan="nam">0</ann>
    <ann chan="nam_loc_gpe_country">0</ann>
    <ann chan="nam_loc">0</ann>
   </tok>
   <tok>
    <orth>ksenofobicznych</orth>
    <lex disamb="1"><base>ksenofobiczny</base><ctag>adj:pl:gen:m1:pos</ctag></lex>
    <ann chan="nam">0</ann>
    <ann chan="nam_loc_gpe_country">0</ann>
    <ann chan="nam_loc">0</ann>
   </tok>
   <tok>
    <orth>krajów</orth>
    <lex disamb="1"><base>kraj</base><ctag>subst:pl:gen:m3</ctag></lex>
    <ann chan="nam">0</ann>
    <ann chan="nam_loc_gpe_country">0</ann>
    <ann chan="nam_loc">0</ann>
   </tok>
   <ns/>
   <tok>
    <orth>.</orth>
    <lex disamb="1"><base>.</base><ctag>interp</ctag></lex>
    <ann chan="nam">0</ann>
    <ann chan="nam_loc_gpe_country">0</ann>
    <ann chan="nam_loc">0</ann>
   </tok>
  </sentence>
 </chunk>
</chunkList>