<?xml version="1.0" encoding="UTF-8"?>
<!DOCTYPE chunkList SYSTEM "ccl.dtd">
<chunkList>
 <chunk type="p" id="ch1">
  <sentence id="s1">
   <tok>
    <orth>W</orth>
    <lex disamb="1"><base>w</base><ctag>prep:acc:nwok</ctag></lex>
    <ann chan="nam">0</ann>
    <ann chan="nam_loc_gpe_country">0</ann>
    <ann chan="nam_loc">0</ann>
   </tok>
   <tok>
    <orth>Polsce</orth>
    <lex disamb="1"><base>Polska</base><ctag>subst:sg:dat:f</ctag></lex>
    <ann chan="nam">1</ann>
    <ann chan="nam_loc_gpe_country">1</ann>
    <ann chan="nam_loc">1</ann>
   </tok>
   <tok>
    <orth>przybywa</orth>
    <lex disamb="1"><base>przybywać</base><ctag>fin:sg:ter:imperf</ctag></lex>
    <ann chan="nam">0</ann>
    <ann chan="nam_loc_gpe_country">0</ann>
    <ann chan="nam_loc">0</ann>
   </tok>
   <tok>
    <orth>singli</orth>
    <lex disamb="1"><base>singel</base><ctag>subst:pl:gen:m1</ctag></lex>
    <lex disamb="1"><base>singiel</base><ctag>subst:pl:gen:m1</ctag></lex>
    <ann chan="nam">0</ann>
    <ann chan="nam_loc_gpe_country">0</ann>
    <ann chan="nam_loc">0</ann>
   </tok>
   <ns/>
   <tok>
    <orth>.</orth>
    <lex disamb="1"><base>.</base><ctag>interp</ctag></lex>
    <ann chan="nam">0</ann>
    <ann chan="nam_loc_gpe_country">0</ann>
    <ann chan="nam_loc">0</ann>
   </tok>
  </sentence>
 </chunk>
 <chunk type="p" id="ch2">
  <sentence id="s2">
   <tok>
    <orth>Z</orth>
    <lex disamb="1"><base>z</base><ctag>prep:gen:nwok</ctag></lex>
    <ann chan="nam">0</ann>
    <ann chan="nam_org_organization">0</ann>
    <ann chan="nam_org_nation">0</ann>
    <ann chan="nam_org">0</ann>
   </tok>
   <tok>
    <orth>danych</orth>
    <lex disamb="1"><base>dana</base><ctag>subst:pl:gen:f</ctag></lex>
    <ann chan="nam">0</ann>
    <ann chan="nam_org_organization">0</ann>
    <ann chan="nam_org_nation">0</ann>
    <ann chan="nam_org">0</ann>
   </tok>
   <tok>
    <orth>GUS</orth>
    <lex disamb="1"><base>GUS</base><ctag>subst:sg:nom:m3</ctag></lex>
    <ann chan="nam">1</ann>
    <ann chan="nam_org_organization">1</ann>
    <ann chan="nam_org_nation">0</ann>
    <ann chan="nam_org">1</ann>
   </tok>
   <tok>
    <orth>wynika</orth>
    <lex disamb="1"><base>wynikać</base><ctag>fin:sg:ter:imperf</ctag></lex>
    <ann chan="nam">0</ann>
    <ann chan="nam_org_organization">0</ann>
    <ann chan="nam_org_nation">0</ann>
    <ann chan="nam_org">0</ann>
   </tok>
   <ns/>
   <tok>
    <orth>,</orth>
    <lex disamb="1"><base>,</base><ctag>interp</ctag></lex>
    <ann chan="nam">0</ann>
    <ann chan="nam_org_organization">0</ann>
    <ann chan="nam_org_nation">0</ann>
    <ann chan="nam_org">0</ann>
   </tok>
   <tok>
    <orth>że</orth>
    <lex disamb="1"><base>że</base><ctag>comp</ctag></lex>
    <ann chan="nam">0</ann>
    <ann chan="nam_org_organization">0</ann>
    <ann chan="nam_org_nation">0</ann>
    <ann chan="nam_org">0</ann>
   </tok>
   <tok>
    <orth>7</orth>
    <lex disamb="1"><base>7</base><ctag>num:pl:nom:m1:rec</ctag></lex>
    <ann chan="nam">0</ann>
    <ann chan="nam_org_organization">0</ann>
    <ann chan="nam_org_nation">0</ann>
    <ann chan="nam_org">0</ann>
   </tok>
   <tok>
    <orth>mln</orth>
    <lex disamb="1"><base>milion</base><ctag>brev:npun</ctag></lex>
    <ann chan="nam">0</ann>
    <ann chan="nam_org_organization">0</ann>
    <ann chan="nam_org_nation">0</ann>
    <ann chan="nam_org">0</ann>
   </tok>
   <tok>
    <orth>Polaków</orth>
    <lex disamb="1"><base>Polak</base><ctag>subst:pl:gen:m1</ctag></lex>
    <ann chan="nam">2</ann>
    <ann chan="nam_org_organization">0</ann>
    <ann chan="nam_org_nation">1</ann>
    <ann chan="nam_org">2</ann>
   </tok>
   <tok>
    <orth>żyje</orth>
    <lex disamb="1"><base>żyć</base><ctag>fin:sg:ter:imperf</ctag></lex>
    <ann chan="nam">0</ann>
    <ann chan="nam_org_organization">0</ann>
    <ann chan="nam_org_nation">0</ann>
    <ann chan="nam_org">0</ann>
   </tok>
   <tok>
    <orth>w</orth>
    <lex disamb="1"><base>w</base><ctag>prep:acc:nwok</ctag></lex>
    <ann chan="nam">0</ann>
    <ann chan="nam_org_organization">0</ann>
    <ann chan="nam_org_nation">0</ann>
    <ann chan="nam_org">0</ann>
   </tok>
   <tok>
    <orth>pojedynkę</orth>
    <lex disamb="1"><base>pojedynka</base><ctag>subst:sg:acc:f</ctag></lex>
    <ann chan="nam">0</ann>
    <ann chan="nam_org_organization">0</ann>
    <ann chan="nam_org_nation">0</ann>
    <ann chan="nam_org">0</ann>
   </tok>
   <ns/>
   <tok>
    <orth>.</orth>
    <lex disamb="1"><base>.</base><ctag>interp</ctag></lex>
    <ann chan="nam">0</ann>
    <ann chan="nam_org_organization">0</ann>
    <ann chan="nam_org_nation">0</ann>
    <ann chan="nam_org">0</ann>
   </tok>
  </sentence>
 </chunk>
 <chunk type="p" id="ch3">
  <sentence id="s3">
   <tok>
    <orth>Są</orth>
    <lex disamb="1"><base>być</base><ctag>fin:pl:ter:imperf</ctag></lex>
   </tok>
   <tok>
    <orth>to</orth>
    <lex disamb="1"><base>to</base><ctag>conj</ctag></lex>
   </tok>
   <tok>
    <orth>głównie</orth>
    <lex disamb="1"><base>głównie</base><ctag>adv:pos</ctag></lex>
   </tok>
   <tok>
    <orth>osoby</orth>
    <lex disamb="1"><base>osoba</base><ctag>subst:sg:gen:f</ctag></lex>
   </tok>
   <tok>
    <orth>powyżej</orth>
    <lex disamb="1"><base>powyżej</base><ctag>adv:pos</ctag></lex>
   </tok>
   <tok>
    <orth>25</orth>
    <lex disamb="1"><base>25</base><ctag>num:pl:nom:m1:rec</ctag></lex>
   </tok>
   <ns/>
   <tok>
    <orth>.</orth>
    <lex disamb="1"><base>.</base><ctag>interp</ctag></lex>
   </tok>
   <tok>
    <orth>roku</orth>
    <lex disamb="1"><base>rok</base><ctag>subst:sg:gen:m3</ctag></lex>
   </tok>
   <tok>
    <orth>życia</orth>
    <lex disamb="1"><base>życie</base><ctag>subst:sg:gen:n</ctag></lex>
   </tok>
   <ns/>
   <tok>
    <orth>,</orth>
    <lex disamb="1"><base>,</base><ctag>interp</ctag></lex>
   </tok>
   <tok>
    <orth>które</orth>
    <lex disamb="1"><base>który</base><ctag>adj:sg:nom:n:pos</ctag></lex>
   </tok>
   <tok>
    <orth>mieszkają</orth>
    <lex disamb="1"><base>mieszkać</base><ctag>fin:pl:ter:imperf</ctag></lex>
   </tok>
   <tok>
    <orth>w</orth>
    <lex disamb="1"><base>w</base><ctag>prep:acc:nwok</ctag></lex>
   </tok>
   <tok>
    <orth>dużych</orth>
    <lex disamb="1"><base>duży</base><ctag>adj:pl:gen:m1:pos</ctag></lex>
   </tok>
   <tok>
    <orth>miastach</orth>
    <lex disamb="1"><base>miasto</base><ctag>subst:pl:loc:n</ctag></lex>
   </tok>
   <ns/>
   <tok>
    <orth>,</orth>
    <lex disamb="1"><base>,</base><ctag>interp</ctag></lex>
   </tok>
   <tok>
    <orth>pracują</orth>
    <lex disamb="1"><base>pracować</base><ctag>fin:pl:ter:imperf</ctag></lex>
   </tok>
   <tok>
    <orth>w</orth>
    <lex disamb="1"><base>w</base><ctag>prep:acc:nwok</ctag></lex>
   </tok>
   <tok>
    <orth>wielkich</orth>
    <lex disamb="1"><base>wielki</base><ctag>subst:pl:gen:m1</ctag></lex>
   </tok>
   <tok>
    <orth>korporacjach</orth>
    <lex disamb="1"><base>korporacja</base><ctag>subst:pl:loc:f</ctag></lex>
   </tok>
   <ns/>
   <tok>
    <orth>.</orth>
    <lex disamb="1"><base>.</base><ctag>interp</ctag></lex>
   </tok>
  </sentence>
 </chunk>
 <chunk type="p" id="ch4">
  <sentence id="s4">
   <tok>
    <orth>Blisko</orth>
    <lex disamb="1"><base>blisko</base><ctag>adv:pos</ctag></lex>
   </tok>
   <tok>
    <orth>50</orth>
    <lex disamb="1"><base>50</base><ctag>num:pl:nom:m1:rec</ctag></lex>
   </tok>
   <ns/>
   <tok>
    <orth>%</orth>
    <lex disamb="1"><base>%</base><ctag>interp</ctag></lex>
   </tok>
   <tok>
    <orth>z</orth>
    <lex disamb="1"><base>z</base><ctag>prep:gen:nwok</ctag></lex>
   </tok>
   <tok>
    <orth>nich</orth>
    <lex disamb="1"><base>on</base><ctag>ppron3:pl:loc:m1:ter:akc:npraep</ctag></lex>
   </tok>
   <tok>
    <orth>to</orth>
    <lex disamb="1"><base>to</base><ctag>conj</ctag></lex>
   </tok>
   <tok>
    <orth>single</orth>
    <lex disamb="1"><base>singel</base><ctag>subst:pl:nom:m1</ctag></lex>
    <lex disamb="1"><base>singiel</base><ctag>subst:pl:nom:m1</ctag></lex>
   </tok>
   <tok>
    <orth>z</orth>
    <lex disamb="1"><base>z</base><ctag>prep:gen:nwok</ctag></lex>
   </tok>
   <tok>
    <orth>wyboru</orth>
    <lex disamb="1"><base>wybór</base><ctag>subst:sg:gen:m3</ctag></lex>
   </tok>
   <ns/>
   <tok>
    <orth>.</orth>
    <lex disamb="1"><base>.</base><ctag>interp</ctag></lex>
   </tok>
  </sentence>
 </chunk>
</chunkList>