<?xml version="1.0" encoding="UTF-8"?>
<!DOCTYPE chunkList SYSTEM "ccl.dtd">
<chunkList>
 <chunk type="p" id="ch1">
  <sentence id="s1">
   <tok>
    <orth>Zmarł</orth>
    <lex disamb="1"><base>zemrzeć</base><ctag>praet:sg:m1:perf</ctag></lex>
    <ann chan="nam">0</ann>
    <ann chan="nam_loc_gpe_country">0</ann>
    <ann chan="nam_liv_person">0</ann>
    <ann chan="nam_loc">0</ann>
    <ann chan="nam_liv">0</ann>
   </tok>
   <tok>
    <orth>były</orth>
    <lex disamb="1"><base>były</base><ctag>subst:sg:nom:m1</ctag></lex>
    <ann chan="nam">0</ann>
    <ann chan="nam_loc_gpe_country">0</ann>
    <ann chan="nam_liv_person">0</ann>
    <ann chan="nam_loc">0</ann>
    <ann chan="nam_liv">0</ann>
   </tok>
   <tok>
    <orth>prezydent</orth>
    <lex disamb="1"><base>prezydent</base><ctag>subst:sg:nom:m1</ctag></lex>
    <ann chan="nam">0</ann>
    <ann chan="nam_loc_gpe_country">0</ann>
    <ann chan="nam_liv_person">0</ann>
    <ann chan="nam_loc">0</ann>
    <ann chan="nam_liv">0</ann>
   </tok>
   <tok>
    <orth>Stanów</orth>
    <lex disamb="1"><base>Stany</base><ctag>subst:pl:gen:n</ctag></lex>
    <ann chan="nam">1</ann>
    <ann chan="nam_loc_gpe_country">1</ann>
    <ann chan="nam_liv_person">0</ann>
    <ann chan="nam_loc">1</ann>
    <ann chan="nam_liv">0</ann>
   </tok>
   <tok>
    <orth>Zjednoczonych</orth>
    <lex disamb="1"><base>zjednoczyć</base><ctag>ppas:pl:gen:m1:perf:aff</ctag></lex>
    <ann chan="nam">1</ann>
    <ann chan="nam_loc_gpe_country">1</ann>
    <ann chan="nam_liv_person">0</ann>
    <ann chan="nam_loc">1</ann>
    <ann chan="nam_liv">0</ann>
   </tok>
   <tok>
    <orth>George</orth>
    <lex disamb="1"><base>George</base><ctag>subst:sg:nom:m1</ctag></lex>
    <ann chan="nam">1</ann>
    <ann chan="nam_loc_gpe_country">0</ann>
    <ann chan="nam_liv_person">1</ann>
    <ann chan="nam_loc">0</ann>
    <ann chan="nam_liv">1</ann>
   </tok>
   <tok>
    <orth>H</orth>
    <lex disamb="1"><base>H</base><ctag>ign</ctag></lex>
    <ann chan="nam">1</ann>
    <ann chan="nam_loc_gpe_country">0</ann>
    <ann chan="nam_liv_person">1</ann>
    <ann chan="nam_loc">0</ann>
    <ann chan="nam_liv">1</ann>
   </tok>
   <ns/>
   <tok>
    <orth>.</orth>
    <lex disamb="1"><base>.</base><ctag>interp</ctag></lex>
    <ann chan="nam">1</ann>
    <ann chan="nam_loc_gpe_country">0</ann>
    <ann chan="nam_liv_person">1</ann>
    <ann chan="nam_loc">0</ann>
    <ann chan="nam_liv">1</ann>
   </tok>
   <ns/>
   <tok>
    <orth>W</orth>
    <lex disamb="1"><base>w</base><ctag>prep:acc:nwok</ctag></lex>
    <ann chan="nam">1</ann>
    <ann chan="nam_loc_gpe_country">0</ann>
    <ann chan="nam_liv_person">1</ann>
    <ann chan="nam_loc">0</ann>
    <ann chan="nam_liv">1</ann>
   </tok>
   <ns/>
   <tok>
    <orth>.</orth>
    <lex disamb="1"><base>.</base><ctag>interp</ctag></lex>
    <ann chan="nam">1</ann>
    <ann chan="nam_loc_gpe_country">0</ann>
    <ann chan="nam_liv_person">1</ann>
    <ann chan="nam_loc">0</ann>
    <ann chan="nam_liv">1</ann>
   </tok>
   <tok>
    <orth>Bush</orth>
    <lex disamb="1"><base>Bush</base><ctag>subst:sg:nom:m1</ctag></lex>
    <ann chan="nam">1</ann>
    <ann chan="nam_loc_gpe_country">0</ann>
    <ann chan="nam_liv_person">1</ann>
    <ann chan="nam_loc">0</ann>
    <ann chan="nam_liv">1</ann>
   </tok>
   <tok>
    <orth>-</orth>
    <lex disamb="1"><base>-</base><ctag>interp</ctag></lex>
    <ann chan="nam">0</ann>
    <ann chan="nam_loc_gpe_country">0</ann>
    <ann chan="nam_liv_person">0</ann>
    <ann chan="nam_loc">0</ann>
    <ann chan="nam_liv">0</ann>
   </tok>
   <tok>
    <orth>podaje</orth>
    <lex disamb="1"><base>podawać</base><ctag>fin:sg:ter:imperf</ctag></lex>
    <ann chan="nam">0</ann>
    <ann chan="nam_loc_gpe_country">0</ann>
    <ann chan="nam_liv_person">0</ann>
    <ann chan="nam_loc">0</ann>
    <ann chan="nam_liv">0</ann>
   </tok>
   <tok>
    <orth>USA</orth>
    <lex disamb="1"><base>USA</base><ctag>subst:pl:nom:n</ctag></lex>
    <ann chan="nam">2</ann>
    <ann chan="nam_loc_gpe_country">2</ann>
    <ann chan="nam_liv_person">0</ann>
    <ann chan="nam_loc">2</ann>
    <ann chan="nam_liv">0</ann>
   </tok>
   <tok>
    <orth>Today</orth>
    <lex disamb="1"><base>Today</base><ctag>ign</ctag></lex>
    <ann chan="nam">2</ann>
    <ann chan="nam_loc_gpe_country">2</ann>
    <ann chan="nam_liv_person">0</ann>
    <ann chan="nam_loc">2</ann>
    <ann chan="nam_liv">0</ann>
   </tok>
   <ns/>
   <tok>
    <orth>.</orth>
    <lex disamb="1"><base>.</base><ctag>interp</ctag></lex>
    <ann chan="nam">0</ann>
    <ann chan="nam_loc_gpe_country">0</ann>
    <ann chan="nam_liv_person">0</ann>
    <ann chan="nam_loc">0</ann>
    <ann chan="nam_liv">0</ann>
   </tok>
  </sentence>
 </chunk>
 <chunk type="p" id="ch2">
  <sentence id="s2">
   <tok>
    <orth>Miał</orth>
    <lex disamb="1"><base>miał</base><ctag>subst:sg:nom:m3</ctag></lex>
    <ann chan="timex">0</ann>
    <ann chan="t3_duration">0</ann>
   </tok>
   <tok>
    <orth>94</orth>
    <lex disamb="1"><base>94</base><ctag>num:pl:nom:m1:rec</ctag></lex>
    <ann chan="timex">1</ann>
    <ann chan="t3_duration">1</ann>
   </tok>
   <tok>
    <orth>lata</orth>
    <lex disamb="1"><base>lato</base><ctag>subst:sg:gen:n</ctag></lex>
    <ann chan="timex">1</ann>
    <ann chan="t3_duration">1</ann>
   </tok>
   <ns/>
   <tok>
    <orth>.</orth>
    <lex disamb="1"><base>.</base><ctag>interp</ctag></lex>
    <ann chan="timex">0</ann>
    <ann chan="t3_duration">0</ann>
   </tok>
  </sentence>
 </chunk>
</chunkList>