<?xml version="1.0" encoding="UTF-8"?>
<!DOCTYPE chunkList SYSTEM "ccl.dtd">
<chunkList>
 <chunk type="p" id="ch1">
  <sentence id="s1">
   <tok>
    <orth>Nowy</orth>
    <lex disamb="1"><base>nowy</base><ctag>subst:sg:nom:m1</ctag></lex>
   </tok>
   <tok>
    <orth>raport</orth>
    <lex disamb="1"><base>raport</base><ctag>subst:sg:nom:m3</ctag></lex>
   </tok>
   <tok>
    <orth>odsłania</orth>
    <lex disamb="1"><base>odsłaniać</base><ctag>fin:sg:ter:imperf</ctag></lex>
   </tok>
   <tok>
    <orth>mroczne</orth>
    <lex disamb="1"><base>mroczny</base><ctag>adj:sg:nom:n:pos</ctag></lex>
   </tok>
   <tok>
    <orth>kulisy</orth>
    <lex disamb="1"><base>kulisa</base><ctag>subst:sg:gen:f</ctag></lex>
   </tok>
   <tok>
    <orth>świata</orth>
    <lex disamb="1"><base>świat</base><ctag>subst:sg:gen:m3</ctag></lex>
   </tok>
   <tok>
    <orth>nauki</orth>
    <lex disamb="1"><base>nauka</base><ctag>subst:sg:gen:f</ctag></lex>
   </tok>
   <ns/>
   <tok>
    <orth>.</orth>
    <lex disamb="1"><base>.</base><ctag>interp</ctag></lex>
   </tok>
  </sentence>
 </chunk>
 <chunk type="p" id="ch2">
  <sentence id="s2">
   <tok>
    <orth>Aż</orth>
    <lex disamb="1"><base>aż</base><ctag>comp</ctag></lex>
   </tok>
   <tok>
    <orth>jeden</orth>
    <lex disamb="1"><base>jeden</base><ctag>subst:sg:nom:m2</ctag></lex>
   </tok>
   <tok>
    <orth>na</orth>
    <lex disamb="1"><base>na</base><ctag>prep:acc</ctag></lex>
   </tok>
   <tok>
    <orth>czterech</orth>
    <lex disamb="1"><base>cztery</base><ctag>num:pl:nom:m1:rec</ctag></lex>
    <lex disamb="1"><base>cztery</base><ctag>num:pl:nom:m1:rec</ctag></lex>
    <lex disamb="1"><base>cztery</base><ctag>num:pl:nom:m1:rec</ctag></lex>
    <lex disamb="1"><base>cztery</base><ctag>num:pl:nom:m1:rec</ctag></lex>
    <lex disamb="1"><base>cztery</base><ctag>num:pl:nom:m1:rec</ctag></lex>
    <lex disamb="1"><base>cztery</base><ctag>num:pl:nom:m1:rec</ctag></lex>
    <lex disamb="1"><base>cztery</base><ctag>num:pl:nom:m1:rec</ctag></lex>
    <lex disamb="1"><base>cztery</base><ctag>num:pl:nom:m1:rec</ctag></lex>
    <lex disamb="1"><base>cztery</base><ctag>num:pl:nom:m1:rec</ctag></lex>
    <lex disamb="1"><base>cztery</base><ctag>num:pl:nom:m1:rec</ctag></lex>
    <lex disamb="1"><base>cztery</base><ctag>num:pl:nom:m1:rec</ctag></lex>
    <lex disamb="1"><base>cztery</base><ctag>num:pl:nom:m1:rec</ctag></lex>
    <lex disamb="1"><base>cztery</base><ctag>num:pl:nom:m1:rec</ctag></lex>
   </tok>
   <tok>
    <orth>statystyków</orth>
    <lex disamb="1"><base>statystyk</base><ctag>subst:pl:gen:m1</ctag></lex>
   </tok>
   <tok>
    <orth>przyznaje</orth>
    <lex disamb="1"><base>przyznawać</base><ctag>fin:sg:ter:imperf</ctag></lex>
   </tok>
   <ns/>
   <tok>
    <orth>,</orth>
    <lex disamb="1"><base>,</base><ctag>interp</ctag></lex>
   </tok>
   <tok>
    <orth>że</orth>
    <lex disamb="1"><base>że</base><ctag>comp</ctag></lex>
   </tok>
   <tok>
    <orth>zostali</orth>
    <lex disamb="1"><base>zostać</base><ctag>praet:pl:m1:perf</ctag></lex>
   </tok>
   <tok>
    <orth>poproszeni</orth>
    <lex disamb="1"><base>poprosić</base><ctag>ppas:pl:nom:m1:perf:aff</ctag></lex>
   </tok>
   <tok>
    <orth>przez</orth>
    <lex disamb="1"><base>przez</base><ctag>prep:acc:nwok</ctag></lex>
   </tok>
   <tok>
    <orth>prowadzących</orth>
    <lex disamb="1"><base>prowadząca</base><ctag>subst:pl:gen:f</ctag></lex>
   </tok>
   <tok>
    <orth>badania</orth>
    <lex disamb="1"><base>badanie</base><ctag>subst:sg:gen:n</ctag></lex>
   </tok>
   <tok>
    <orth>naukowców</orth>
    <lex disamb="1"><base>naukowiec</base><ctag>subst:pl:gen:m1</ctag></lex>
   </tok>
   <tok>
    <orth>o</orth>
    <lex disamb="1"><base>o</base><ctag>prep:acc</ctag></lex>
   </tok>
   <tok>
    <orth>zawyżenie</orth>
    <lex disamb="1"><base>zawyżyć</base><ctag>ger:sg:nom:n:perf:aff</ctag></lex>
   </tok>
   <tok>
    <orth>lub</orth>
    <lex disamb="1"><base>lub</base><ctag>conj</ctag></lex>
   </tok>
   <tok>
    <orth>zaniżenie</orth>
    <lex disamb="1"><base>zaniżyć</base><ctag>ger:sg:nom:n:perf:aff</ctag></lex>
   </tok>
   <tok>
    <orth>statystycznych</orth>
    <lex disamb="1"><base>statystyczny</base><ctag>adj:pl:gen:m1:pos</ctag></lex>
   </tok>
   <tok>
    <orth>wyników</orth>
    <lex disamb="1"><base>wynik</base><ctag>subst:pl:gen:m3</ctag></lex>
   </tok>
   <tok>
    <orth>w</orth>
    <lex disamb="1"><base>w</base><ctag>prep:acc:nwok</ctag></lex>
   </tok>
   <tok>
    <orth>celu</orth>
    <lex disamb="1"><base>cel</base><ctag>subst:sg:gen:m3</ctag></lex>
   </tok>
   <tok>
    <orth>dopasowania</orth>
    <lex disamb="1"><base>dopasować</base><ctag>ger:sg:gen:n:perf:aff</ctag></lex>
   </tok>
   <tok>
    <orth>ich</orth>
    <lex disamb="1"><base>on</base><ctag>ppron3:pl:gen:m1:ter:akc:npraep</ctag></lex>
   </tok>
   <tok>
    <orth>do</orth>
    <lex disamb="1"><base>do</base><ctag>prep:gen</ctag></lex>
   </tok>
   <tok>
    <orth>postawionej</orth>
    <lex disamb="1"><base>postawić</base><ctag>ppas:sg:gen:f:perf:aff</ctag></lex>
   </tok>
   <tok>
    <orth>tezy</orth>
    <lex disamb="1"><base>teza</base><ctag>subst:sg:gen:f</ctag></lex>
   </tok>
   <ns/>
   <tok>
    <orth>.</orth>
    <lex disamb="1"><base>.</base><ctag>interp</ctag></lex>
   </tok>
  </sentence>
 </chunk>
 <chunk type="p" id="ch3">
  <sentence id="s3">
   <tok>
    <orth>Wstrząsający</orth>
    <lex disamb="1"><base>wstrząsający</base><ctag>adj:sg:nom:m1:pos</ctag></lex>
   </tok>
   <tok>
    <orth>raport</orth>
    <lex disamb="1"><base>raport</base><ctag>subst:sg:nom:m3</ctag></lex>
   </tok>
   <tok>
    <orth>wiele</orth>
    <lex disamb="1"><base>wiele</base><ctag>adv:pos</ctag></lex>
   </tok>
   <tok>
    <orth>wyjaśnia</orth>
    <lex disamb="1"><base>wyjaśniać</base><ctag>fin:sg:ter:imperf</ctag></lex>
   </tok>
   <ns/>
   <tok>
    <orth>.</orth>
    <lex disamb="1"><base>.</base><ctag>interp</ctag></lex>
   </tok>
  </sentence>
 </chunk>
</chunkList>