<?xml version="1.0" encoding="UTF-8"?>
<!DOCTYPE chunkList SYSTEM "ccl.dtd">
<chunkList>
 <chunk type="p" id="ch1">
  <sentence id="s1">
   <tok>
    <orth>Managerowie</orth>
    <lex disamb="1"><base>manager</base><ctag>subst:pl:nom:m1</ctag></lex>
   </tok>
   <tok>
    <orth>wysokich</orth>
    <lex disamb="1"><base>wysoki</base><ctag>adj:pl:gen:m1:pos</ctag></lex>
   </tok>
   <tok>
    <orth>szczebli</orth>
    <lex disamb="1"><base>szczebel</base><ctag>subst:pl:gen:m3</ctag></lex>
   </tok>
   <tok>
    <orth>tak</orth>
    <lex disamb="1"><base>tak</base><ctag>adv:pos</ctag></lex>
   </tok>
   <tok>
    <orth>bardzo</orth>
    <lex disamb="1"><base>bardzo</base><ctag>adv:pos</ctag></lex>
   </tok>
   <tok>
    <orth>boją</orth>
    <lex disamb="1"><base>boja</base><ctag>subst:sg:inst:f</ctag></lex>
   </tok>
   <tok>
    <orth>się</orth>
    <lex disamb="1"><base>się</base><ctag>qub</ctag></lex>
   </tok>
   <tok>
    <orth>oskarżeń</orth>
    <lex disamb="1"><base>oskarżenie</base><ctag>subst:pl:gen:n</ctag></lex>
   </tok>
   <tok>
    <orth>kobiet</orth>
    <lex disamb="1"><base>kobieta</base><ctag>subst:pl:gen:f</ctag></lex>
   </tok>
   <tok>
    <orth>o</orth>
    <lex disamb="1"><base>o</base><ctag>prep:acc</ctag></lex>
   </tok>
   <tok>
    <orth>napaść</orth>
    <lex disamb="1"><base>napaść</base><ctag>inf:perf</ctag></lex>
   </tok>
   <tok>
    <orth>seksualną</orth>
    <lex disamb="1"><base>seksualny</base><ctag>adj:sg:acc:f:pos</ctag></lex>
   </tok>
   <ns/>
   <tok>
    <orth>,</orth>
    <lex disamb="1"><base>,</base><ctag>interp</ctag></lex>
   </tok>
   <tok>
    <orth>że</orth>
    <lex disamb="1"><base>że</base><ctag>comp</ctag></lex>
   </tok>
   <tok>
    <orth>zaczynają</orth>
    <lex disamb="1"><base>zaczynać</base><ctag>fin:pl:ter:imperf</ctag></lex>
   </tok>
   <tok>
    <orth>coraz</orth>
    <lex disamb="1"><base>coraz</base><ctag>adv:pos</ctag></lex>
   </tok>
   <tok>
    <orth>bardziej</orth>
    <lex disamb="1"><base>bardziej</base><ctag>adv:pos</ctag></lex>
   </tok>
   <tok>
    <orth>izolować</orth>
    <lex disamb="1"><base>izolować</base><ctag>inf:imperf</ctag></lex>
   </tok>
   <tok>
    <orth>się</orth>
    <lex disamb="1"><base>się</base><ctag>qub</ctag></lex>
   </tok>
   <tok>
    <orth>od</orth>
    <lex disamb="1"><base>od</base><ctag>prep:gen:nwok</ctag></lex>
   </tok>
   <tok>
    <orth>nich</orth>
    <lex disamb="1"><base>on</base><ctag>ppron3:pl:loc:m1:ter:akc:npraep</ctag></lex>
   </tok>
   <ns/>
   <tok>
    <orth>.</orth>
    <lex disamb="1"><base>.</base><ctag>interp</ctag></lex>
   </tok>
  </sentence>
 </chunk>
 <chunk type="p" id="ch2">
  <sentence id="s2">
   <tok>
    <orth>Przez</orth>
    <lex disamb="1"><base>przez</base><ctag>prep:acc:nwok</ctag></lex>
   </tok>
   <tok>
    <orth>to</orth>
    <lex disamb="1"><base>to</base><ctag>conj</ctag></lex>
   </tok>
   <tok>
    <orth>kobiety</orth>
    <lex disamb="1"><base>kobieta</base><ctag>subst:sg:gen:f</ctag></lex>
   </tok>
   <tok>
    <orth>tracą</orth>
    <lex disamb="1"><base>tracić</base><ctag>fin:pl:ter:imperf</ctag></lex>
   </tok>
   <tok>
    <orth>szansę</orth>
    <lex disamb="1"><base>szansa</base><ctag>subst:sg:acc:f</ctag></lex>
   </tok>
   <tok>
    <orth>na</orth>
    <lex disamb="1"><base>na</base><ctag>prep:acc</ctag></lex>
   </tok>
   <tok>
    <orth>awanse</orth>
    <lex disamb="1"><base>awans</base><ctag>subst:pl:nom:m3</ctag></lex>
   </tok>
   <tok>
    <orth>i</orth>
    <lex disamb="1"><base>i</base><ctag>conj</ctag></lex>
   </tok>
   <tok>
    <orth>mentoring</orth>
    <lex disamb="1"><base>mentoring</base><ctag>ign</ctag></lex>
   </tok>
   <tok>
    <orth>ze</orth>
    <lex disamb="1"><base>z</base><ctag>prep:gen:wok</ctag></lex>
   </tok>
   <tok>
    <orth>strony</orth>
    <lex disamb="1"><base>strona</base><ctag>subst:sg:gen:f</ctag></lex>
   </tok>
   <tok>
    <orth>męskiej</orth>
    <lex disamb="1"><base>męski</base><ctag>adj:sg:gen:f:pos</ctag></lex>
   </tok>
   <tok>
    <orth>części</orth>
    <lex disamb="1"><base>część</base><ctag>subst:sg:gen:f</ctag></lex>
   </tok>
   <tok>
    <orth>kadry</orth>
    <lex disamb="1"><base>kadr</base><ctag>subst:pl:nom:m3</ctag></lex>
   </tok>
   <tok>
    <orth>zarządzającej</orth>
    <lex disamb="1"><base>zarządzająca</base><ctag>subst:sg:gen:f</ctag></lex>
   </tok>
   <ns/>
   <tok>
    <orth>.</orth>
    <lex disamb="1"><base>.</base><ctag>interp</ctag></lex>
   </tok>
  </sentence>
 </chunk>
</chunkList>