<?xml version="1.0" encoding="UTF-8"?>
<!DOCTYPE chunkList SYSTEM "ccl.dtd">
<chunkList>
 <chunk type="p" id="ch1">
  <sentence id="s1">
   <tok>
    <orth>20</orth>
    <lex disamb="1"><base>20</base><ctag>num:pl:nom:m1:rec</ctag></lex>
   </tok>
   <tok>
    <orth>najbardziej</orth>
    <lex disamb="1"><base>najbardziej</base><ctag>adv:pos</ctag></lex>
   </tok>
   <tok>
    <orth>niestabilnych</orth>
    <lex disamb="1"><base>niestabilny</base><ctag>adj:pl:gen:m1:pos</ctag></lex>
   </tok>
   <tok>
    <orth>państw</orth>
    <lex disamb="1"><base>państwo</base><ctag>subst:pl:gen:n</ctag></lex>
   </tok>
   <tok>
    <orth>na</orth>
    <lex disamb="1"><base>na</base><ctag>prep:acc</ctag></lex>
   </tok>
   <tok>
    <orth>świecie</orth>
    <lex disamb="1"><base>świat</base><ctag>subst:sg:loc:m3</ctag></lex>
   </tok>
   <tok>
    <orth>to</orth>
    <lex disamb="1"><base>to</base><ctag>conj</ctag></lex>
   </tok>
   <tok>
    <orth>państwa</orth>
    <lex disamb="1"><base>państwo</base><ctag>subst:sg:gen:n</ctag></lex>
   </tok>
   <tok>
    <orth>w</orth>
    <lex disamb="1"><base>w</base><ctag>prep:acc:nwok</ctag></lex>
   </tok>
   <tok>
    <orth>których</orth>
    <lex disamb="1"><base>który</base><ctag>adj:pl:gen:m1:pos</ctag></lex>
   </tok>
   <tok>
    <orth>stosuje</orth>
    <lex disamb="1"><base>stosować</base><ctag>fin:sg:ter:imperf</ctag></lex>
   </tok>
   <tok>
    <orth>się</orth>
    <lex disamb="1"><base>się</base><ctag>qub</ctag></lex>
   </tok>
   <tok>
    <orth>poligamię</orth>
    <lex disamb="1"><base>poligamia</base><ctag>subst:sg:acc:f</ctag></lex>
   </tok>
   <ns/>
   <tok>
    <orth>.</orth>
    <lex disamb="1"><base>.</base><ctag>interp</ctag></lex>
   </tok>
  </sentence>
 </chunk>
 <chunk type="p" id="ch2">
  <sentence id="s2">
   <tok>
    <orth>Jeśli</orth>
    <lex disamb="1"><base>jeśli</base><ctag>comp</ctag></lex>
   </tok>
   <tok>
    <orth>10</orth>
    <lex disamb="1"><base>10</base><ctag>num:pl:nom:m1:rec</ctag></lex>
   </tok>
   <ns/>
   <tok>
    <orth>%</orth>
    <lex disamb="1"><base>%</base><ctag>interp</ctag></lex>
   </tok>
   <tok>
    <orth>mężczyzn</orth>
    <lex disamb="1"><base>mężczyzna</base><ctag>subst:pl:gen:m1</ctag></lex>
   </tok>
   <tok>
    <orth>ma</orth>
    <lex disamb="1"><base>mój</base><ctag>adj:sg:nom:f:pos</ctag></lex>
   </tok>
   <tok>
    <orth>cztery</orth>
    <lex disamb="1"><base>cztery</base><ctag>num:pl:nom:m1:rec</ctag></lex>
    <lex disamb="1"><base>cztery</base><ctag>num:pl:nom:m1:rec</ctag></lex>
    <lex disamb="1"><base>cztery</base><ctag>num:pl:nom:m1:rec</ctag></lex>
    <lex disamb="1"><base>cztery</base><ctag>num:pl:nom:m1:rec</ctag></lex>
    <lex disamb="1"><base>cztery</base><ctag>num:pl:nom:m1:rec</ctag></lex>
    <lex disamb="1"><base>cztery</base><ctag>num:pl:nom:m1:rec</ctag></lex>
    <lex disamb="1"><base>cztery</base><ctag>num:pl:nom:m1:rec</ctag></lex>
    <lex disamb="1"><base>cztery</base><ctag>num:pl:nom:m1:rec</ctag></lex>
    <lex disamb="1"><base>cztery</base><ctag>num:pl:nom:m1:rec</ctag></lex>
    <lex disamb="1"><base>cztery</base><ctag>num:pl:nom:m1:rec</ctag></lex>
    <lex disamb="1"><base>cztery</base><ctag>num:pl:nom:m1:rec</ctag></lex>
    <lex disamb="1"><base>cztery</base><ctag>num:pl:nom:m1:rec</ctag></lex>
   </tok>
   <tok>
    <orth>żony</orth>
    <lex disamb="1"><base>żona</base><ctag>subst:sg:gen:f</ctag></lex>
   </tok>
   <tok>
    <orth>to</orth>
    <lex disamb="1"><base>to</base><ctag>conj</ctag></lex>
   </tok>
   <tok>
    <orth>30</orth>
    <lex disamb="1"><base>30</base><ctag>num:pl:nom:m1:rec</ctag></lex>
   </tok>
   <ns/>
   <tok>
    <orth>%</orth>
    <lex disamb="1"><base>%</base><ctag>interp</ctag></lex>
   </tok>
   <tok>
    <orth>mężczyzn</orth>
    <lex disamb="1"><base>mężczyzna</base><ctag>subst:pl:gen:m1</ctag></lex>
   </tok>
   <tok>
    <orth>będzie</orth>
    <lex disamb="1"><base>być</base><ctag>bedzie:sg:ter:imperf</ctag></lex>
   </tok>
   <tok>
    <orth>samotnych</orth>
    <lex disamb="1"><base>samotny</base><ctag>adj:pl:gen:m1:pos</ctag></lex>
   </tok>
   <ns/>
   <tok>
    <orth>.</orth>
    <lex disamb="1"><base>.</base><ctag>interp</ctag></lex>
   </tok>
  </sentence>
 </chunk>
 <chunk type="p" id="ch3">
  <sentence id="s3">
   <tok>
    <orth>Samotni</orth>
    <lex disamb="1"><base>samotnia</base><ctag>subst:sg:gen:f</ctag></lex>
   </tok>
   <tok>
    <orth>mężczyźni</orth>
    <lex disamb="1"><base>mężczyzna</base><ctag>subst:pl:nom:m1</ctag></lex>
   </tok>
   <tok>
    <orth>będą</orth>
    <lex disamb="1"><base>być</base><ctag>bedzie:pl:ter:imperf</ctag></lex>
   </tok>
   <tok>
    <orth>zdesperowani</orth>
    <lex disamb="1"><base>zdesperowany</base><ctag>adj:pl:nom:m1:pos</ctag></lex>
   </tok>
   <tok>
    <orth>i</orth>
    <lex disamb="1"><base>i</base><ctag>conj</ctag></lex>
   </tok>
   <tok>
    <orth>zdestabilizują</orth>
    <lex disamb="1"><base>zdestabilizować</base><ctag>fin:pl:ter:perf</ctag></lex>
   </tok>
   <tok>
    <orth>państwo</orth>
    <lex disamb="1"><base>państwo</base><ctag>subst:sg:nom:n</ctag></lex>
   </tok>
   <ns/>
   <tok>
    <orth>.</orth>
    <lex disamb="1"><base>.</base><ctag>interp</ctag></lex>
   </tok>
  </sentence>
 </chunk>
 <chunk type="p" id="ch4">
  <sentence id="s4">
   <tok>
    <orth>Podobne</orth>
    <lex disamb="1"><base>podobny</base><ctag>adj:sg:nom:n:pos</ctag></lex>
   </tok>
   <tok>
    <orth>skutki</orth>
    <lex disamb="1"><base>skutek</base><ctag>subst:pl:nom:m3</ctag></lex>
   </tok>
   <tok>
    <orth>może</orth>
    <lex disamb="1"><base>może</base><ctag>qub</ctag></lex>
   </tok>
   <tok>
    <orth>mieć</orth>
    <lex disamb="1"><base>mieć</base><ctag>inf:imperf</ctag></lex>
   </tok>
   <tok>
    <orth>masowa</orth>
    <lex disamb="1"><base>masowy</base><ctag>adj:sg:nom:f:pos</ctag></lex>
   </tok>
   <tok>
    <orth>imigracja</orth>
    <lex disamb="1"><base>imigracja</base><ctag>subst:sg:nom:f</ctag></lex>
   </tok>
   <tok>
    <orth>mężczyzn</orth>
    <lex disamb="1"><base>mężczyzna</base><ctag>subst:pl:gen:m1</ctag></lex>
   </tok>
   <tok>
    <orth>i</orth>
    <lex disamb="1"><base>i</base><ctag>conj</ctag></lex>
   </tok>
   <tok>
    <orth>zaburzenie</orth>
    <lex disamb="1"><base>zaburzenie</base><ctag>subst:sg:nom:n</ctag></lex>
   </tok>
   <tok>
    <orth>równowagi</orth>
    <lex disamb="1"><base>równowaga</base><ctag>subst:sg:gen:f</ctag></lex>
   </tok>
   <tok>
    <orth>płci</orth>
    <lex disamb="1"><base>płeć</base><ctag>subst:sg:gen:f</ctag></lex>
   </tok>
  </sentence>
 </chunk>
</chunkList>