<?xml version="1.0" encoding="UTF-8"?>
<!DOCTYPE chunkList SYSTEM "ccl.dtd">
<chunkList>
 <chunk type="p" id="ch1">
  <sentence id="s1">
   <tok>
    <orth>Naukowiec</orth>
    <lex disamb="1"><base>naukowiec</base><ctag>subst:sg:nom:m1</ctag></lex>
    <ann chan="nam">0</ann>
    <ann chan="nam_org_organization">0</ann>
    <ann chan="nam_org">0</ann>
   </tok>
   <tok>
    <orth>z</orth>
    <lex disamb="1"><base>z</base><ctag>prep:gen:nwok</ctag></lex>
    <ann chan="nam">0</ann>
    <ann chan="nam_org_organization">0</ann>
    <ann chan="nam_org">0</ann>
   </tok>
   <tok>
    <orth>Uniwersytetu</orth>
    <lex disamb="1"><base>uniwersytet</base><ctag>subst:sg:gen:m3</ctag></lex>
    <ann chan="nam">1</ann>
    <ann chan="nam_org_organization">1</ann>
    <ann chan="nam_org">1</ann>
   </tok>
   <tok>
    <orth>Oksfordzkiego</orth>
    <lex disamb="1"><base>oksfordzki</base><ctag>adj:sg:gen:m1:pos</ctag></lex>
    <ann chan="nam">1</ann>
    <ann chan="nam_org_organization">1</ann>
    <ann chan="nam_org">1</ann>
   </tok>
   <tok>
    <orth>być</orth>
    <lex disamb="1"><base>być</base><ctag>inf:imperf</ctag></lex>
    <ann chan="nam">0</ann>
    <ann chan="nam_org_organization">0</ann>
    <ann chan="nam_org">0</ann>
   </tok>
   <tok>
    <orth>może</orth>
    <lex disamb="1"><base>może</base><ctag>qub</ctag></lex>
    <ann chan="nam">0</ann>
    <ann chan="nam_org_organization">0</ann>
    <ann chan="nam_org">0</ann>
   </tok>
   <tok>
    <orth>rozwiązał</orth>
    <lex disamb="1"><base>rozwiązać</base><ctag>praet:sg:m1:perf</ctag></lex>
    <ann chan="nam">0</ann>
    <ann chan="nam_org_organization">0</ann>
    <ann chan="nam_org">0</ann>
   </tok>
   <tok>
    <orth>jeden</orth>
    <lex disamb="1"><base>jeden</base><ctag>subst:sg:nom:m2</ctag></lex>
    <ann chan="nam">0</ann>
    <ann chan="nam_org_organization">0</ann>
    <ann chan="nam_org">0</ann>
   </tok>
   <tok>
    <orth>z</orth>
    <lex disamb="1"><base>z</base><ctag>prep:gen:nwok</ctag></lex>
    <ann chan="nam">0</ann>
    <ann chan="nam_org_organization">0</ann>
    <ann chan="nam_org">0</ann>
   </tok>
   <tok>
    <orth>największych</orth>
    <lex disamb="1"><base>duży</base><ctag>adj:pl:gen:m1:sup</ctag></lex>
    <lex disamb="1"><base>wielki</base><ctag>adj:pl:gen:m1:sup</ctag></lex>
    <ann chan="nam">0</ann>
    <ann chan="nam_org_organization">0</ann>
    <ann chan="nam_org">0</ann>
   </tok>
   <tok>
    <orth>problemów</orth>
    <lex disamb="1"><base>problem</base><ctag>subst:pl:gen:m3</ctag></lex>
    <ann chan="nam">0</ann>
    <ann chan="nam_org_organization">0</ann>
    <ann chan="nam_org">0</ann>
   </tok>
   <tok>
    <orth>we</orth>
    <lex disamb="1"><base>w</base><ctag>prep:acc:wok</ctag></lex>
    <ann chan="nam">0</ann>
    <ann chan="nam_org_organization">0</ann>
    <ann chan="nam_org">0</ann>
   </tok>
   <tok>
    <orth>współczesnej</orth>
    <lex disamb="1"><base>współczesny</base><ctag>adj:sg:gen:f:pos</ctag></lex>
    <ann chan="nam">0</ann>
    <ann chan="nam_org_organization">0</ann>
    <ann chan="nam_org">0</ann>
   </tok>
   <tok>
    <orth>fizyce</orth>
    <lex disamb="1"><base>fizyka</base><ctag>subst:sg:dat:f</ctag></lex>
    <ann chan="nam">0</ann>
    <ann chan="nam_org_organization">0</ann>
    <ann chan="nam_org">0</ann>
   </tok>
   <ns/>
   <tok>
    <orth>.</orth>
    <lex disamb="1"><base>.</base><ctag>interp</ctag></lex>
    <ann chan="nam">0</ann>
    <ann chan="nam_org_organization">0</ann>
    <ann chan="nam_org">0</ann>
   </tok>
  </sentence>
 </chunk>
 <chunk type="p" id="ch2">
  <sentence id="s2">
   <tok>
    <orth>Zaproponował</orth>
    <lex disamb="1"><base>zaproponować</base><ctag>praet:sg:m1:perf</ctag></lex>
   </tok>
   <tok>
    <orth>model</orth>
    <lex disamb="1"><base>model</base><ctag>subst:sg:nom:m1</ctag></lex>
   </tok>
   <ns/>
   <tok>
    <orth>,</orth>
    <lex disamb="1"><base>,</base><ctag>interp</ctag></lex>
   </tok>
   <tok>
    <orth>który</orth>
    <lex disamb="1"><base>który</base><ctag>adj:sg:nom:m1:pos</ctag></lex>
   </tok>
   <tok>
    <orth>łączy</orth>
    <lex disamb="1"><base>łącze</base><ctag>subst:pl:gen:n</ctag></lex>
   </tok>
   <tok>
    <orth>ciemną</orth>
    <lex disamb="1"><base>ciemny</base><ctag>adj:sg:acc:f:pos</ctag></lex>
   </tok>
   <tok>
    <orth>materię</orth>
    <lex disamb="1"><base>materia</base><ctag>subst:sg:acc:f</ctag></lex>
   </tok>
   <tok>
    <orth>i</orth>
    <lex disamb="1"><base>i</base><ctag>conj</ctag></lex>
   </tok>
   <tok>
    <orth>ciemną</orth>
    <lex disamb="1"><base>ciemny</base><ctag>adj:sg:acc:f:pos</ctag></lex>
   </tok>
   <tok>
    <orth>energię</orth>
    <lex disamb="1"><base>energia</base><ctag>subst:sg:acc:f</ctag></lex>
   </tok>
   <tok>
    <orth>w</orth>
    <lex disamb="1"><base>w</base><ctag>prep:acc:nwok</ctag></lex>
   </tok>
   <tok>
    <orth>jedną</orth>
    <lex disamb="1"><base>jeden</base><ctag>adj:sg:acc:f:pos</ctag></lex>
   </tok>
   <tok>
    <orth>substancję</orth>
    <lex disamb="1"><base>substancja</base><ctag>subst:sg:acc:f</ctag></lex>
   </tok>
   <ns/>
   <tok>
    <orth>:</orth>
    <lex disamb="1"><base>:</base><ctag>interp</ctag></lex>
   </tok>
   <tok>
    <orth>ciecz</orth>
    <lex disamb="1"><base>ciecz</base><ctag>subst:sg:nom:f</ctag></lex>
   </tok>
   <tok>
    <orth>o</orth>
    <lex disamb="1"><base>o</base><ctag>prep:acc</ctag></lex>
   </tok>
   <tok>
    <orth>masie</orth>
    <lex disamb="1"><base>masa</base><ctag>subst:sg:dat:f</ctag></lex>
   </tok>
   <tok>
    <orth>ujemnej</orth>
    <lex disamb="1"><base>ujemny</base><ctag>adj:sg:gen:f:pos</ctag></lex>
   </tok>
   <ns/>
   <tok>
    <orth>.</orth>
    <lex disamb="1"><base>.</base><ctag>interp</ctag></lex>
   </tok>
  </sentence>
 </chunk>
 <chunk type="p" id="ch3">
  <sentence id="s3">
   <tok>
    <orth>Opis</orth>
    <lex disamb="1"><base>opis</base><ctag>subst:sg:nom:m3</ctag></lex>
    <ann chan="nam">0</ann>
    <ann chan="nam_pro">0</ann>
   </tok>
   <tok>
    <orth>teorii</orth>
    <lex disamb="1"><base>teoria</base><ctag>subst:sg:gen:f</ctag></lex>
    <ann chan="nam">0</ann>
    <ann chan="nam_pro">0</ann>
   </tok>
   <tok>
    <orth>znajduje</orth>
    <lex disamb="1"><base>znajdować</base><ctag>fin:sg:ter:imperf</ctag></lex>
    <lex disamb="1"><base>znajdywać</base><ctag>fin:sg:ter:imperf</ctag></lex>
    <ann chan="nam">0</ann>
    <ann chan="nam_pro">0</ann>
   </tok>
   <tok>
    <orth>się</orth>
    <lex disamb="1"><base>się</base><ctag>qub</ctag></lex>
    <ann chan="nam">0</ann>
    <ann chan="nam_pro">0</ann>
   </tok>
   <tok>
    <orth>w</orth>
    <lex disamb="1"><base>w</base><ctag>prep:acc:nwok</ctag></lex>
    <ann chan="nam">0</ann>
    <ann chan="nam_pro">0</ann>
   </tok>
   <tok>
    <orth>czasopiśmie</orth>
    <lex disamb="1"><base>czasopismo</base><ctag>subst:sg:loc:n</ctag></lex>
    <ann chan="nam">0</ann>
    <ann chan="nam_pro">0</ann>
   </tok>
   <tok>
    <orth>Astronomy</orth>
    <lex disamb="1"><base>astronom</base><ctag>depr:pl:nom:m2</ctag></lex>
    <ann chan="nam">1</ann>
    <ann chan="nam_pro">1</ann>
   </tok>
   <tok>
    <orth>and</orth>
    <lex disamb="1"><base>Anda</base><ctag>subst:pl:gen:f</ctag></lex>
    <ann chan="nam">1</ann>
    <ann chan="nam_pro">1</ann>
   </tok>
   <tok>
    <orth>Astrophysics</orth>
    <lex disamb="1"><base>Astrophysics</base><ctag>ign</ctag></lex>
    <ann chan="nam">1</ann>
    <ann chan="nam_pro">1</ann>
   </tok>
   <ns/>
   <tok>
    <orth>.</orth>
    <lex disamb="1"><base>.</base><ctag>interp</ctag></lex>
    <ann chan="nam">0</ann>
    <ann chan="nam_pro">0</ann>
   </tok>
  </sentence>
 </chunk>
 <chunk type="p" id="ch4">
  <sentence id="s4">
   <tok>
    <orth>ENG</orth>
    <lex disamb="1"><base>ENG</base><ctag>ign</ctag></lex>
   </tok>
  </sentence>
 </chunk>
</chunkList>