<?xml version="1.0" encoding="UTF-8"?>
<!DOCTYPE chunkList SYSTEM "ccl.dtd">
<chunkList>
 <chunk type="p" id="ch1">
  <sentence id="s1">
   <tok>
    <orth>Dominik</orth>
    <lex disamb="1"><base>Dominik</base><ctag>subst:sg:nom:m1</ctag></lex>
    <ann chan="nam">1</ann>
    <ann chan="nam_liv_person">1</ann>
    <ann chan="nam_liv">1</ann>
    <ann chan="nam_org">0</ann>
   </tok>
   <tok>
    <orth>Olszewski</orth>
    <lex disamb="1"><base>Olszewski</base><ctag>subst:sg:nom:m1</ctag></lex>
    <ann chan="nam">1</ann>
    <ann chan="nam_liv_person">1</ann>
    <ann chan="nam_liv">1</ann>
    <ann chan="nam_org">0</ann>
   </tok>
   <tok>
    <orth>zalegał</orth>
    <lex disamb="1"><base>zalegać</base><ctag>praet:sg:m1:imperf</ctag></lex>
    <ann chan="nam">0</ann>
    <ann chan="nam_liv_person">0</ann>
    <ann chan="nam_liv">0</ann>
    <ann chan="nam_org">0</ann>
   </tok>
   <tok>
    <orth>z</orth>
    <lex disamb="1"><base>z</base><ctag>prep:gen:nwok</ctag></lex>
    <ann chan="nam">0</ann>
    <ann chan="nam_liv_person">0</ann>
    <ann chan="nam_liv">0</ann>
    <ann chan="nam_org">0</ann>
   </tok>
   <tok>
    <orth>abonamentem</orth>
    <lex disamb="1"><base>abonament</base><ctag>subst:sg:inst:m3</ctag></lex>
    <ann chan="nam">0</ann>
    <ann chan="nam_liv_person">0</ann>
    <ann chan="nam_liv">0</ann>
    <ann chan="nam_org">0</ann>
   </tok>
   <tok>
    <orth>RTV</orth>
    <lex disamb="1"><base>RTV</base><ctag>subst:sg:nom:n</ctag></lex>
    <ann chan="nam">2</ann>
    <ann chan="nam_liv_person">0</ann>
    <ann chan="nam_liv">0</ann>
    <ann chan="nam_org">1</ann>
   </tok>
   <ns/>
   <tok>
    <orth>.</orth>
    <lex disamb="1"><base>.</base><ctag>interp</ctag></lex>
    <ann chan="nam">0</ann>
    <ann chan="nam_liv_person">0</ann>
    <ann chan="nam_liv">0</ann>
    <ann chan="nam_org">0</ann>
   </tok>
  </sentence>
 </chunk>
 <chunk type="p" id="ch2">
  <sentence id="s2">
   <tok>
    <orth>Spłacił</orth>
    <lex disamb="1"><base>spłacić</base><ctag>praet:sg:m1:perf</ctag></lex>
   </tok>
   <tok>
    <orth>dług</orth>
    <lex disamb="1"><base>dług</base><ctag>subst:sg:nom:m3</ctag></lex>
   </tok>
   <ns/>
   <tok>
    <orth>,</orth>
    <lex disamb="1"><base>,</base><ctag>interp</ctag></lex>
   </tok>
   <tok>
    <orth>ale</orth>
    <lex disamb="1"><base>ale</base><ctag>conj</ctag></lex>
   </tok>
   <tok>
    <orth>komornik</orth>
    <lex disamb="1"><base>komornik</base><ctag>subst:sg:nom:m1</ctag></lex>
   </tok>
   <tok>
    <orth>i</orth>
    <lex disamb="1"><base>i</base><ctag>conj</ctag></lex>
   </tok>
   <tok>
    <orth>tak</orth>
    <lex disamb="1"><base>tak</base><ctag>adv:pos</ctag></lex>
   </tok>
   <tok>
    <orth>zajął</orth>
    <lex disamb="1"><base>zająć</base><ctag>praet:sg:m1:perf</ctag></lex>
   </tok>
   <tok>
    <orth>mu</orth>
    <lex disamb="1"><base>on</base><ctag>ppron3:sg:dat:m1:ter:nakc:npraep</ctag></lex>
   </tok>
   <tok>
    <orth>konto</orth>
    <lex disamb="1"><base>konto</base><ctag>subst:sg:nom:n</ctag></lex>
   </tok>
   <ns/>
   <tok>
    <orth>.</orth>
    <lex disamb="1"><base>.</base><ctag>interp</ctag></lex>
   </tok>
  </sentence>
 </chunk>
 <chunk type="p" id="ch3">
  <sentence id="s3">
   <tok>
    <orth>I</orth>
    <lex disamb="1"><base>i</base><ctag>conj</ctag></lex>
   </tok>
   <tok>
    <orth>to</orth>
    <lex disamb="1"><base>to</base><ctag>conj</ctag></lex>
   </tok>
   <tok>
    <orth>od</orth>
    <lex disamb="1"><base>od</base><ctag>prep:gen:nwok</ctag></lex>
   </tok>
   <tok>
    <orth>razu</orth>
    <lex disamb="1"><base>raz</base><ctag>subst:sg:gen:m3</ctag></lex>
   </tok>
   <tok>
    <orth>dwa</orth>
    <lex disamb="1"><base>dwa</base><ctag>num:pl:nom:m1:rec</ctag></lex>
    <lex disamb="1"><base>dwa</base><ctag>num:pl:nom:m1:rec</ctag></lex>
    <lex disamb="1"><base>dwa</base><ctag>num:pl:nom:m1:rec</ctag></lex>
    <lex disamb="1"><base>dwa</base><ctag>num:pl:nom:m1:rec</ctag></lex>
    <lex disamb="1"><base>dwa</base><ctag>num:pl:nom:m1:rec</ctag></lex>
    <lex disamb="1"><base>dwa</base><ctag>num:pl:nom:m1:rec</ctag></lex>
    <lex disamb="1"><base>dwa</base><ctag>num:pl:nom:m1:rec</ctag></lex>
    <lex disamb="1"><base>dwa</base><ctag>num:pl:nom:m1:rec</ctag></lex>
    <lex disamb="1"><base>dwa</base><ctag>num:pl:nom:m1:rec</ctag></lex>
   </tok>
   <ns/>
   <tok>
    <orth>!</orth>
    <lex disamb="1"><base>!</base><ctag>interp</ctag></lex>
   </tok>
  </sentence>
 </chunk>
 <chunk type="p" id="ch4">
  <sentence id="s4">
   <tok>
    <orth>-</orth>
    <lex disamb="1"><base>-</base><ctag>interp</ctag></lex>
   </tok>
   <tok>
    <orth>Ta</orth>
    <lex disamb="1"><base>ta</base><ctag>qub</ctag></lex>
   </tok>
   <tok>
    <orth>sytuacja</orth>
    <lex disamb="1"><base>sytuacja</base><ctag>subst:sg:nom:f</ctag></lex>
   </tok>
   <tok>
    <orth>jest</orth>
    <lex disamb="1"><base>być</base><ctag>fin:sg:ter:imperf</ctag></lex>
   </tok>
   <tok>
    <orth>dla</orth>
    <lex disamb="1"><base>dla</base><ctag>prep:gen</ctag></lex>
   </tok>
   <tok>
    <orth>mnie</orth>
    <lex disamb="1"><base>ja</base><ctag>ppron12:sg:gen:m1:pri:akc</ctag></lex>
   </tok>
   <tok>
    <orth>niezrozumiała</orth>
    <lex disamb="1"><base>niezrozumiały</base><ctag>adj:sg:nom:f:pos</ctag></lex>
   </tok>
   <ns/>
   <tok>
    <orth>.</orth>
    <lex disamb="1"><base>.</base><ctag>interp</ctag></lex>
   </tok>
  </sentence>
 </chunk>
 <chunk type="p" id="ch5">
  <sentence id="s5">
   <tok>
    <orth>Z</orth>
    <lex disamb="1"><base>z</base><ctag>prep:gen:nwok</ctag></lex>
   </tok>
   <tok>
    <orth>mojego</orth>
    <lex disamb="1"><base>moje</base><ctag>subst:sg:gen:n</ctag></lex>
   </tok>
   <tok>
    <orth>konta</orth>
    <lex disamb="1"><base>konto</base><ctag>subst:sg:gen:n</ctag></lex>
   </tok>
   <tok>
    <orth>zniknęło</orth>
    <lex disamb="1"><base>zniknąć</base><ctag>praet:sg:n:perf</ctag></lex>
   </tok>
   <tok>
    <orth>ponad</orth>
    <lex disamb="1"><base>ponad</base><ctag>qub</ctag></lex>
   </tok>
   <tok>
    <orth>dwa</orth>
    <lex disamb="1"><base>dwa</base><ctag>num:pl:nom:m1:rec</ctag></lex>
    <lex disamb="1"><base>dwa</base><ctag>num:pl:nom:m1:rec</ctag></lex>
    <lex disamb="1"><base>dwa</base><ctag>num:pl:nom:m1:rec</ctag></lex>
    <lex disamb="1"><base>dwa</base><ctag>num:pl:nom:m1:rec</ctag></lex>
    <lex disamb="1"><base>dwa</base><ctag>num:pl:nom:m1:rec</ctag></lex>
    <lex disamb="1"><base>dwa</base><ctag>num:pl:nom:m1:rec</ctag></lex>
    <lex disamb="1"><base>dwa</base><ctag>num:pl:nom:m1:rec</ctag></lex>
    <lex disamb="1"><base>dwa</base><ctag>num:pl:nom:m1:rec</ctag></lex>
    <lex disamb="1"><base>dwa</base><ctag>num:pl:nom:m1:rec</ctag></lex>
   </tok>
   <tok>
    <orth>razy</orth>
    <lex disamb="1"><base>raz</base><ctag>subst:pl:nom:m3</ctag></lex>
   </tok>
   <tok>
    <orth>więcej</orth>
    <lex disamb="1"><base>dużo</base><ctag>adv:pos</ctag></lex>
    <lex disamb="1"><base>więcej</base><ctag>adv:pos</ctag></lex>
   </tok>
   <tok>
    <orth>pieniędzy</orth>
    <lex disamb="1"><base>pieniądz</base><ctag>subst:pl:gen:m3</ctag></lex>
   </tok>
   <tok>
    <orth>niż</orth>
    <lex disamb="1"><base>niż</base><ctag>conj</ctag></lex>
   </tok>
   <tok>
    <orth>zalegał</orth>
    <lex disamb="1"><base>zalegać</base><ctag>praet:sg:m1:imperf</ctag></lex>
   </tok>
   <ns/>
   <tok>
    <orth>em</orth>
    <lex disamb="1"><base>być</base><ctag>aglt:sg:pri:imperf:wok</ctag></lex>
   </tok>
   <tok>
    <orth>-</orth>
    <lex disamb="1"><base>-</base><ctag>interp</ctag></lex>
   </tok>
   <tok>
    <orth>mówi</orth>
    <lex disamb="1"><base>mówić</base><ctag>fin:sg:ter:imperf</ctag></lex>
   </tok>
   <ns/>
   <tok>
    <orth>.</orth>
    <lex disamb="1"><base>.</base><ctag>interp</ctag></lex>
   </tok>
  </sentence>
 </chunk>
</chunkList>