<?xml version="1.0" encoding="UTF-8"?>
<!DOCTYPE chunkList SYSTEM "ccl.dtd">
<chunkList>
 <chunk type="p" id="ch1">
  <sentence id="s1">
   <tok>
    <orth>Licytacja</orth>
    <lex disamb="1"><base>licytacja</base><ctag>subst:sg:nom:f</ctag></lex>
   </tok>
   <tok>
    <orth>od</orth>
    <lex disamb="1"><base>od</base><ctag>prep:gen:nwok</ctag></lex>
   </tok>
   <tok>
    <orth>złotówki</orth>
    <lex disamb="1"><base>złotówka</base><ctag>subst:sg:gen:f</ctag></lex>
   </tok>
   <tok>
    <orth>#</orth>
    <lex disamb="1"><base>#</base><ctag>interp</ctag></lex>
   </tok>
   <ns/>
   <tok>
    <orth>gimbynieznajo</orth>
    <lex disamb="1"><base>gimbynieznajo</base><ctag>ign</ctag></lex>
   </tok>
  </sentence>
 </chunk>
</chunkList>