blogi/00100598.xml
blogi/00100599.xml
blogi/00100600.xml
blogi/00100601.xml
blogi/00100607.xml
blogi/00100608.xml
blogi/00100609.xml
blogi/00100610.xml
blogi/00100611.xml
blogi/00100612.xml
blogi/00100615.xml
blogi/00100617.xml
blogi/00101740.xml
blogi/00101741.xml
blogi/00101742.xml
blogi/00101743.xml
blogi/00101745.xml
blogi/00101746.xml
blogi/00101747.xml
blogi/00101748.xml
blogi/00101749.xml
blogi/00101750.xml
blogi/00101751.xml
blogi/00101753.xml
blogi/00101754.xml
blogi/00101755.xml
blogi/00101756.xml
blogi/00101757.xml
blogi/00101758.xml
blogi/00101759.xml
blogi/00101760.xml
blogi/00101761.xml
blogi/00101762.xml
blogi/00101763.xml
blogi/00101765.xml
blogi/00101766.xml
blogi/00101767.xml
blogi/00101768.xml
blogi/00101769.xml
blogi/00101770.xml
blogi/00101771.xml
blogi/00101772.xml
blogi/00101783.xml
blogi/00101784.xml
blogi/00101785.xml
blogi/00101952.xml
blogi/00101955.xml
blogi/00101956.xml
blogi/00101960.xml
blogi/00101962.xml
blogi/00101965.xml
blogi/00101968.xml
blogi/00101970.xml
blogi/00101972.xml
blogi/00101973.xml
blogi/00101974.xml
blogi/00101975.xml
blogi/00101976.xml
blogi/00101979.xml
blogi/00102246.xml
blogi/00102249.xml
blogi/00102251.xml
blogi/00102253.xml
blogi/00102254.xml
blogi/00102255.xml
blogi/00102256.xml
blogi/00102259.xml
blogi/00102260.xml
blogi/00102340.xml
dap/00102348.xml
dap/00102360.xml
dialog/00102701.xml
dialog/00102702.xml
dialog/00102703.xml
kap/00102398.xml
kap/00102399.xml
kap/00102400.xml
kap/00102401.xml
kap/00102402.xml
kap/00102403.xml
kap/00102404.xml
kap/00102405.xml
kap/00102406.xml
kap/00102407.xml
kap/00102414.xml
kap/00102415.xml
kap/00102416.xml
kap/00102417.xml
kap/00102418.xml
kap/00102419.xml
kap/00102420.xml
kap/00102421.xml
kap/00102422.xml
kap/00102423.xml
kap/00102457.xml
kap/00102459.xml
kap/00102460.xml
kap/00102461.xml
kap/00102463.xml
kap/00102466.xml
kap/00102470.xml
kap/00102501.xml
kap/00102503.xml
kap/00102504.xml
kap/00102505.xml
kap/00102506.xml
stenogramy/00101657.xml
stenogramy/00101658.xml
stenogramy/00101659.xml
stenogramy/00101660.xml
stenogramy/00101661.xml
stenogramy/00101662.xml
stenogramy/00101663.xml
stenogramy/00101664.xml
stenogramy/00101665.xml
stenogramy/00101666.xml
stenogramy/00101667.xml
stenogramy/00101668.xml
urzędowe/00102725.xml
ustawy/00102235.xml
wikipedia/00099883.xml
wikipedia/00100499.xml
wikipedia/00100500.xml
wikipedia/00100501.xml
wikipedia/00100502.xml
wikipedia/00100503.xml
wikipedia/00100504.xml
wikipedia/00100505.xml
wikipedia/00100506.xml
wikipedia/00100507.xml
wikipedia/00100508.xml
wikipedia/00100509.xml
wikipedia/00100510.xml
wikipedia/00100511.xml
wikipedia/00100512.xml
wikipedia/00100513.xml
wikipedia/00100514.xml
wikipedia/00100515.xml
wikipedia/00100516.xml
wikipedia/00100517.xml
wikipedia/00100518.xml
wikipedia/00100519.xml
wikipedia/00100520.xml
wikipedia/00100521.xml
wikipedia/00100522.xml
wikipedia/00100523.xml
wikipedia/00100524.xml
wikipedia/00100525.xml
wikipedia/00100526.xml
wikipedia/00100527.xml
wikipedia/00100528.xml
wikipedia/00100529.xml
wikipedia/00100530.xml
wikipedia/00100531.xml
wikipedia/00100532.xml
wikipedia/00100533.xml
wikipedia/00100534.xml
wikipedia/00100535.xml
wikipedia/00100537.xml
wikipedia/00101163.xml
wikipedia/00101164.xml
wikipedia/00101165.xml
wikipedia/00101166.xml
wikipedia/00101167.xml
wikipedia/00101169.xml
wikipedia/00101171.xml
wikipedia/00101172.xml
wikipedia/00101173.xml
wikipedia/00101175.xml
wikipedia/00101176.xml
wikipedia/00101177.xml
wikipedia/00101178.xml
wikipedia/00101179.xml
wikipedia/00101181.xml
wikipedia/00101182.xml
wikipedia/00101185.xml
wikipedia/00101186.xml
wikipedia/00101187.xml
wikipedia/00101188.xml
wikipedia/00101189.xml
wikipedia/00101190.xml
wikipedia/00101191.xml
wikipedia/00101192.xml
wikipedia/00101193.xml
wikipedia/00101194.xml
wikipedia/00101195.xml
wikipedia/00101196.xml
wikipedia/00101197.xml
wikipedia/00101198.xml
wikipedia/00101199.xml
wikipedia/00101200.xml
wikipedia/00101201.xml
wikipedia/00101202.xml
wikipedia/00101203.xml
wikipedia/00101204.xml
wikipedia/00101205.xml
wikipedia/00101207.xml
wikipedia/00101208.xml
wikipedia/00101209.xml
wikipedia/00101210.xml
wikipedia/00101211.xml
wikipedia/00101212.xml
wikipedia/00101213.xml
wikipedia/00101214.xml
wikipedia/00101215.xml
wikipedia/00101218.xml
wikipedia/00101219.xml
wikipedia/00101220.xml
wikipedia/00101221.xml
wikipedia/00101222.xml
wikipedia/00101223.xml
wikipedia/00101224.xml
wikipedia/00101225.xml
wikipedia/00101226.xml
wikipedia/00101227.xml
wikipedia/00101228.xml
wikipedia/00101229.xml
wikipedia/00101230.xml
wikipedia/00101232.xml
wikipedia/00101241.xml
wikipedia/00101242.xml
wikipedia/00101243.xml
wikipedia/00101244.xml
wikipedia/00101245.xml
wikipedia/00101246.xml
wikipedia/00101247.xml
wikipedia/00101248.xml
wikipedia/00101249.xml
wikipedia/00101250.xml
wikipedia/00101251.xml
wikipedia/00101252.xml
wikipedia/00101253.xml
wikipedia/00101254.xml
wikipedia/00101255.xml
wikipedia/00101256.xml
wikipedia/00101257.xml
wikipedia/00101258.xml
wikipedia/00101259.xml
wikipedia/00101260.xml
wikipedia/00101261.xml
