,filename,text,lemmas,pos,proper,keywords
0,00103571,"- Tato! Tato! – Dagny szeptała mu prosto do ucha – wstawaj, bo się spóźnimy!","[""tata"", ""tata"", ""szepta\u0107"", ""prosto"", ""ucha"", ""wstawa\u0107"", ""sp\u00f3\u017ani\u0107""]","[""subst voc m1 sg"", ""subst voc m1 sg"", ""subst gen f sg"", ""interj"", ""prep gen"", ""subst nom f sg"", ""comp""]","{""single"": [], ""multi"": {}}","[[""tadeusz wysocki"", ""tata"", ""dagna"", ""tadeusz"", ""wysocki"", ""stadnina"", ""hucu\u0142"", ""kucyk"", ""endi""]]"
1,00103592,"Jak to jest? Pewnego dnia budzicie się z silnym kołataniem serca, zrywacie się z łóżka i przecieracie twarz, po której przelatuje wyraz niepewności i strachu, żeby wieczorem nie móc zasnąć z powodu wielkiej pustki i niewiadomej. Jak to jest, że jednego razu trawi was wielkie zmartwienie, a drugim wielkie zdziwienie? Jak to jest, że troski o ważną dla was osobę nie dają wam żyć, a później dowiadujecie się, że zadajecie jej ból, który rani jej uczucia? Jak to jest, że godzinami rozmyślacie o drugiej osobie, a później na skutek nieporozumienia ona mówi wam, żebyście przemyśleli jakąś sprawę? Jak to jest, że przez tygodnie staracie się budować związek, aby w ciągu kilku minut spora jego część uległa zniszczeniu? Jak to jest, że rozmawiacie godzinami o niełatwych sprawach, aby później w kilku zdaniach pokłócić się, roztrząsając z pozoru banalne kwestie? Jak to jest?","[""jak"", ""by\u0107"", ""pewne"", ""dzie\u0144"", ""budzi\u0107"", ""si\u0119"", ""silny"", ""ko\u0142ata\u0107"", ""serce"", ""zrywa\u0107"", ""si\u0119"", ""\u0142\u00f3\u017cko"", ""przeciera\u0107"", ""twarz"", ""kt\u00f3ry"", ""przelatowa\u0107"", ""wyraz"", ""niepewno\u015b\u0107"", ""strach"", ""\u017ceby"", ""wieczor"", ""m\u00f3c"", ""zasn\u0105\u0107"", ""pow\u00f3d"", ""wielki"", ""pustka"", ""niewiadoma"", ""jak"", ""by\u0107"", ""jeden"", ""raz"", ""trawi\u0107"", ""wielki"", ""zmartwienie"", ""druga"", ""wielki"", ""zdziwienie"", ""jak"", ""by\u0107"", ""troska"", ""wa\u017cny"", ""dla"", ""osoba"", ""dawa\u0107"", ""\u017cy\u0107"", ""p\u00f3\u017ano"", ""dowiadywa\u0107"", ""si\u0119"", ""zadawa\u0107"", ""b\u00f3l"", ""kt\u00f3ry"", ""rani"", ""uczucie"", ""jak"", ""by\u0107"", ""godzina"", ""rozmy\u015bla\u0107"", ""druga"", ""osoba"", ""p\u00f3\u017ano"", ""skutek"", ""nieporozumienie"", ""m\u00f3wi\u0107"", ""\u017cebyby\u0107"", ""przemy\u015ble\u0107"", ""jaki\u015b"", ""sprawa"", ""jak"", ""by\u0107"", ""przez"", ""tydzie\u0144"", ""stara\u0107"", ""si\u0119"", ""budowa\u0107"", ""zwi\u0105zek"", ""aby"", ""ci\u0105g"", ""kilka"", ""minuta"", ""spora"", ""cz\u0119\u015b\u0107"", ""uleg\u0142y"", ""zniszczenie"", ""jak"", ""by\u0107"", ""rozmawia\u0107"", ""godzina"", ""nie\u0142atwy"", ""sprawa"", ""aby"", ""p\u00f3\u017ano"", ""kilka"", ""zdanie"", ""pok\u0142\u00f3ci\u0107"", ""si\u0119"", ""roztrz\u0105sa\u0107"", ""poz\u00f3r"", ""banalny"", ""kwestia"", ""jak"", ""by\u0107""]","[""adv"", ""fin imperf sg ter"", ""adj gen pos m1 sg"", ""subst gen m3 sg"", ""fin imperf pl sec"", ""qub"", ""adj inst pos m1 sg"", ""ger imperf inst n aff sg"", ""subst gen n sg"", ""fin imperf pl sec"", ""qub"", ""subst gen n sg"", ""fin imperf pl sec"", ""subst nom f sg"", ""adj gen pos f sg"", ""fin perf sg ter"", ""subst nom m3 sg"", ""subst gen f sg"", ""subst gen m3 sg"", ""comp"", ""subst inst m3 sg"", ""inf imperf"", ""inf perf"", ""subst gen m3 sg"", ""adj gen pos f sg"", ""subst gen f sg"", ""subst gen f sg"", ""adv"", ""fin imperf sg ter"", ""adj gen pos m1 sg"", ""subst gen m3 sg"", ""fin imperf sg ter"", ""adj nom pos n sg"", ""subst nom n sg"", ""subst dat f pl"", ""adj nom pos n sg"", ""subst nom n sg"", ""adv"", ""fin imperf sg ter"", ""subst gen f sg"", ""adj acc pos f sg"", ""prep gen"", ""subst acc f sg"", ""fin imperf pl ter"", ""subst gen n pl"", ""adv com"", ""fin imperf pl sec"", ""qub"", ""fin imperf pl sec"", ""impt imperf sg sec"", ""adj nom pos m1 sg"", ""subst nom f sg"", ""subst gen n sg"", ""adv"", ""fin imperf sg ter"", ""subst inst f pl"", ""fin imperf pl sec"", ""subst gen f sg"", ""subst dat f sg"", ""adv com"", ""subst nom m3 sg"", ""subst gen n sg"", ""fin imperf sg ter"", ""comp"", ""aglt imperf pl sec nwok"", ""praet perf m1 pl"", ""adj acc pos f sg"", ""adv"", ""fin imperf sg ter"", ""prep acc nwok"", ""subst nom m3 pl"", ""fin imperf pl sec"", ""qub"", ""inf imperf"", ""subst nom m3 sg"", ""comp"", ""subst gen m3 sg"", ""num rec nom m1 pl"", ""subst gen f pl"", ""subst nom f sg"", ""subst nom f sg"", ""praet perf f sg"", ""subst dat n sg"", ""adv"", ""fin imperf sg ter"", ""fin imperf pl sec"", ""subst inst f pl"", ""adj gen pos m1 pl"", ""subst loc f pl"", ""comp"", ""adv com"", ""num rec nom m1 pl"", ""subst loc n pl"", ""inf perf"", ""qub"", ""pcon imperf"", ""subst gen m3 sg"", ""adj nom pos n sg"", ""subst nom f pl"", ""adv"", ""fin imperf sg ter""]","{""single"": [], ""multi"": {}}","[[""serce"", ""b\u00f3l"", ""filar"", ""walka"", ""wysi\u0142ek""]]"
2,00103595,"- Gdyby droga była prosta, to by było nudno - powiedział Tomasz.","[""gdyby"", ""droga"", ""by\u0142a"", ""prosta"", ""by\u0107"", ""nudno"", ""powiedzie\u0107"", ""tomasz""]","[""comp"", ""subst nom f sg"", ""praet imperf f sg"", ""subst nom f sg"", ""praet imperf n sg"", ""adv pos"", ""praet perf m1 sg"", ""subst nom m1 sg""]","{""single"": [], ""multi"": {}}","[[""bezpiecze\u0144stwo"", ""droga"", ""emocja""]]"
3,00103591,"‒ Byli ludzie. Miałem i uczniów, i wielbicielki. I naśladowcy się znaleźli. Ale to wszystko na nic, bo gdy przestałem być im potrzebny, po prostu odeszli. Zostawili mnie. Nawet cichego „dziękuję” nie usłyszałem, żadnej wdzięczności. A dałem im więcej, niż mogli oczekiwać. Pokazałem rzeczy, o których nie śnili. I jak mi się odwdzięczyli? Po tylu latach, po tylu latach przeżytych razem z tyloma wspaniałymi ludźmi znów byłem sam. Ja jeden. Ja i mój marny tobołek. Zostały ideały. Zostały wielkie czyny. Ale zabrakło siły i energii, żeby zaczynać od nowa. Minęły lata, kiedy uświadomiłem sobie, że ludzie, w których pokładałem moje nadzieje bycia szczęśliwym, nie są mnie warci. Gdy jesteś im potrzebny, wtedy cię szanują. Wystarczy, że odkryją drzemiący w sobie potencjał i już ich nie ma obok ciebie. W jednym momencie twój świat może się zmienić nie do poznania i co wtedy zrobisz? Nie sądziłem, że może mi się to kiedyś przydarzyć. Ale stało się.","[""cz\u0142owiek"", ""mia\u0142"", ""ucze\u0144"", ""wielbicielka"", ""na\u015bladowca"", ""si\u0119"", ""znale\u017a\u0107"", ""ale"", ""wszystko"", ""nic"", ""gdy"", ""przesta\u0107by\u0107"", ""by\u0107"", ""potrzebny"", ""prosty"", ""odej\u015b\u0107"", ""zostawi\u0107"", ""nawet"", ""cichy"", ""nie"", ""\u017caden"", ""wdzi\u0119czno\u015b\u0107"", ""da\u0107by\u0107"", ""du\u017co"", ""mogel"", ""oczekiwa\u0107"", ""pokaza\u0107by\u0107"", ""rzecz"", ""kt\u00f3ry"", ""nie"", ""jak"", ""si\u0119"", ""odwdzi\u0119czy\u0107"", ""tyle"", ""lato"", ""tyle"", ""lato"", ""prze\u017cyty"", ""razem"", ""tyle"", ""wspania\u0142y"", ""cz\u0142owiek"", ""zn\u00f3w"", ""by\u0107by\u0107"", ""sam"", ""jeden"", ""m\u00f3j"", ""marny"", ""tobo\u0142ek"", ""zosta\u0107"", ""idea\u0142"", ""zosta\u0107"", ""wielki"", ""czyn"", ""ale"", ""zabrakn\u0105\u0107"", ""si\u0142a"", ""energia"", ""\u017ceby"", ""zaczyna\u0107"", ""nowa"", ""min\u0105\u0107"", ""lata"", ""kiedy"", ""u\u015bwiadomi\u0107by\u0107"", ""siebie"", ""cz\u0142owiek"", ""kt\u00f3ry"", ""pok\u0142ada\u0107by\u0107"", ""moja"", ""nadzieja"", ""bycie"", ""szcz\u0119\u015bliwy"", ""nie"", ""wart"", ""gdy"", ""by\u0107"", ""potrzebny"", ""wtedy"", ""szanowa\u0107"", ""wystarczy\u0107"", ""odkry\u0107"", ""drzema\u0107"", ""siebie"", ""potencja\u0142"", ""ju\u017c"", ""m\u00f3j"", ""obok"", ""jeden"", ""moment"", ""tw\u00f3j"", ""\u015bwiat"", ""mo\u017ce"", ""si\u0119"", ""zmieni\u0107"", ""pozna\u0144"", ""wtedy"", ""zrobi\u0107"", ""s\u0105dzi\u0107by\u0107"", ""mo\u017ce"", ""si\u0119"", ""kiedy\u015b"", ""przydarzy\u0107"", ""ale"", ""sta\u0107"", ""si\u0119""]","[""praet imperf m1 pl"", ""subst inst m3 sg"", ""subst gen m1 pl"", ""subst gen f sg"", ""subst gen m1 sg"", ""qub"", ""praet perf m1 pl"", ""depr nom m2 pl"", ""adv"", ""subst nom n sg"", ""adv"", ""praet perf m1 sg"", ""aglt imperf sg pri wok"", ""comp"", ""subst nom f sg"", ""adjp"", ""praet perf m1 pl"", ""qub"", ""subst gen m1 sg"", ""fin imperf sg pri"", ""praet perf m1 sg"", ""aglt imperf sg pri wok"", ""praet perf m1 sg"", ""comp"", ""impt imperf sg sec"", ""subst gen m3 pl"", ""praet perf m1 sg"", ""aglt imperf sg pri wok"", ""interj"", ""adj gen pos m1 pl"", ""adv"", ""qub"", ""praet perf m1 pl"", ""num rec nom m1 pl"", ""subst loc m1 pl"", ""num rec nom m1 pl"", ""subst loc m1 pl"", ""adj gen pos m1 pl"", ""subst inst m3 sg"", ""num congr inst m1 pl"", ""adj inst pos m1 pl"", ""subst inst m1 pl"", ""qub"", ""praet imperf m1 sg"", ""aglt imperf sg pri wok"", ""adj nom pos m1 sg"", ""adj nom pos m1 sg"", ""adj nom pos m1 sg"", ""subst nom m3 sg"", ""praet perf m2 pl"", ""depr nom m2 pl"", ""praet perf m2 pl"", ""adj nom pos n sg"", ""subst nom m3 pl"", ""depr nom m2 pl"", ""praet perf n sg"", ""subst gen f sg"", ""subst gen f sg"", ""comp"", ""inf imperf"", ""subst nom f sg"", ""praet perf m2 pl"", ""subst nom n pl"", ""adv"", ""praet perf m1 sg"", ""aglt imperf sg pri wok"", ""comp"", ""prep acc nwok"", ""adj gen pos m1 pl"", ""praet imperf m1 sg"", ""aglt imperf sg pri wok"", ""subst nom f pl"", ""subst nom f pl"", ""adj inst pos m1 sg"", ""fin imperf pl ter"", ""adv"", ""fin imperf sg sec"", ""adj nom pos m1 sg"", ""adv"", ""fin imperf pl ter"", ""fin perf sg ter"", ""fin perf pl ter"", ""pact imperf nom m1 aff sg"", ""siebie dat"", ""subst nom m3 sg"", ""qub"", ""fin imperf sg ter"", ""adv"", ""adj inst pos m1 sg"", ""subst loc m3 sg"", ""adj nom pos m1 sg"", ""subst nom m3 sg"", ""qub"", ""qub"", ""inf perf"", ""subst gen m3 sg"", ""adv"", ""fin perf sg sec"", ""praet imperf m1 sg"", ""comp"", ""ppron12 nakc dat m1 sg pri"", ""adj nom pos n sg"", ""adv"", ""depr nom m2 pl"", ""praet imperf n sg"", ""qub""]","{""single"": [], ""multi"": {}}","[[""ksi\u0105\u017cka"", ""starzec"", ""podr\u00f3\u017c"", ""l\u0105dowanie"", ""mi\u0142o\u015b\u0107""]]"
4,00103593,"W pewnym momencie czas rodzinnych wakacji się skończył. Dziś nie pamiętam, kiedy to się stało. Nie potrafię wskazać konkretnego punktu na osi czasu, ale jestem przekonany, że miało to związek z rodzącą się przez lata niezależnością – zarówno tą od rodziców, jaki i rodzeństwa.","[""pewne"", ""moment"", ""czas"", ""rodzinny"", ""wakacje"", ""si\u0119"", ""sko\u0144czy\u0107"", ""dzi\u015b"", ""pami\u0119ta\u0107"", ""kiedy"", ""si\u0119"", ""sta\u0107"", ""potrafi\u0107"", ""wskaza\u0107"", ""konkretny"", ""punkt"", ""czas"", ""ale"", ""by\u0107"", ""przekonany"", ""mie\u0107"", ""zwi\u0105zek"", ""rodz\u0105ca"", ""si\u0119"", ""przez"", ""lata"", ""niezale\u017cno\u015b\u0107"", ""ten"", ""rodzic""]","[""adj inst pos m1 sg"", ""subst loc m3 sg"", ""pred"", ""adj gen pos m1 pl"", ""subst gen n pl"", ""qub"", ""praet perf m1 sg"", ""adv"", ""fin imperf sg pri"", ""adv"", ""qub"", ""praet imperf n sg"", ""fin imperf sg pri"", ""inf perf"", ""adj gen pos m1 sg"", ""subst gen m3 sg"", ""subst gen m3 sg"", ""depr nom m2 pl"", ""fin imperf sg pri"", ""adj nom pos m1 sg"", ""praet imperf n sg"", ""subst nom m3 sg"", ""pact imperf acc f aff sg"", ""qub"", ""prep acc nwok"", ""subst nom n pl"", ""subst inst f sg"", ""adv"", ""subst gen f pl""]","{""single"": [], ""multi"": {}}","[[""wakacje"", ""rodzic"", ""rodze\u0144stwo"", ""rodzina""]]"
5,00103579,"Mówili, że w stanie hibernacji nie ma snów. Nieprawda. Śnię nieprzerwanie już setny rok. Wciąż te same sny…","[""m\u00f3wi\u0107"", ""stan"", ""hibernacja"", ""m\u00f3j"", ""sen"", ""nieprawda"", ""\u015bni\u0107"", ""nieprzerwanie"", ""ju\u017c"", ""setny"", ""rok"", ""wci\u0105\u017c"", ""sam"", ""sen""]","[""praet imperf m1 pl"", ""subst loc m3 sg"", ""subst gen f sg"", ""fin imperf sg ter"", ""subst gen m3 pl"", ""subst nom f sg"", ""fin imperf sg pri"", ""adv pos"", ""qub"", ""adj nom pos m1 sg"", ""subst nom m3 sg"", ""adv"", ""adj nom pos m2 pl"", ""subst nom m3 pl""]","{""single"": [], ""multi"": {}}","[[""sarkofag"", ""akkad"", ""po\u017coga"", ""silnik"", ""inana"", ""statek"", ""maszyna"", ""hel"", ""miasto"", ""rem""]]"
6,00103573,"To nasza ławka, można tak powiedzieć. Od pierwszej mszy tu siedzimy. Początkowo Ondricek wiercił się, namawiał, żebyśmy poszli bardziej do przodu albo usiedli z boku? Kręcił się, stawał bokiem, mocno wysuwał głowę do przodu. Żeby mi udowodnić, jak bardzo niewygodnie patrzy się na księdza przez kraty. A mnie w kościele duszno. W przedsionku jest trochę chłodniej, trochę wieje.","[""nasz"", ""\u0142awka"", ""mo\u017cna"", ""tak"", ""powiedzie\u0107"", ""pierwsza"", ""msza"", ""siedzie\u0107"", ""pocz\u0105tkowo"", ""ondricek"", ""wierci\u0107"", ""si\u0119"", ""namawia\u0107"", ""\u017cebyby\u0107"", ""p\u00f3j\u015b\u0107"", ""bardzo"", ""prz\u00f3d"", ""albo"", ""usi\u0105\u015b\u0107"", ""bok"", ""kr\u0119ci\u0107"", ""si\u0119"", ""stawa\u0107"", ""bok"", ""mocno"", ""wysuwa\u0107"", ""g\u0142owa"", ""prz\u00f3d"", ""\u017ceby"", ""udowodni\u0107"", ""jak"", ""bardzo"", ""niewygodnie"", ""patrze\u0107"", ""si\u0119"", ""ksi\u0105dz"", ""przez"", ""krata"", ""ko\u015bci\u00f3\u0142"", ""duszno"", ""przedsionek"", ""by\u0107"", ""troch\u0119"", ""ch\u0142odno"", ""troch\u0119"", ""wieja""]","[""adj nom pos f sg"", ""subst nom f sg"", ""pred"", ""adv"", ""inf perf"", ""subst gen f sg"", ""subst gen f sg"", ""fin imperf pl pri"", ""adv pos"", ""ign"", ""praet imperf m1 sg"", ""qub"", ""praet imperf m1 sg"", ""comp"", ""aglt imperf pl pri nwok"", ""praet perf m1 pl"", ""prep gen"", ""subst gen m3 sg"", ""subst voc f sg"", ""prep gen nwok"", ""praet imperf m1 sg"", ""qub"", ""praet imperf m1 sg"", ""subst inst m3 sg"", ""adv pos"", ""praet imperf m1 sg"", ""subst acc f sg"", ""subst gen m3 sg"", ""comp"", ""inf perf"", ""adv"", ""adv pos"", ""adv pos"", ""fin imperf sg ter"", ""qub"", ""subst gen m1 sg"", ""prep acc nwok"", ""subst gen f sg"", ""subst loc m3 sg"", ""adv pos"", ""subst loc m3 sg"", ""fin imperf sg ter"", ""subst acc f sg"", ""impt imperf sg sec"", ""subst acc f sg"", ""fin imperf sg ter""]","{""single"": [], ""multi"": {}}","[[""msza"", ""\u0142awka"", ""ondricek"", ""marika"", ""metro"", ""obiad"", ""piwo""]]"
7,00103594,"Tomasz, który urodził się już dość znaczny czas temu, wiedział, że każdy obserwator jego poczynań był co najmniej cztery razy młodszy. I nie byłoby nic niezwykłego gdyby nie fakt, że godnych naśladowców nie mógł znaleźć w żadnej grupie wiekowej społeczeństwa. A oglądali go już różni: dzieci mieszkające na obrzeżach miasta, starcy pracujący przy wyrębie drzewa w pobliskim lesie oraz garbate kobiety ze skórą zjedzoną przez starość, które z mozołem wynosiły pokruszone skały z kamieniołomów. Kiedyś swoje zdolności zaprezentował uczonym w mieście. Widzieli go doświadczeni wykładowcy z siwymi włosami i okularami pokrytymi książkowym kurzem. Widzieli go również przedsiębiorcy wyzyskujący wspomnianych już starców i wiekowe niewiasty. Jednak ani mędrcy, ani głupcy, ani młodzi, ani starzy nie wiedzieli, w czym tkwił fenomen Tomasza.","[""tomasz"", ""kt\u00f3ry"", ""urodzi\u0107"", ""si\u0119"", ""ju\u017c"", ""do\u015b\u0107"", ""znaczny"", ""czas"", ""temu"", ""wiedzie\u0107"", ""ka\u017cdy"", ""obserwator"", ""poczynania"", ""by\u0107"", ""ma\u0142o"", ""cztery"", ""raz"", ""m\u0142ody"", ""by\u0107by"", ""nic"", ""niezwyk\u0142y"", ""gdyby"", ""nie"", ""godne"", ""na\u015bladowca"", ""nie"", ""znale\u017a\u0107"", ""\u017caden"", ""grupa"", ""wiekowy"", ""spo\u0142ecze\u0144stwo"", ""ogl\u0105da\u0107"", ""ju\u017c"", ""r\u00f3\u017cny"", ""dziecko"", ""mieszka\u0107"", ""obrze\u017ce"", ""miasto"", ""starzec"", ""pracuj\u0105cy"", ""przy"", ""wyr\u0105b"", ""drzewo"", ""pobliski"", ""le\u015b"", ""garbata"", ""kobieta"", ""sk\u00f3ra"", ""zje\u015b\u0107"", ""przez"", ""staro\u015b\u0107"", ""kt\u00f3ry"", ""moz\u00f3\u0142"", ""wynosi\u0107"", ""pokruszy\u0107"", ""ska\u0142a"", ""kamienio\u0142om"", ""kiedy\u015b"", ""swoje"", ""zdolno\u015b\u0107"", ""zaprezentowa\u0107"", ""uczona"", ""miasto"", ""widzie\u0107"", ""do\u015bwiadczony"", ""wyk\u0142adowca"", ""siwy"", ""w\u0142os"", ""okular"", ""pokry\u0107"", ""ksi\u0105\u017ckowy"", ""kurz"", ""widzie\u0107"", ""r\u00f3wnie\u017c"", ""przedsi\u0119biorca"", ""wyzyskiwa\u0107"", ""wspomnie\u0107"", ""ju\u017c"", ""starzec"", ""wiekowy"", ""niewiasta"", ""ani"", ""m\u0119drzec"", ""ani"", ""g\u0142upiec"", ""ani"", ""m\u0142ody"", ""ani"", ""stary"", ""wiedzie\u0107"", ""czym"", ""tkwi\u0107"", ""fenomen"", ""tomasz""]","[""subst nom m1 sg"", ""adj nom pos m1 sg"", ""praet perf m1 sg"", ""qub"", ""qub"", ""pred"", ""adj nom pos m1 sg"", ""pred"", ""prep acc"", ""praet imperf m1 sg"", ""adj nom pos m1 sg"", ""subst nom m1 sg"", ""subst gen n pl"", ""praet imperf m1 sg"", ""adv sup"", ""num congr nom m2 pl"", ""subst nom m3 pl"", ""adj nom com m1 sg"", ""praet imperf n sg"", ""qub"", ""subst nom n sg"", ""adj gen pos m1 sg"", ""comp"", ""comp"", ""subst gen n pl"", ""subst gen m1 pl"", ""praet nagl imperf m1 sg"", ""prep acc nwok"", ""adj gen pos f sg"", ""subst dat f sg"", ""adj gen pos f sg"", ""praet imperf m1 pl"", ""qub"", ""fin imperf sg ter"", ""subst nom n pl"", ""pact imperf nom n aff sg"", ""subst loc n pl"", ""subst gen n sg"", ""subst nom m1 pl"", ""pact imperf nom m1 aff sg"", ""prep loc"", ""subst loc m3 sg"", ""subst gen n sg"", ""adj inst pos m1 sg"", ""depr nom m2 pl"", ""subst nom f pl"", ""subst gen f sg"", ""subst inst f sg"", ""ppas perf acc f aff sg"", ""prep acc nwok"", ""subst nom f sg"", ""adj nom pos n sg"", ""subst inst m3 sg"", ""praet imperf m2 pl"", ""ppas perf nom n aff sg"", ""subst gen f sg"", ""subst gen m3 pl"", ""adv"", ""subst nom n sg"", ""subst gen f sg"", ""praet perf m1 sg"", ""subst dat f pl"", ""subst loc n sg"", ""praet imperf m1 pl"", ""adj nom pos m1 pl"", ""subst gen m1 sg"", ""adj inst pos m1 pl"", ""subst inst m3 pl"", ""subst inst m3 pl"", ""ppas perf inst m1 aff pl"", ""adj inst pos m1 sg"", ""subst inst m3 sg"", ""praet imperf m1 pl"", ""qub"", ""subst gen m1 sg"", ""pact imperf nom m1 aff sg"", ""ppas perf gen m1 aff pl"", ""qub"", ""subst gen m1 pl"", ""adj nom pos n sg"", ""subst gen f sg"", ""subst gen f sg"", ""subst nom m1 pl"", ""subst gen f sg"", ""subst nom m1 pl"", ""subst gen f sg"", ""adj nom pos m1 pl"", ""subst gen f sg"", ""adj nom pos m1 pl"", ""praet imperf m1 pl"", ""subst inst n sg"", ""praet imperf m1 sg"", ""subst nom m1 sg"", ""subst gen m1 sg""]","{""single"": [], ""multi"": {}}","[[""miasto"", ""wyk\u0142adowca"", ""przedsi\u0119biorca"", ""fenomen""]]"
8,00103583,"Adamowi było wszystko jedno, czy jego szczątki zostaną złożone na cmentarzu, łące, czy pod przyszłą autostradą, supermarketem albo śmietniskiem. Nie miał bliskiej rodziny, której mógłby przekazać sugestię, jak miałby wyglądać jego pochówek. Po kolejnych wizytach w witomińskiej nekropolii coraz mocniej upewniał się, że o miejscu ostatecznego spoczynku powinien decydować wiatr, rozwiewający popiół z jakiegoś wzniesienia, a potem deszcz, z którym wsączy się w ziemię. Nie chciał skończyć jako truchło, które przykrywa się kosztowną kamienną płytą i obstawia świeczkami. Nawet jego samego bezwzględna siła tej tradycji zmusiła do wykonywania tych rytualnych obrzędów.","[""adam"", ""by\u0107"", ""wszystko"", ""jedno"", ""szcz\u0105tek"", ""zosta\u0107"", ""z\u0142o\u017cone"", ""cmentarz"", ""\u0142\u0105ka"", ""pod"", ""przysz\u0142y"", ""autostrada"", ""supermarket"", ""albo"", ""\u015bmietnisko"", ""mia\u0142"", ""bliski"", ""rodzina"", ""kt\u00f3ry"", ""m\u00f3cby"", ""przekaza\u0107"", ""sugestia"", ""mie\u0107by"", ""wygl\u0105da\u0107"", ""poch\u00f3wek"", ""kolejny"", ""wizyta"", ""witomi\u0144ski"", ""nekropolia"", ""coraz"", ""mocno"", ""upewnia\u0107"", ""si\u0119"", ""miejsce"", ""ostateczny"", ""spoczynek"", ""powinien"", ""decydowa\u0107"", ""wiatr"", ""rozwiewa\u0107"", ""popi\u00f3\u0142"", ""jaki\u015b"", ""wzniesienie"", ""potem"", ""deszcz"", ""kt\u00f3ry"", ""ws\u0105czy\u0107"", ""si\u0119"", ""ziemia"", ""chcie\u0107"", ""sko\u0144czy\u0107"", ""jako"", ""truch\u0142a"", ""kt\u00f3ry"", ""przykrywa"", ""si\u0119"", ""kosztowny"", ""kamienny"", ""p\u0142yta"", ""obstawia\u0107"", ""\u015bwieczka"", ""nawet"", ""sam"", ""bezwzgl\u0119dny"", ""si\u0142a"", ""ten"", ""tradycja"", ""zmusi\u0107"", ""wykonywa\u0107"", ""tychy"", ""rytualny"", ""obrz\u0105d""]","[""subst dat m1 sg"", ""praet imperf n sg"", ""adv"", ""adj nom pos n sg"", ""subst nom m3 pl"", ""fin perf pl ter"", ""subst nom n pl"", ""subst loc m3 sg"", ""subst dat f sg"", ""prep acc nwok"", ""adj acc pos f sg"", ""subst inst f sg"", ""subst inst m3 sg"", ""subst voc f sg"", ""subst inst n sg"", ""subst nom m3 sg"", ""adj gen pos f sg"", ""subst gen f sg"", ""adj gen pos f sg"", ""praet nagl imperf m1 sg"", ""qub"", ""inf perf"", ""adv"", ""praet imperf m1 sg"", ""inf imperf"", ""adj gen pos m1 pl"", ""subst loc f pl"", ""adj gen pos f sg"", ""subst gen f sg"", ""adv"", ""impt imperf sg sec"", ""praet imperf m1 sg"", ""qub"", ""subst dat n sg"", ""adj gen pos m1 sg"", ""subst gen m3 sg"", ""winien imperf m1 sg"", ""inf imperf"", ""subst nom m3 sg"", ""pact imperf nom m1 aff sg"", ""subst nom m3 sg"", ""adj gen pos m1 sg"", ""subst gen n sg"", ""subst inst m1 sg"", ""subst nom m3 sg"", ""adj inst pos m1 sg"", ""fin perf sg ter"", ""qub"", ""subst acc f sg"", ""praet imperf m1 sg"", ""inf perf"", ""subst voc f sg"", ""subst voc f sg"", ""adj nom pos n sg"", ""subst nom f sg"", ""qub"", ""adj acc pos f sg"", ""adj acc pos f sg"", ""subst inst f sg"", ""fin imperf sg ter"", ""subst inst f pl"", ""qub"", ""adj gen pos m1 sg"", ""adj nom pos f sg"", ""adv"", ""adj gen pos f sg"", ""subst gen f sg"", ""praet perf f sg"", ""ger imperf gen n aff sg"", ""subst gen n pl"", ""adj gen pos m1 pl"", ""subst gen m3 pl""]","{""single"": [], ""multi"": {}}","[[""adam"", ""cmentarz"", ""gr\u00f3b"", ""nadzieja"", ""termopile""]]"
9,00103575,"Ondricek cierpiał razem ze mną, chciał mi nieba uchylić, był taki dobry! Nie mogłam siedzieć bezczynnie, musiałam wychodzić mój żal. Wychodziliśmy z domu i odprowadzałam go pod bramę fabryki. Potem szłam prosto przed siebie, do ostatnich zabudowań, aż Praga nieoczekiwanie się kończyła. Zawracałam i szłam w inną stronę. Wracałam po południu, jedliśmy obiad przyniesiony przez Ondricka ze stołówki zakładowej. Chwilę odpoczywałam i znów wychodziliśmy, godzinami krążyliśmy ulicami, aż przychodziła pora Ondrickowego piwa. Jakby ciągnął go magnes, kluczył i wracał do ulubionej gospody. Ulubionej w danym tygodniu, bo miał ich całe mnóstwo. Dopiero wtedy wracałam do domu i zdejmowałam schodzone buty, oglądałam spuchnięte stopy i wkładałam je do wiadra z chłodną wodą. Zanim Ondricek zdążył wrócić, już spałam. Przez wiele miesięcy tak samo wyglądały nasze dni. Szłam i szłam przez Pragę.","[""ondricek"", ""cierpie\u0107"", ""razem"", ""chcie\u0107"", ""niebo"", ""uchyli\u0107"", ""by\u0107"", ""taki"", ""dobry"", ""m\u00f3cby\u0107"", ""siedzie\u0107"", ""bezczynnie"", ""wychodzi\u0107"", ""m\u00f3j"", ""\u017cal"", ""wychodzi\u0107by\u0107"", ""dom"", ""pod"", ""bramah"", ""fabryka"", ""potem"", ""i\u015b\u0107by\u0107"", ""prosto"", ""przed"", ""siebie"", ""ostatni"", ""zabudowania"", ""praga"", ""nieoczekiwanie"", ""si\u0119"", ""ko\u0144czy\u0107"", ""zawraca\u0107by\u0107"", ""inny"", ""strona"", ""wraca\u0107by\u0107"", ""po\u0142udnie"", ""obiad"", ""przynie\u015b\u0107"", ""przez"", ""ondricka"", ""sto\u0142\u00f3wka"", ""zak\u0142adowy"", ""chwila"", ""odpoczywa\u0107by\u0107"", ""wychodzi\u0107by\u0107"", ""godzina"", ""ulica"", ""przychodzi\u0107"", ""ondrickowego"", ""piwo"", ""jakby"", ""ci\u0105gn\u0105\u0107"", ""magnes"", ""kluczy\u0107"", ""wraca\u0107"", ""ulubiony"", ""gospoda"", ""ulubiony"", ""dana"", ""tydzie\u0144"", ""mia\u0142"", ""ca\u0142y"", ""mn\u00f3stwo"", ""dopiero"", ""wtedy"", ""wraca\u0107by\u0107"", ""dom"", ""schodzi\u0107"", ""but"", ""ogl\u0105da\u0107by\u0107"", ""stop"", ""wk\u0142ada\u0107by\u0107"", ""wiadro"", ""ch\u0142odny"", ""woda"", ""zanim"", ""ondricek"", ""zd\u0105\u017cy\u0107"", ""wr\u00f3ci\u0107"", ""ju\u017c"", ""spa\u0107by\u0107"", ""przez"", ""wiele"", ""miesi\u0105c"", ""tak"", ""sam"", ""wygl\u0105da\u0107"", ""nasze"", ""dni"", ""i\u015b\u0107by\u0107"", ""przez"", ""praga""]","[""ign"", ""praet imperf m1 sg"", ""subst inst m3 sg"", ""praet imperf m1 sg"", ""subst gen n sg"", ""inf perf"", ""praet imperf m1 sg"", ""subst gen f sg"", ""adj nom pos m1 sg"", ""praet imperf f sg"", ""aglt imperf sg pri nwok"", ""inf imperf"", ""praet imperf f sg"", ""aglt imperf sg pri nwok"", ""inf imperf"", ""praet imperf m1 pl"", ""prep gen nwok"", ""aglt imperf sg pri nwok"", ""subst nom n sg"", ""prep acc nwok"", ""subst inst m1 sg"", ""praet imperf f sg"", ""aglt imperf sg pri nwok"", ""adv pos"", ""prep acc nwok"", ""prep gen"", ""adj gen pos m1 pl"", ""comp"", ""subst nom f sg"", ""adv pos"", ""qub"", ""praet imperf f sg"", ""aglt imperf sg pri nwok"", ""prep acc nwok"", ""praet imperf f sg"", ""subst nom f sg"", ""praet imperf m1 pl"", ""aglt imperf pl pri nwok"", ""subst nom m3 sg"", ""ppas perf nom m1 aff sg"", ""ign"", ""prep gen wok"", ""subst acc f sg"", ""praet imperf f sg"", ""qub"", ""aglt imperf pl pri nwok"", ""subst inst f pl"", ""subst inst f pl"", ""comp"", ""praet imperf f sg"", ""comp"", ""praet imperf m1 sg"", ""subst nom m3 sg"", ""praet imperf m1 sg"", ""praet imperf m1 sg"", ""adj gen pos f sg"", ""subst gen f sg"", ""adj gen pos f sg"", ""subst dat f pl"", ""subst loc m3 sg"", ""subst nom m3 sg"", ""adj nom pos n sg"", ""subst nom n sg"", ""qub"", ""adv"", ""praet imperf f sg"", ""prep gen"", ""praet imperf f sg"", ""aglt imperf sg pri nwok"", ""subst nom m3 pl"", ""praet imperf f sg"", ""ppas perf nom n aff sg"", ""praet imperf f sg"", ""fin imperf sg ter"", ""prep gen"", ""comp"", ""ign"", ""praet perf m1 sg"", ""inf perf"", ""qub"", ""praet imperf f sg"", ""prep acc nwok"", ""adv"", ""subst gen m3 pl"", ""adv"", ""adj nom pos n sg"", ""praet imperf m2 pl"", ""adj nom pos n sg"", ""subst nom n pl"", ""praet imperf f sg"", ""praet imperf f sg"", ""aglt imperf sg pri nwok""]","{""single"": [], ""multi"": {}}","[[""ondricek"", ""praga"", ""wiatr"", ""szczecina"", ""ko\u015bci\u00f3\u0142"", ""marika"", ""polski"", ""czechy""]]"
10,00103590,"Jakże trudno niekiedy o wenę twórczą! Taką, dzięki której i słowa w potoku żywej mowy o kunszcie retora świadczą, i wyrazy przelewane na papier czytelnik później z łatwością i łapczywością niejaką wzrokiem połyka. Czasami chciałoby się sięgnąć słonecznych promieni i ślizgiem Ikarowym pod niebiosa pofrunąć, ale zasłona chmur nieprzeniknionych stanowczo ideę tę wielką porzucić każe. A spragnione i młode umysły ambitnych uczniów domagają się, niczym pisklęta pokarmu w gnieździe, wciąż to nowych i coraz doskonalszych dzieł, dzięki którym otworzą się szerzej na wiedzę i wyposażone w odpowiednie narzędzia swój warsztat pracy otworzą. Gdzież zatem szukać inspiracji, gdzież ambrozji życiodajnej i nektaru, co boskiego ducha w ciało i rozum tchnie? Jakimi podążać ścieżkami, by nie zawieść się srodze, by na wyżyny wzlecieć i nauczycielem godnym szacunku się móc nazywać?","[""jak\u017ce"", ""trudno"", ""niekiedy"", ""wena"", ""tw\u00f3rczy"", ""taka"", ""dzi\u0119ki"", ""kt\u00f3ry"", ""s\u0142owo"", ""potok"", ""\u017cywy"", ""mowa"", ""kunszt"", ""retor"", ""\u015bwiadczy\u0107"", ""wyraz"", ""przelewa\u0107"", ""papier"", ""czytelnik"", ""p\u00f3\u017ano"", ""\u0142atwo\u015b\u0107"", ""\u0142apczywo\u015b\u0107"", ""niejaki"", ""wzrok"", ""po\u0142yka\u0107"", ""czas"", ""chcie\u0107by"", ""si\u0119"", ""si\u0119gn\u0105\u0107"", ""s\u0142oneczny"", ""promie\u0144"", ""ikarowy"", ""pod"", ""niebiosa"", ""pofrun\u0105\u0107"", ""zas\u0142ona"", ""chmura"", ""nieprzenikniony"", ""stanowczo"", ""idea"", ""ten"", ""wielki"", ""porzuci\u0107"", ""kaza\u0107"", ""spragniony"", ""m\u0142ode"", ""umys\u0142"", ""ambitny"", ""ucze\u0144"", ""domaga\u0107"", ""si\u0119"", ""niczym"", ""piskl\u0119"", ""pokarm"", ""gniazdo"", ""wci\u0105\u017c"", ""nowa"", ""coraz"", ""doskona\u0142y"", ""dzie\u0142o"", ""dzi\u0119ki"", ""kt\u00f3ry"", ""otworzy\u0107"", ""si\u0119"", ""szeroko"", ""wiedza"", ""wyposa\u017cy\u0107"", ""odpowiedni"", ""narz\u0119dzie"", ""sw\u00f3j"", ""warsztat"", ""praca"", ""otworzy\u0107"", ""gdzie\u017c"", ""szuka\u0107"", ""inspiracja"", ""gdzie\u017c"", ""ambrozja"", ""\u017cyciodajny"", ""nektar"", ""boski"", ""duch"", ""cia\u0142o"", ""rozum"", ""tchn\u0105\u0107"", ""jaki"", ""pod\u0105\u017ca\u0107"", ""\u015bcie\u017cek"", ""zawie\u015b\u0107"", ""si\u0119"", ""srodze"", ""wy\u017cyna"", ""wzlecie\u0107"", ""nauczyciel"", ""godne"", ""szacunek"", ""si\u0119"", ""m\u00f3c"", ""nazywa\u0107""]","[""adv"", ""adv pos"", ""adv"", ""subst acc f sg"", ""adj acc pos f sg"", ""subst inst f sg"", ""subst nom m3 pl"", ""adj gen pos f sg"", ""subst gen n sg"", ""subst gen m3 sg"", ""adj gen pos f sg"", ""subst gen f sg"", ""subst loc m3 sg"", ""subst gen m1 sg"", ""fin imperf pl ter"", ""subst nom m3 pl"", ""ppas imperf nom n aff sg"", ""subst nom m3 sg"", ""subst nom m1 sg"", ""adv com"", ""subst inst f sg"", ""subst inst f sg"", ""adj acc pos f sg"", ""subst inst m3 sg"", ""fin imperf sg ter"", ""subst inst m3 pl"", ""praet imperf n sg"", ""qub"", ""qub"", ""inf perf"", ""adj gen pos m1 pl"", ""subst inst m3 sg"", ""adj inst pos m1 sg"", ""prep acc nwok"", ""subst nom n pl"", ""depr nom m2 pl"", ""subst nom f sg"", ""subst gen f pl"", ""adj gen pos m1 pl"", ""adv pos"", ""subst acc f sg"", ""adj acc pos f sg"", ""adj acc pos f sg"", ""inf perf"", ""adj nom pos n sg"", ""subst nom n sg"", ""subst nom m3 pl"", ""adj gen pos m1 pl"", ""subst gen m1 pl"", ""fin imperf pl ter"", ""qub"", ""subst inst n sg"", ""subst nom n pl"", ""subst gen m3 sg"", ""subst loc n sg"", ""adv"", ""subst gen f pl"", ""adv"", ""adj gen com m1 pl"", ""subst gen n pl"", ""subst nom m3 pl"", ""adj inst pos m1 sg"", ""fin perf pl ter"", ""qub"", ""adv com"", ""subst acc f sg"", ""ppas perf nom n aff sg"", ""adj nom pos n sg"", ""subst gen n sg"", ""adj nom pos m1 sg"", ""subst nom m3 sg"", ""subst gen f sg"", ""fin perf pl ter"", ""adv"", ""inf imperf"", ""subst gen f sg"", ""adv"", ""subst gen f sg"", ""adj gen pos f sg"", ""subst gen m3 sg"", ""adj gen pos m1 sg"", ""subst gen m2 sg"", ""subst nom n sg"", ""subst nom m3 sg"", ""fin imperf sg ter"", ""adj inst pos m1 pl"", ""inf imperf"", ""subst inst m3 pl"", ""inf perf"", ""qub"", ""adv pos"", ""subst gen f sg"", ""inf perf"", ""subst inst m1 sg"", ""subst inst n sg"", ""subst gen m3 sg"", ""qub"", ""inf imperf"", ""inf imperf""]","{""single"": [], ""multi"": {}}","[[""wena"", ""inspiracja"", ""warsztat"", ""rozwa\u017canie"", ""w\u0119drowiec"", ""starzec""]]"
11,00103567,"- A - efektowna pauza - brama. Duma pana Landaua. Kosztowała majątek, ale jest warta swojej ceny. Nie do sforsowania. Do tego osłona gęsto rozstawionych wieżyczek czyni z posiadłości Landaua twierdzę nie do zdobycia. Chyba nie muszę dodawać, że zastosowane zabezpieczenia byłyby nielegalne na terenie Imperium, ale w Alarilu. Sam pan rozumie - Hubert zaśmiał się nerwowo, zerkając na Truna, który był w połowie sprawdzania kluczy. - Pospiesz się - syknął na kolda.","[""efektowny"", ""pauza"", ""brama"", ""duma"", ""pan"", ""landau"", ""kosztowa\u0107"", ""maj\u0105tek"", ""ale"", ""by\u0107"", ""warta"", ""sw\u00f3j"", ""cena"", ""sforsowa\u0107"", ""os\u0142ona"", ""g\u0119sto"", ""rozstawi\u0107"", ""wie\u017cyczka"", ""czyni\u0107"", ""posiad\u0142o\u015bci"", ""landau"", ""twierdza"", ""zdobycie"", ""chyba"", ""musza"", ""dodawa\u0107"", ""zastosowany"", ""zabezpieczenie"", ""by\u0107by"", ""nielegalny"", ""terenia"", ""imperium"", ""alarilu"", ""sam"", ""pan"", ""rozum"", ""hubert"", ""za\u015bmia\u0107"", ""si\u0119"", ""nerwowo"", ""zerka\u0107"", ""truna"", ""kt\u00f3ry"", ""by\u0107"", ""po\u0142owa"", ""sprawdza\u0107"", ""klucz"", ""pospieszy\u0107"", ""si\u0119"", ""sykn\u0105\u0107"", ""kolda""]","[""adj nom pos f sg"", ""subst nom f sg"", ""subst nom f sg"", ""subst nom f sg"", ""subst gen m1 sg"", ""subst gen m1 sg"", ""praet imperf f sg"", ""subst nom m3 sg"", ""depr nom m2 pl"", ""fin imperf sg ter"", ""adj nom pos f sg"", ""adj gen pos f sg"", ""subst gen f sg"", ""ger perf gen n aff sg"", ""subst nom f sg"", ""adv pos"", ""ppas perf gen m1 aff pl"", ""subst gen f pl"", ""fin imperf sg ter"", ""subst nom n pl"", ""subst gen m1 sg"", ""subst acc f sg"", ""subst gen n sg"", ""qub"", ""fin imperf sg pri"", ""inf imperf"", ""adj nom pos n sg"", ""subst gen n sg"", ""praet imperf m2 pl"", ""qub"", ""interj"", ""subst nom f pl"", ""prep acc nwok"", ""subst nom m1 sg"", ""subst nom m3 sg"", ""subst loc m3 sg"", ""subst nom m1 sg"", ""praet perf m1 sg"", ""qub"", ""adv pos"", ""pcon imperf"", ""subst nom f sg"", ""adj nom pos m1 sg"", ""praet imperf m1 sg"", ""subst dat f sg"", ""ger imperf gen n aff sg"", ""subst gen m3 pl"", ""impt perf sg sec"", ""qub"", ""praet perf m1 sg"", ""ign""]","{""single"": [], ""multi"": {}}","[[""landau"", ""brama"", ""balter"", ""sajev"", ""truna"", ""konstrukt"", ""maszyna"", ""demonstracja"", ""hangar""]]"
12,00103596,"Działo się to niemal dokładnie rok temu podczas mszy rezurekcyjnej. Kazanie wygłaszał ksiądz, który przygotowywał mnie do bierzmowania, o którym miałem bardzo dobre zdanie - potrafił rozmawiać inteligentnie z młodymi ludźmi, z poczuciem humoru, bez zbędnego patosu itd. Tymczasem okazało się, że ma też drugie oblicze. Kazanie po pierwsze było bardzo długie (co do niego niepodobne), ale, co gorsze, ksiądz bez przerwy uderzał w moherowe tony. Niestety wtedy jeszcze nie myślałem o prowadzeniu bloga, więc nie zanotowałem wszystkiego. Zapamiętałem tylko to, co mnie najbardziej zszokowało. Powiedział coś takiego:","[""dzia\u0142o"", ""si\u0119"", ""niemal"", ""dok\u0142adnie"", ""rok"", ""temu"", ""podczas"", ""msza"", ""rezurekcyjny"", ""kazan"", ""wyg\u0142asza\u0107"", ""ksi\u0105dz"", ""kt\u00f3ry"", ""przygotowywa\u0107"", ""bierzmowanie"", ""kt\u00f3ry"", ""mia\u0142"", ""bardzo"", ""dobre"", ""zdanie"", ""potrafi\u0107"", ""rozmawia\u0107"", ""inteligentnie"", ""m\u0142ode"", ""cz\u0142owiek"", ""poczucie"", ""humor"", ""bez"", ""zb\u0119dny"", ""patos"", ""tymczasem"", ""okaza\u0107"", ""si\u0119"", ""m\u00f3j"", ""te\u017c"", ""druga"", ""oblicze"", ""kazan"", ""pierwsza"", ""by\u0107"", ""bardzo"", ""d\u0142ugi"", ""niepodobny"", ""ale"", ""z\u0142y"", ""ksi\u0105dz"", ""bez"", ""przerwa"", ""uderza\u0107"", ""moherowy"", ""ton"", ""niestety"", ""wtedy"", ""jeszcze"", ""my\u015ble\u0107by\u0107"", ""prowadzenie"", ""blog"", ""wszystko"", ""zapami\u0119ta\u0107by\u0107"", ""tylko"", ""bardzo"", ""zszokowa\u0107"", ""powiedzie\u0107"", ""co\u015b"", ""taki""]","[""praet imperf n sg"", ""qub"", ""qub"", ""adv pos"", ""subst nom m3 sg"", ""prep acc"", ""prep gen"", ""subst gen f sg"", ""adj gen pos f sg"", ""subst loc m1 sg"", ""praet imperf m1 sg"", ""subst nom m1 sg"", ""adj nom pos m1 sg"", ""praet imperf m1 sg"", ""subst gen n sg"", ""adj inst pos m1 sg"", ""subst inst m3 sg"", ""adv pos"", ""subst nom n sg"", ""subst nom n sg"", ""praet imperf m1 sg"", ""inf imperf"", ""adv pos"", ""subst inst n pl"", ""subst inst m1 pl"", ""subst inst n sg"", ""subst gen m3 sg"", ""prep gen nwok"", ""adj gen pos m1 sg"", ""subst gen m3 sg"", ""adv"", ""praet perf n sg"", ""qub"", ""fin imperf sg ter"", ""adj nom pos m2 pl"", ""subst nom f pl"", ""subst nom n sg"", ""subst loc m1 sg"", ""subst nom f pl"", ""praet imperf n sg"", ""adv pos"", ""adj nom pos n sg"", ""adj nom pos n sg"", ""depr nom m2 pl"", ""adj nom com n sg"", ""subst nom m1 sg"", ""prep gen nwok"", ""depr nom m2 pl"", ""praet imperf m1 sg"", ""adj nom pos n sg"", ""subst nom m3 pl"", ""qub"", ""adv"", ""qub"", ""praet imperf m1 sg"", ""interj"", ""subst dat n sg"", ""praet perf m1 sg"", ""praet perf m1 sg"", ""aglt imperf sg pri wok"", ""ppron12 akc gen m1 sg pri"", ""adv sup"", ""praet perf m1 sg"", ""qub"", ""adj gen pos m1 sg""]","{""single"": [], ""multi"": {}}","[[""msza"", ""rezurekcja"", ""ksi\u0105dz"", ""kazanie"", ""kolbe"", ""katolik"", ""mi\u0142osz"", ""sk\u0142odowskacurie"", ""rok""]]"
13,00103574,"Miałam nadzieję, że nasze dzieci będą tu chrzczone, pójdą do pierwszej komunii… Nie udało się. Może, gdybyśmy mieszkali w Polsce? Wiedziałabym do jakiego lekarza pójść. Wszystko było trudne do ogarnięcia. Niby tak blisko, niby tak podobny język, a jednak ludzie zupełnie inni.","[""mie\u0107by\u0107"", ""nadzieja"", ""nasze"", ""dziecko"", ""by\u0107"", ""chrzci\u0107"", ""pierwsza"", ""komunia"", ""uda\u0107"", ""si\u0119"", ""mo\u017ce"", ""gdybyby\u0107"", ""mieszka\u0107"", ""polska"", ""wiedzie\u0107byby\u0107"", ""jaki"", ""lekarz"", ""p\u00f3j\u015b\u0107"", ""wszystko"", ""by\u0107"", ""trudny"", ""ogarn\u0105\u0107"", ""tak"", ""blisko"", ""tak"", ""podobny"", ""j\u0119zyk"", ""cz\u0142owiek"", ""zupe\u0142nie"", ""inny""]","[""praet imperf f sg"", ""aglt imperf sg pri nwok"", ""comp"", ""adj nom pos n sg"", ""subst nom n pl"", ""adv"", ""prep gen"", ""subst gen f sg"", ""praet perf n sg"", ""qub"", ""qub"", ""comp"", ""aglt imperf pl pri nwok"", ""prep acc nwok"", ""praet imperf f sg"", ""aglt imperf sg pri nwok"", ""prep gen"", ""adj gen pos m1 sg"", ""adv"", ""praet imperf n sg"", ""adj nom pos n sg"", ""ger perf gen n aff sg"", ""adv"", ""adv pos"", ""adv"", ""adj nom pos m1 sg"", ""subst nom m3 sg"", ""depr nom m2 pl"", ""adv pos"", ""adj nom pos m1 pl""]","{""single"": [], ""multi"": {}}","[[""polski"", ""dziecko"", ""\u015blub"", ""mama"", ""szczecina"", ""drezno"", ""praga""]]"
14,00103569,- Wezwę pomoc! - krzyknął Landau i razem ze zszokowanym spaślakiem popędzili w stronę rezydencji.,"[""wezwa"", ""pomoc"", ""krzykn\u0105\u0107"", ""landau"", ""razem"", ""zszokowa\u0107"", ""spa\u015blakiem"", ""pop\u0119dzi\u0107"", ""strona"", ""rezydencja""]","[""subst acc f sg"", ""subst nom f sg"", ""praet perf m1 sg"", ""subst nom m1 sg"", ""subst inst m3 sg"", ""ppas perf inst m1 aff sg"", ""ign"", ""praet perf m1 pl"", ""subst acc f sg"", ""subst gen f sg""]","{""single"": [], ""multi"": {}}","[[""landau"", ""truna"", ""hala"", ""hangar""]]"
15,00103581,"- Przepraszam, może pan coś zrobić z tą muzą? - Adam usłyszał ludzki głos, otworzył oczy i pomarańczowo czarna okładka „Load” przedstawiająca rozlaną krew albo ropę zamieniła się w bladą twarz chłopaka ze śladami czerwonej szminki na szyi.","[""przeprasza\u0107"", ""mo\u017ce"", ""pan"", ""co\u015b"", ""zrobi\u0107"", ""ten"", ""muza"", ""adam"", ""us\u0142ysze\u0107"", ""ludzki"", ""g\u0142os"", ""otworzy\u0107"", ""oko"", ""pomara\u0144czowo"", ""czarna"", ""ok\u0142adka"", ""przedstawia\u0107"", ""krew"", ""albo"", ""ropa"", ""zamieni\u0107"", ""si\u0119"", ""blady"", ""twarz"", ""ch\u0142opak"", ""\u015blad"", ""czerwona"", ""szminka"", ""szyja""]","[""fin imperf sg pri"", ""qub"", ""subst nom m3 sg"", ""qub"", ""inf perf"", ""adj inst pos f sg"", ""subst inst f sg"", ""subst nom m1 sg"", ""praet perf m1 sg"", ""adj nom pos m1 sg"", ""subst nom m3 sg"", ""praet perf m1 sg"", ""fin imperf sg ter"", ""adv pos"", ""subst nom f sg"", ""subst nom f sg"", ""ign"", ""pact imperf nom f aff sg"", ""adj acc pos f sg"", ""subst nom f sg"", ""subst voc f sg"", ""subst acc f sg"", ""qub"", ""prep acc nwok"", ""adj acc pos f sg"", ""subst gen m1 sg"", ""prep gen wok"", ""subst inst m3 pl"", ""subst gen f sg""]","{""single"": [], ""multi"": {}}","[[""modern talking"", ""martin luter"", ""spice girls"", ""britney spears"", ""adam"", ""load"", ""modern"", ""talking"", ""kapela"", ""martin"", ""luter"", ""lokal"", ""spice"", ""girlsa"", ""britney"", ""spears""]]"
16,00103577,Nieokreślony zapach dawno nie wietrzonego mieszkania. Dobre światło ocenił w myślach. Dwa duże okna ponad dachami kamienic. Latem może być gorąco.,"[""nieokre\u015blony"", ""zapach"", ""dawno"", ""wietrzy\u0107"", ""mieszkanie"", ""dobre"", ""\u015bwiat\u0142o"", ""oceni\u0107"", ""my\u015bl"", ""dwa"", ""duha"", ""okno"", ""ponad"", ""dach"", ""kamienica"", ""lato"", ""mo\u017ce"", ""by\u0107"", ""gor\u0105co""]","[""adj nom pos m1 sg"", ""subst nom m3 sg"", ""adv pos"", ""ppas imperf gen m1 aff sg"", ""subst gen n sg"", ""subst nom n sg"", ""adv pos"", ""praet perf m1 sg"", ""subst loc f pl"", ""num congr nom m2 pl"", ""subst dat f sg"", ""subst gen n sg"", ""prep acc nwok"", ""subst inst m3 pl"", ""subst gen f pl"", ""subst inst n sg"", ""qub"", ""subst gen n pl"", ""adv pos""]","{""single"": [], ""multi"": {}}","[[""urz\u0105d miasta"", ""asp"", ""urz\u0105d"", ""miasto"", ""studia"", ""malowanie"", ""dokument"", ""studia"", ""praca""]]"
17,00103578,"Odwracam się plecami do świata i wracam w ciasne, wymiecione uliczki. Bardziej, niż gdzie indziej mam ochotę zaglądać ludziom do okien. Podglądać ich życie. Nie jest tak samo, bardziej niż gdzie indziej czas stanął w miejscu, bo do najbliższego supermarketu we Władysławowie jest 50 kilometrów. Więc rodzina bardziej niż gdzie indziej siada nabożnie do cotygodniowej gazetki przywożonej przez listonosza i oglądają wszyscy razem te produkty. I biorą czarny flamaster i piszą na marginesie, co trzeba kupić i mają ze sobą gazetkę, gdyby zapomnieli o jakiejś promocji, ale do czasu zakupów nauczą się jej na pamięć. Przerzucają w sklepie wyświechtane brzegi i dziwią się i nie mogą zrozumieć, że czas promocji jest ograniczony i znowu nie zdążyli, bo gdyby do sklepu było bliżej, to może by zdążyli…","[""odwraca\u0107"", ""si\u0119"", ""plecy"", ""\u015bwiat"", ""wraca\u0107"", ""ciasny"", ""wymie\u015b\u0107"", ""uliczka"", ""bardzo"", ""ni\u017c"", ""gdzie"", ""indziej"", ""mama"", ""ochota"", ""zagl\u0105da\u0107"", ""cz\u0142owiek"", ""okno"", ""podgl\u0105da\u0107"", ""\u017cycie"", ""by\u0107"", ""tak"", ""sam"", ""bardzo"", ""ni\u017c"", ""gdzie"", ""indziej"", ""czas"", ""stan\u0105\u0107"", ""miejsce"", ""bliski"", ""supermarket"", ""w\u0142adys\u0142aw"", ""by\u0107"", ""kilometr"", ""rodzina"", ""bardzo"", ""ni\u017c"", ""gdzie"", ""indziej"", ""siada\u0107"", ""nabo\u017cnie"", ""cotygodniowy"", ""gazetka"", ""przywozi\u0107"", ""przez"", ""listonosz"", ""ogl\u0105da\u0107"", ""wszyscy"", ""razem"", ""produkt"", ""bra\u0107"", ""czarny"", ""flamaster"", ""pisa\u0107"", ""margines"", ""trzeba"", ""kupi\u0107"", ""maja"", ""siebie"", ""gazetka"", ""gdyby"", ""zapomnie\u0107"", ""jaki\u015b"", ""promocja"", ""ale"", ""czas"", ""zakup"", ""nauczy\u0107"", ""si\u0119"", ""pami\u0119\u0107"", ""przerzuca\u0107"", ""sklep"", ""wy\u015bwiechtany"", ""brzeg"", ""dziwi\u0107"", ""si\u0119"", ""m\u00f3c"", ""zrozumie\u0107"", ""czas"", ""promocja"", ""by\u0107"", ""ograniczony"", ""znowu"", ""zd\u0105\u017cy\u0107"", ""gdyby"", ""sklep"", ""by\u0107"", ""blisko"", ""mo\u017ce"", ""zd\u0105\u017cy\u0107""]","[""fin imperf sg pri"", ""qub"", ""subst inst n pl"", ""subst gen m3 sg"", ""fin imperf sg pri"", ""adj nom pos n sg"", ""ppas perf nom n aff sg"", ""subst gen f sg"", ""adv com"", ""impt imperf sg sec"", ""adv"", ""adv"", ""subst gen f pl"", ""subst acc f sg"", ""inf imperf"", ""subst dat m1 pl"", ""subst gen n pl"", ""inf imperf"", ""subst nom n sg"", ""fin imperf sg ter"", ""adv"", ""adj nom pos n sg"", ""adv com"", ""impt imperf sg sec"", ""adv"", ""adv"", ""pred"", ""praet perf m1 sg"", ""subst dat n sg"", ""adj gen sup m1 sg"", ""subst gen m3 sg"", ""subst nom m1 pl"", ""fin imperf sg ter"", ""subst gen m3 pl"", ""subst nom f sg"", ""adv com"", ""impt imperf sg sec"", ""adv"", ""adv"", ""fin imperf sg ter"", ""adv pos"", ""adj gen pos f sg"", ""subst gen f sg"", ""ppas imperf gen f aff sg"", ""prep acc nwok"", ""subst gen m1 sg"", ""fin imperf pl ter"", ""subst nom m1 pl"", ""subst inst m3 sg"", ""subst nom m3 pl"", ""fin imperf pl ter"", ""adj nom pos m1 sg"", ""subst nom m3 sg"", ""fin imperf pl ter"", ""subst loc m3 sg"", ""pred"", ""inf imperf"", ""subst inst m1 sg"", ""siebie inst"", ""subst acc f sg"", ""comp"", ""praet perf m1 pl"", ""adj gen pos f sg"", ""subst gen f sg"", ""depr nom m2 pl"", ""subst gen m3 sg"", ""subst gen m3 pl"", ""fin perf pl ter"", ""qub"", ""subst nom f sg"", ""fin imperf pl ter"", ""subst loc m3 sg"", ""adj nom pos n sg"", ""subst nom m3 pl"", ""fin imperf pl ter"", ""qub"", ""fin imperf pl ter"", ""inf perf"", ""pred"", ""subst gen f sg"", ""fin imperf sg ter"", ""adj nom pos m1 sg"", ""qub"", ""praet perf m1 pl"", ""comp"", ""subst gen m3 sg"", ""praet imperf n sg"", ""adv com"", ""qub"", ""praet perf m1 pl""]","{""single"": [], ""multi"": {}}","[[""uliczka"", ""w\u0142adys\u0142awowo"", ""hel"", ""turysta"", ""prywatno\u015b\u0107""]]"
18,00103588,"Kiedy granitowa płyta z głuchym stuknięciem opadła na betonową klatkę grobowca, mój wzrok rozsunął ziemię i zobaczyłem tysiące boksów ułożonych obok siebie, a w każdym z nich jednego człowieka, jak w Single Club. Różnica była jednak ogromna. 40 stóp pod Park Avenue, tylko się nam wydawało, że jesteśmy samotni. Prawdziwymi singlami stawaliśmy się dopiero w podziemnym klubie usytuowanym tutaj.","[""kiedy"", ""granitowy"", ""p\u0142yta"", ""g\u0142uchy"", ""stukn\u0105\u0107"", ""opad\u0142y"", ""betonowy"", ""klatka"", ""grobowiec"", ""m\u00f3j"", ""wzrok"", ""rozsun\u0105\u0107"", ""ziemia"", ""zobaczy\u0107by\u0107"", ""tysi\u0105c"", ""boks"", ""u\u0142o\u017cony"", ""obok"", ""siebie"", ""ka\u017cdy"", ""jeden"", ""cz\u0142owiek"", ""singel"", ""club"", ""r\u00f3\u017cnica"", ""by\u0142a"", ""ogromny"", ""stopa"", ""pod"", ""park"", ""avenue"", ""tylko"", ""si\u0119"", ""wydawa\u0107"", ""by\u0107"", ""samotnia"", ""prawdziwy"", ""singel"", ""stawa\u0107by\u0107"", ""si\u0119"", ""dopiero"", ""podziemny"", ""klub"", ""usytuowa\u0107"", ""tutaj""]","[""adv"", ""adj nom pos f sg"", ""subst nom f sg"", ""adj inst pos m1 sg"", ""ger perf inst n aff sg"", ""adj nom pos f sg"", ""adj acc pos f sg"", ""subst acc f sg"", ""subst gen m3 sg"", ""adj nom pos m1 sg"", ""subst nom m3 sg"", ""praet perf m1 sg"", ""subst acc f sg"", ""praet perf m1 sg"", ""aglt imperf sg pri wok"", ""subst nom m2 pl"", ""subst gen m3 pl"", ""adj gen pos m1 pl"", ""adv"", ""prep acc nwok"", ""ppron3 akc gen m1 pl ter praep"", ""adj gen pos m1 sg"", ""prep acc nwok"", ""subst nom m2 pl"", ""subst nom f sg"", ""praet imperf f sg"", ""adj nom pos f sg"", ""subst gen f pl"", ""prep acc nwok"", ""subst nom m3 sg"", ""ign"", ""subst voc f sg"", ""qub"", ""praet imperf n sg"", ""fin imperf pl pri"", ""subst gen f sg"", ""adj inst pos m1 pl"", ""subst inst m2 pl"", ""praet imperf m1 pl"", ""aglt imperf pl pri nwok"", ""qub"", ""prep acc nwok"", ""adj inst pos m1 sg"", ""subst loc m3 sg"", ""ppas perf inst m1 aff sg""]","{""single"": [], ""multi"": {}}","[[""single club"", ""park avenue"", ""new jersey"", ""singel"", ""club"", ""park"", ""avenue"", ""newa"", ""jersey"", ""grobowiec"", ""ugi"", ""za\u015bwiat"", ""lekarz""]]"
19,00103580,"Czas mijał, pędziły elektrony po orbitach atomów w zegarach Sarkofagu. Ur, jakie znała Alienor, już nie istniało. Wielki Kapłan od stu lat już nie żył, od osiemdziesięciu lat nie żyły matrony - siostry Inany, od pięćdziesięciu lat nie żył nikt, kogo znała, kogo kochała, z kim dzieliła myśli i uczucia. Ani ojciec Enmaker, ani ukochana matka, ani rodzone siostry ni brat. Pozbawiły ją tego Prawo i Polityka.","[""czas"", ""mija\u0107"", ""p\u0119dzi\u0107"", ""elektron"", ""orbita"", ""atom"", ""zegar"", ""sarkofag"", ""urodzony"", ""jaki"", ""zna\u0107"", ""alienor"", ""ju\u017c"", ""istnie\u0107"", ""wielki"", ""kap\u0142an"", ""sto"", ""lata"", ""ju\u017c"", ""\u017cy\u0142a"", ""osiemdziesi\u0105t"", ""lata"", ""\u017cy\u0142a"", ""matrona"", ""siostra"", ""inany"", ""pi\u0119\u0107dziesi\u0105t"", ""lata"", ""\u017cy\u0142a"", ""nikt"", ""koga"", ""zna\u0107"", ""koga"", ""kocha\u0107"", ""kima"", ""dzieli\u0107"", ""my\u015bl"", ""uczucie"", ""ani"", ""ojciec"", ""enmaker"", ""ani"", ""ukochana"", ""matka"", ""ani"", ""rodzona"", ""siostra"", ""brat"", ""pozbawi\u0107"", ""prawo"", ""polityk""]","[""pred"", ""praet imperf m1 sg"", ""praet imperf m2 pl"", ""subst nom m3 pl"", ""subst loc f pl"", ""subst gen m3 pl"", ""subst loc m3 pl"", ""subst gen m3 sg"", ""brev pun"", ""adj nom pos n sg"", ""praet imperf f sg"", ""ign"", ""qub"", ""praet imperf n sg"", ""adj nom pos m1 sg"", ""subst nom m1 sg"", ""num rec nom m1 pl"", ""subst gen n pl"", ""qub"", ""praet imperf m1 sg"", ""num rec nom m1 pl"", ""subst gen n pl"", ""praet imperf m2 pl"", ""depr nom m2 pl"", ""subst gen f sg"", ""ign"", ""num rec nom m1 pl"", ""subst gen n pl"", ""praet imperf m1 sg"", ""subst nom m1 sg"", ""subst voc f sg"", ""praet imperf f sg"", ""subst voc f sg"", ""praet imperf f sg"", ""adj inst pos m1 sg"", ""praet imperf f sg"", ""subst gen f sg"", ""subst gen n sg"", ""subst gen f sg"", ""subst nom m1 sg"", ""ign"", ""subst gen f sg"", ""subst nom f sg"", ""subst nom f sg"", ""subst gen f sg"", ""ppas imperf nom n aff sg"", ""subst gen f sg"", ""subst nom m1 sg"", ""praet perf m2 pl"", ""adv pos"", ""subst gen m1 sg""]","{""single"": [], ""multi"": {}}","[[""prawo i polityka"", ""sarkofag"", ""alienor"", ""enmaker"", ""prawo"", ""i"", ""polityk"", ""inana"", ""oblubieniec"", ""sen"", ""sen""]]"
20,00103587,"Pięć kawałków - Tyler otworzył jadłospis na wegetariańskiej stronie, gdzie oprócz spisu dań była też gruba, szara koperta - Zgodnie z umową.","[""pi\u0119\u0107"", ""kawa\u0142ek"", ""tyler"", ""otworzy\u0107"", ""jad\u0142ospis"", ""wegetaria\u0144ski"", ""strona"", ""gdzie"", ""opr\u00f3cz"", ""spis"", ""danie"", ""by\u0142a"", ""te\u017c"", ""gruba"", ""szary"", ""koperta"", ""zgodnie"", ""umowa""]","[""num rec nom m2 pl"", ""subst gen m3 pl"", ""ign"", ""praet perf m1 sg"", ""subst nom m3 sg"", ""adj gen pos f sg"", ""subst dat f sg"", ""adv"", ""prep gen"", ""subst gen m3 sg"", ""subst gen n pl"", ""praet imperf f sg"", ""adj nom pos m2 pl"", ""subst nom f sg"", ""adj nom pos f sg"", ""subst nom f sg"", ""adv pos"", ""subst inst f sg""]","{""single"": [], ""multi"": {}}","[[""universal global investments"", ""tyler"", ""umowa"", ""dealer"", ""ugi"", ""universal"", ""global"", ""investments"", ""wizyt\u00f3wka"", ""dziennikarz""]]"
21,00103582,- A co czułeś słysząc dzisiaj cover swojego utworu?,"[""czu\u0107by\u0107"", ""s\u0142ysze\u0107"", ""dzisiaj"", ""cover"", ""swoje"", ""utw\u00f3r""]","[""praet imperf m1 sg"", ""aglt imperf sg sec wok"", ""pcon imperf"", ""adv"", ""ign"", ""subst gen n sg""]","{""single"": [], ""multi"": {}}","[[""cover"", ""adam"", ""\u017cenada"", ""amnezja"", ""pinezka"", ""smutny"", ""nina""]]"
22,00103572,"Szkoda byłoby stracić mieszkanie po ciotce Tonika, zwłaszcza, że lista oczekujących na przydział była długa. Czasy były niespokojne, budowa domu ryzykowna. Nie wiadomo było, co przyniesie przyszłość. Zresztą, Tonik będzie miał blisko na kopalnię, to też się liczyło. A Zofija, matka Anieli naciskała, żeby poszli na swoje:","[""szkoda"", ""by\u0107by"", ""straci\u0107"", ""mieszkanie"", ""ciotka"", ""tonika"", ""lista"", ""oczekuj\u0105cy"", ""przydzia\u0142"", ""by\u0142a"", ""d\u0142ugi"", ""czas"", ""by\u0142y"", ""niespokojny"", ""budowa"", ""dom"", ""ryzykowny"", ""wiadomo"", ""by\u0107"", ""przynie\u015b\u0107"", ""przysz\u0142o\u015b\u0107"", ""zreszt\u0105"", ""tonik"", ""by\u0107"", ""mia\u0142"", ""blisko"", ""kopalnia"", ""te\u017c"", ""si\u0119"", ""liczy\u0107"", ""zofija"", ""matka"", ""aniela"", ""naciska\u0107"", ""\u017ceby"", ""p\u00f3j\u015b\u0107"", ""swoje""]","[""pred"", ""praet imperf n sg"", ""qub"", ""inf perf"", ""subst nom f sg"", ""subst dat f sg"", ""comp"", ""subst nom f sg"", ""interj"", ""subst nom m3 sg"", ""praet imperf f sg"", ""subst nom m3 pl"", ""praet imperf m2 pl"", ""adj nom pos n sg"", ""subst nom f sg"", ""subst gen m3 sg"", ""adj nom pos f sg"", ""adv pos"", ""praet imperf n sg"", ""fin perf sg ter"", ""subst nom f sg"", ""qub"", ""subst nom m3 sg"", ""bedzie imperf sg ter"", ""subst nom m3 sg"", ""adv pos"", ""subst acc f sg"", ""adj nom pos m2 pl"", ""qub"", ""praet imperf n sg"", ""ign"", ""subst nom f sg"", ""subst gen f sg"", ""praet imperf f sg"", ""comp"", ""praet perf m1 pl"", ""subst nom n sg""]","{""single"": [], ""multi"": {}}","[[""ciotka"", ""mieszkanie"", ""tabliczka"", ""familok""]]"
23,00103585,"Na wszystkich wystawach sklepowych i w nielicznych oknach mieszkań wisiały duże zdjęcia Hoffmana z czarną przepaską w lewym rogu. Takie samo zdjęcie przyklejone było na przedniej szybie autobusu, do którego Joel wsiadał przy akompaniamencie marsza żałobnego, rozbrzmiewającego w środku. Na Placu Przyjaźni, w pobliżu którego mieszkał Petrak, rozbrzmiewał kolejny z utworów odbierających ochotę do życia. Jakby na przekór muzyce, w tej części miasta czuło się już radosne podniecenie uroczystością mającą rozpocząć się kilka kilometrów dalej. Po raz pierwszy od kilku miesięcy Joel poczuł się swobodny i odprężony. Być może właśnie dlatego przy napotkanej budce telefonicznej nagle przystanął. Czy zamiast narażać się odszukiwaniem Petraka, który od pół roku po awarii kabla miał nieczynny telefon, nie lepiej było zadzwonić do Joanny? Jej numer przypomniał mu się w jednej chwili i rozpoczął kuszenie. Szybko jednak zdał sobie sprawę z niestosowności tego pomysłu i poszedł pod dom Petraka.","[""wszyscy"", ""wystawa"", ""sklepowa"", ""nieliczni"", ""okno"", ""mieszkanie"", ""wisie\u0107"", ""duha"", ""zdj\u0119cia"", ""hoffman"", ""czarna"", ""przepaska"", ""lewy"", ""r\u00f3g"", ""taki"", ""sam"", ""zdj\u0119cie"", ""przyklei\u0107"", ""by\u0107"", ""przedni"", ""szyb"", ""autobus"", ""kt\u00f3ry"", ""joel"", ""wsiada\u0107"", ""przy"", ""akompaniament"", ""marsz"", ""\u017ca\u0142obny"", ""rozbrzmiewa\u0107"", ""\u015brodek"", ""plac"", ""przyja\u017a\u0144"", ""pobli\u017ce"", ""kt\u00f3ry"", ""mieszka\u0107"", ""petrak"", ""rozbrzmiewa\u0107"", ""kolejny"", ""utw\u00f3r"", ""odbiera\u0107"", ""ochota"", ""\u017cycie"", ""jakby"", ""przekora"", ""muzyka"", ""ten"", ""cz\u0119\u015b\u0107"", ""miasto"", ""czu\u0142o"", ""si\u0119"", ""ju\u017c"", ""radosny"", ""podniecenie"", ""uroczysto\u015b\u0107"", ""mai\u0107"", ""rozpocz\u0105\u0107"", ""si\u0119"", ""kilka"", ""kilometr"", ""daleko"", ""raz"", ""pierwszy"", ""kilka"", ""miesi\u0105c"", ""joel"", ""poczu\u0107"", ""si\u0119"", ""swobodny"", ""odpr\u0119\u017cy\u0107"", ""by\u0107"", ""mo\u017ce"", ""w\u0142a\u015bnie"", ""dlatego"", ""przy"", ""napotka\u0107"", ""budka"", ""telefoniczny"", ""nagle"", ""przystan\u0105\u0107"", ""nara\u017ca\u0107"", ""si\u0119"", ""odszukiwa\u0107"", ""petraka"", ""kt\u00f3ry"", ""po\u0142a"", ""rok"", ""awaria"", ""kabel"", ""mia\u0142"", ""nieczynny"", ""telefon"", ""dobrze"", ""by\u0107"", ""zadzwoni\u0107"", ""joanna"", ""numer"", ""przypomnie\u0107"", ""si\u0119"", ""jeden"", ""chwila"", ""rozpocz\u0105\u0107"", ""kusi\u0107"", ""szybko"", ""zda\u0107"", ""siebie"", ""sprawa"", ""niestosowno\u015b\u0107"", ""pomys\u0142"", ""p\u00f3j\u015b\u0107"", ""pod"", ""dom"", ""petraka""]","[""subst gen m1 pl"", ""subst loc f pl"", ""subst gen f pl"", ""subst gen m1 pl"", ""subst loc n pl"", ""subst gen n pl"", ""praet imperf m2 pl"", ""subst dat f sg"", ""ger perf gen n aff sg"", ""subst gen m1 sg"", ""subst acc f sg"", ""subst inst f sg"", ""adj inst pos m1 sg"", ""subst loc m1 sg"", ""adj nom pos n sg"", ""adj nom pos n sg"", ""ger perf nom n aff sg"", ""ppas perf nom n aff sg"", ""praet imperf n sg"", ""adj gen pos f sg"", ""subst loc m3 sg"", ""subst gen m3 sg"", ""adj gen pos m1 sg"", ""subst nom m1 sg"", ""praet imperf m1 sg"", ""prep loc"", ""subst loc m3 sg"", ""subst gen m2 sg"", ""adj gen pos m1 sg"", ""pact imperf gen m1 aff sg"", ""subst loc m3 sg"", ""subst gen m3 sg"", ""adj nom pos m1 pl"", ""subst dat n sg"", ""adj gen pos m1 sg"", ""praet imperf m1 sg"", ""ign"", ""praet imperf m1 sg"", ""adj nom pos m1 sg"", ""subst gen m3 pl"", ""pact imperf gen m1 aff pl"", ""subst acc f sg"", ""subst gen n sg"", ""comp"", ""subst gen f pl"", ""subst dat f sg"", ""adj gen pos f sg"", ""adj nom pos m1 pl"", ""subst gen n sg"", ""praet imperf n sg"", ""qub"", ""qub"", ""adj nom pos n sg"", ""subst nom n sg"", ""subst inst f sg"", ""pact imperf acc f aff sg"", ""inf perf"", ""qub"", ""num rec nom m2 pl"", ""subst gen m3 pl"", ""interj"", ""subst nom m3 sg"", ""adj nom pos m1 sg"", ""num rec nom m1 pl"", ""subst gen m3 pl"", ""subst nom m1 sg"", ""praet perf m1 sg"", ""qub"", ""adj nom pos m1 sg"", ""ppas perf nom m1 aff sg"", ""subst gen n pl"", ""qub"", ""adv"", ""adv"", ""prep loc"", ""ppas perf gen f aff sg"", ""subst dat f sg"", ""adj gen pos f sg"", ""adv pos"", ""praet perf m1 sg"", ""inf imperf"", ""qub"", ""ger imperf inst n aff sg"", ""ign"", ""adj nom pos m1 sg"", ""subst gen f pl"", ""subst gen m3 sg"", ""subst gen f sg"", ""subst gen m1 sg"", ""subst nom m3 sg"", ""adj nom pos m1 sg"", ""subst nom m3 sg"", ""adv com"", ""praet imperf n sg"", ""inf perf"", ""subst gen f sg"", ""subst nom m3 sg"", ""praet perf m1 sg"", ""qub"", ""adj gen pos f sg"", ""subst gen f sg"", ""praet perf m1 sg"", ""ger imperf nom n aff sg"", ""subst voc f sg"", ""praet perf m1 sg"", ""siebie dat"", ""subst acc f sg"", ""subst gen f sg"", ""subst gen m3 sg"", ""praet perf m1 sg"", ""prep acc nwok"", ""subst nom m3 sg"", ""ign""]","{""single"": [], ""multi"": {}}","[[""hoffman"", ""joel"", ""muzyk"", ""tajniak"", ""mieszkanie""]]"
24,00103568,"Trun pojawił się na wezwanie. Przekręcił w zamku klucz, który nosił na piersi i przesunął dźwignię sterującą grodzią.","[""truna"", ""pojawi\u0107"", ""si\u0119"", ""wezwanie"", ""przekr\u0119ci\u0107"", ""zamek"", ""klucz"", ""kt\u00f3ry"", ""nosi\u0107"", ""pier\u015b"", ""przesun\u0105\u0107"", ""d\u017awignia"", ""steruj\u0105cy"", ""grod\u017a""]","[""subst gen f pl"", ""praet perf m1 sg"", ""qub"", ""subst nom n sg"", ""praet perf m1 sg"", ""subst gen m3 sg"", ""subst nom m3 sg"", ""adj nom pos m1 sg"", ""praet imperf m1 sg"", ""subst gen f sg"", ""praet perf m1 sg"", ""subst acc f sg"", ""pact imperf acc f aff sg"", ""subst inst f sg""]","{""single"": [], ""multi"": {}}","[[""truna"", ""sajev"", ""hubert"", ""konstrukt"", ""hala"", ""konstrukcja""]]"
25,00103598,"Kasztany kwitną (chyba), obrodziło więc różnymi tekstami dotyczącymi matur. W zasadzie większość z nich media mogłyby przedrukować z zeszłego roku zamiast pisać od nowa. Czasem ktoś się wysili bardziej i pofantazjuje na temat idealnego systemu szkolnictwa, gdzie nie ma rywalizacji, nauczyciele uczą z pasją, uczniowie rozwijają swoje zainteresowania i w ogóle sielanka niczym pod umówionym jaworem, a wystarczyłoby zlikwidować egzaminy ogólnopolskie. Ten tekst już jednak skomentowałem na tablicy pewnego dżentelmena, którego znają niemal wszyscy czytelnicy mojego bloga, więc nie będę się powtarzał. Pomówmy o matematyce.","[""kasztan"", ""kwitn\u0105\u0107"", ""chyba"", ""obrodzi\u0107"", ""r\u00f3\u017cny"", ""tekst"", ""dotyczy\u0107"", ""matura"", ""zasada"", ""wi\u0119kszo\u015b\u0107"", ""media"", ""m\u00f3cby"", ""przedrukowa\u0107"", ""zesz\u0142y"", ""rok"", ""zamiast"", ""nowa"", ""czas"", ""kto\u015b"", ""si\u0119"", ""wysili\u0107"", ""bardzo"", ""pofantazjowa\u0107"", ""temat"", ""idealny"", ""system"", ""szkolnictwo"", ""gdzie"", ""m\u00f3j"", ""rywalizacja"", ""nauczyciel"", ""uczy\u0107"", ""pasja"", ""ucze\u0144"", ""rozwija\u0107"", ""swoje"", ""zainteresowania"", ""og\u00f3\u0142"", ""sielanka"", ""niczym"", ""pod"", ""um\u00f3wi\u0107"", ""jawor"", ""wystarczy\u0107by"", ""zlikwidowa\u0107"", ""egzamin"", ""og\u00f3lnopolski"", ""ten"", ""tekst"", ""ju\u017c"", ""skomentowa\u0107by\u0107"", ""tablica"", ""pewne"", ""d\u017centelmen"", ""zna\u0107"", ""niemal"", ""wszyscy"", ""czytelnik"", ""moje"", ""blog"", ""si\u0119"", ""powtarza\u0107"", ""pom\u00f3wi\u0107"", ""matematyka""]","[""subst nom m2 pl"", ""fin imperf pl ter"", ""qub"", ""praet perf n sg"", ""adj inst pos m1 pl"", ""subst inst m3 pl"", ""pact imperf inst m1 aff pl"", ""subst gen f pl"", ""subst dat f sg"", ""subst nom f sg"", ""subst nom n pl"", ""praet imperf m2 pl"", ""qub"", ""prep gen nwok"", ""adj gen pos m1 sg"", ""subst gen m3 sg"", ""subst gen f pl"", ""subst inst m3 sg"", ""subst nom m1 sg"", ""qub"", ""fin perf sg ter"", ""adv com"", ""fin perf sg ter"", ""subst nom m3 sg"", ""adj gen pos m1 sg"", ""subst gen m3 sg"", ""subst gen n sg"", ""adv"", ""fin imperf sg ter"", ""subst gen f sg"", ""depr nom m2 pl"", ""fin imperf pl ter"", ""subst inst f sg"", ""subst nom m1 pl"", ""fin imperf pl ter"", ""subst nom n sg"", ""subst nom n pl"", ""subst loc m3 sg"", ""subst nom f sg"", ""subst inst n sg"", ""prep acc nwok"", ""ppas perf inst m1 aff sg"", ""subst inst m3 sg"", ""praet perf n sg"", ""qub"", ""inf perf"", ""subst nom m3 pl"", ""adj nom pos m1 sg"", ""subst nom m3 sg"", ""qub"", ""praet perf m1 sg"", ""interj"", ""subst gen f sg"", ""adj gen pos m1 sg"", ""adj gen pos m1 sg"", ""fin imperf pl ter"", ""qub"", ""subst nom m1 pl"", ""subst nom m1 pl"", ""subst gen n sg"", ""bedzie imperf sg pri"", ""qub"", ""impt perf pl pri"", ""subst dat f sg""]","{""single"": [], ""multi"": {}}","[[""kasztan"", ""szkolnictwo"", ""matematyk"", ""gimnazjum"", ""telewizja""]]"
26,00103584,– Jestem – odezwał się Lukas.,"[""odezwa\u0107"", ""lukas""]","[""fin imperf sg pri"", ""praet perf m1 sg""]","{""single"": [], ""multi"": {}}","[[""lukas"", ""hoffman"", ""zabawa"", ""pazan"", ""spo\u0142ecze\u0144stwo"", ""gabinet""]]"
27,00103570,"Maja jeszcze nigdy nie była u dentysty. Tato Wojtek postanowił pójść z córką, żeby przekonała się, że chodzenie do dentysty to nic strasznego. Zarejestrował ją do przychodni, której też jest pacjentem.","[""maj"", ""jeszcze"", ""nigdy"", ""by\u0142a"", ""dentysta"", ""tata"", ""wojtek"", ""postanowi\u0107"", ""p\u00f3j\u015b\u0107"", ""c\u00f3rka"", ""\u017ceby"", ""przekona\u0107"", ""si\u0119"", ""chodzenie"", ""dentysta"", ""nic"", ""straszny"", ""zarejestrowa\u0107"", ""przychodnia"", ""kt\u00f3ry"", ""te\u017c"", ""by\u0107"", ""pacjent""]","[""subst gen m1 sg"", ""qub"", ""adv"", ""praet imperf f sg"", ""depr nom m2 pl"", ""subst voc m1 sg"", ""subst nom m1 sg"", ""praet perf m1 sg"", ""subst gen n pl"", ""subst inst f sg"", ""comp"", ""praet perf f sg"", ""qub"", ""subst nom n sg"", ""depr nom m2 pl"", ""subst nom n sg"", ""adj gen pos m1 sg"", ""praet perf m1 sg"", ""adj nom pos m1 sg"", ""adj gen pos f sg"", ""adj nom pos m2 pl"", ""fin imperf sg ter"", ""subst inst m1 sg""]","{""single"": [], ""multi"": {}}","[[""maj"", ""dentysta"", ""z\u0105b"", ""ubytek""]]"
28,00103586,"Gdy tylko Paul odprowadził delegację, Lukas wyrzucił listę życzeń wuja Karola do śmietniczki i wrócił na brzeg basenu. Zamówił kilka dobrze schłodzonych puszek piwa i skoczył do wody. Kiedy wynurzył się, na brzegu stał Paul z nieprzyjemną informacją: zastępcja Wontaka oraz Bugajew czekali na przyjęcie. Rozpoczynała się nieformalna część urzędowania. Jako pierwszego kazał Lukas przyprowadzić Bugajewa.","[""gdy"", ""tylko"", ""paul"", ""odprowadzi\u0107"", ""delegacja"", ""lukas"", ""wyrzuci\u0107"", ""lista"", ""\u017cyczenia"", ""wuj"", ""karol"", ""\u015bmietniczka"", ""wr\u00f3ci\u0107"", ""brzeg"", ""basen"", ""zam\u00f3wi\u0107"", ""kilka"", ""dobrze"", ""sch\u0142odzi\u0107"", ""puszek"", ""piwo"", ""skoczy\u0107"", ""woda"", ""kiedy"", ""wynurzy\u0107"", ""si\u0119"", ""brzeg"", ""sta\u0107"", ""paul"", ""nieprzyjemny"", ""informacja"", ""zast\u0119pcja"", ""wontaka"", ""bugajew"", ""czeka\u0107"", ""przyj\u0119cie"", ""rozpoczyna\u0107"", ""si\u0119"", ""nieformalny"", ""cz\u0119\u015b\u0107"", ""urz\u0119dowanie"", ""jako"", ""pierwsze"", ""kaza\u0107"", ""lukas"", ""przyprowadzi\u0107"", ""bugajewa""]","[""adv"", ""subst voc f sg"", ""subst nom m1 sg"", ""praet perf m1 sg"", ""subst acc f sg"", ""ign"", ""praet perf m1 sg"", ""subst acc f sg"", ""subst gen n pl"", ""subst gen m1 sg"", ""subst gen m1 sg"", ""subst gen f sg"", ""praet perf m1 sg"", ""subst nom m3 sg"", ""subst gen m3 sg"", ""praet perf m1 sg"", ""num rec nom m2 pl"", ""adv pos"", ""ppas perf gen m1 aff pl"", ""subst nom m3 sg"", ""subst gen n sg"", ""praet perf m1 sg"", ""subst gen f sg"", ""adv"", ""praet perf m1 sg"", ""qub"", ""subst gen m3 sg"", ""praet imperf m1 sg"", ""subst nom m1 sg"", ""adj acc pos f sg"", ""subst inst f sg"", ""ign"", ""ign"", ""ign"", ""praet imperf m1 pl"", ""ger perf nom n aff sg"", ""praet imperf f sg"", ""qub"", ""adj nom pos f sg"", ""subst nom f sg"", ""subst gen n sg"", ""subst voc f sg"", ""subst gen n sg"", ""praet imperf m1 sg"", ""ign"", ""inf perf"", ""ign""]","{""single"": [], ""multi"": {}}","[[""paul"", ""lukas"", ""karol"", ""wuj"", ""bugajew"", ""basen"", ""kryzys"", ""bezpiecze\u0144stwo""]]"
29,00103597,"Zdarzyło mi się uczestniczyć w evencie o nazwie ""XXVII Ogólnopolskie Forum Młodych"" na Papieskim Wydziale Teologicznym. Dobrze, że przy wejściu nie pytano mnie o to, z jakich mediów czerpię informacje, bo wtedy pewnie by mnie nie wpuszczono. Forum rozpoczął pewien biskup bardzo krótką wypowiedzią, do której wyraźnie się nie przygotował ale pamiętał o tym, żeby skrytykować Gazetę Wyborczą. Dłużej natomiast przemawiały trzy osoby: pewien ksiądz doktor, który chyba uznał, że jego ziemską misją jest usunięcie Nergala z telewizji (a i Gazecie Wyborczej się dostało), dziennikarka, która mówiła, że są media katolickie, które starają się obiektywnie przedstawiać rzeczywistość i inne media (zwłaszcza Gazeta Wyborcza), które często nie są obiektywne oraz p. Franciszek Kucharczak, redaktor ""Gościa Niedzielnego"", który mówił o różnych sprawach naprawdę ciekawie (o ile dobrze pamiętam, wspomniał też o wrogich mediach, ale nazwa ""Gazeta Wyborcza"" nie padła). Mówił m. in. o osobach, których nazywa ""katolikami-ale"", czyli takimi, które mówią np. ""Jestem katolikiem, ale stosuję antykoncepcję"", czyli nie akceptują nauki Kościoła w całości i przez to nie powinni się nazywać katolikami. Jako że wydał się on dość otwarty na dialog (bo obawiam się, że ksiądz doktor rzuciłby na mnie klątwę, gdybym tylko spróbował skrytykować jego postawę względem pana Nergala), napisałem do niego maila:","[""zdarzy\u0107"", ""si\u0119"", ""uczestniczy\u0107"", ""evencie"", ""nazwa"", ""xxvii"", ""og\u00f3lnopolski"", ""forum"", ""m\u0142ode"", ""papieski"", ""wydzia\u0142"", ""teologiczny"", ""dobrze"", ""przy"", ""wej\u015bcie"", ""pyta\u0107"", ""jaki"", ""media"", ""czerpa\u0107"", ""informacja"", ""wtedy"", ""pewnie"", ""wpu\u015bci\u0107"", ""forum"", ""rozpocz\u0105\u0107"", ""pewien"", ""biskup"", ""bardzo"", ""kr\u00f3tki"", ""wypowied\u017a"", ""kt\u00f3ry"", ""wyra\u017anie"", ""si\u0119"", ""przygotowa\u0107"", ""ale"", ""pami\u0119ta\u0107"", ""tym"", ""\u017ceby"", ""skrytykowa\u0107"", ""gazeta"", ""wyborczy"", ""d\u0142ugo"", ""przemawia\u0107"", ""trzy"", ""osoba"", ""pewien"", ""ksi\u0105dz"", ""doktor"", ""kt\u00f3ry"", ""chyba"", ""uzna\u0107"", ""ziemski"", ""misja"", ""by\u0107"", ""usuni\u0119cie"", ""nergala"", ""telewizja"", ""gazeta"", ""wyborczy"", ""si\u0119"", ""dosta\u0107"", ""dziennikarka"", ""kt\u00f3ry"", ""m\u00f3wi\u0107"", ""by\u0107"", ""media"", ""katolicki"", ""kt\u00f3ry"", ""stara\u0107"", ""si\u0119"", ""obiektywnie"", ""przedstawia\u0107"", ""rzeczywisto\u015b\u0107"", ""inny"", ""media"", ""gazeta"", ""wyborczy"", ""kt\u00f3ry"", ""cz\u0119sto"", ""by\u0107"", ""obiektywny"", ""pan"", ""franciszek"", ""kucharczak"", ""redaktor"", ""go\u015bcia"", ""niedzielny"", ""kt\u00f3ry"", ""m\u00f3wi\u0107"", ""r\u00f3\u017cny"", ""sprawa"", ""naprawd\u0119"", ""ciekawie"", ""ile"", ""dobrze"", ""pami\u0119ta\u0107"", ""wspomnie\u0107"", ""te\u017c"", ""wrogi"", ""media"", ""ale"", ""nazwa"", ""gazeta"", ""wyborczy"", ""pad\u0142o"", ""m\u00f3wi\u0107"", ""metr"", ""osoba"", ""kt\u00f3ry"", ""nazywa\u0107"", ""katolik"", ""ale"", ""taki"", ""kt\u00f3ry"", ""m\u00f3wi\u0107"", ""by\u0107"", ""ale"", ""stosowa\u0107"", ""nie"", ""akceptowa\u0107"", ""nauka"", ""ko\u015bci\u00f3\u0142"", ""przez"", ""nie"", ""powinny"", ""si\u0119"", ""nazywa\u0107"", ""jako"", ""wyda\u0107"", ""si\u0119"", ""do\u015b\u0107"", ""otwarty"", ""dialog"", ""obawia\u0107"", ""si\u0119"", ""ksi\u0105dz"", ""doktor"", ""rzuci\u0107by"", ""kl\u0105twa"", ""tylko"", ""spr\u00f3bowa\u0107"", ""skrytykowa\u0107"", ""postawa"", ""wzgl\u0119dem"", ""pan"", ""nergala"", ""mail""]","[""praet perf n sg"", ""qub"", ""inf imperf"", ""ign"", ""subst dat f sg"", ""ign"", ""adj nom pos n sg"", ""subst nom n sg"", ""subst gen n pl"", ""adj inst pos m1 sg"", ""subst loc m3 sg"", ""adj inst pos m1 sg"", ""adv pos"", ""prep loc"", ""subst dat n sg"", ""imps imperf"", ""adj gen pos m1 pl"", ""subst gen n pl"", ""fin imperf sg pri"", ""subst nom f pl"", ""adv"", ""adv pos"", ""imps perf"", ""subst nom n sg"", ""praet perf m1 sg"", ""adj nom pos m1 sg"", ""subst nom m1 sg"", ""adv pos"", ""adj acc pos f sg"", ""subst inst f sg"", ""adj gen pos f sg"", ""adv pos"", ""qub"", ""praet perf m1 sg"", ""depr nom m2 pl"", ""praet imperf m1 sg"", ""adj inst pos m1 sg"", ""comp"", ""inf perf"", ""subst acc f sg"", ""adj acc pos f sg"", ""adv com"", ""praet imperf m2 pl"", ""num congr nom m2 pl"", ""subst gen f sg"", ""adj nom pos m1 sg"", ""subst nom m1 sg"", ""subst nom m1 sg"", ""adj nom pos m1 sg"", ""qub"", ""praet perf m1 sg"", ""adj acc pos f sg"", ""subst inst f sg"", ""fin imperf sg ter"", ""subst nom n sg"", ""ign"", ""subst gen f sg"", ""subst dat f sg"", ""adj gen pos f sg"", ""qub"", ""praet perf n sg"", ""subst nom f sg"", ""adj nom pos f sg"", ""praet imperf f sg"", ""fin imperf pl ter"", ""subst nom n pl"", ""adj nom pos n sg"", ""adj nom pos n sg"", ""fin imperf pl ter"", ""qub"", ""adv pos"", ""inf imperf"", ""subst nom f sg"", ""adj nom pos n sg"", ""subst nom n pl"", ""subst nom f sg"", ""adj nom pos f sg"", ""adj nom pos n sg"", ""adv pos"", ""fin imperf pl ter"", ""adj nom pos n sg"", ""brev pun"", ""subst nom m1 sg"", ""ign"", ""subst nom m1 sg"", ""subst nom f sg"", ""adj gen pos m1 sg"", ""adj nom pos m1 sg"", ""praet imperf m1 sg"", ""adj gen pos m1 pl"", ""subst loc f pl"", ""qub"", ""adv pos"", ""adv"", ""adv pos"", ""fin imperf sg pri"", ""praet perf m1 sg"", ""adj nom pos m2 pl"", ""adj gen pos m1 pl"", ""subst loc n pl"", ""depr nom m2 pl"", ""subst nom f sg"", ""subst nom f sg"", ""adj nom pos f sg"", ""subst gen n sg"", ""praet imperf m1 sg"", ""brev npun"", ""subst loc f pl"", ""adj gen pos m1 pl"", ""fin imperf sg ter"", ""subst inst m1 pl"", ""depr nom m2 pl"", ""adj inst pos m1 pl"", ""adj nom pos n sg"", ""fin imperf pl ter"", ""subst inst m1 sg"", ""fin imperf sg pri"", ""subst acc f sg"", ""fin imperf pl ter"", ""subst gen f sg"", ""subst gen m3 sg"", ""prep acc nwok"", ""adj nom pos n sg"", ""winien imperf m1 pl"", ""qub"", ""inf imperf"", ""subst inst m1 pl"", ""subst voc f sg"", ""praet perf m1 sg"", ""qub"", ""pred"", ""adj nom pos m1 sg"", ""subst nom m3 sg"", ""fin imperf sg pri"", ""qub"", ""subst nom m1 sg"", ""subst nom m1 sg"", ""praet perf m1 sg"", ""ppron12 akc gen m1 sg pri"", ""comp"", ""aglt imperf sg pri nwok"", ""subst voc f sg"", ""inf perf"", ""ppron3 akc gen m1 sg ter npraep"", ""subst acc f sg"", ""subst inst m3 sg"", ""aglt imperf sg pri wok""]","{""single"": [], ""multi"": {}}","[[""forum m\u0142odych"", ""papieski wydzia\u0142 teologiczny"", ""gazeta wyborcza"", ""go\u015b\u0107 niedzielny"", ""indeks ksi\u0105g zakazanych,"", ""forum"", ""m\u0142oda"", ""papieski"", ""wydzia\u0142"", ""teologiczny"", ""gazeta"", ""wyborczy"", ""go\u015bcia"", ""niedzielny"", ""katolik"", ""indeks"", ""ksi\u0119ga"", ""zakazany""]]"
30,00103566,"Hubert, sekretarz Landaua, zaczął swój dzień jak każdy inny. Punktualnie o ósmej rano siedział przy swoim pulpicie w pokojach administracji i przypominał sobie przygotowany wcześniej rozkład dnia. Najwięcej niepokoju przysparzał mu punkt trzeci: wizyta człowieka od lorda Bartela - bogacza z Laerdmor. Lukas Landau uznał za właściwe połączyć z nim siły w pewnym zakresie. Dlatego Hubert dzisiaj właśnie, za kilka godzin miał oprowadzić wysłannika od Bartela. I czuł zdenerwowanie. Z zamyślenia wyrwało go pukanie do drzwi. Do gabinetu wszedł Ejlo - jego asystent.","[""hubert"", ""sekretarz"", ""landau"", ""zacz\u0105\u0107"", ""sw\u00f3j"", ""dzienia"", ""jak"", ""ka\u017cdy"", ""inny"", ""punktualnie"", ""\u00f3sma"", ""rano"", ""siedzie\u0107"", ""przy"", ""swoje"", ""pulpit"", ""pok\u00f3j"", ""administracja"", ""przypomina\u0107"", ""siebie"", ""przygotowa\u0107"", ""wczesno"", ""rozk\u0142ad"", ""dzie\u0144"", ""du\u017co"", ""niepok\u00f3j"", ""przysparza\u0107"", ""punkt"", ""trzeci"", ""wizyta"", ""cz\u0142owiek"", ""lord"", ""bartela"", ""bogacz"", ""laerdmor"", ""lukas"", ""landau"", ""uzna\u0107"", ""w\u0142a\u015bciwy"", ""po\u0142\u0105czy\u0107"", ""nim"", ""si\u0142a"", ""pewne"", ""zakres"", ""dlatego"", ""hubert"", ""dzisiaj"", ""w\u0142a\u015bnie"", ""kilka"", ""godzina"", ""mia\u0142"", ""oprowadzi\u0107"", ""wys\u0142annik"", ""bartela"", ""czu\u0107"", ""zdenerwowanie"", ""zamy\u015blenie"", ""wyrwa\u0107"", ""pukanie"", ""drzwi"", ""gabinet"", ""wej\u015b\u0107"", ""ejlo"", ""asystent""]","[""subst nom m1 sg"", ""subst nom m1 sg"", ""subst gen m1 sg"", ""praet perf m1 sg"", ""adj nom pos m1 sg"", ""subst gen f pl"", ""adv"", ""adj nom pos m1 sg"", ""adj nom pos m1 sg"", ""adv pos"", ""subst gen f sg"", ""subst voc f sg"", ""praet imperf m1 sg"", ""prep loc"", ""subst inst n sg"", ""subst loc m3 sg"", ""subst loc m3 pl"", ""subst gen f sg"", ""praet imperf m1 sg"", ""siebie dat"", ""ppas perf nom m1 aff sg"", ""adv com"", ""subst nom m3 sg"", ""subst gen m3 sg"", ""adv sup"", ""subst gen m3 sg"", ""praet imperf m1 sg"", ""subst nom m3 sg"", ""adj nom pos m1 sg"", ""subst nom f sg"", ""subst gen m1 sg"", ""subst gen m1 sg"", ""ign"", ""subst gen m1 sg"", ""ign"", ""ign"", ""subst nom m1 sg"", ""praet perf m1 sg"", ""adj nom pos n sg"", ""inf perf"", ""comp"", ""subst gen f sg"", ""adj inst pos m1 sg"", ""subst loc m3 sg"", ""adv"", ""subst nom m1 sg"", ""adv"", ""adv"", ""num rec nom m2 pl"", ""subst gen f pl"", ""subst nom m3 sg"", ""inf perf"", ""subst gen m1 sg"", ""ign"", ""praet imperf m1 sg"", ""subst nom n sg"", ""subst gen n sg"", ""praet perf n sg"", ""subst nom n sg"", ""subst nom n pl"", ""subst gen m3 sg"", ""praet perf m1 sg"", ""ign"", ""subst nom m1 sg""]","{""single"": [], ""multi"": {}}","[[""hubert"", ""sekretarz"", ""truna"", ""hala"", ""konstrukt"", ""brama""]]"
31,00103589,"Mam już tego dość! - rozdarł się Dan - Rozumiesz?! Mam dość! Nikt mi więcej nie będzie mówił, co mam robić. Ani ty, ani ona!","[""mama"", ""ju\u017c"", ""do\u015b\u0107"", ""rozedrze\u0107"", ""si\u0119"", ""dan"", ""rozumie\u0107"", ""mama"", ""do\u015b\u0107"", ""nikt"", ""du\u017co"", ""by\u0107"", ""m\u00f3wi\u0107"", ""mama"", ""robi\u0107"", ""ani"", ""ani""]","[""subst gen f pl"", ""qub"", ""pred"", ""praet perf m1 sg"", ""qub"", ""subst nom m1 sg"", ""fin imperf sg sec"", ""subst gen f pl"", ""pred"", ""subst nom m1 sg"", ""adv com"", ""bedzie imperf sg ter"", ""praet imperf m1 sg"", ""subst gen f pl"", ""inf imperf"", ""subst gen f sg"", ""subst gen f sg""]","{""single"": [], ""multi"": {}}","[[""nowy jork"", ""dan"", ""nab\u00f3j"", ""misery"", ""urodziny"", ""mama"", ""tata"", ""nowy"", ""jork""]]"
32,00103599,"I tu przychodzą mu z pomocą logarytmy (a może bardziej algorytmy), choć guzików na pilocie za niego nie wcisną, że pozwolę sobie zażartować. A próbowaliście kiedyś tłumaczyć logarytmy komuś, kto nie ma zdolności do matematyki? Ja próbowałem, wygląda to mniej więcej tak (już miałem pewne doświadczenie pedagogiczne, więc było dla mnie jasne, że używanie terminów ""podstawa logarytmu"", ""liczba logarytmowana"" nie jest dobrym pomysłem):","[""przychodzi\u0107"", ""pomoc"", ""logarytm"", ""mo\u017ce"", ""bardzo"", ""algorytm"", ""cho\u0107"", ""guzik"", ""pilot"", ""wcisn\u0105\u0107"", ""pozwoli\u0107"", ""siebie"", ""za\u017cartowa\u0107"", ""pr\u00f3bowa\u0107by\u0107"", ""kiedy\u015b"", ""t\u0142umaczy\u0107"", ""logarytm"", ""kto\u015b"", ""nie"", ""zdolno\u015b\u0107"", ""matematyka"", ""pr\u00f3bowa\u0107by\u0107"", ""ma\u0142o"", ""du\u017co"", ""tak"", ""mia\u0142"", ""pewne"", ""do\u015bwiadczenie"", ""pedagogiczny"", ""dla"", ""jasny"", ""u\u017cywanie"", ""termin"", ""logarytm"", ""logarytmowa\u0107"", ""dobre"", ""pomys\u0142""]","[""fin imperf pl ter"", ""subst inst f sg"", ""subst nom m3 pl"", ""qub"", ""adv com"", ""subst nom m3 pl"", ""comp"", ""subst gen m3 pl"", ""subst loc m1 sg"", ""fin perf pl ter"", ""fin perf sg pri"", ""siebie dat"", ""inf perf"", ""praet imperf m1 pl"", ""aglt imperf pl sec nwok"", ""adv"", ""inf imperf"", ""subst nom m3 pl"", ""subst nom m1 sg"", ""fin imperf sg ter"", ""prep gen"", ""praet imperf m1 sg"", ""adj nom pos n sg"", ""adv com"", ""adv com"", ""qub"", ""subst inst m3 sg"", ""adj nom pos n sg"", ""subst nom n sg"", ""praet imperf n sg"", ""ppron12 akc gen m1 sg pri"", ""comp"", ""subst nom n sg"", ""subst nom f sg"", ""subst nom f sg"", ""fin imperf sg ter"", ""subst inst n sg""]","{""single"": [], ""multi"": {}}","[[""studium talent"", ""logarytm"", ""liczba"", ""studium"", ""talent"", ""symbol"", ""matematyk""]]"
