,body,date,vote_count,hashtags,uuid
0,"TLDR 
Byłam oskarżona o próbę przemytu ostrej amunicji na pokład samolotu po tym, jak nieumyślnie przemyciłam ją 4 razy XD

Historia zaczęła się w poprzednie wakacje. Pracowałam w Stanach i pewnego dnia postanowiliśmy iść z kolegą (Amerykaninem) na strzelnicę. Na miejscu okazało się, że trzeba mieć rezerwację no i ogólnie wszystkie stanowiska zajęte, więc kolega wpadł na pomysł… że kupimy własną broń. Pojechaliśmy do sklepu, w którym były bronie oraz gry video (XD) i kupiliśmy na spółę karabin AR-15. Wystarczyło pokazać prawo jazdy i zapłacić 700 dolarów.  Od tamtej pory co jakiś czas jeździliśmy sobie na pole postrzelać do puszek po piwie. 

Ja z bronią i ze strzelaniem nie miałam nigdy nic wspólnego. On mnie uczył strzelać, a mi się spodobało i strasznie byłam tym zajarana. Pewnego dnia, wpadłam na super mądry pomysł, żeby wziąć sobie jeden nabój na pamiątkę. No i wzięłam XD Schowałam go do takiej małej portmonetki i nosiłam przy sobie. Wszystko ok, tylko że parę miesięcy później poszłam z nim na lotnisko i całkowicie zapomniałam, że tam jest. XD

I uwaga, kompletnie nic się nie stało. Przeszłam z nabojem w portmonetce przez 4 lotniska (w San Francisno, Miami, Nowym Yorku i w Warszawie). Wróciłam do domu i nawet przez sekundę nie pomyślałam, co się odjebało. Tę portmonetkę nosiłam zawsze gdzieś przy sobie, ale rzadko z niej korzystałam, a potem już wcale, po prostu zawsze gdzieś tam była. 

4 miesiące później miałam lecieć do znajomych do Krakowa. No i stało się XD Pan ze straży granicznej na bramkach lotniskowych pyta się czyj to jest bagaż, po czym kiwa do mnie palcem, żebym podeszła. Spytał tylko czy mam pozwolenie na broń (oczywiście nie mam).  Jak mnie zaprowadzał do pokoju straży granicznej, to jeszcze do mnie nie dotarło, co się dzieje i w sumie pomyślałam, że to nic takiego, BO PRZECIEŻ TYLKO JEDEN NABÓJ A NIE KARABIN XDXDXD

Zatrzymali mnie na ponad 5 godzin, czekaliśmy na jakiegoś komendanta, żeby przyjechał ze Szczecina i mnie przesłuchał. Czekaliśmy też na prokuratora, który ostatecznie w ogóle się nie zjawił. Zostałam dokładnie przeszukana, wszystkie rzeczy z walizki i plecaka zostały wyrzucone i przeszukane przez dwa owczarki niemieckie (chyba przy okazji sprawdzali czy nie mam narkotyków?). Samo przesłuchanie nie trwało długo, może z 40 minut, nie pamiętam. Panowie ze straży granicznej ogólnie mieli ze mnie cały czas bekę XD Co chwilę przychodził ktoś nowy, żeby „zobaczyć tego terrorystę”, a tu siedzi 21-letnia dziewczyna i się szczerzy jak głupia. Nawet wtedy nie dochodziło do mnie, jakich problemów sobie narobiłam. Jest też taka kwestia, że ja w sytuacjach stresowych cały czas się uśmiecham i próbuję głupio żartować, więc wyglądało to, jakbym miała bekę razem z nimi. Jeszcze spytałam czy może jednak zdążę na ten samolot, a potem czy oddadzą mi ten nabój, bo to cenna pamiątka. XD Jak Pan zaprzeczył, to spytałam czy chociaż mogę sobie zrobić jego zdjęcie XD (właśnie to, które widzicie na dole).Także wszyscy byliśmy w dobrych humorach, tylko Pan co mnie przesłuchiwał nie był. Nie wierzył mi, że udało mi się z nim przejść przez 4 lotniska i to jeszcze w Stanach i mówił, żebym lepiej przestała ściemniać. Wtedy dowiedziałam się też, że żeby mieć ten nabój, powinnam wyrobić sobie zezwolenie na broń pamiątkową, oraz że grozi mi od 6 miesięcy do 8 lat pozbawienia wolności. 

Wypuścili mnie po przesłuchaniu i spisaniu protokołu, a ja zamówiłam ubera, żeby zdążyć na pociąg do Krakowa. Pan uber zerkał na mnie z niepokojem, jak rozmawiając przez telefon powiedziałam, że jestem oskarżona o próbę przemytu ostrej amunicji na pokład samolotu, że przesłuchanie, że do 8 lat i wszystko XD Następnego dnia policja przyszła do mojego domu z nakazem przeszukania mojego pokoju, a jeszcze następnego dnia przyszła do mojej pracy. Jakiś czas później dostałam zawiadomienie z prokuratury o rozpoczęciu śledztwa i zatrzymaniu naboju jako dowodu. W międzyczasie poznałam historię typka, który znalazł jakiś stary nabój w lesie, zostawił go sobie na pamiątkę i poszedł do więzienia na rok. Prokurator zalecał mi wystąpienie o możliwość wpłacenia grzywny, żeby dostać zawiasy. 

Sprawa ostatecznie skończyła się ani na więzieniu, ani na zawiasach, więc jestem wolnym człowiekiem i mogę być dumna z naszej Straży Granicznej w Gdańsku, że przewyższyli zdolności amerykańskich służb XD 
Teraz, po fakcie, wszyscy oczywiście reagują na tę historię mniej więcej tak: „POJEBAŁO CIĘ Z NABOJEM NA LOTNISKO CO TY MIAŁAŚ W GŁOWIE”, ale prawda jest taka, że ja ten nabój wszystkim pokazywałam po powrocie do domu. Pokazałam rodzicom, siostrze, wszystkim znajomym i NIKT nie spytał „entliczek, ale w sumie jak Ty z nim przeleciałaś przez granicę?” XD 

W komentarzu daję gratisowe zdjęcie z zatrzymania XD 

#amunicja #ar15 #logikarozowychpaskow #nieanonimowemirkowyznania #przemyt #usa #strazgraniczna",2018-12-02 13:58:09,1623,"amunicja, ar15, logikarozowychpaskow, nieanonimowemirkowyznania, przemyt, usa, strazgraniczna",59c515e3-cf62-45ea-a0a6-39cac15afaac
1,"#chili #chilihead #papryczki #ostrezarcie #gotujzwykopem #foodporn #rozdajo
MIKOŁAJKOWE POTRÓJNE ROZDAJO

Mikołajki tuż tuż, więc mam dla Was coś na rozgrzanie w te zimowe dni ( ͡° ͜ʖ ͡°)

Pierwsza wylosowana osoba otrzyma:
-Sosik z ostrej kiszonej papryki z dodatkiem warzyw takich jak marchew, cebula i seler z dodatkiem ananasa (b. ostry ( ͡° ͜ʖ ͡°) )

Druga wylosowana osoba otrzyma:
-3 typy suszonej ostrej papryki (Jay's Peach Ghost, Bhutlah Chocolate oraz hybrydę :D )

Trzecia wylosowana osoba otrzyma:
-Zestaw nasion na nadchodzący sezon (5 odmian)

Zasady proste:
-losowanie odbędzie się dziś o 21
-zielonki to wiadomo
-wysyłka na mój koszt

Zapraszam do zabawy :)

  PS: jak by ktoś chciał taki sosik poza konkursem lub jakieś nasiona czy susz to zapraszam na priv jeszcze trochę tego mam xD
",2018-12-02 11:26:05,2608,"chili, chilihead, papryczki, ostrezarcie, gotujzwykopem, foodporn, rozdajo",ddf2fe4f-256d-4211-8d54-a0cbc92cbbc6
2,"Robię #rozdajo #rozdajosteam. Z racji, że zapomniałem usunąć karty z humblebundle, a gry już mam to robię dzisiaj rozdajo na CITIES SKYLINES AFTER DARK. Dzisiaj około 20 będę losowal, chyba, że mało ludzi weźmie udział to sam wybiorę.",2018-12-02 11:59:51,2363,"rozdajo, rozdajosteam",b6aeba64-04dd-4dc0-a5a9-268df75c6cae
3,"Byłem dzisiaj w #mcdonald w #gdynia #trojmiasto żeby zobaczyć jak to wygląda od wewnątrz i muszę wam powiedzieć że to było chyba najbardziej traumatyczne doświadczenie w ciągu ostatnich dwóch tygodni.

Podchodzę do kasy, składam zamówienie, dostaje numerek i czekam. W międzyczasie okazuje się, że tabela z numerami zamówień gotowymi do odbioru na ekranie nie działa a numery co jakiś czas wykrzykuje ukrainka z dziwnym akcentem. Czekam 10 minut, ciągle odbijają się ode mnie małe dzieci, w środku wrzask, krzyk, ścisk, te ich maszyny piszczą aż kręci mi się w głowie. Czekam 15 minut a mojego zamówienia wciąż nie ma, a ukrainka wykrzykuje już numery od 60. Dłużej już nie wytrzymałem, uznałem że ktoś zajebał moje zamówienie i szybko wyszedłem bo miałem dosyć tej atmosfery w środku. Od razu pod lokalem zaczepiła mnie oczywiście śmierdząca żulica żebym kupił jej zapiekankę.

Widziałem te reklamy z kanapką drwala itp które polecaliście I nawet przez pierwsze 2-3 minuty myślałem czy tego nie domówić i spróbować ale teraz już wiem że pierdole McDonald's i wbijam huj w to obrzydliwe miejsce. Nie wiem jak możecie jeść w takim zwierzyńcu

#jedzenie #jedzzwykopem #zalesie",2018-12-02 14:35:09,108,"mcdonald, gdynia, trojmiasto, jedzenie, jedzzwykopem, zalesie",e7c2fd03-1b0d-49aa-a5c3-64eac6972e06
4,#gimbynieznajo #foodporn,2018-12-02 14:15:04,1284,"gimbynieznajo, foodporn",0cf220c2-7d25-49a9-8c08-e7232104c1c9
5,"Najwyżej plusowany obrazek wygrywa ( ͡º ͜ʖ͡º)

#heheszki #humorobrazkowy #glupiewykopowezabawy #sasiedzi #niewiemjaktootagowac",2018-12-02 10:16:20,385,"heheszki, humorobrazkowy, glupiewykopowezabawy, sasiedzi, niewiemjaktootagowac",d8b3d76f-9ea6-46df-88d5-6653cdf9e8b9
6,To jest kot czasu. Zaplusuj go a cofniesz sie do 2013 roku,2018-12-02 09:35:07,1332,,85f2f971-2053-4336-9fcb-ecbedc8af915
7,#heheszki #smieszne #rozowepaski #niebieskiepaski,2018-12-02 10:37:31,545,"heheszki, smieszne, rozowepaski, niebieskiepaski",94c12314-0a66-44bf-b411-189c5c49d3b2
8,"Co myślicie o takim układzie. 59m2, parter. Dwójka małych dzieci. Aneks kuchenny chcemy jeszcze jakoś wydzielić. W tej cenie z osobną kuchnią nie ma szans.

#mieszkanie #budownictwo",2018-12-02 10:47:00,35,"mieszkanie, budownictwo",e4c024a4-73d7-4b17-9c0f-e8c46d769adb
9,#skoki #polak #tworczoscwlasna,2018-12-02 16:22:18,1030,"skoki, polak, tworczoscwlasna",11803cd1-0d3c-4cc3-a54e-19a0abe8bb5d
10,"Codziennie rano...
#warszawa #heheszki #metro",2018-12-02 10:21:33,756,"warszawa, heheszki, metro",e2994942-0714-4a44-81b3-d87d0059ac5c
11,#heheszki,2018-12-02 14:09:41,704,heheszki,e91a5524-1430-4b04-837d-598b54b7c76a
12,#meme,2018-12-02 14:42:51,793,meme,eec19690-43ac-4a55-b26d-ae6e9fd14b64
13,#heheszki #madki #humorobrazkowy #dziendobry,2018-12-02 13:35:36,400,"heheszki, madki, humorobrazkowy, dziendobry",2ac87209-4e65-4caa-be5a-56e022519316
14,#heheszki #humorobrazkowy,2018-12-02 09:54:19,751,"heheszki, humorobrazkowy",ebb0e7be-1e1f-4be5-b8ba-36cdb680abae
15,#busiarze #bekaztransa #humorobrazkowy,2018-12-02 09:48:41,679,"busiarze, bekaztransa, humorobrazkowy",622907f2-f63e-4b25-aa8d-8416db99ab6a
16,"I jak mam zrobić zadanie domowe jak nikt nie chce pomóc... ( ͡° ʖ̯ ͡°)
#heheszki #humorobrazkowy #fizyka",2018-12-02 11:52:51,741,"heheszki, humorobrazkowy, fizyka",7ae5446a-28f4-4b3f-ba7c-83ffa61d4f7b
17,#heheszki #humorobrazkowy,2018-12-02 10:03:37,714,"heheszki, humorobrazkowy",bbda90f4-d160-4769-a9b5-3ba8057cb0dd
18,"Zaraz rozegra się tu walka na śmierć i życie o kupony

#lublin",2018-12-02 09:52:41,257,lublin,bf9f4b02-9b5a-4714-9af8-1db7a0c9bb88
19,"Tymczasem w myślach narodu 

Polska: Kurwa jaki fart XD Ojebiemy ich 
Austria: Kurwa jaki fart XD Ojebiemy ich 
Izrael: Kurwa jaki fart XD Ojebiemy ich 
Słowenia: Kurwa jaki fart XD Ojebiemy ich 
#mecz",2018-12-02 12:42:36,619,mecz,282871d0-60ac-4cc0-9c1c-81d59e42d441
20,#neuropa #logikarozowychpaskow,2018-12-02 10:56:54,407,"neuropa, logikarozowychpaskow",36d8e324-1948-4b3a-a4bd-c0fadcb9e97c
21,"Popełniłem ilustracje do kartki świątecznej dla młodszego kuzyna, która ma trafić od niego do naszych wojaków z #wojskopolskie z okazji świąt :D

#rysujzwykopem #chwalesie #rysunek",2018-12-02 09:23:25,373,"wojskopolskie, rysujzwykopem, chwalesie, rysunek",a9bdff15-7d0c-4c0a-bf67-30ece79ea771
22,"Kto pamięta daje plusa, inni przewijają dalej ( ͡º ͜ʖ͡º)
#komorka #staretelefony #telefon #telefony #gsm #nostalgia",2018-12-02 12:46:02,593,"komorka, staretelefony, telefon, telefony, gsm, nostalgia",371a77c1-38fd-4e75-9476-5d2a80904fa2
23,"Trafiłam na coś takiego jak boli-blog.pl
Borze dlaczego ( ಠ_ಠ)

  Haha RY U CHY A NI I E

#cringe #bezbek #gownowpis",2018-12-02 09:12:32,222,"cringe, bezbek, gownowpis",930ecddb-ab33-4f7c-9c17-6bfa0b38aacd
24,"Prezentuję wam GIGACHADA pośród serników
-0 (ZERO) rodzynek 
-wpakowano w niego tonę białej czekolady 
-spód tego majestatycznego serniczka jest z czekoladowych herbatników 
-domowy, zrobiony z miłością przez rodzicielkę
#gotujzwykopem #sernik #slodkijezu #kuchnia",2018-12-02 11:07:57,419,"gotujzwykopem, sernik, slodkijezu, kuchnia",be7f393c-4eab-4148-9687-d2583622c5f4
