,body,date,vote_count,hashtags,uuid
0,"Czesc. Dzis w nocy dowiedzialem sie, ze zmarla moja mama. Walczyla z ostra bialaczka. Rak pokonal ja w niecale 2 miesiace. Ostatni raz widzialem ja w poniedzialek. Pytala sie co corka chce na swieta, czy mam jej jakies nowe zdjecia. Lekarze byli zadowoleni, ze mama tak dobrze znosi chemie, bo ani wymiotow, ani drastycznego spadku wagi. Chcieli ja wypuscic na swieta, chociaz na krotko. Mama zastanawiala sie, czy na wielkanoc choc troche odrosna jej wlosy. Psychicznie trzymala sie doskonale i miala ogromna chec przezycia. Spodziewalismy sie takiego obrotu spraw, choc nikt w to tak naprawde nie wierzyl, nie ze stanie sie to tak szybko. Dzis mialem jechac na pogrzeb ojca mojego najlepszego przyjaciela, pojechala zona.  Ja jade sprobowac podniesc ojca na duchu, choc sam tego mocno potrzebuje. To beda bardzo smutne swieta. Nie taguje, bo i po co. Chcialem poprostu uwolnic troche bolu. Dzieki.",2018-12-05 09:17:28,2959,,1b61d538-971b-4b0c-b1c0-17f35b541a80
1,"  #takaprawda #heheszki #humorobrazkowy #polska #edukacja
  Kurde znowu kżyrzakuw prukwa na łikend zadała
",2018-12-05 12:06:12,2127,"takaprawda, heheszki, humorobrazkowy, polska, edukacja",8e649206-8120-4d0e-ad57-fcbade18156b
2,#polsat #heheszki,2018-12-05 13:29:43,2107,"polsat, heheszki",4e751f4a-4a90-49fe-a5bf-f34a41bfa825
3,#polskiedomy,2018-12-05 14:56:02,1154,polskiedomy,ad356209-f9fc-4511-9bf4-edfc4927cf37
4,"Madka w natarciu (－‸ლ)  gardzę 
#bekazpodludzi #madki #facebookcontent #zwierzaczki",2018-12-05 10:21:05,1125,"bekazpodludzi, madki, facebookcontent, zwierzaczki",225fce0a-998d-400f-9834-fa754f76da8f
5,#heheszki #humor #alkohol #humorobrazkowy,2018-12-05 10:31:53,850,"heheszki, humor, alkohol, humorobrazkowy",8bae3f3a-773c-4344-b3bd-c140ff2d1e87
6,"#heheszki #filmpolski #film #humorobrazkowy #miodowelata #diablo #polskiefilmy 
( ͡° ͜ʖ ͡°)",2018-12-05 12:32:36,1111,"heheszki, filmpolski, film, humorobrazkowy, miodowelata, diablo, polskiefilmy",134eadf1-9c08-43f3-b8a4-0eaffe5a7d09
7,#heheszki #humorobrazkowy,2018-12-05 14:17:10,1163,"heheszki, humorobrazkowy",d421308d-8cee-45c4-af57-3f511ffd9081
8,"widac napracowanko XD

#zabrze #humorobrazkowy #nosaczsundajski",2018-12-05 12:47:51,763,"zabrze, humorobrazkowy, nosaczsundajski",483fd535-d87d-4382-a313-2742a65a8ab5
9,"Jaki może być koszt takiego tatuażu?

#tatuaze",2018-12-05 13:54:28,136,tatuaze,fffb775e-4ff1-40d5-8263-5c4680b40369
10,,2018-12-05 15:14:48,1133,,6cd14252-f079-4400-a76b-9aa77c95890a
11,"Miałem taki okres w życiu, że jak dzwoniłem po pizzę to odbierali słowami:
-Ooo, witamy KorniXPL, standardowo numer 18 czy dzisiaj coś innego?
-18.
-Do domu czy do pracy?
-Do domu.
-Okej, życzymy smacznego

No i w ten sposób kiedyś przytyłem ponad 10 kilogramów ( ͡° ʖ̯ ͡°)

#truestory",2018-12-05 13:12:06,728,truestory,2b2d7382-6313-4bd0-b28f-1f83e1c2890d
12,"Mirki HIT! XD Mój brat jest kurierem i miał od pewnego klienta odebrać telewizor. Pomylił się i podjechał do jego sąsiada. Dzień dobry, ja jestem kurierem z firmy XXX i proszę o wydanie telewizora. XD Gościu odłączył i przyniósł mu WŁASNY TELEWIZOR. XDDD Brat wziął i jedzie „na bazę”. Po jakichś 2h dzwoni Pan XXX i pyta się kiedy mu w końcu brat ten telewizor odbierze. XD Brat w wielkim szoku, mówi że przecież odebrał telewizor XDDD a typ mówi że jak kurwa jak stoi przy telewizorze i niech sobie kurwa jaj nie robi. XD Dopiero po chwili brat zajarzył co właśnie odjebał. XD Telewizor w samochód i kita do sąsiada. XD Najlepsze jak zaczął opowiadać tamtemu gościowi że był u sąsiada i że mu swój telewizor wydał i że pomyłka. XD 

#truestory #praca #pracbaza #kurier #kurierzy #coolstory #heheszki",2018-12-05 16:35:27,929,"truestory, praca, pracbaza, kurier, kurierzy, coolstory, heheszki",ad17995b-731b-4e65-8cc0-a90dfeb71ba1
13,"#sekretariat #pracbaza 

Kontrolę mamy dzisiaj z Kuratorium (ಠ‸ಠ)
Boje się, że ktoś odkryje, że mirkuję w pracy. Bardzo proszę dobrych ludzi o wsparcie psychiczne.",2018-12-05 09:14:31,739,"sekretariat, pracbaza",b6eb8341-81da-4022-a16e-427eca73baf1
14,"Najkrótszy żart o gejach:

  Także tego.


#suchar #heheszki",2018-12-05 12:00:27,221,"suchar, heheszki",6ec275e5-269c-4ca5-8c1f-3261b7d50d32
15,#humorobrazkowy #heheszki,2018-12-05 14:23:07,845,"humorobrazkowy, heheszki",caef4120-cb82-4e89-bc1c-a3f5780e1818
16,"#anonimowemirkowyznania 
Bylem w zwiazku z dziewczyna od roku po wyjeździe do holandii odjebala mi taka akcje ze szok ale po kolei. Po pół roku zamieszkaliśmy razem w wynajmowanym mieszkaniu, było jak w bajce :) Jednak sytuacja finansowo nie była najlepsza, niemal nic nie dawalo sie zaoszczedzic, a ona jeszcze miała problemy w domu rodzinnym. Postanowiliśmy wspólnie że wyjedziemy za granicę, wypadło na holandię. Zamieszkaliśmy na miejscu w bardzo rozrywkowym domku gdzie alkohol i imprezy byly czesto. W weekendy imprezy potrafiły trwać po 24h. Na początku obojgu się nam to nie podobało, później ona zaczęła tam siedzieć sama a ja wkurwiony ciagle ja prosiłem by wyszła ze mna. Przesiadywała głównie z pewnym kolesiem który jeszcze na dodatek brał inne używki, narkotyki i jezdzil na kurwy. Mega mnie to wkurzala ale mowila ze to tylko kolega i jest zabawny itp. Po 3 niecałych 3 miesiącach w holandii zacząłem wariować na tym punkcie ale jakos mi sie udalo ja przekonac by się przenieść do spokojniejszego domu. Nie wytrzymała tam dnia i chciała już wracać do tamtego. Mi już zupełnie odbiło postanowiłem że wracamy do lublina na urlop zgodzila sie w miare chętnie. Jechałem na urlop z myślą by ją rzucić ale jak pogadalismy i jej wszystko wytłumaczyłem że mi przez takie zachowanie odbija, obiecała że będzie spokojna i nie będzie sama przesiadywać tam. Mowila ze nic do niego nie czuje ze kocha tylko mnie itp. Na urlopie kupiłem auto i nim wyjechaliśmy z powrotem do roboty. Na miejscu byliśmy koło północy, impreza na powitanie oczywiście była. Ja mega zmęczony po 13h jazdy z grzeczności 2 piwka wypiłem i chcialem isc spac reszta ludzi tez poszla spac a imprezowac chciala tylko ona i on. O 2 w nocy sie polozylem sam ale nie mogłem spać, co jakiś czas do nich zaglądałam i słyszałem że zaraz idzie spać. Jakos mi sie udalo przespać z godzinę lub 2 ale o 8 sie obudzilem i usłyszałem że muzyka ucichła a jej nie ma. Wpadam do salonu a ona się z nim całuje… dostał w morde pare strzalow spakowałem rzeczy do auta z powrotem ona jeszcze mnie prosiła o kilka słów w cztery oczy i przyznała się że kłamała i coś do niego czuła ale myślała że jej przejdzie. Olalem ja zadzwoniłem do szefa by mi inny domek wskazał gdzie mogę pójść. Ona tam została. Następnego dnia poszedłem do roboty widzę ich razem na palarni i w robocie cały czas więc mówię szefowi że to nie ma dla mnie sensu tam zostać i zjezdzam do polski, jednak następnego dnia rano chłopaków do roboty wywioze bo już w planie byłem rozpisany. Kolejny dzień zawiozlem z rana chłopaków i się pakuje kolejny raz, czekam z wyjazdem aż współlokatorzy wrócą by im klucze oddać. Ja już spakowany ich oczekiwałem gdy się pojawia ale ona razem z nimi przyjechała. Chciała pogadać w cztery oczy przepraszała błagała o wybaczenie mowila ze to blad i jak wytrzeźwiała to to zrozumiała dopiero itp. Powiedziałem że nie ma takiej opcji jak przebaczenie, jednak niestety chłopaki mnie namówili bym taki w nerwach nie jechał przez noc bo juz i tak bylo pozno. Wypiliśmy flaszkę ale mnie gryzło ze groziła ze sobie coś zrobi bo mi tak mówiła, a wiem ze w przeszłości miała próby samobójcze. Poszedłem tylko by poprosić innego jej współlokatora by miał na nią oko. Jak tam bylem to sie dowiedzialem ze jak tylko wyszedłem to wskoczyli do łóżka i to zrobili. Jednak potem znow wrocilam pic i pisałem z nią na messangerze. Chciala ze mna wrócić zacząć wszystko od nowa itd Po pijaku sie niestety zgodzilem spakowała sie do auta przyszła na domek w ktorym bylem, tam jeszcze piłem z chłopakami a wszyscy po niej jechali a ona z spuszczona glowa słuchała. następnego dnia jak wytrzeźwiałem pojechaliśmy do polski jeszcze po drodze milion razy przepraszała i błagała o wybaczenie. Jesli to wszystko udawała to za gre oscar by sie jej należał. Teraz mam dylemat czy cos takiego mozna wybaczyc, czy wrócić do niej.

Kliknij tutaj, aby odpowiedzieć w tym wątku anonimowo
Kliknij tutaj, aby wysłać OPowi anonimową wiadomość prywatną 
Post dodany za pomocą skryptu AnonimoweMirkoWyznania ( https://mirkowyznania.eu ) Zaakceptował: Eugeniusz_Zua
Dodatek wspierany przez: Wyjazdy studenckie - bogata oferta przez cały rok",2018-12-05 12:43:57,28,"anonimowemirkowyznania, Kliknij tutaj, aby odpowiedzieć w tym wątku anonimowo, Kliknij tutaj, aby wysłać OPowi anonimową wiadomość prywatną, https://mirkowyznania.eu, Eugeniusz_Zua, Wyjazdy studenckie - bogata oferta przez cały rok",149e2384-2f91-4fc4-afb7-2beba0f2c2b9
17,"Ma żywo jeszcze lepiej wyglądają :D
Ja za 191zl to jestem fchuj zadowolony (｡◕‿‿◕｡)
#streetwear",2018-12-05 09:59:31,115,streetwear,394d0c50-2171-4165-8851-ecd3a53e909c
18,"xD
link
#piotrzyla trochę #skoki a na pewno #logikarozowychpaskow",2018-12-05 14:26:27,473,"link, piotrzyla, skoki, logikarozowychpaskow",3d7d3b74-f63c-4d45-8bde-8f6fd9bb04a5
19,"Wrzucajcie najbardziej rakowe określenia. Ja zaczynam: #rakcontent  #glupiewykopowezabawy 

1. MILENIALSI XD",2018-12-05 09:55:54,278,"rakcontent, glupiewykopowezabawy",088cfcbb-eac8-49c6-bc62-1f4a7fbe6781
20,"DZIEŃ 90/100

W pewnym lesie do sklepu prowadzonego przez zająca wchodzi żółw z wiadrem.
- Dzień dobry zajączku - mówi żółw w swoim tempie.
- Cześć żółwiu! Jak Ci mogę pomóc?
- Sprzedasz mi wiadro wody? - mówi żółw pokazując na wiadro trzymane w łapie.
- Woda jest przecież za darmo - zdziwił się zając - Daj wiadro, napełnię je.
Zajączek wyskoczył z wiadrem na zapleczem, napełnił je wodą i wrócił do żółwia. 
Żółw podziękował i poszedł w swoją stronę.
Nazajutrz do sklepu zająca znowu przychodzi żółw.
- Dzień dobry zajączku. Sprzedasz mi wiadro wody?
- Dostaniesz wodę za darmo. Daj wiadro.
Już po chwili zając podaje żółwiowi wiadro z wodą.
- Bardzo Ci dziękuję - powiedział żółw i po chwili zniknął.
Następnego dnia znowu przychodzi żółw i pyta o wodę. 
Zając napełnia wiadro po brzegi. Przynosi je żółwiowi i zagaja:
- Żółwiu, mogę cię o coś spytać?
- Tak, a o co?
- Po co każdego dnia przychodzisz do mnie po wiadro wody?
Na co żółw odpowiada:

  - My tu sobie gadu gadu a mi chata płonie.

Suchar bonusowy nadesłany przez @Majster12

Rozmawiają dwaj alpiniści podczas ataku na szczyt:
- Słyszysz tą muzykę? Co to?

  - A, ustawiłem granie na czekanie.


#suchar #100dnisucharow 

Serdecznie podziękowania dla @ehisedi za nadesłanie suchara ( ͡° ͜ʖ ͡°)",2018-12-05 09:59:12,544,"Majster12, suchar, 100dnisucharow, ehisedi",533c52ae-96b3-4cb2-881e-3a66e1dd7cf7
21,"Dajcie plusa mirki na pocieszenie. Dziś odszedł jeden z moich piesełów. Nowotwór wykończył ją w tydzień. Najgorsze kiedy nie mogliśmy pomóc a drugi pieseł zaprowadzał każdego domownika do jej legowiska żeby coś zrobić (╥﹏╥)

#psy #smutnazaba #husky",2018-12-05 15:03:37,476,"psy, smutnazaba, husky",1a35a734-721f-4bcd-9b1c-7e92f5612307
22,"Historia edycji posta Leszke XDDDD

#heheszki #lechwalesacontent #leszke",2018-12-05 10:10:23,579,"heheszki, lechwalesacontent, leszke",be48bd12-05b1-4c6e-a885-8b3977ba284d
23,"Ktoś jest geniuszem XDD ( ͡º ͜ʖ͡º)

#lime #wroclaw #heheszki",2018-12-05 14:10:07,268,"lime, wroclaw, heheszki",89629a57-420f-4e16-a536-f2f8371cc4e3
24,"Gucci Ace Snake 

Tak wyglądają buty za 3000 PLN które kupiłem sobie do chodzenia. #streetwear #modameska #chwalesie #buty",2018-12-05 15:37:58,129,"streetwear, modameska, chwalesie, buty",2ff53c8b-4e5e-4e25-af2f-902b5d49df55
