,body,date,vote_count,hashtags,uuid
0,"Chyba mam słabe poczucie humoru, ale zaśmiane na głos xD",2018-12-04 02:15:11,751,,1e470f60-b7ac-49ab-847b-adae1def8607
1,"Czaicie, że kiedyś chciał mnie wyruchać pedofil? xD miałem z 16 lat i poszedłem do sklepu i po pizze. Pizza w łapie, idę sobie a jakiś gość z 50 lat woła i pyta gdzie jest coś tam, odpowiadam grzecznie itp zagadał ze on tu przejazdem i nie ma nikogo i czy uwaga napije sie z nim piwka bo akurat ma dwa xD Ja głupi pomyślałem kurde, gość sam, święta za kilka dni to wypije  z nim piwko, poszliśmy obok sklepu do parku, dał mi piwko w puszce zamknięte, no i sobie pijemy. Wszystko było ok , dopóki gość nie podał mi swojego numeru i nie zaproponował, zebym szedł do niego i w ogole wyjechał z nim do niemiec bo jest w chuj bogaty i kupi mi nowe buty, no i ogolnie ze widzi, ze moje buty już stare i takie duże i w ogole wszystko mam chyba takie duże XDDDD, obiecał nawet, że kupi mi nowy telefon jak z nim wyjade, tylko mam rodzicom nie mowic xD elegancko wyminieliśmy  sie numerami, obiecałem mu ze sie odezwe na nastepny dzień itp  i spierdolilem, gość wydzwaniał jeszcze kilka miesięcy, nawet mi życzenia przysłał na na sylwka XD Teraz z perspektywy czasu to zaluje, ze go nie podjebalem na psy, ale w sumie bylem kretynem i dalej jestem  #oswiadczenie #zwyrolegg  edit a no i z 5x powtorzyl ze jestem fajny chlopak",2018-12-03 21:55:41,377,"oswiadczenie, zwyrolegg",9ad5278f-0671-4792-a957-f1b707526008
2,,2018-12-04 02:15:25,458,,2a5981a9-d115-45bd-962e-542b57083722
3,"XDDDDDDDDDDDDDDDDD

#bekazpodludzi #humorobrazkowy",2018-12-03 22:47:39,264,"bekazpodludzi, humorobrazkowy",4ca801bf-d4bd-40d8-973c-23f4bdbc83c8
4,"witajcie,
z okazji zbliżających się mikołajek robię małe #rozdajo ze sklepiku http://t-shirty.com.pl/
Z plusujących ten wpis wylosuję (mirkolos) 6 grudnia jedną osobę, która wybierze sobie dowolną koszulkę z http://t-shirty.com.pl/klubowe,k-8860.html a ja opłacę i koszulkę i przesyłkę (może to być t-shirt męski, damski lub dla dziecka - wedle uznania). Może są tu fani #pilkanozna #premierleague #seriea #primieradivision czy #bundesliga oraz #ligue1
godzinę losowania napiszę bliżej wskazanej daty ( ͡º ͜ʖ͡º)",2018-12-03 22:25:12,505,"rozdajo, http://t-shirty.com.pl/, http://t-shirty.com.pl/klubowe,k-8860.html, pilkanozna, premierleague, seriea, primieradivision, bundesliga, ligue1",631e7a3f-e9fc-4a45-b70c-40a2168a80db
5,#heheszki #humorobrazkowy #bogactwo #pieniadze #memy,2018-12-03 23:04:00,338,"heheszki, humorobrazkowy, bogactwo, pieniadze, memy",28ee13c8-a110-435b-9626-d29a99fbcb39
6,"#programowanie #elektronika #elektronikadiy #telefony #symbian
Cześć, zainteresowanie przekroczyło moje najśmielsze oczekiwania - ponad 200 plusów za pracę nad takimi szrotami to jakaś masakra ( ͡° ͜ʖ ͡°)

Zrobiłem pełny risercz i mam kilka fajnych rzeczy. Znalazłem scrackowany InfinityBEST (program serwisowy dla Nokii), niestety aplikacja wykrywana jest jako wirus, więc polecam ją odpalać najlepiej na osobnej maszynie z postawionym XPkiem - Sam będę używał starego IBMa. Teraz mięsko.

Ktoś wcześniej zrobił tytaniczną robotę i przygotował #linux na Siemensa SX1. Był on na Symbianie z nakładką S60v1, jest więc możliwe wykorzystanie jego uBoota jako bazy do portowania na nowsze Nokie. 
Niestety nie mogę użyć zwyczajnego JTAGa aby wgrać uBoota, ponieważ BB5 jako platforma całkowicie to uniemożliwia ze względów bezpieczeństwa (simlocki, numery IMEI i inne szmery-bajery). Tu jest największy problem i tutaj będę odwalał najgorszą robotę próbując to ominąć/złamać. 
https://sourceforge.net/projects/linux-on-sx1/files/ To się przyda. 
Jeżeli dobrze interpretuję kod z wątku http://forum.oslik.ru/viewtopic.php?f=46&ampt=29918&ampstart=15 jest to assembly potrzebny do odpalenia uBoota. Znam trochę rosyjski, niestety kodowanie się już rozjechało. 
Ze względu na to że Linux wspiera OMAPy od wersji jądra 2.6, możliwe będzie wgranie odpowiednio skompilowanego obrazu jądra. SoC OMAP 2420 ma architekturę ARM11, w teorii taki Debian Armel powinien ruszyć ale nie jestem pewien, przez co objawia się następny problem. Nie jestem programistą, tylko elektronikiem. Ale za to cholernie dobrym elektronikiem. Nie zmienia to faktu że coś tam w C skrobnę bo coś tam jednak umiem. 

Najważniejszą bazą będzie https://n70linux.wordpress.com 
Nie działa 3/4 linków ale jest dużo informacji które ktoś już odkrył przede mną. Do tego ktoś z bloga już miał pomysł na zrobienie wewnętrznego flashera z poziomu Symbiana. SDK na S60v3/v5 mam pobrane i uploadowane na mój dropbox, aczkolwiek mam nadzieję że nie będzie potrzebne. W planach na jutro mam próbę znalezienia archiwalnych wersji tych stron.

Prawdopodobnie aby odpalić uBoota będzie trzeba użyć zewnętrznego mikrokontolera omijającego BB5. Platforma BB5 jest w praktyce osobnym scalakiem kominikującym się bezpośrednio z prockiem przy użyciu niestandardowego zestawu instrukcji. Tutaj wkraczam ja, spróbuję podsłuchać o czym sobie układy gadają (⌐ ͡■ ͜ʖ ͡■) 

Na ten moment to tyle, na jeden dzień sądzę że to i tak dużo - dojście do powyższych wniosków samemu zajęłoby mi od zera co najmniej pół roku ( ͡° ʖ̯ ͡°)
Następny wpis powstanie kiedy przyjadą potrzebne części albo znajdę więcej niż jedną istotną informację i wrzucę to jako zbiorczy wpis. Proszę chętnych o obserwowanie taku #s60v3 ponieważ jest i tak nie używany to po co się wysilać z tworzeniem nowego. 

Pozwolę sobie zawołać ludzi plusujących mój pierwszy wpis. Dla uwagi fotka ze znalezionego bloga.",2018-12-03 22:08:12,347,"programowanie, elektronika, elektronikadiy, telefony, symbian, linux, https://sourceforge.net/projects/linux-on-sx1/files/, http://forum.oslik.ru/viewtopic.php?f=46&ampt=29918&ampstart=15, https://n70linux.wordpress.com, s60v3",39d906e5-60a6-4b47-9dca-b23c16c93768
7,#humor #humorobrazkowy #motoryzacja #samochody,2018-12-03 21:18:27,352,"humor, humorobrazkowy, motoryzacja, samochody",65ae8a70-f391-42e5-bb93-764f1afff5a5
8,"Rzeczywiście wczoraj minął rok XD Nie wiem za bardzo co napisać, nie pamiętam bym deklarował się że za rok pokażę formę, pamiętam tylko że usłyszałem że w rok nie dam rady aż takiej formy złapać.
Wyglądam bardziej jak Konus McDonald (tak mi dosłownie żona powiedziała XD) 
Od maja gdzieś zajmowałem się remontem nowego mieszkania no i nie będę ukrywał że z dniem narodzin dziecka skończyła się dieta, nie było czasu ani na gotowanie ani tym bardziej na ćwiczenia. 
Żeby zrozumieć jak mało wolnego czasu miałem musicie wiedzieć że przejechałem mniej niż 500km motocyklem w tym sezonie... 
Od wczoraj mieszkam już w nowym miejscu i zacznę projekt od nowa XD ale poinformuję już tylko o wyniku bo i tak wystarczająco dużo przez ten rok wycierpiałem przez memy 

  XDDDDDDD bawiły mnie w chuj 


#oskarmcgregor",2018-12-03 23:35:27,204,oskarmcgregor,c5f07440-b955-4a75-9e35-fd07bf83b7e1
9,"Arkadiusz Milik
Atalanta - Napoli 1:[2]

#mecz #golgif #golgifpl #seriea",2018-12-03 22:18:16,277,"mecz, golgif, golgifpl, seriea",7d280a65-441f-449c-9433-cb7a3929ea02
10,"Wczoraj podczas igraszek z dziewczyną jak miałem palce w środku to wyczułem kość przez skórę pipki i myślę że może to kość ogonowa albo kręgosłup, ale czy to możliwe żebym tak głęboko sięgnął? xD W dotyku twarde, z takimi wypustkami trochę jak kręgi w kręgosłupie.

#rozowepaski #niebieskiepaski #seks #medycyna #anatomia #zwiazki #pytanie #pytaniedoeksperta",2018-12-03 21:39:34,30,"rozowepaski, niebieskiepaski, seks, medycyna, anatomia, zwiazki, pytanie, pytaniedoeksperta",576cc6b2-c365-42a9-88cc-1d1ddb1c029c
11,"Oto, co chińskie bajki robią z ludźmi.",2018-12-04 02:29:11,260,,40cb481d-c36a-408d-9e1a-c63d45b5078e
12,"Mój kot jest prostokotem

  Kurła, na zimę mu sierść urosła i nabrał tłuszczu xD


#pokazkota #dziwnekotki #smiesznekotki #koty",2018-12-03 21:45:58,253,"pokazkota, dziwnekotki, smiesznekotki, koty",05aceb90-2e12-4a35-8449-e86b2fdf52b9
13,"Daj plusa jeśli kochasz swoją mamę.
scrolluj dalej jeśli chcesz żeby umarła

#heheszki #pornopani #milf",2018-12-03 23:35:51,275,"heheszki, pornopani, milf",9a7d76d1-c36c-4fae-a904-10bcbeb73fa0
14,#dobranoc #gownowpis,2018-12-03 22:24:40,251,"dobranoc, gownowpis",a1c5ac64-34fb-45f5-95ad-402e9c12db5f
15,(⌐ ͡■ ͜ʖ ͡■),2018-12-04 06:47:31,220,,4e9def23-f3ce-4962-8d83-149a37152252
16,"dwa koty to wygranie życia, polecam #koty #pokazkota #duszekitygrysek",2018-12-03 22:21:06,193,"koty, pokazkota, duszekitygrysek",baa72723-1a6a-4d47-a8c6-6f72fe73d3a3
17,ulubiona rozrywka moich kotów to oglądanie wirującego bębna pralki #koty #pokazkota #duszekitygrysek,2018-12-03 22:11:06,186,"koty, pokazkota, duszekitygrysek",683a9d7d-09e2-4fec-be94-3c838fe87473
18,"Taki chop klepie twoja dziewczyne w tyłek
Co robisz",2018-12-04 00:15:39,43,,56b6d040-5bc3-45cf-9bb2-920307d73ab4
19,"jestem tak mało asertywna, że zawsze klikam może później zsmiast nie dziękuję na prośbę oceny aplikacji, mimo że wiem, że nigdy tego nie zrobię",2018-12-03 21:46:52,188,,3ba00c8e-08e6-40f4-9d99-1b603fe47eae
20,#twierdza #heheszki,2018-12-04 06:51:57,203,"twierdza, heheszki",44a659d6-4c49-415a-b96e-c4bf0429f2d9
21,"Najlepszą taktyką na mecz Polska - Izrael będzie łapanie Żydów na spalonego xDDDD
#mecz #polska #pilkanozna #heheszki #smieszne",2018-12-03 22:01:48,189,"mecz, polska, pilkanozna, heheszki, smieszne",946ece57-eb49-4526-a253-f37d5b742199
22,"#contentnadzis #codziennaafrica #totoafrica #dziendobry #cytatnadzis #ciekawostkanadzis #pomyslnaobiad #pogodanadzis

Dziś wstałem z trudem lewą nogą ale dostarczam jak zwykle informacje poranne. Mamy godzinę 07:00:03, Wtorek, 04 grudnia 2018. Imieniny: Barbary, Krystiana, Jana. Słońce podniesie się dziś o 07:48. Będzie oświecało nas 7 godzin i 36 minut, w zenicie znajdzie się o 11:37 po czym zacznie opadać aż schowa się za horyzontem o 15:25. Ciemna noc zapadnie o 16:54, ale gwiazd można wypatrywać od 16:08.

Wielkie słowo

  Zabawne jak mało ważna jest Twoja praca, gdy prosisz o podwyżkę, a jak niesamowicie niezbędna dla ludzkości gdy prosisz o urlop...


Ciekawostka na dziś:

  Podczas drugiej wojny światowej Niemcy stracili 4400000 żołnierzy z czego około 80% na froncie wschodnim.


Brak pomysłu na obiad?

  FILETY DROBIOWE W SOSIE Z GORGONZOLI
  Składniki:
  * 500 g filetu z indyka lub kurczaka
  * 80 g cieniutkiego boczku lub szynki parmeńskiej
  * 180 ml śmietanki 30%
  * 90 g sera gorgonzola
  * 1/2 łyżki posiekanej bazylii lub natki pietruszki
  * kilka pomidorów koktajlowych
  Przepis:
  1. Mięso opłukać, osuszyć, przekroić poziomo na 2 cieńsze filety, następnie pokroić je na mniejszej wielkości kawałki. Rozbić tłuczkiem na grubość ok. 7 mm.
  2. Doprawić solą (niezbyt dużo bo boczek/szynka jest słona) oraz pieprzem. Fileciki zawinąć w plasterki boczku lub szynki.
  3. Rozgrzać patelnię z łyżką oliwy, rozprowadzić ją po całej patelni. Obsmażyć mięso z dwóch stron na większym ogniu aż boczek się lekko podtopi i zrumieni.
  4. Zdjąć z patelni, wylać tłuszcz i wyczyścić patelnię ręcznikiem papierowym. Ustawić patelnię na średnim ogniu, wlać śmietankę, doprawić solą i pieprzem, dodać pokrojoną w kosteczkę gorgonzolę. Mieszając podgrzewać aż ser się roztopi.
  5. Włożyć mięso i podgrzewać razem przez ok. 1 minutę, posypać bazylią lub natką.
  Świetnie smakuje z ryżem, smacznego!


Pogoda na dziś:

  --- ߷ Białystok --- 
  -> rano⠀06 - 09⠀  ⠀⠀⠀⠀⠀&lt-  ☂ słabe opady deszczu, 5°C, 999 hPa, Wiatr Płd 15 km/h
  -> do południa 09 - 12⠀&lt-  ☂ słabe opady deszczu, 5°C, 999 hPa, Wiatr Płd 12 km/h
  -> po południu⠀12 - 15⠀&lt-  ☂ słabe opady deszczu, 5°C, 1000 hPa, Wiatr Zach 11 km/h
  -> po południu⠀15 - 18⠀&lt-  ☂ słabe opady deszczu, 4°C, 1003 hPa, Wiatr Płn-Zach 27 km/h
  -> wieczorem⠀18 - 21⠀⠀⠀&lt-  ☂ słabe opady deszczu, 3°C, 1006 hPa, Wiatr Zach 28 km/h
  --- ߷ Bydgoszcz --- 
  -> rano⠀06 - 09⠀  ⠀⠀⠀⠀⠀&lt-  ☂ słabe opady deszczu, 5°C, 1003 hPa, Wiatr Zach 11 km/h
  -> do południa 09 - 12⠀&lt-  ☂ słabe opady deszczu, 6°C, 1006 hPa, Wiatr Płn-Zach 23 km/h
  -> po południu⠀12 - 15⠀&lt-  ☂ słabe opady deszczu, 4°C, 1010 hPa, Wiatr Zach 26 km/h
  -> po południu⠀15 - 18⠀&lt-  ☂ słabe opady deszczu, 3°C, 1013 hPa, Wiatr Zach 29 km/h
  -> wieczorem⠀18 - 21⠀⠀⠀&lt-  ☂ słabe opady deszczu, 2°C, 1015 hPa, Wiatr Zach 29 km/h
  --- ߷ Gdańsk --- 
  -> rano⠀06 - 09⠀  ⠀⠀⠀⠀⠀&lt-  ☂ słabe opady deszczu, 7°C, 1010 hPa, Wiatr Zach 20 km/h
  -> do południa 09 - 12⠀&lt-  ☂ słabe opady deszczu, 7°C, 1012 hPa, Wiatr Zach 33 km/h
  -> po południu⠀12 - 15⠀&lt-  ☂ słabe opady deszczu, 6°C, 1015 hPa, Wiatr Zach 37 km/h
  -> po południu⠀15 - 18⠀&lt-  ☂ słabe opady deszczu, 6°C, 1017 hPa, Wiatr Zach 43 km/h
  -> wieczorem⠀18 - 21⠀⠀⠀&lt-  ☂ słabe opady deszczu, 6°C, 1019 hPa, Wiatr Zach 43 km/h
  --- ߷ Gorzów Wlkp --- 
  -> rano⠀06 - 09⠀  ⠀⠀⠀⠀⠀&lt-  ☂ słabe opady deszczu, 7°C, 1014 hPa, Wiatr Płn-Zach 26 km/h
  -> do południa 09 - 12⠀&lt-  ☀ bezchmurnie, 7°C, 1017 hPa, Wiatr Płn-Zach 28 km/h
  -> po południu⠀12 - 15⠀&lt-  ☁ lekkie zachmurzenie, 5°C, 1021 hPa, Wiatr Zach 27 km/h
  -> po południu⠀15 - 18⠀&lt-  ☂ słabe opady deszczu, 3°C, 1024 hPa, Wiatr Zach 24 km/h
  -> wieczorem⠀18 - 21⠀⠀⠀&lt-  ☀ bezchmurnie, 3°C, 1027 hPa, Wiatr Zach 25 km/h
  --- ߷ Katowice --- 
  -> rano⠀06 - 09⠀  ⠀⠀⠀⠀⠀&lt-  ☂ słabe opady deszczu, 7°C, 983 hPa, Wiatr Zach 22 km/h
  -> do południa 09 - 12⠀&lt-  ☂ słabe opady deszczu, 7°C, 985 hPa, Wiatr Zach 25 km/h
  -> po południu⠀12 - 15⠀&lt-  ☂ słabe opady deszczu, 5°C, 989 hPa, Wiatr Płn-Zach 27 km/h
  -> po południu⠀15 - 18⠀&lt-  ☂ słabe opady deszczu, 4°C, 993 hPa, Wiatr Płn-Zach 23 km/h
  -> wieczorem⠀18 - 21⠀⠀⠀&lt-  ☂ słabe opady deszczu, 3°C, 995 hPa, Wiatr Płn-Zach 20 km/h
  --- ߷ Kraków --- 
  -> rano⠀06 - 09⠀  ⠀⠀⠀⠀⠀&lt-  ☂ słabe opady deszczu, 7°C, 967 hPa, Wiatr Zach 17 km/h
  -> do południa 09 - 12⠀&lt-  ☂ słabe opady deszczu, 7°C, 969 hPa, Wiatr Zach 15 km/h
  -> po południu⠀12 - 15⠀&lt-  ☂ słabe opady deszczu, 5°C, 972 hPa, Wiatr Zach 18 km/h
  -> po południu⠀15 - 18⠀&lt-  ☂ słabe opady deszczu, 3°C, 975 hPa, Wiatr Płn-Zach 18 km/h
  -> wieczorem⠀18 - 21⠀⠀⠀&lt-  ☂ słabe opady deszczu, 2°C, 978 hPa, Wiatr Płn-Zach 14 km/h

  --- ߷ Lublin --- 
  -> rano⠀06 - 09⠀  ⠀⠀⠀⠀⠀&lt-  ☂ słabe opady deszczu, 4°C, 992 hPa, Wiatr Płd 19 km/h
  -> do południa 09 - 12⠀&lt-  ☂ słabe opady deszczu, 6°C, 992 hPa, Wiatr Płd-Zach 22 km/h
  -> po południu⠀12 - 15⠀&lt-  ☂ słabe opady deszczu, 6°C, 994 hPa, Wiatr Zach 21 km/h
  -> po południu⠀15 - 18⠀&lt-  ☂ słabe opady deszczu, 5°C, 997 hPa, Wiatr Zach 27 km/h
  -> wieczorem⠀18 - 21⠀⠀⠀&lt-  ☂ słabe opady deszczu, 3°C, 1001 hPa, Wiatr Płn-Zach 27 km/h
  --- ߷ Łódź --- 
  -> rano⠀06 - 09⠀  ⠀⠀⠀⠀⠀&lt-  ☂ słabe opady deszczu, 7°C, 996 hPa, Wiatr Zach 19 km/h
  -> do południa 09 - 12⠀&lt-  ☂ słabe opady deszczu, 8°C, 998 hPa, Wiatr Zach 29 km/h
  -> po południu⠀12 - 15⠀&lt-  ☂ słabe opady deszczu, 6°C, 1003 hPa, Wiatr Płn-Zach 29 km/h
  -> po południu⠀15 - 18⠀&lt-  ☂ słabe opady deszczu, 4°C, 1007 hPa, Wiatr Płn-Zach 26 km/h
  -> wieczorem⠀18 - 21⠀⠀⠀&lt-  ☂ słabe opady deszczu, 3°C, 1010 hPa, Wiatr Płn-Zach 25 km/h
  --- ߷ Olsztyn --- 
  -> rano⠀06 - 09⠀  ⠀⠀⠀⠀⠀&lt-  ☂ słabe opady deszczu, 4°C, 1001 hPa, Wiatr Płd 11 km/h
  -> do południa 09 - 12⠀&lt-  ☂ słabe opady deszczu, 5°C, 1002 hPa, Wiatr Zach 13 km/h
  -> po południu⠀12 - 15⠀&lt-  ☂ słabe opady deszczu, 5°C, 1005 hPa, Wiatr Zach 22 km/h
  -> po południu⠀15 - 18⠀&lt-  ☂ słabe opady deszczu, 3°C, 1008 hPa, Wiatr Zach 28 km/h
  -> wieczorem⠀18 - 21⠀⠀⠀&lt-  ☂ słabe opady deszczu, 2°C, 1010 hPa, Wiatr Zach 29 km/h
  --- ߷ Opole --- 
  -> rano⠀06 - 09⠀  ⠀⠀⠀⠀⠀&lt-  ☂ słabe opady deszczu, 8°C, 994 hPa, Wiatr Zach 18 km/h
  -> do południa 09 - 12⠀&lt-  ☂ słabe opady deszczu, 8°C, 997 hPa, Wiatr Płn-Zach 26 km/h
  -> po południu⠀12 - 15⠀&lt-  ☂ słabe opady deszczu, 5°C, 1001 hPa, Wiatr Płn-Zach 28 km/h
  -> po południu⠀15 - 18⠀&lt-  ☂ słabe opady deszczu, 4°C, 1005 hPa, Wiatr Płn-Zach 21 km/h
  -> wieczorem⠀18 - 21⠀⠀⠀&lt-  ☂ słabe opady deszczu, 3°C, 1007 hPa, Wiatr Płn-Zach 19 km/h
  --- ߷ Poznań --- 
  -> rano⠀06 - 09⠀  ⠀⠀⠀⠀⠀&lt-  ☂ słabe opady deszczu, 8°C, 1009 hPa, Wiatr Zach 27 km/h
  -> do południa 09 - 12⠀&lt-  ☂ słabe opady deszczu, 7°C, 1014 hPa, Wiatr Płn-Zach 30 km/h
  -> po południu⠀12 - 15⠀&lt-  ☁ pochmurno z przejaśnieniami, 5°C, 1018 hPa, Wiatr Zach 26 km/h
  -> po południu⠀15 - 18⠀&lt-  ☂ słabe opady deszczu, 4°C, 1021 hPa, Wiatr Zach 25 km/h
  -> wieczorem⠀18 - 21⠀⠀⠀&lt-  ☁ pochmurno z przejaśnieniami, 3°C, 1024 hPa, Wiatr Zach 24 km/h
  --- ߷ Rzeszów --- 
  -> rano⠀06 - 09⠀  ⠀⠀⠀⠀⠀&lt-  ☂ słabe opady deszczu, 8°C, 1000 hPa, Wiatr Zach 27 km/h
  -> do południa 09 - 12⠀&lt-  ☂ słabe opady deszczu, 7°C, 1004 hPa, Wiatr Płn-Zach 31 km/h
  -> po południu⠀12 - 15⠀&lt-  ☂ słabe opady deszczu, 5°C, 1008 hPa, Wiatr Płn-Zach 26 km/h
  -> po południu⠀15 - 18⠀&lt-  ☂ słabe opady deszczu, 4°C, 1012 hPa, Wiatr Płn-Zach 22 km/h
  -> wieczorem⠀18 - 21⠀⠀⠀&lt-  ☂ słabe opady deszczu, 4°C, 1014 hPa, Wiatr Płn-Zach 25 km/h

  --- ߷ Suwałki --- 
  -> rano⠀06 - 09⠀  ⠀⠀⠀⠀⠀&lt-  ☂ słabe opady deszczu, 6°C, 997 hPa, Wiatr Płd 15 km/h
  -> do południa 09 - 12⠀&lt-  ☂ słabe opady deszczu, 6°C, 997 hPa, Wiatr Płd 12 km/h
  -> po południu⠀12 - 15⠀&lt-  ☂ słabe opady deszczu, 4°C, 998 hPa, Wiatr Zach 10 km/h
  -> po południu⠀15 - 18⠀&lt-  ☂ słabe opady deszczu, 4°C, 1000 hPa, Wiatr Płn-Zach 26 km/h
  -> wieczorem⠀18 - 21⠀⠀⠀&lt-  ☂ słabe opady deszczu, 3°C, 1003 hPa, Wiatr Zach 30 km/h
  --- ߷ Szczecin --- 
  -> rano⠀06 - 09⠀  ⠀⠀⠀⠀⠀&lt-  ☂ słabe opady deszczu, 6°C, 1017 hPa, Wiatr Płn-Zach 26 km/h
  -> do południa 09 - 12⠀&lt-  ☁ lekkie zachmurzenie, 6°C, 1020 hPa, Wiatr Zach 28 km/h
  -> po południu⠀12 - 15⠀&lt-  ☁ lekkie zachmurzenie, 5°C, 1024 hPa, Wiatr Zach 27 km/h
  -> po południu⠀15 - 18⠀&lt-  ☀ bezchmurnie, 3°C, 1026 hPa, Wiatr Zach 26 km/h
  -> wieczorem⠀18 - 21⠀⠀⠀&lt-  ☀ bezchmurnie, 3°C, 1029 hPa, Wiatr Zach 26 km/h
  --- ߷ Warszawa --- 
  -> rano⠀06 - 09⠀  ⠀⠀⠀⠀⠀&lt-  ☂ słabe opady deszczu, 6°C, 1005 hPa, Wiatr Płd 16 km/h
  -> do południa 09 - 12⠀&lt-  ☂ słabe opady deszczu, 7°C, 1006 hPa, Wiatr Zach 14 km/h
  -> po południu⠀12 - 15⠀&lt-  ☂ słabe opady deszczu, 6°C, 1009 hPa, Wiatr Płn-Zach 26 km/h
  -> po południu⠀15 - 18⠀&lt-  ☂ słabe opady deszczu, 4°C, 1014 hPa, Wiatr Płn-Zach 28 km/h
  -> wieczorem⠀18 - 21⠀⠀⠀&lt-  ☂ słabe opady deszczu, 3°C, 1017 hPa, Wiatr Zach 25 km/h
  --- ߷ Wrocław --- 
  -> rano⠀06 - 09⠀  ⠀⠀⠀⠀⠀&lt-  ☂ słabe opady deszczu, 8°C, 1000 hPa, Wiatr Zach 27 km/h
  -> do południa 09 - 12⠀&lt-  ☂ słabe opady deszczu, 7°C, 1004 hPa, Wiatr Płn-Zach 31 km/h
  -> po południu⠀12 - 15⠀&lt-  ☂ słabe opady deszczu, 5°C, 1008 hPa, Wiatr Płn-Zach 26 km/h
  -> po południu⠀15 - 18⠀&lt-  ☂ słabe opady deszczu, 4°C, 1012 hPa, Wiatr Płn-Zach 22 km/h
  -> wieczorem⠀18 - 21⠀⠀⠀&lt-  ☂ słabe opady deszczu, 4°C, 1014 hPa, Wiatr Płn-Zach 25 km/h
  --- ߷ Zielona Góra --- 
  -> rano⠀06 - 09⠀  ⠀⠀⠀⠀⠀&lt-  ☂ słabe opady deszczu, 8°C, 1011 hPa, Wiatr Płn-Zach 27 km/h
  -> do południa 09 - 12⠀&lt-  ☂ słabe opady deszczu, 7°C, 1015 hPa, Wiatr Płn-Zach 29 km/h
  -> po południu⠀12 - 15⠀&lt-  ☁ rozproszone chmury, 5°C, 1019 hPa, Wiatr Zach 25 km/h
  -> po południu⠀15 - 18⠀&lt-  ☂ słabe opady deszczu, 4°C, 1022 hPa, Wiatr Płn-Zach 23 km/h
  -> wieczorem⠀18 - 21⠀⠀⠀&lt-  ☀ bezchmurnie, 3°C, 1025 hPa, Wiatr Zach 24 km/h


Promocje
 - Dziś na pizza portal 20% rabatu na kebaby i burgery w wybranych lokalach!",2018-12-04 07:00:03,170,"contentnadzis, codziennaafrica, totoafrica, dziendobry, cytatnadzis, ciekawostkanadzis, pomyslnaobiad, pogodanadzis",0ff450df-ccbf-40ec-be21-016ad4b3b73b
23,"Ta to ma fantazje xD
#wellman #heheszki #boczek #humorobrazkowy #tvn",2018-12-04 01:18:17,115,"wellman, heheszki, boczek, humorobrazkowy, tvn",64009c13-5368-447b-b6f0-7cb3e0e38c16
24,"Nazywam się Cezary Baryka, od dwudziestu minut jestem właścicielem tego oto szklanego domu...
Powoli zaczynam żałować zakupu - w nocy pizga, w dzień parówa. Zero wentylacji i brak kanalizacji robią swoje. Zgadza się, capi.
#galaktycznelektury #kapitanbomba",2018-12-04 00:26:46,161,"galaktycznelektury, kapitanbomba",9b8597b3-d057-4ab5-ad9e-1ac7196a203e
