,title,tags,description,date,vote_count,category_name,uuid
0,WP atakuje Wykop za znalezisko o zwolenniczce gender w języku polskim,#polska #afera #bekazlewactwa #rozrywka #heheszki #technologia,Nie stroni przy tym od manipulacji na temat samego artykułu i komentarzy wykopków. Dno dna,2018-12-10 00:11:04,511,#polska,60dcdaf4-cadd-4ee9-b4b2-b08daf4f49a9
1,Jeśli jesteś uchodźcą nie idź przez Polskę,#polska #europa #swiat,Arabska ulotka.,2018-12-09 23:38:24,727,#polska,043d1059-7d02-4fdc-829b-c9cff9fa4ed7
2,PATOSTREAMER POMÓGŁ UJĄĆ PIJANEGO KIEROWCĘ,#polska #danielmagical #patostreamy #polskiyoutube #afera,"Patostreamer 'Daniel Magical' w dziejszym dniu pomógł Polskiej Policji zatrzymać pijanego kierowcę.  Nagłośnił sprawę, na bieżąco informował Policję poprzez swoją transmisję, gdzie znajduje się kierowca. Jak widać, twórca wykazał się wielką...",2018-12-09 23:01:51,938,#polska,d927efa6-cc2b-42ed-9ce0-f020b03ee0fa
3,Turystka zmarła w Meksyku. Jej ciało wróciło do domu bez organów,#meksyk #swiat #medycyna #patologiazewsi #uk #podroze,"Amanda Gill zmarła w Hospital de Cos w Meksyku. Kiedy jej ciało wróciło do Wielkiej Brytanii, jedynym narządem, który pozostał na swoim miejscu, było jelito grube.",2018-12-09 21:53:39,456,#meksyk,009765df-7f3c-4dc2-8ac0-b3d0729c5310
4,Policjant we Francji z młotkiem zamiast pałki wybije ludziom z głowy protesty.,#swiat,Materiał - WeAreChange,2018-12-09 21:34:10,278,,d2a8e680-7218-4329-b6b6-b6812057ee1b
5,Czechy zakazują stosowania glifosatu,#europa #ekologia #monsanto #rolnictwo,Począwszy od przyszłego roku w Czechach stosowanie środków zawierających glifosat ulegnie ograniczeniu - podało w poniedziałek w komunikacie czeskie ministerstwo rolnictwa.,2018-12-09 21:30:29,296,#europa,0ece872a-1f08-4bab-9b9f-a1ac61834ed1
6,Na surowym korzeniu. Jak projektowano i budowano Łódź,#polska #lodz #urbanistyka #historia #gruparatowaniapoziomu #liganauki,"Dynamiczny rozwój Łodzi nie szedł w parze z dbałością o jej strukturę przestrzenną. W jednym śródmiejskim kwartale zmieściłaby się cała lubelska starówka. Powstało miejsce wyjątkowe: z najlepiej w Polsce zachowaną tkanką miejską z końca XIX w., która często utrudnia codzienne funkcjonowanie miasta.",2018-12-09 20:45:47,128,#polska,343220de-522a-4670-a79f-63c5d06995c5
7,Regularna aktywność fizyczna daje zaskakujące efekty na starość. [ENG],#sport #zdrowie #nauka #ciekawostki,"Nowe badanie pokazuje, że 70-latkowie, którzy przez lata byli i są aktywni fizycznie, mają płuca, serce, mięśnie oraz ogólny stan zdrowia jak 40-latkowie. Pokażcie to badanie rodzicom, a jak sami już nimi jesteście to zacznijcie praktykować!",2018-12-09 18:56:09,537,#sport,f0b34cf2-131d-47d9-962a-6c6099b7a8e4
8,Wytropiłam wielomilionową aferę. Jako jedyna poniosłam karę.,#polska #lodz #sadowehistorie #prawo #nieruchomosci #ciekawostki,"Reprezentowała interesy mieszkańców spółdzielni, z której znikały miliony. - Skandalem jest, że jedyną osobą skazaną w tej sprawie jestem ja. Osoba, która wykryła przekręt - mówi łódzka aktywistka.",2018-12-09 18:44:35,3452,#polska,61554588-ab24-48e1-ac8d-6e9896dce6dc
9,Jak Inkowie chronili swe budowle przed skutkami trzęsień ziemi,#nauka #historia #gruparatowaniapoziomu #liganauki #architektura #ciekawostkihistoryczne,"Peruwiańscy uczeni wykazali, że około 1450 roku trzęsienie ziemi o sile co najmniej 6,5 stopni w skali Richtera doprowadziło do zniekształceń konstrukcji w Machu Picchu, co zmotywowało Inków do wprowadzenia zmian i wznoszenia budowli odpornych na wstrząsy.",2018-12-09 18:41:50,249,#nauka,15238913-0c69-4968-bf0e-62a1dab51dbe
10,Niewidomy Mateusz za free robi strony internetowe. Prośba o wykop efekt!,#wykopefekt #polska #praca #pomagajzwykopem,"Chłopak nie siedzi na dupie, jest ambitny, rozbudowuje swoje portfolio i nie pogardzi dodatkową robotą do zrobienia. Angażuje się też społecznie i prowadzi bezpłatne zajęcia dla dzieci, uświadamiające jak ludzie niewidomi funkcjonują w społeczeństwie. P.s.: Dobrym słowem pewnie też nie pogardzi :)",2018-12-09 17:41:38,1240,#wykopefekt,e55826b5-37e1-47da-a344-92b96d2b8b28
11,Bateria łazienkowa,#heheszki #rozrywka #kultura,Każdy ma swoje pomysły,2018-12-09 16:52:28,672,#heheszki,c4030f31-d80b-4f57-bfed-ccf3587afb16
12,Mieszkańcy Norylska (Rosja) usiłują dojść do domu,#swiat #rosja #pogoda #ciekawostki #zima #rozrywka,"ale wiatr w połączeniu z lodem nie daje za wygraną. Miasto zamknięte Norylsk jest od lat uważane za jedno z najgorszych do życia miejsc na Ziemi (nieco w powiązanych). Norylsk nie ma lądowego (drogowego/kolejowego) połączenia z resztą Rosji, główną gałęzią gospodarki jest wydobycie niklu.",2018-12-09 16:37:21,269,#swiat,e8024577-59f0-40ed-9c4f-3c173ade9dfe
13,Lublin: Ukradł laptopa w galerii przy al. Witosa. Rozpoznajesz go? Czeka nagroda,#polska #lublin #patologia #zlodzieje #policja #wydarzenia,"Policjanci poszukują sprawcy kradzieży laptopa galerii handlowej przy al. Witosa w Lublinie. Sylwetkę sprawcy zarejestrowały kamery monitoringu. Osoby, które rozpoznają mężczyznę z nagrania proszone są o kontakt z policją. Poszkodowany wyznaczył nagrodę dla osoby, która pomoże ustalić sprawcę...",2018-12-09 16:26:14,194,#polska,e2d6c989-d16a-4174-9645-6dc8ec960f76
14,Szczupak próbuje złapać ryby w zamknietej butelce,#rozrywka #wedkarstwo #szczupak #ryby #ciekawostki,Dla niecierpliwych akcja od 2:17,2018-12-09 14:35:37,260,#rozrywka,4dfcfd4a-fc3c-4ab2-9481-144c0da1a960
15,"Dodatkowe podatki od nowego roku, zdrożeje paliwo i prąd. Są protesty.",#polska #motoryzacja #gospodarka #podatki #bekazpodludzi,Rządowy pomysł dodatkowego opodatkowania pojazdów o pojemności powyżej 2.0L zmienił się diametralnie. Od stycznia wprowadzona zostanie tzw. danina antysmogowa i obejmie ....,2018-12-09 14:21:43,1256,#polska,5196662a-35b3-4daf-ae61-f8bb73fcddd1
16,Protestujący we Francji zabrali ze sobą Gilotynę na demonstrację,#europa #swiat #francja,Powtórka z rozrywki?),2018-12-09 14:06:29,767,#europa,a3792aa0-35ea-4d18-94c6-3542efbcbbaa
17,Pies pilnował spalonego domu. Przy zgliszczach znaleźli go właściciele.,#swiat #ciekawostki #psy #zwierzaczki #pies #zwierzeta,"W pobliżu jednego ze spalonych domów w hrabstwie Butte w północnej Kalifornii znaleziono psa, który przez kilka tygodni pilnował zgliszczy budynku. Odnaleźli go właściciele, którzy po ugaszeniu okolicznych pożarów wrócili sprawdzić co stało się z ich domem.",2018-12-09 13:50:44,552,#swiat,0a2850b2-5da4-4187-911b-3647a604c5e0
18,Solidnie wypucowane.,#heheszki,"Tak się facet przyłożył do roboty, że aż się kolega wyłożył.",2018-12-09 13:18:33,783,,7bea9b55-6bb3-4607-aa65-d379440bd50c
19,Każda wypracowana złotówka zawiera ponad 35% podatku,#polska #europa #ekonomia #ciekawostki #gospodarka #pieniadze,"Obciążenie polskiej gospodarki podatkami wzrosło do 35,1%. Wynik jest najgorszy od 11 lat. Pod tym względem wyprzedziliśmy Hiszpanię i gonimy w tej niechlubnej rywalizacji inne europejskie państwa.",2018-12-09 13:18:16,812,#polska,1702b5b5-b25a-4341-8e44-7e9467a50ffd
20,Badanie: 30% wegetarian pod wpływem alkoholu zjada mięso,#gotujzwykopem #heheszki #bekazwegetarian #bekazpodludzi #pijzwykopem,"Aż 30 proc. wegetarian i wegan przyznało się do tego, że po pijaku zdarza im się zjeść coś mięsnego. Co ciekawe, mowa tutaj o osobach, które zadeklarowały całkowite porzucenia mięsa, głównie ze względów etyczno-moralnych.",2018-12-09 13:05:01,946,#gotujzwykopem,5d521823-5555-4e51-9219-f8ce433c704a
21,Jak działają samotne matki?,#nauka #ciekawostki #zainteresowania #psychologia #gruparatowaniapoziomu #depresja,"3 strategie reprodukcyjne, jak rodzi się zjawisko społeczne jakim są samotne matki, brak ojca, brak życia prywatnego, problemy dzieci w szkole i z prawem, brak męskich wzorców.",2018-12-09 12:37:34,693,#nauka,f9349d35-72d0-4b5c-a6f7-a90c8e35bda1
22,How did the Soviets Lose to Poland? (1919-1921) | Animated...,#polska #zainteresowania #ciekawostki #historia,"Film o wojnie polsko-bolszewickiej umieszczony na zagranicznym, dość popularnym, kanale na you tube.",2018-12-09 12:33:34,327,#polska,bd985fa5-7a48-4693-b716-5560426df386
23,Samotni mężczyźni i równowaga płci,#wojnaidei #tfwnogf #przegryw #ciekawostki #kultura #swiat,Jak nadwyżka mężczyzn w Chinach i w Indiach wpływa na sytuację społeczną w tamtych krajach? Krótka analiza potencjalnych skutków zaburzonej równowaga płci i rosnącej ilości samotnych mężczyzn.,2018-12-09 12:08:04,439,#wojnaidei,22965ed0-cdd3-4274-93ac-3fdc3b8165db
24,Wykop.pl robi święta chorej na stwardnienie rozsiane Paulinie!,#polska #pomagamypaulinie #stwardnienierozsiane #wykopefekt #pomagajzwykopem,"Organizujemy akcję zasypania jej kartkami świątecznymi z pozytywnym przekazem, zaproszony do zabawy jest KAŻDY - szczegóły we wpisie :)",2018-12-09 12:03:03,1615,#polska,746515e0-2f5b-4bc2-9214-2dfc4d4fbc72
25,Polskie Drogi #132,#polska #polskiedrogi #kierowcy,Polskie Drogi #132,2018-12-09 11:55:25,524,#polska,46d039fc-7aa6-4787-8435-1d0a5a7f37c7
26,"[18+] Nagranie z demonstrantem, któremu granat urwał dłoń, obiega Francję",#neuropa #4konserwy #francja #demokracja #zoltekamizelki #paryz,"Podczas wczorajszych burzliwych demonstracji, jakie ogarnęły Francję, jedno zdarzenie niezwykle wzburzyło opinię publiczną a nagranie krąży po internecie bijąc rekordy popularności. W Bordeaux, w południowo-zachodniej Francji, na ulice wyległo 8-10 tysięcy osób (wg szacunków policji)....",2018-12-09 11:49:58,2493,#neuropa,d4dcd3bf-7c70-42c4-9adc-8ef561ea637b
27,Mają rozmiar skubani.Tak się buduje w Chinach.,#swiat #ekonomia #technologia #ciekawostki #gospodarka,Metody budowania w Chinach.Szczęka opada.,2018-12-09 11:46:20,660,#swiat,aa555c06-6694-4ba2-82ac-8e9e4fe6a34a
28,Prawilne chłopaki i kradzież życia,#zlodzieje #csiwykop,Ukradli 57 szt opakowań pustych po grach na konsole. Auchan Lubin,2018-12-09 11:42:42,731,#zlodzieje,7d89c361-0ba9-45f0-a45b-dda6285434a7
29,Jan Chlasta – rolnik i konstruktor maszyn rolniczych od lat osiąga wysokie...,#polska #rolnictwo #rolnik #rolnikszukazony #motoryzacja #technika,"Jan Chlasta z Nowych Skalmierzyc pod Kaliszem jest rolnikiem o ogromnej wiedzy i doświadczeniu, których potwierdzeniem są m.in. osiągane plony. Od 40 lat prowadzi też dziennik opisujący pracę w gospodarstwie. Sam skonkstruował kilka pracujących maszyn rolniczych.",2018-12-09 11:00:58,276,#polska,8a73b684-a7bd-4566-a9ff-c3037072fe42
30,Francuska policja dzielnie pacyfikuje niepelnosprawnego.,#europa #francja #zoltekamizelki #protest,We Francji stabilnie,2018-12-09 10:45:50,523,#europa,74c5c399-aec9-46b4-8288-e7b126d540d0
31,Wypadek na Słowacji. Przedłuża się śledztwo ws. Polaków.,#polska #europa #motoryzacja #wypadek #smierc #policja,"Trzej Polacy siedzą w areszcie z powodu wypadku, w którym zginął 57-letni mężczyzna. Śledczy przyznają, że śledztwo jeszcze potrwa. – Czekamy na rozbudowane opinie biegłych z zakresu ruchu drogowego – mówi",2018-12-09 10:17:07,396,#polska,fbd75fed-db69-4ddc-8854-12a16bedb68c
32,"Kupa: co jest normalne, a co nie + 7 kroków do zdrowego wypróżniania",#wykop #zdrowie #medycynanaturalna #zdrowakobita #medycyna #jedzenie,"Kupa: co jest normalne, a co nie + 7 kroków do zdrowego wypróżniania. Kiedy nie masz regularnych ruchów jelit lub twój kał ma niezwykły kolor i ...",2018-12-09 09:33:21,415,#wykop,b199cc7e-3336-48c8-bbf4-69662a9fa8de
33,Chińska podróbka robota Boston Dynamics,#swiat #chiny #robot #podrobka,Wkrótce na Ali :),2018-12-09 09:25:47,491,#swiat,997ece92-ea31-44f1-a50c-0a348bfb0d3b
34,Firma Krygol znów bezpłatnie zadbała o śmigłowiec TOPR (ZDJĘCIA),#topr #lotnictwo #ratownictwo #smiglowce #gory #pomoc,Brawa dla tych Panów.,2018-12-09 09:24:30,2763,#topr,811ae8e3-1f4f-48db-9e3e-c458abed8346
35,Życie w Petare - BezPlanu,#wenezuela #caracas #bezplanu #amerykapoludniowa #podroze #swiat,"Dziś BezPlanu zabiera nas do Petare, przedmieść Caracas - największych slamsów Ameryki Południowej.",2018-12-09 08:57:08,679,#wenezuela,02b20c84-5539-43f9-9151-5c633c896df3
36,"Karetka wiezie serce do przeszczepu na A4, kierowca busa szeryfuje",#polska #krakow #bekaztransa,"Karetka wiozła do Krakowa serce do przeszczepu, zobaczcie co robil w tym czasie kierowca busa",2018-12-09 08:51:34,4659,#polska,0769a3bc-df91-4c30-9dfe-03f2ee9685e8
37,Tajemnicza śmierć antyterrorysty w Świnoujściu. Nowe fakty.,#polska #policja #swinoujscie #antyterrorysci #wydarzenia #kryminalne,"Blisko pół roku trwa śledztwo w sprawie śmierci szefa lubuskich antyterrorystów Adama Pawlaka w ośrodku w Świnoujściu. Początkowo uważano, że bezpośrednią przyczyną był spożywany alkohol. Teraz śledczy",2018-12-09 08:49:39,108,#polska,e77ccb2c-ee79-40c2-a1a9-5f3f1d762452
38,Misie w sklepie meblowym w Katowicach,#katowice #heheszki #misie #rozrywka #polska,"Znalezione na FB, jeśli masz poczucie humoru to wykop ( ͡° ͜ʖ ͡°)",2018-12-09 08:08:01,670,#katowice,61d64ce8-7a04-4008-8291-65d591cc8c48
39,PZL 230 Skorpion - polski samolot pola walki,#polska #lotnictwo #samolot #technika,"Jakie zadania miał spełniać, ile kosztował i czy był samolotem technologii stealth? Bohaterem odcinka jest projekt samolotu wsparcia pola walki - PZL 230 Skorpion.",2018-12-09 06:13:09,318,#polska,0fa5781f-dcde-44a2-9a8e-f41fd607978a
40,Prezydent złowrogo zapowiada: Zabiję wszystkich biskupów!,#filipiny #prezydent #rodrigoduterte #kosciol #biskupi #religia,"Prezydent Filipin, Rodrigo Duterte nie raz i nie dwa zabłysnął już niekonwencjonalnymi wypowiedziami i planami na poprawę bytu w tym kraju, np. chciał zrzucać z helikoptera groźnych przestępców czy też oświadczył, że zrzeknie się urzędu w momencie, w którym ktoś udowodni mu istnienie Boga. Teraz...",2018-12-09 05:10:04,413,#filipiny,cc3082e3-6133-4219-8d4c-27e96ce6b207
41,"Kiedy aktywiści zajmują twoje pole, a ty im g... możesz zrobić",#ciekawostki #rolnictwo #gospodarka #gmo #heheszki,Jak przepędzić aktywistów z własnej ziemi.,2018-12-09 01:22:05,682,#ciekawostki,85ae2a9b-1848-4f7b-aa01-d50e4d96c564
42,Świeżo upieczona grafomanka ze spidersweb narzeka na płeć wyrazów w j. polskim,#polska #heheszki #ciekawostki #technologia #jezykpolski #zainteresowania,"Jest oburzona że w google podkreśla żeńskie twory wyrazowe psycholożka, ministra, chirurżka",2018-12-09 00:42:44,1570,#polska,b5e39c3b-d8fc-44c7-b752-fb5afa9ee902
43,17-latka uderzyła taksówką w dystrybutory na stacji benzynowej. Obok jej matka,#polska #lodz #wypadek,"Poważny wypadek w Łodzi. Taksówka, kierowana przez 17-latkę, uderzyła m.in. w dystrybutory paliwa na stacji benzynowej. Autem - na siedzeniu pasażera - jechała również 35-letnia matka dziewczyny. Obie trafiły do szpitala.",2018-12-08 22:54:37,405,#polska,f79c5d3c-0f7a-41df-8cae-80c6a3976f87
44,Paryż człowiek otrzymuje kulę z bliskiej odległości,#paryz #protest #starcia #postrzal #kula,Protest żółtych kamizelek. W Paryżu starcia z policją i setki zatrzymanych.,2018-12-08 22:08:50,687,#paryz,5e7a7169-5f94-4e31-bf3a-194dc478ac3b
45,Pasterstwo - ochrona cielaka,#osiolki #krowa #kon #ranczo #zwierzaczki #ciekawostki,Koń chroniący ranczera przed mamą krową.,2018-12-08 21:36:17,427,#osiolki,62300f3a-bc0b-4b3f-ab8d-a5c352d61216
46,Śpiewali na budowie i zrobili furorę w sieci. Polscy pracownicy w Norwegii!,#swiat #polska #ciekawostki #heheszki #polak #budownictwo,Na budowie musi być wesoło - słyszymy na nagraniu opublikowanym na Facebooku przez związek zawodowy Solidaritet Ekte Fagforening. Filmik przedstawia śpiewających w trakcie wykonywania prac na budowie Polaków. Wideo szybko zyskało popularność na grupach polonijnych. Tak pozytywnie...,2018-12-08 21:30:43,543,#swiat,1ce802f5-5b7b-40d1-bb7c-dad632cca5f6
47,"Przykre, co poprawnosc polityczna robi z ludzi.",#zainteresowania #swiat #usa #bekazlewactwa #logikarozowychpaskow #ameryka,Sonda uliczna w Nowym Jorku.,2018-12-08 21:21:40,990,#zainteresowania,66fbd050-048b-4944-8545-cebab3fdf8fa
48,BMW i AUDI blokują TIR w odwecie za długie wyprzedzanie,#polska #stopcham #polskiedrogi #motoryzacja #kierowcy #drogi,"ZABAWY NA A2, BLOKOWANIE",2018-12-08 20:59:06,624,#polska,89119e9e-cd50-4b35-964a-f92be492bf15
49,Cygan oddaje znaleziony telefon,#tvn #cygan,Prawdziwy bieg zdarzeń,2018-12-08 20:57:22,1064,#tvn,6a30ba72-6874-4ab4-9cb7-99b02b94f1de
