,title,tags,description,date,vote_count,category_name,uuid
0,NIE dla obcokrajowców w Policji. Sejmowa Komisja odrzuciła obywatelską petycję,#polska #imigranci #policja #prawo #petycja #wykop,Charakter służby policjantów i zadania wykonywane z narażeniem życia wymagają żeby wymóg obywatelstwa polskiego został zachowany. Jest to warunek obligatoryjny do pełnienia służby w Policji. Dotyczy on także funkcjonariuszy innych służb. Stwierdziła sejmowa Komisja ds. Petycji.,2018-12-10 22:21:46,524,#polska,f20e6d93-733a-4827-9292-9e365f172436
1,Nierównomierne ustawienie turbin wiatrow. zwiększyło sprawność elektrowni o 30%,#nauka #fizyka #energetyka #energia #elektroenergetyka #ciekawostki,"Fizycy z Belgii i Stanów Zjednoczonych zbudowali miniaturowy model elektrowni wiatrowej składającej się ze stu turbin wiatrowych. Naukowcy zbadali 56 różnych układów generatorów i dowiedzieli się, przy którym z nich moc stacji będzie maksymalna. Artykuł opublikowany w Physical Review Fluids  EN+TLDR",2018-12-10 21:58:17,397,#nauka,b080a969-639d-4b74-a520-54af93b3237b
2,"Weinstein pokazał e-maile otrzymane od kobiety, która oskarżyła go o gwałt.",#usa #redpill #mgtow #metoo #kino,"Cztery maile zostały wysłany po ponad roku od rzekomego gwałtu. Kobieta zaprasza w nich Weinsteina na randkę oraz informuje, że powiedziała znajomej, że seks z nim odbył się za jej zgodą.",2018-12-10 21:56:38,616,#usa,1f7052df-dba3-4548-ac61-b7c2b26275ee
3,Voyager 2 w końcu w przestrzeni międzygwiezdnej.,#nauka #ciekawostki #gruparatowaniapoziomu #astronomia #kosmos #nasa,"Po 41 latach sonda Voyager 2 opuściła heliosferę i dotarła do przestrzeni międzygwiezdnej - tak, jak zrobiła to w 2012r. sonda Voyager 1.",2018-12-10 21:45:26,168,#nauka,d9099998-e5a2-4ddb-899b-3f705a88bfae
4,Nowość u Jerzego Zięby. Są już lewoskrętne banany po 199 zł za kilogram,#nauka #wykop,"Nowy rozdział w naturoterapii otworzył znany znachor Jerzy Zięba. W jego sklepie można już zamawiać naturalnie lewoskrętne banany. Zawierają więcej miąższu i są lepiej przyswajalne niż okazy prawoskrętne, promowane przez trucicieli z dyskontów i osiedlowych warzywniaków - czytamy w...",2018-12-10 21:25:34,1851,#nauka,f4edd329-4b9b-4704-9273-12fc728aa451
5,W Polsce nie uniknęliby kary. Eksperci o brutalnych działaniach francuskiej pol,#francja #policja #brutalnosc #zamieszki #prawo #pobicia ,"Masakrowanie emerytów pałkami, ciągnięcie kobiet za włosy po ulicy i kopanie niepełnosprawnych. Filmiki zawierające tak brutalne interwencje francuskiej policji od kilku tygodni zalewają media. - W Polsce",2018-12-10 21:13:31,480,#francja,47581a97-b53f-4a97-bd4d-8c0a37c68828
6,"10 faktów o rzekomym wyzwoleniu Polski, które otrzeźwią największych...",#polska #europa #swiat #ciekawostki #historia,"Propagandowe filmy, zmanipulowane seriale, książkowe peany. Przez pół wieku władza ludowa robiła wszystko, by zaszczepić w Polakach dozgonną wdzięczność za uwolnienie spod niemieckiej okupacji. Miliony wciąż widzą w krasnoarmiejcach wyzwolicieli. A jak wyglądała rzeczywistość? 1. Rano...",2018-12-10 20:07:14,264,#polska,a04a3238-d75a-4b04-b409-bcfee8e91e61
7,Dlaczego popsuło się dzisiaj pięć dużych (i kilka mniejszych) banków w Polsce,#polska #banki #technologia #zaufanatrzeciastrona,"Dzisiaj około południa problemy z dostępem do usług zaczęli zgłaszać klienci co najmniej pięciu dużych banków naraz. Pekao S.A., Millennium, ING, Alior i BGŻ prawie jednocześnie ogłosiły problemy ze swoją infrastrukturą. Co było przyczyną awarii?",2018-12-10 20:06:51,286,#polska,5f7061a8-756a-4843-b0fd-aef7f2fb6d53
8,"Uber mnie oszukuje! Chca 150 zl za czyszczenie auta, ktorego nie pobrudzono",#uber #uberhiv #oszukujo #afera #oszukuja #januszebiznesu,"Uber twierdzi, że moja partnerka zarzygała auto ich kierowcy.Obciąża nas kwotą 150 zł za czyszczenie.Na dowód pokazuję zdjęcia INNEGO auta, zrobione o zmroku chociaż przejazd miał miejsce o 10 rano. Nie uwzględnia reklamacji, nie ma z nimi możliwości dalszego kontaktu.Próby kontaktu z...",2018-12-10 18:58:04,1935,#uber,6b3c8987-920e-4222-ada2-ee298cf8cc13
9,Biznes na żydowskich kamienicach. Jak pan Levin próbował odzyskiwać Włocławek,#polska #ciekawostki #ekonomia #finanse,Izraelski prawnik i odzyskiwanie kamienic od kuchni,2018-12-10 18:37:55,427,#polska,a56c01cc-e1d1-498f-90b4-d22191d221fc
10,Polska flaga na Marsie.,#polska #mars #kosmos #ciekawostki #nauka #technologia,"NASA opublikowała zdjęcia przesłane z Marsa przez sondę InSight. Na niektórych można dostrzec polską flagę, umieszczoną - obok flag m.in. USA, Kanady i Francji - na tabliczce na zewnętrznej powłoce lądownika Mars InSight. Jedno z takich zdjęć zamieściła na Twitterze polska firma Astronika...",2018-12-10 18:34:35,259,#polska,ae458fb8-b00c-47e6-bc91-9a89aefe5e30
11,Potrącenie w Pszczynie: ranny 17-latek i 3 martwe psy. Sprawca uciekł!,#polska #pszczyna #wypadek,"W sobotę, 8 grudnia około godziny 22:50 na oznakowanym przejściu dla pieszych przy ul. Katowickiej został potrącony 17-letni pieszy. Młody mężczyzna przechodził przez drogę wraz z trzema rasowymi psami. Zwierzaki nie przeżyły zderzenia z samochodem. Sprawca uciekł.",2018-12-10 17:36:35,151,#polska,f762c30c-b8af-4152-b88e-2af5dd8a36bc
12,Zrozpaczony ojciec organizuje na facebooku licytacje dla swojego chorego syna,#wykop #wykopefekt #pomoc #pomagajzwykopem #wiedzmin3 #kultura,"A w tych licytacjach unikaty, jak gra Wiedźmin z podpisem Sapkowskiego, Plastron Justyny Kowalczyk, unikalne gadżety Star Wars etc. Może by tak Wykop Efekt?",2018-12-10 17:21:10,1624,#wykop,72ed466d-a90f-403b-8e89-5f617cb8014e
13,Jak youtube cenzuruje historie,#historia #cenzura #youtube #4konserwy #iiwojnaswiatowa #niemcy,Filmik pokazujący berlin w 1945 roku z niemieckich źródeł historycznych zostaje zablokowany za treści obraźliwe i nienawiść pomimo opisu w którym kanał zastrzega że nie promuje nazizmu.,2018-12-10 17:16:12,504,#historia,52c5b306-d1b6-434f-801b-fd4c05ec0200
14,Co czeka nas po wprowadzeniu ACTA? Terror korporacji,#polska #technologia #acta2 #cenzura #microsoft #faang,"Rok 2022. Polska Partia Internetu przeprowadziła większością konstytucyjną pakiet ustaw o obronie własności intelektualnej i cyfrowej suwerenności sieci. W odpowiedzi na ten ruch Unia Europejska nałożyła na Polskę sankcje, w myśl których korporacje zachodnie przestały dostarczać licencji i...",2018-12-10 17:08:39,399,#polska,415eb293-23a3-44c8-9ec4-6835b83af69d
15,"Gorzów. Sadysta katował kotkę tak mocno, że zwierzak stracił oko.",#polska #koty #gorzow,"Kotka w wyniku mocnego ciosu w głowę straciła oko. Prawdopodobnie ktoś ją mocno kopnął lub uderzył tępym narzędziem. Przez kilka dni cierpiała, leżała pobita w krzakach. Teraz czeka na kogoś, kto ją adoptuje.",2018-12-10 16:52:17,707,#polska,8306cdc9-897b-4bc4-a83b-9f631221acbd
16,Krosno: Wozili konie w skandalicznych warunkach. Jednego bili powrozem i padł...,#polska #zwierzaczki #konie #rzeszow #krosno #podkarpacie,Do zdarzenia doszło w sobotę około godz. 2 na terenie stacji paliw w miejscowości Zboiska. Policję zaalarmowali świadkowie zdarzenia.,2018-12-10 16:10:18,221,#polska,f25dd44c-f4ae-4bcc-8b0d-e50805af4d2f
17,Wnuk Wałęsy oskarżony o napaść na obywatela Szwecji. Grozi mu do 12 lat...,#polska #prawo #policja #gdansk,"Prokuratura Okręgowa w Gdańsku skierowała do sądu akt oskarżenia w sprawie brutalnego ataku na obywateli Szwecji z maja 2018 r. Jednym z oskarżonych ma być wnuk byłego prezydenta RP Lecha Wałęsy, Bartłomiej W. Sprawcy zostali aresztowani, grozi im do 12 lat za kratkami",2018-12-10 16:06:37,317,#polska,5e013c8e-2481-4a1a-a695-bbbfeb3f1f01
18,Groza pod Warszawą ! Rabusie napadają na domy mieszkańców. Poruszają się...,#polska #warszawa #zlodzieje #policja #wydarzenia #kryminalne,To prawdziwa plaga ! Okres przedświąteczny jest szczególnie atrakcyjny dla włamywaczy. Ale w Starym Kraszewie pod Radzyminem złodzieje sieją postrach w całej ws ...,2018-12-10 15:31:02,380,#polska,b671ef2c-8d01-4621-9f4f-92ce3794f39a
19,Brutalne pobicie Wojciecha Kwaśniaka. Proces nie może ruszyć,#polska,"Nie może ruszyć proces w sprawie brutalnego pobicia byłego wiceszefa KNF Wojciecha Kwaśniaka - dowiedział się reporter RMF FM. Chodzi o postępowanie, które musi się rozpocząć od nowa, bo sędzia prowadząca pierwszy przewód sądowy poszła na zwolnienie, a wcześniej zwolniła z aresztu...",2018-12-10 15:29:43,127,,8b50954b-3419-45af-a2ef-aecc03008f7c
20,Rekordzista przepracował 175 godzin bez przerwy. Umieramy z przepracowania,#polska #nauka #ciekawostki #zdrowie #praca #lekarz,"Rekordowe 175 godzin - tyle bez przerwy przepracował polski lekarz. Po 24-godzinnym dyżurze, zamiast 11 godzin przerwy, wielu lekarzy bierze bez odpoczynku kolejne dyżury, co czasem kończy się dla nich tragicznie, np. 2011 roku 52-letni lekarz anestezjolog zmarł podczas 120-godzinnego dyżuru.",2018-12-10 15:07:09,214,#polska,6b403186-44f9-432b-8d31-36ad1502c158
21,Pomóżcie mi porzucić wózek!!,#polska #pomoc #rehabilitacja #fundacja #porazenie #zbiorka,Pomóżmy Łukaszowi,2018-12-10 14:42:19,582,#polska,ef2f3e5f-1547-43fd-ae9f-6760a0e6214d
22,"Połowa polskich firm uważa, że warunki prowadzenia biznesu pogorszyły się w 2018",#polska #hahard #ekonomia #gospodarka #biznes #firma,"Połowa firm uważa, że warunki prowadzenia biznesu w 2018 roku pogorszyły się w porównaniu z latami poprzednimi, wynika z badania nastrojów przedsiębiorców zrealizowanego na zlecenie Konfederacji Lewiatan. 40% uważa, że warunki się nie zmieniły, a 11% jest przekonanych, że się poprawiły.",2018-12-10 14:38:37,490,#polska,91579532-3e06-489c-9969-90a9769b7327
23,"The Outer Worlds – gra, która ma szansę zostać nowym Falloutem",#fallout #theouterworlds #falloutnewvegas #gry #ps4 #pc,"Fallout 76 to padaka. Dla wielu najlepszym Falloutem było New Vegas, skutkiem czego wielu graczy oczekiwało kontynuacji. Obsidian nie ma niestety praw do tej marki, więc studio stworzyło swoją grę, którą można uznać za nowego, lepszego Fallouta.",2018-12-10 14:24:58,198,#fallout,b363f966-9537-471a-9021-39b0f4b469b5
24,Rok temu KNF i NBP ostrzegały „Uważaj Na Kryptowaluty”. Internet z tego...,#technologia #bitcoin #finanse #kryptowaluty #ekonomia,"Kursy kryptowalut spadają na łeb na szyję. Bitcoin od szczytu został przeceniony o 83%. Notowania drugiej najpopularniejszej kryptowaluty w historii, czyli Ethereum, spadły od rekordowych poziomów, aż o 94%. Eksperci z rynku kryptowalut nabierają wody w usta, a posiadacze przecierają oczy...",2018-12-10 14:07:59,662,#technologia,7400e24b-733a-4d93-93b7-926979e9c7d1
25,"Nie mogę oddychać, odgłosy cięcia ciała piłą. Ostatnie słowa Chaszodżdżiego",#swiat #arabiasaudyjska #turcja #bliskiwschod #usa #patologiazewsi,"Telewizja CNN dotarła do nagrania dźwiękowego, które dokumentuje ostatnie chwile życia Dżamala Chaszodżdżiego. Słychać na nim, jak saudyjski dziennikarz chwilę przed śmiercią mówi: 'Nie mogę oddychać'. Później na nagraniu słychać jego krzyki i odgłos rozcinania ciała piłą.",2018-12-10 13:52:48,659,#swiat,820c3974-be1b-4f0d-a734-2c3f3f6a067c
26,Pierwsze w historii nagranie z Marsa. Posłuchaj dźwięków Czerwonej Planety,#swiat #hahard #ciekawostki #kosmos #nasa #mars,"NASA przedstawia pierwsze nagranie dźwięków z Marsa. Przez chwilę można się poczuć, jak byśmy naprawdę byli na powierzchni Czerwonej Planety. Te kilka dźwięków robi solidne wrażenie.",2018-12-10 13:47:16,422,#swiat,dc84f2f3-7e33-48f9-bd3b-14844742e768
27,Młodzieżowe słowo roku - dzban!,#nauka #jezykpolski #heheszki #ciekawostki #polska,Rozstrzygnięcie plebiscytu na młodzieżowe słowo roku xDD,2018-12-10 13:10:34,1205,#nauka,3f3d602f-ce38-4dd4-a411-1514754768a0
28,Demokracja po francusku...,#policja #europa #francja #wojna #przemoc #heheszki,"10:21 to bardzo ostry moment. Ciekawy jestem co by o Polsce mówiono, gdyby to wszystko nakręcono w polskiej stolicy.",2018-12-10 12:38:23,751,#policja,a43d9ca4-86c0-4f28-9db0-7ae05f0af8bd
29,Psiara prześladuje faceta za to że zranił psa broniąc swojej córki,#facebook #psy #psiary #zwierzeta,"Kobieta wyznaczyła nagrodę za wskazanie sprawcy, który zaatakował jej amstaffa, co spowodowało fejsbukowy lincz. Po parunastu godzinach okazuje się że sprawa nie jest wcale tak oczywista",2018-12-10 12:26:42,1303,#facebook,c69761a6-993d-49b4-bd49-8f3c1acf3d8f
30,Armia pancerna u bram wschodniej flanki NATO.,#polska #wojsko #bron #militaria #rosja #bezpieczenstwo,"1. Armia Pancerna Gwardii, a w zasadzie jej dowództwo, formowano bez rozgłosu. Pierwsze informacje o tym, że w podmoskiewskim Odincowo (Bakowka) powstaje sztab i jednostki wsparcia szczebla armijnego (60. Brygada Dowodzenia) wypłynęły w 2015 r. Formowanie armii pancernej nawiązuje do II wojny...",2018-12-10 12:18:41,151,#polska,fa5f9714-550c-4ce7-8e57-b571a1d2dcaa
31,Tak będą wyglądały rekompensaty za droższy prąd,#polska #prad #energetyka #energia #pieniadze #firma,"Firmy mają początkowo płacić pełne rachunki za prąd, a dopiero później, już samodzielnie, ubiegać się o rekompensatę. W przypadku gospodarstw domowych to dostawcy energii będą odpowiedzialni za rekompensaty. To oni będą wystawiać rachunki na kwotę z wliczoną podwyżką i zarazem pomniejszoną o rabat.",2018-12-10 11:39:10,131,#polska,e9dc32ca-1d23-492a-9d42-464754480b6a
32,[Prośba o Wykop Efekt] Serwis Canona zniszczył mój aparat,#technologia #canon #fotografia #wykop #wykopefekt,"Cześć Mirki, witajcie Mirabelki. Jestem na wykopie od 9 lat i po raz pierwszy proszę Was o pomoc.    Proszę o Wykop Efekt. Serwis Canona zniszczył mój aparat i nie poczuwa się żadnej odpowiedzialności.",2018-12-10 11:20:53,2647,#technologia,126b9541-ea41-4821-8498-2382920d92fe
33,"Podczas interwencji szarpali 82-latkę, zakuli ją . Wyrok dla policjantów",#polska #wroclaw #policha #prawo,"Wyroki w zawieszeniu usłyszeli byli policjanci z Wrocławia, którzy na zapleczu jednego z supermarketów przeprowadzili brutalną interwencję wobec 82-letniej kobiety",2018-12-10 11:15:14,521,#polska,7e3415a1-7640-4687-ba9d-b653ef057095
34,Chiński łuk kompozytowy,#swiat #ciekawostki #chiny #lucznictwo #rzemioslo,"Kompletny proces tradycyjnego wytwarzania łuku kompozytowego z drewna, ścięgien i rogu. 

Wspaniały pokaz rzemiosła.",2018-12-10 11:10:35,361,#swiat,ebb6a044-cc4a-4b1f-8c76-44f8c1fad698
35,"Gry, użytki - co dla Ciebie? - Historia giełd komputerowych",#polska #gry #retrogaming #dokument #staregry #youtube,"Film dokumentalny traktujący o historii giełd komputerowych w Polsce od momentu ich powstania w połowie lat 80-tych przez złote lata istnienia, to co się stało po wejściu ustawy o prawie autorskim w 94 roku, aż wreszcie po upadek giełd po roku 2000.",2018-12-10 11:08:25,275,#polska,d4a2aa4c-f8d6-4098-8f18-cd99f63c1406
36,Pod Częstochową chcą odbudować tor. Kubica ambasadorem?,#czestochowa #blachownia #tor #wyscigi #robertkubica #kubica,"Częstochowa, Blachownia i Automobilklub Częstochowski podpisały porozumienie intencyjne w sprawie odbudowy toru samochodowo-kartingowo-motocyklowego w Wyrazowie. Inwestycja ma szansę zmienić go w jede",2018-12-10 10:56:41,423,#czestochowa,19ad5633-5135-4d40-8da0-cb1696e60c01
37,Jarmark w Bańskiej Bystrzycy - jednym z najbardziej uroczych słowackich miast,#podroze #slowacja #swieta #bozenarodzenie #roadtripbus,"Bańska Bystrzyca to jedno z najładniejszych słowackich miast. Każdego roku w grudniu odbywa się tu kiermasz, który jest świetną propozycją dla osób, które nie przepadają za zgiełkiem i tłokiem panującym na tych największych jarmarkach.",2018-12-10 10:54:27,245,#podroze,fd4b7b8a-6f21-412e-af2e-de135c2f6f4d
38,Dziś 25. rocznica premiery DOOM-a,#swiat #technologia #gry #doom #feels #gimbynieznajo,powspominajmy grę na której wychowało się całe pokolenie graczy,2018-12-10 10:41:36,487,#swiat,53024c2f-a3cf-4495-9120-f4ea91897131
39,"W Pakistanie odkryto grzyba, który 'pożera' plastik w kilka tygodni",#swiat #ciekawostki #technologia #nauka #liganauki #ekologia,Właściwości grzyba odnalezionego w Pakistanie mogą być zbawienne dla naszej planety.,2018-12-10 10:29:10,662,#swiat,873a8e37-2c03-48a2-9ea5-b175af29912f
40,Liczba fotoradów przy polskich drogach się podwoi,#polska #motoryzacja #samochody #bezpieczenstwo #wypadek #polskiedrogi,"Liczba fotoradarów przy polskich drogach wkrótce się podwoi. Inspekcja Transportu Drogowego dostała zgodę, by wykorzystać na ten cel unijne pieniądze. Wartość projektu to 162 mln zł.",2018-12-10 10:28:13,429,#polska,f2fab510-5f11-4b63-9b78-df3f95fd05fa
41,Hiszpańskie złoto w łapach Stalina,#nauka #ciekawostki #historia #ciekawostkihistoryczne #zsrr #zloto,"„Masz wyobrażenie ile złota wyładowano w Odessie? Gdyby te skrzynki ustawić obok siebie na Placu Czerwonym to sięgałyby od krańca do krańca”
Operacja rabunku hiszpańskich rezerw złota, zwana eufemistycznie „ewakuacją”, rozpoczęła się jesienią 1936 roku",2018-12-10 10:09:03,193,#nauka,49527905-0f84-45f8-b417-78f3657710b7
42,„Wataha” wróci do HBO z trzecim sezonem!,#polska #seriale #hbogo #ciekawostki #kultura #rozrywka,"Nadawca telewizyjny HBO Europe, do którego należy polski oddział HBO, zdecydował o kontynuacji serialowej opowieści o Straży Granicznej w Bieszczadach. „Wataha 3” będzie kolejną lokalną produkcją HBO Polska - nieoficjalnie ustalił portal Wirtualnemedia.pl.",2018-12-10 09:59:17,630,#polska,19d0110c-c286-4896-bd18-75e440c01154
43,Mam Golfa mam zawsze pierwszeństwo,#polska #stopcham #polskiedrogi #bezpieczenstwo #kierowcy #motoryzacja,Mam Golfa z włączoną funkcja pierwszeństwa,2018-12-10 09:56:49,462,#polska,d31f5f09-97df-4392-8975-c9689ee59576
44,Olga Kijowska – okrutnica w aureoli,#historykon #historia #ciekawostki #nauka #gruparatowaniapoziomu #zainteresowania,"Pierwsza pomściła śmierć poślubionego przez nią mężczyzny, nakazując wymordowanie posłów wrogiego plemienia. Inny sposób odrzucenia propozycji kolejnego małżeństwa nie przyszedł jej najwidoczniej do głowy. Miała na imię Olga. Druga rozpoczęła krzewienie wiary chrześcijańskiej na ...",2018-12-10 09:47:39,799,#historykon,1c88bb60-fafd-4590-8717-73cbc4abd2f5
45,Czytamy naturę #5 | Pierwsze dzieci GMO - Ile gwiazd? - Zmysły i język,#nauka #liganauki #ligamozgow #medycyna #kosmos #conowegownejczer,"1) W Chinach urodziły się pierwsze dzieci modyfikowane genetycznie: co to znaczy, od strony naukowej i bioetycznej? 2) Opisano nową metodę badania, kiedy w historii Wszechświata powstawało najwięcej gwiazd: ważne dla kosmologii. 3) Fenomenalne badanie związków między zmysłami i językiem.",2018-12-10 09:46:04,263,#nauka,10f53954-9cd7-4c74-8d84-f6d094c7103b
46,Zaginęła Kamila Siedlecka ze Świdnika koło Lublina. Policja prosi o pomoc,#polska #poszukiwani #zaginieni,Świdniccy policjanci poszukują zaginionej 26-letniej Kamili Siedleckiej. Kobieta wyszła z domu 27 listopada. Do tej chwili nie nawiązała kontaktu z rodziną.,2018-12-10 09:31:23,355,#polska,24e06a45-fbaf-409c-bd78-4246f50f0c91
47,"Jeżdżę w karetce i opowiem o tym, z czym spotykamy się w trakcie akcji",#polska #pracbaza #ratownikmedyczny #ratownictwo #ciekawostki #nfz,"Cześć, witajcie! Z tej strony brahmaeu, mam 24 lata i jestem ratownikiem medyczn…",2018-12-10 09:29:45,414,#polska,8456a215-1de3-4436-9a65-e18818eb817e
48,Najtańsze oferty wcale nie były najtańszymi. Problemy z portalem Trivago,#europa #eciekawostki #biznes #januszebiznesu #podroze #turystyka,"Trivago przyłapane zostało na porównywaniu cen pokoi standardowych z luksusowymi apartamentami w celu przekierowania zainteresowania klientów na takie hotele, dzięki którym portal więcej zarabiał.",2018-12-10 09:24:24,498,#europa,26d11784-e922-4014-b9b7-ae4a3a0672c5
49,Budzik dla dorosłych wybudził kolejną osobę,#polska #zdrowie #budzik #spiaczka #wydarzenia,"W klinice Budzik dla dorosłych w Olsztynie wybudził się dziesiąty pacjent. To 46-letni pan Artur z Lublina, który trzy miesiące temu zapadł w śpiączkę po wypadku na rowerze.",2018-12-10 09:19:22,480,#polska,3e0b938c-ac91-4e8f-9c16-edfbb87b84aa
