,title,tags,description,date,vote_count,category_name,uuid
0,"CDProjekt zwalnia pracownika za tweet, ktory oburzyl srodowiska LGBTQ",#cdprojekt #gamedev #cyberpunk #wiedzmin3 #4konserwy,Zwolniono go za uzycie hashtaga WontBeErased. Classic PC games #WontBeErased on our watch co rozjuszylo teczowa armie. Serio chcecie wspierac ta firme swoimi pieniedzmi?,2018-12-06 23:10:04,443,#cdprojekt,56d9aff8-5f03-4ba0-9b5d-8aa9a66ebd6f
1,Jak internet widzi Polskę w temacie ACTA2,#europa #acta2 #polska #europa #imgur,Fajny obrazek na imgur który poprawił mi humor.,2018-12-06 22:19:15,569,#europa,43912242-32a1-412a-8b74-10f754d2b6b5
2,Zamiast obniżenia podatków kolejne biura kolejnego urzędu wspierającego firmy,#polska #ekonomia #gospodarka #podatki #krakow #bekazpisu,W czwartek ruszył pierwszy lokalny dddział Biura Rzecznika Małych i Średnich Przedsiębiorców w Krakowie. Urząd Rzecznika powołano w czerwcu 2018 r. Pełnomocnik terenowy Rzecznika MŚP pełni również rolę dyrektora jakże potrzebnego Wydziału Wstępnej Analizy Wniosków.,2018-12-06 21:28:05,467,#polska,6833445b-2d14-4aff-bb35-b0f20e04fddb
3,Dlaczego pole kuli to cztery pola koła? [eng YT],#nauka #zainteresowania #matematyka #rozrywka #ciekawostki #gruparatowaniapoziomu,Przepraszam ale jestem zbyt głupi by zrobić dobre TLDW,2018-12-06 20:56:58,261,#nauka,d992cb02-2899-4491-9dcb-004e390e9b7e
4,Właśnie wystartowało internetowe archiwum ludobójstwa Ormian,#historia #hahard #turcja #ormianie #europa #ludobojstwo,"W czasie pierwszej wojny światowej w Imperium Osmańskim popełniono straszliwą zbrodnię. Zgładzono 1,5 miliona Ormian. Teraz dzięki udostępnionemu online niezwykłemu archiwum możemy odkrywać nieznane dotąd aspekty tego ludobójstwa.",2018-12-06 20:44:54,384,#historia,607396ad-d3e6-4f5e-a892-0cb2c260af9e
5,Potwierdza się! Młodzież odchodzi od Kościoła,#polska #swiat #ateizm #bekazkatoli #religia #neuropa,Tylko 23 % młodych wiernych Kościołowi,2018-12-06 20:38:05,1395,#polska,1027d555-4fd1-4ad2-bc20-536cfe494b33
6,Rzecznik Orange: Rozważamy odcięcie internetu patostrimerowi,#polska #patostreamy #danielmagical #afera #internet #orange,"Wojciech Jabczyński zapowiedział, że dział prawny i dział bezpieczeństwa rozważą odpowiednie kroki przeciwko patostrimerowi Danielowi Magicalowi korzystającego ze świadłowodu Orange do szerzenia patologicznych treści w Internecie (info w komentarzach).",2018-12-06 20:03:47,376,#polska,23b813f1-0102-4394-ba49-2ec5903e9b30
7,Gumka do ścierania,#fotografia #malowanieswiatlem #horror #zdjecia #foto #zdjeciednia,"Hej! Moje hobby to fotografia. Technika długiego czasu naświetlania. Zdjęcia przedstawiają gumkę do ścierania oświetloną tanią lampką led. Zmieniłem tylko kontrast i balans bieli. Bez Photoshopa. Rekwizyty na ostatnim zdjęciu. Parametry: Czas 8s, f18, ISO 200 https://www.instagram.com/gratyfixation",2018-12-06 19:58:31,381,#fotografia,25d78403-297e-4e72-8058-d1df1b4ce2e4
8,Antyukraińskie graffiti w Krakowie? Zwrócono uwagę na pewien szczegół [foto],#antyukrainskie #graffiti #ukraincy #krakow,"Dość wątpliwe jest, czy autorami tego pseudo graffiti są Polacy...",2018-12-06 19:54:46,608,#antyukrainskie,d170fbae-4213-4987-83a9-b60d8be13f0d
9,Prąd ze słońca zły. Protest przeciw fotowoltaice.,#polska #energetyka #fotowoltaika #kielce #zalesie,"Mieszkańcy miejscowości Strzelce nie zgadzają się na planowaną w ich wsi budowę farmy fotowoltaicznej. Tłumaczą, że inwestycja budzi wiele obaw...",2018-12-06 19:52:25,658,#polska,6a9efb17-0812-4cfa-85a8-83081632d4ee
10,Przejście wilków najlepsze ujęcie na które Marcin czekal dwa lata,#polska #wilki #las,Dziewięć wilków przechodzi przed kamerą na tle wschodzącego slonca,2018-12-06 19:32:17,654,#polska,121dba1c-63ee-4538-bb6a-463c04eab181
11,40% elektrowni węglowych przynosi straty,#polska #swiat #globalneocieplenie #ekonomia #gospodarka #energetyka,W 2040 roku będzie to 75%. Mamy odpowiedź na pytanie czemu ceny prądu w Polsce rosną i będą rosnąć. Zmiana polityki energetycznej Polski jest ciągle możliwa,2018-12-06 18:11:01,419,#polska,7e56f368-3f4e-47b9-a891-94a3609a4762
12,Australia: Znaleziono zwierzę podobne do słynnego Pikachu,#swiat #wydarzenia #australi #ciekawostki,Do weterynarzy ze stanu Wiktoria w Australii trafiło zwierzę mocno przypominające kultowego Pikachu z japońskiego anime Pokémon.,2018-12-06 17:59:00,408,#swiat,d1fcbf83-a283-477d-92db-4bf84ac928d9
13,Internauci nie zostawili suchej nitki po emisji programu o imigrantach na TVN,#polska #europa #neuropa #bekazlewactwa #uchodzcy #imigranci,"Kraśko i reszta ekipy muszą się bardziej postarać, bo komentarze na FB mówią same za siebie.",2018-12-06 17:54:01,795,#polska,2b3b05ae-e331-45ba-a953-5b9e1cbc57dd
14,"po 4 latach pracy solo, moja gra Clinically Dead znalazła się na steam.",#gamedev #rozdajo #rozdajosteam #gry #polska #psychodeliki,"Jest to gra zręcznościowa z zagadkami logicznymi o śmierci głównego bohatera, cała akcja dzieje się w jego głowie i rozmawia ze swoją podświadomością. Główna mechanika gry to w skrócie to CZAS jest KOLOREM",2018-12-06 17:13:01,439,#gamedev,9abc1cf9-9a3d-4c11-ad6a-688d72e569d7
15,Zamożny Polak jest jak biedny Europejczyk,#polska #zarobki #pracbaza #ekonomia #finanse #emigracja,"W Polsce jest coraz więcej zamożnych osób, wynika z raportu KPMG. Problem w tym, że za zamożną osobę uznano taką, która zarabia min. 7,1 tys. zł. brutto, czyli wchodzi w 2. próg PIT. Mamy 1,3 mln takich osób. To, co u nas oznacza dobrą pensję, na Zachodzie nie daje nawet wstępu do klasy średniej.",2018-12-06 16:54:42,776,#polska,e4446ea2-d803-4bfc-be85-0c7308d99b17
16,Niemcy zaniżają obcokrajowcom płace,#europa #ekonomia #niemcy,"Według raportu opublikowanego przez Niemiecki Instytut Praw Człowieka część imigrantów, która przybyła do kraju celem podjęcia pracy, spotkał ciężki wyzysk. Zgłoszone przypadki dotyczyły przede wszystkim osób, które pochodziły z Europy Wschodniej, ale również z innych krajów spoza Unii.",2018-12-06 16:46:14,385,#europa,89f9893d-2f8d-43f2-8f14-ce8991573052
17,PlayStation Classic zhakowane. Można podmieniać gry. WIDEO,#swiat #playstation #konsole #hacking #gry,"Following the PS Classic Teardown, it's been only a few days since the official PlayStation Classic Launch and already Sony's mini PlayStation Classic console has been hacked with PS Classic hackers demonstrating PlayStation game swapping videos of the feat!",2018-12-06 16:20:47,332,#swiat,86725803-b10d-42b4-87f0-212067493605
18,Autostrada A2. Będzie trzeci pas między Warszawą a Łodzią,#polska #motoryzacja #transport #autostrady #samochody #drogi,"Jest decyzja i podpis ministra infrastruktury pod planem inwestycyjnym. Za 2-2,5 roku ruszy budowa trzeciego pasa ruchu na autostradzie A2 między Warszawą a Łodzią. Szerszą A2 być może pojedziemy na przełomie 2023/2024 roku.",2018-12-06 15:48:35,234,#polska,e1dd1e0f-8579-4e2a-b546-8940d7b5b4ee
19,Hong Kong. Fascynujące miasto jak z cyberpunka,#swiat #hongkong #chiny #podroze #pannoramixtrip #gdziekawostki,"Jak wygląda najstarsza kolejka w Azji, a jak piętrowe tramwaje? Co się jada na ulicy a co w knajpach? Dlaczego Hong Kong zwany jest miastem neonów i wygląda niczym z mangi, cyperpunka? Zapraszam na VLOG o tym fascynującym mieście",2018-12-06 15:19:27,218,#swiat,10728401-9f5b-424c-848f-c3e936396823
20,Portal PIKIO.PL kradnie zdjęcia,#polska #pikiopl #kradziez #zdjecia #fotografia #prawo,"Zrobiłem swojego czasu takie to zdjęcie:  https://tiny.pl/th863        A portal PIKIO.PL zrobił to tak:  https://tiny.pl/th863         Niestety nikt nie odbiera tam telefonów, nie odpisuje na maile.Złodzieje - nawet moje logo wymazali i dali polityczny tekst...",2018-12-06 15:11:41,594,#polska,06e08dba-8729-4b59-a8c3-79554d92e223
21,Były kurator sądowy przez lata gwałcił dzieci krewnych.,#polska #sadowehistorie #pedofilewiary #bekazkatoli #policja #kryminalne,"Krzysztof M., były kurator sądowy, przez lata molestował i gwałcił dzieci krewnych. Po latach sprawa wyszła na jaw. Sąd po dwuletnim procesie wydał wyrok - mężczyznę skazano na dziewięć lat więzienia.",2018-12-06 15:03:31,306,#polska,2df60a25-da12-4a0c-8073-51e70858cbde
22,Szwedzi chcą ocalić Polaków ginących w wypadkach drogowych,#polska #europa #zdrowie #motoryzacja #samochody,"W październiku w Polsce w wypadkach drogowych zginęło 298 osób. W Szwecji 253… w prawie całym 2018 r.

Z radością podzielimy się wypracowanymi przez nas dobrymi praktykami, aby przyjęły się również w Polsce — powiedział Erik Friberg, radca handlowy Ambasady Szwecji w Polsce",2018-12-06 14:56:56,524,#polska,3103a9e0-3259-46e4-838c-55f547622ee8
23,Pijany patostreamer znęca się nad psem,#zwierzaczki #psy #danielmagical #patostreamy #zwierzeta,"Pijany patostreamer Dawid R. znęca się nad bezbronnym psem, oraz chwali się, że wszystkie swoje owczarki niemieckie tresował kijami. Pomóżcie odebrać im te biedne zwierzęta, a następnie znaleźć kochające domy.",2018-12-06 13:59:28,400,#zwierzaczki,87e15a19-4073-4e67-ac9f-0350bce48764
24,Jak wymienić zapleśniały silikon - instrukcja wideo,#remont #mieszkanie #lazienka #majsterkowanie,"Jak wymienić fugi: instrukcja krok po kroku. Jeżeli silikonowe fugi przy umywalce lub wannie zaatakowała pleśń - czas na to, by je wymienić. WIDEO",2018-12-06 13:32:44,267,#remont,64654fdb-d6ee-4298-88e6-92c8abc5d6a1
25,"Afera SKOK-ów kosztowała już 4,9 mld zł. Sam Wołomin pochłonął 2,2 mld zł",#polska #neuropa #finanse #pieniadze #afera #banki,Ktoś coś mówił o Amber Gold?,2018-12-06 13:18:30,812,#polska,fe5aa9f1-4941-41b2-853f-8a4ce33bae3a
26,Policjanci eskortowali w Kielcach rodzącą kobietę w zagrożonej ciąży!,#polskiedrogi #policja #kielce #polska,"Goń Pan do Kielc, ja krzyczę przez stację - poleca dyżurny. W dużej mierze dzięki policyjnej eskorcie, sprawa miała szczęśliwy finał.",2018-12-06 13:05:59,513,#polskiedrogi,112cb010-e004-4cc7-baa0-84427be79233
27,Antyterroryści zapukali do drzwi 14-latka. Był zachwycony,#polska #szlachetnapaczka #policja #ciekawostki,Babcia i jej 14-letni wnuczek na pewno się tego nie spodziewali. Antyterroryści z Warszawy wkroczyli do ich mieszkania i wręczyli im ... prezenty. Wszystko odby ...,2018-12-06 13:05:48,245,#polska,8ee268fc-036e-4c76-82f9-0485023f548a
28,Ciekawy system przeciwko piratom morskim.,#morze #piraci #bezpieczenstwonawodzie #somalia #chujwiecojeszcze,Nie najnowszy ale bardzo ciekawy sposób na unieruchomienie piratów morskich. ,2018-12-06 12:37:39,393,#morze,2407189d-7a53-4067-b4d4-09873f6b4e95
29,Imigrant morduje modlącego się księdza metalowym krzyżem w niemczech,#polska #europa #swiat #imigranci #kultura,Po czym wkłada mu parasol do gardła,2018-12-06 12:31:43,871,#polska,6119e402-9470-4692-b3ba-238991fc78a9
30,Senat Irlandii za zakazem importu izraelskich produktów z ziem okupowanych!,#4konserwy #zydzi #palestyna #swiat,Przyjęta ustawa The Occupied Territories Bill 2018 może sprawić że Irlandia będzie pierwszym krajem w Europie który zakończy wymianę handlową z nielegalnymi żydowskimi osiedlami na okupowanych terytoriach Palestyny.,2018-12-06 12:30:40,876,#4konserwy,d33297a0-4e4d-4cf8-9fc8-084ea3aa69b6
31,Lidl DE vs. Lidl PL,#polakbogacz #niemiecbjedak,Ceny LIDL DE vs. LIDL PL hit cenowy,2018-12-06 12:24:11,3018,#polakbogacz,1e9bebf7-7ada-481d-9bc2-c24dbd2b03e9
32,Co robisz na widok pomarańczowego światła? Hamujesz czy wciskasz gaz?,#polska #polskiedrogi #kierowcy,Wjazd na późnym pomarańczowym zakończony ucieczką na przejście dla pieszych. A potem jest się czym chwalić w Internecie.,2018-12-06 11:39:50,231,#polska,6c79484f-2b66-488a-b84b-df041f06d19c
33,Jak przejść gładko od kolacji do deseru...,#rozrywka #ciekawostki #technologia #heheszki #humor #youtube,Satysfakcjonujące wideo :),2018-12-06 11:38:28,973,#rozrywka,59cd0fd2-e921-46d1-936c-6c766aa5819b
34,Niemiecka gospodarka nadal zalezna od wegla a jeszcze bardziej od Rosji,#europa #technologia #ekonomia #gospodarka,"A recent return to Leipzig reminded me why “going green” in Germany has been a lot more difficult than the rhetoric would sometimes suggest. My previous visit was just after the reunification of Germany in 1990 and the contrast could scarcely be more dramatic. Then, Leipzig and the...",2018-12-06 11:31:01,252,#europa,b1eacb03-18c0-4e96-9a18-1c8a8a851596
35,Szybka i wściekła...,#polska #wachock #polscykierowcy #babazakierownica,Do Lewiatana jeden krok.. ale lepiej szybko podjechać :-),2018-12-06 11:24:44,368,#polska,4a6949bb-29fe-4ac7-9d46-0e62d3be6993
36,"Nikomu nie życzę takich gratulacji, czyli jak W.KRUK skopiował Pica Pica -...",#polska #bizuteria #wkruk,"Przeczytaj jak Kruk traktuje Sroki. Wstydźcie się, W.KRUK!",2018-12-06 11:18:49,376,#polska,795c396b-9768-4f35-a6f3-31aa9ae23142
37,Przemiana Loary w polskiego Pancyra [OPINIA,#polska #pis #wojsko #wojskopolskie #pgz #polandstronk,Przemysł zbrojeniowy w Polsce ma wszystko by stworzyć lepszy odpowiednik rosyjskiego przeciwlotniczego systemu rakietowo-artyleryjskiego „Pancyr-S1”. Brakuje nam tylko tak naprawdę jednego elementu – decyzji.,2018-12-06 11:15:00,245,#polska,017b5101-d883-4bba-ac7e-6be0af3c167f
38,Śmiertelne potrącenie na DK16. Policjanci znaleźli lexusa,#polska #polskiedrogi #wypadek #policja,"Policjanci odnaleźli srebrnego lexusa, którego kierowca w miniony piątek na krajowej szesnastce w warmińsko-mazurskiem śmiertelnie potrącił 67-latka. Policjanci zatrzymali też 31-letniego pasażera samochodu. Kierowca wciąż jest poszukiwany.",2018-12-06 11:02:09,311,#polska,3d4aba8f-e750-4510-a1b9-325ed5422b3d
39,Chiny żądają natychmiastowego uwolnienia dyrektor Huawei,#4konserwy #iran #zydzi #chiny #usa,Podejmiemy wszystkie możliwe środki. Dyrektor finansowy chińskiego giganta telekomunikacyjnego została aresztowana w Kanadzie i oczekuje ekstradycji do USA w związku z rzekomym naruszeniem przez Huawei Ltd amerykańskiego embarga na handel z Iranem.,2018-12-06 10:01:26,598,#4konserwy,268c7a6e-3ff7-4492-8503-44a578721df5
40,Fallout 76 z kolejną rażącą wpadką. Bethesda udostępniła dokładne...,#technologia #ciekawostki #fallout #gry #heheszki,"Bethesda ma nie tylko problem z Fallout 76. Firma nie zadbała nawet o swoje centrum wsparcia, więc gracze składający wniosek o torby z Power Armor Edition otrzymali dokładne dane pozostałych użytkowników (numery kart kredytowych, adresy zamieszkania, itp.)",2018-12-06 09:53:08,664,#technologia,58110b55-5602-4a5e-b7e0-f7dbaa0a662c
41,Preludium rzezi. Szewardino 1812,#historykon #historia #gruparatowaniapoziomu #wojna #rosja #ciekawostki,"Mówiąc o kampanii rosyjskiej 1812 roku, nie sposób nie wspomnieć o jej największej bitwie, która miała miejsce 7 września pod Borodino. Główny bój obu armii poprzedziły zmagania o redutę szewardińską, które stanowiły zapowiedź, mającej nastąpić dwa dni potem, krwawej bitwy.",2018-12-06 09:52:40,500,#historykon,7650c476-ca69-4a59-90c9-ed53bbd009f9
42,Cukier dodają nawet do chleba i kiełbasy. Można go znaleźć w polędwicy sopockiej,#polska #nauka #ciekawostki #jedzenie #jedzzwykopem #zdrowie,"Cukier i inne substancje słodzące, np. syrop glukozowo-fruktozowy, ukryty jest w nieoczywistych produktach, takich jak chleb czy kiełbasa i wędliny. Na przykład, w polędwicy sopockiej można znaleźć takie substancje słodzące, jak maltodekstryna, laktoza, glukoza, dekstroza.",2018-12-06 09:25:18,421,#polska,b18b7cb4-d832-4c90-9442-556312845a76
43,15 tysięcy nagrody za wskazanie sprawcy powieszenia i pobicia psa,#polska,"15 tysięcy złotych oferują darczyńcy za wskazanie sprawcy bestialskiego powieszenia psa, do jakiego doszło przed kilkoma dniami na terenie Wałbrzycha, nieopodal schroniska. - W czwartek,",2018-12-06 09:20:57,365,,6795ea3e-eb26-4354-bdbb-0e4ccab4f772
44,Była żona Piotra Żyły gospodynią programu w Active Family,#polska #zyla,"Justyna Żyła - była żona skoczka narciarskiego Piotra Żyły - w swoim programie ma rozwiązywać konflikty uczestników projektu. 

Co za ironia, że program o konfliktach prowadzić będzie osoba, która sama swojego konfliktu nie rozwiązała.",2018-12-06 09:02:53,769,#polska,89031a29-da83-4def-9ff6-645cae378be6
45,"Opracowano rewolucyjny test, który wykrywa wszystkie rodzaje raka.",#swiat #nauka #medycyna #zdrowie #genetyka #ciekawostki,"Naukowcy stworzyli test, który pozwala zdiagnozować wszystkie rodzaje raka. Oparty został o unikalną sygnaturę DNA, która wydaje się być powszechna w różnych typach nowotworów. Test musi przejść przez badania kliniczne, zanim zostanie oddany do użytku.",2018-12-06 08:51:17,780,#swiat,3521b8da-806e-4a56-8e0f-9f6346ea9b40
46,Rośnie opozycja wobec Nord Stream 2 w Niemczech,#europa #niemcy #energetyka #gaz #nordstram2,Powstaje zielono-czarna koalicja przeciwko Nord Stream 2 w Niemczech – czytamy w Der Tagesspiegel. Czołowi politycy partii Zielonych i CDU domagają się od kanclerz Angeli Merkel zablokowania budowy spornego gazociągu Nord Stream 2 ze względu na obawy o rosnącą zależność od Rosji....,2018-12-06 08:49:43,545,#europa,2d0f3a76-e21b-479b-9e14-a6e38038aec5
47,Kontrola w firmach na legitymację i wgląd w konta bankowe.,#polska #prawo #finanse #biznes #firma #urzadskarbowy,"Na podpis prezydenta czeka nowelizacja ustawy o Krajowej Administracji Skarbowej. Zmiany zakładają m.in. możliwość kontroli firmy w czasie nieobecności przedsiębiorcy na podstawie legitymacji, a także udostępnienie danych dotyczących rachunku bankowego, jeśli fiskus będzie miał podejrzenia...",2018-12-06 08:19:25,395,#polska,dc7fad22-4a01-4069-b4b4-b988fafca03c
48,Ukradły dowód osobisty i zawarły na niego umowy o pożyczki gotówkowe -...,#polska #policja #kryminalne #wykopefekt #wykop #banki,"Dwie kobiety dokonały kradzieży dowodu osobistego z torebki pokrzywdzonej, a następnie na ten dowód zawarły wiele umów o pożyczki gotówkowe. Osoby, które rozpoznają kobiety ze zdjęć proszone są o kontakt z policją.",2018-12-06 07:22:11,858,#polska,847f50e3-2b43-4176-ae86-dad26ff008f7
49,Netflix zapłaci 100 milionów dolarów za roczną licencję za 'Przyjaciół',#kultura #rozrywka #swiat,Serial Przyjaciele nie zniknie z serwisu Netflix. Platforma będzie musiała jednak zapłacić za roczne prawa do tytułu aż 100 milionów dolarów.,2018-12-06 06:54:21,341,#kultura,d4a78ba1-c336-4410-bbcd-94f664b7d99d
