,title,tags,description,date,vote_count,category_name,uuid
0,George H.W. Bush nie żyje. B. prezydent USA miał 94 lata,#swiat #wydarzenia #usa ,Zmarł były prezydent Stanów Zjednoczonych George H.W. Bush - podaje USA Today. Miał 94 lata.,2018-12-01 06:10:58,240,#swiat,2e4b9c0d-0c2b-4099-84db-6423550d22d2
1,Forum Żydów Polskich: Newsweek manipuluje wynikami badań na temat antysemityzmu,#europa #polska #antysemityzm #zydzi #izrael #media,Forum Żydów Polskich na swoim profilu facebookowym zarzuca tygodnikowi Newsweek manipulację w artykule Europa wciąż antysemicka. Polska w czołówce ksenofobicznych krajów.,2018-11-30 22:12:34,475,#europa,285ca09a-2dca-477c-a58a-04a407e25a4a
2,Apel do rządu RP: Zwiększmy liczbę kobiet wśród migrantów dla poprawy demografii,#polska #przegryw #4konserwy,"Tak jak przedsiębiorcom brakuje rąk do pracy, tak samo polskim mężczyznom może brakować wolnych kobiet. Trzeba wreszcie zwrócić uwagę na ten problem i podjąć odpowiednie działania. Polityka imigracyjna polskiego rządu powinna zacząć uwzględniać proporcje płciowe oraz wiekowe migrantów.",2018-11-30 20:25:12,771,#polska,e742aa21-1243-4fb6-9728-00ab2e66db0e
3,RPA. Biali rolnicy przegrywają walkę o ziemię z czarnymi mieszkańcami,#swiat #wydarzenia #rpa #afryka,"Grupa białych prawników walczących przeciwko planom oddania ziemi Czarnym Południowoafrykanom bez odszkodowania, przegrała przed Sądem Najwyższym w kraju...",2018-11-30 19:56:56,131,#swiat,cdd24ff8-0cac-4156-a3e3-2f63e05e9be6
4,"Więcej węgla nam potrzeba! Pomyślmy o tym, gdzie pobudować nową kopalnię!",#polska #natura #energetyka #neuropa #bekazpisu #dobrazmiana,"Państwo górnicy, więcej węgla nam potrzeba! Pomyślmy o tym, gdzie na Śląsku pobudować nową kopalnię – mówił podczas obchodów barbórkowych w Katowicach minister energii Krzysztof Tchórzewski. Jak podkreślił, do 2030 r. polska energetyka musi zwiększyć produkcję energii o 25 proc.",2018-11-30 19:25:59,1544,#polska,b664badc-c9bf-4b81-9334-7e905b397490
5,Izrael: tajscy pracownicy traktowani jak zwierzęta. Wiele niewyjaśnionych zgonów,#swiat #4konserwy #zydzi #niewolnictwo,"Trwające ponad rok śledztwo przeprowadzone przez BBC ujawniło koszmar pracowników sprowadzonych z  Tajlandii na izraelskie farmy. Są poniżani, wykorzystywani, przetrzymywani w skandalicznych warunkach, pracują ponad siły. Kilkadziesiąt niewyjaśnionych zgonów.",2018-11-30 19:10:56,557,#swiat,f33e7e24-9e26-46bb-8d55-967b7400dd64
6,JEDZIEMY w POLszu... -  Roman z Naddniestrza,#polska #swiat #podroze #kultura,"Nazywam się Roman Maximov. Jestem z kraju którego nie ma na mapie. Sam się uczę polskiego z pomocą YouTuba, muzyki książek itd... .\n \n W pierwszym odcinku jadę do Polski ze swoją dziewczyną i jej siostra która po raz pierwszy wyjeżdża z \rosyjskojezycznego świata\. Jedziemy na...",2018-11-30 18:48:52,959,#polska,17c9e9b2-00d5-40c9-8599-d8bf7796dc7e
7,Zadyma w Brukseli większa niż w Paryżu. Gdzie jeszcze uderzą Żółte Kamizelki?,#swiat #ekonomia #wojna #europa #ciekawostki,Widmo żółtych kamizelek krąży po Europie. Jako pierwsi w Polsce publikujemy zdjęcia z Belgii. Sceny przemocy na ulicach Brukseli. O co chodzi w tych protestach?,2018-11-30 17:54:34,459,#swiat,c35b4e85-b6fa-469b-86c9-1d4d068b9104
8,"Krok od kompromitacji polskiej piłki, Wisła nie zagra wiosną?",#sport #pilkanozna #ekstraklasa #krakow #wislakrakow #mecz,"Jeśli nic się nie zmieni w ciągu najbliższych tygodni, Wisła Kraków nie przystąpi do rozgrywek wiosną, obecna drużyna zostanie rozwiązana, a kolejny sezon rozpocznie od czwartej ligi. Taki katastroficzny scenariusz dla jednego z najbardziej zasłużonych polskich klubów jest w tym momencie...",2018-11-30 17:21:24,208,#sport,239cf49a-c82f-4530-9923-4fa0ecb46f2f
9,"Spędził 23 lata w więzieniu za gwałt i morderstwo, był niewinny",#chiny #prawo #wydarzenia #swiat,"W Chinach wypuszczono na wolność mężczyznę, który spędził 23 lata w więzieniu z powodu zarzutów o gwałt i morderstwo. Okazało się bowiem, że był niewinny.",2018-11-30 17:16:07,87,#chiny,47983aac-f0a3-436d-98b8-e9bc10d1ee3b
10,Google zaprasza na rozmowę o pracę...,#technologia #ciekawostki #patent #google #prawo,"Po czym próbuje opatentować pracę aplikanta o której rozmawiali jako swoją własną technologię.

Don't be evil...",2018-11-30 17:00:41,782,#technologia,8e24df2f-4ffe-411c-92be-4451186ac8c3
11,"Wnuk Lecha Wałęsy prawomocnie skazany... Oj, dziadek nie będzie dumny!",#polska #ciekawostki,Pół roku ograniczenia wolności w formie prac społecznych w wymiarze 20 godzin w miesiącu - taką karę orzekł dziś Sąd Okręgowy w Gdańsku dla wnuka Lecha Wałęsy. Dominik W. został skazany za naruszenie nietykalności osobistej 20-letniej kobiety. Wyrok jest prawomocny.,2018-11-30 17:00:37,211,#polska,e3577021-91cf-4d5d-a59a-903e95564f8d
12,"Prokurator wziął 300 tys. zł, ale „to nie była łapówka Czyżby?",#polska #wydarzenia #prawo,Warszawski sąd rejonowy ponownie rozpatrzy sprawę prokuratora uniewinnionego od zarzutu przyjęcia 300 tys. zł w zamian za pomoc w uwolnieniu handlarza narkotykami – orzekł w piątek Sąd Okręgowy w Warszawie.,2018-11-30 16:46:41,238,#polska,172d3ea4-1e4a-44d1-9210-f5c8e8b12816
13,"Włamali się do hali, chwilę po tym wybuchł gigantyczny pożar. Nagrało ich 40 kam",#polska #przestepczosc #pozar #bytow #kradziez,"Okazuje się, że chwilę przed wybuchem pożaru, doszło do włamania. Trzech zamaskowanych mężczyzn splądrowało dwa sejfy i ukradło 3 tysiące złotych. Później - jak twierdzi właściciel firmy - celowo podłożyli ogień. W zdarzeniu nikt nie ucierpiał, ale straty są ogromne, na ponad 9 milionów złotych.",2018-11-30 16:26:07,149,#polska,b9a6a888-ed9b-4110-be1c-a0ca82022dd6
14,EU chce zakazać krytyki masowej imigracji!,#europa #polska #4konserwy #cenzura #internet,Krytyka migracji będzie podciągnięta pod hate speech i ma być ścigana jako przestępstwo. Media które dopuszczą krytykę migracji na swojej platformie zostaną zamknięte. Witamy w Nowym Wspaniałym Świecie!,2018-11-30 16:17:31,3389,#europa,e7e8b350-b50c-441a-9957-1f6085cbdbc1
15,Przeszczep twarzy po 10 miesiącach od zabiegu - chirurgiczny majstersztyk,#nauka #medycyna #lekarz #zdrowie #ciekawostki #usa,"26-latek z USA postrzelił się w twarz, całkowicie deformując nos, szczękę, podniebienie i zęby. 100 osobowy zespół przez 25 godzin dokonał przeszczepu od 23-letniego dawcy i niemal bezbłędnie zrekonstruował zmasakrowaną twarz. Wczoraj na konferencji pokazano efekty pracy lekarzy",2018-11-30 16:02:34,249,#nauka,0bc196fc-6402-48e2-96cd-416ea854dabe
16,Jak działa obiektywna moderacja wykop.pl,#moderacjacontent #moderacja #afera #bekazmoderacji #bekazlewactwa #wykop,"Przykład tego jak moderacja obcina zasięg niewygodnym użytkownikom.
Wykop to serwis tworzony przez użytkowników",2018-11-30 15:45:15,505,#moderacjacontent,312b6145-0b3e-4882-ad9d-43c045b6b80b
17,Porównanie ceny paneli słonecznych w okresie ostatniego roku,#technologia #oze #energetyka #fotowoltaika,Ceny krzemu do paneli spadły o 50% a ceny samych paneli o 40% w ciągu roku. Okres zwrotu z inwestycji mocno maleje. W takim tempie szybko staną się bardzo opłacalne i w Polsce.,2018-11-30 14:52:05,393,#technologia,ba5687c0-956a-4158-956c-9e20e02a9940
18,Pracownik restauracji dostarczył jedzenie pod murzyński dom. Skończył martwy.,#dindunuffin #ameryka,"Według statystyk Departamentu Pracy w USA, dostawcy pizzy (czy ogólnie driver-sales workers) to piąty najbardziej niebezpieczny zawód w Ameryce: są zabijani, bici do nieprzytomności i okradani. Sprawcami są w przeważającej większości Murzyni.",2018-11-30 14:25:37,860,#dindunuffin,97f1ab81-4482-4ff4-ab61-6bf1d399a7a3
19,Polanie - historia polskiego Warcrafta - [arhn.eu],#polska #gry #polanie #arhneu #retrogaming #historiagier,"Polanie. Uważani za pierwszą polską grę RTS. Typowo słowiańscy, inspirowani Warcraftem i jak się szybko okazało, niezwykle popularni na rodzimym poletku. Mirosław Dymek, pomysłodawca i projektant gry nie spodziewał się, że jego chałupnicza produkcja zdobędzie poklask, a mimo to zainteresowanie...",2018-11-30 14:24:16,395,#polska,4774ad91-0daf-43da-98c5-b6fdffc37cd7
20,Jak powstają chińskie samochody?,#heheszki #technologia #rozrywka #gownowpis,"Miarka, kartka, ołówek i za miesiąc na aliexpress.",2018-11-30 14:02:27,119,#heheszki,73995cde-9acb-44db-8c6a-524012186c95
21,Protestowała przeciwko zabijaniu czarnych. Wkrótce sama zginęła z rąk Murzyna.,#murzyni #dindunuffin #rasizm #usa #morderstwo,"W mediach społecznościowych zamieszczała apele do policji o zaprzestanie strzelania do czarnych. Kilka tygodni później została zadźgana nożem przez czarnego oprawcę, który następnie podpalił dom kobiety, zabijając jej 8-letnią córkę.",2018-11-30 14:00:19,961,#murzyni,b6b1f7e9-6828-4c33-80d3-4e94e7a1dcf8
22,"Gwiazda muzyki kreuje się na feministkę, a kobietom ze Sri Lanki płaci 64 centy",#kultura #rozrywka #muzyka #feministki #bekazlewactwa #bekazfeministek,"Beyonce, która od lat jest idolem i wzorem dla feministek z całego świata, wyzyskuje pracownice, które na Sri Lance szyją ubrania dla jej ekskluzywnej marki.",2018-11-30 13:36:44,1366,#kultura,bc8e9ae0-dfec-4e45-bb11-b06810561da0
23,"Brajanek chce siusiu, a Karynka nie potrafi go upilnować.",#polska #heheszki #gownowpis #ciekawostki,"Brajanek chce siusiu, a Karynka nie potrafi go upilnować.
Z cyklu:Kolejny szary dzień gdzieś w Polsce.",2018-11-30 13:31:03,676,#polska,ac40dc63-8610-4262-a3e8-cf4108c94472
24,"Niemiecki ojciec musiał przenieść córkę do innej szkoły, bo stała się wyrzutkiem",#niemcy #szkola #bezpieczenstwo,"8-letnia Yara zaczęła rok szkolny w klasie, w której tylko on mówiła po niemiecku. Szybko stała się wyrzutkiem. Ojciec twierdzi, że do ataków dochodziło codziennie. Raz nawet arabskie dziecko, którego nawet nie znała, popchnęło ją i rozcięło brzuch ostrym przedmiotem. Nauczyciel zlekceważył zajście.",2018-11-30 13:14:14,842,#niemcy,20c4a00b-435b-4684-b50b-a306b9e38c18
25,Wrocław - skradzione koła z garażu - proszę o pomoc CSI wykop,#wroclaw #csiwykop #kradziez #motoryzacja #zlodzieje #samochody,Cześć drogie mirki. Zwracam się do Was z prośbą o wykop efekt/wkop CSI. Mojemu sąsiadowi 2 dni temu - w nocy z 27 na 28.11 ukradli felgi z oponami i zostawili samochód na cegłach. Każda pomoc mile widziana.,2018-11-30 13:03:03,1645,#wroclaw,3fb9ea83-a443-4b98-a839-634605931138
26,Chłopiec wysłał list do taty w Niebie. Royal Mail spisała się na medal,#europa,7-letni chłopiec wysłał kartkę urodzinową do swojego zmarłego taty. Wkrótce potem otrzymał potwierdzenie od Royal Mail,2018-11-30 13:01:13,242,,bdbd5082-2582-44e3-8dc1-ef6a8e6aeff9
27,Dokonali rozboju w Toruniu. Rozpoznajesz ich? [ZDJĘCIA] - info.pl,#polska #torun #policja #kryminalne #przestepczosc #poszukiwani,"Policjanci z toruńskiej komendy poszukują dwóch mężczyzn, którzy dokonali kradzieży rozbójniczej.",2018-11-30 12:41:25,119,#polska,a943b0b9-bd14-4601-8d2e-caadb633af45
28,"Ronnie Coleman. Bóg kulturystyki, który został inwalidą",#zdrowie #silownia #sport #kulturystyka #mirkokoksy #swiat,"Plakaty z jego podobizną wisiały w każdej osiedlowej siłowni. Ronnie Coleman kilkanaście lat temu był dla młodych chłopaków bogiem. Albo i więcej, bo można go było zobaczyć, podziwiać i próbować naśladować. Dziś bóg porusza się tylko o kulach, ma zgruchotany kręgosłup i stawy biodrowe do wymiany",2018-11-30 12:34:31,485,#zdrowie,9e85b5e5-9472-4076-a1f0-2aec833707df
29,Jest decyzja inwestycyjna o budowie Baltic Pipe,#polska #energetyka #dania #balticpipe #gaz #europa,"Zapadły ostateczne decyzje inwestycyjne o powstaniu projektu Baltic Pipe, zarówno po stronie Rzeczpospolitej Polskiej, jak i Królestwa Danii. Operatorzy systemów przesyłowych Polski i Danii, Gaz – System i Energinet.dk podjęli pozytywne decyzje inwestycyjne i zgodzili się wspólnie...",2018-11-30 12:27:01,442,#polska,79763047-df6a-40ba-adf5-b48679c83f1f
30,Netflix zamierza stworzyć program o F1 i Robercie Kubicy,#polska #kubica #f1 #wruci #powrutcontent #formula1,"Odkąd ogłoszono, że Robert Kubica wraca do Formuły 1, wszyscy mówią o tym, że historia sportowca jest świetnym materiałem do stworzenia filmu. Wygląda na to, że podobnie myśli Netflix, który już przymierza się do kręcenia materiału o Polaku....",2018-11-30 12:22:31,148,#polska,b8e3b1de-453d-4c87-8257-377c8209c0d2
31,Król Lew,#przyroda #zwierzeta #zwierzaczki #lwy #krollew,i wtem wpada twój ziomeczek,2018-11-30 12:13:53,958,#przyroda,9890c3af-95f4-4989-9f96-e5631b479187
32,Jak po kąpieli suszą się niedźwiedzie polarne?,#swiat #natura #zwierzaczki #ciekawostki #przyroda #nauka,"Misie polarne opracowały własny, niezawodny sposób suszenia i wcale nie są to ręczniki :)",2018-11-30 11:42:45,334,#swiat,aa72db51-bbd3-47ab-b847-58257ec6842a
33,"Niemcy coraz piękniejsze na Święta. Betonowe choinki ubogacą jarmark, na...",#niemcy #europa #ciekawostki #zainteresowania #islam,"W wielu niemieckich miastach na placach ustawiane są betonowe zapory mające zapobiegać atakom terrorystów wykorzystujących samochody do przeprowadzania zamachów. W Bautzen staną betonowe, ważące tonę choinki.",2018-11-30 11:30:15,261,#niemcy,0c2a185c-c229-4dde-a80a-405afa5f68a1
34,Testy Fiesty WRC przed Rajdem Barbórka,#sport #rajdy #rajdy24 #wrc #samochody #motoryzacja,Jak to wyglądało ze środka i z zewnątrz? Zobaczcie! :),2018-11-30 11:29:44,360,#sport,678c2144-d712-4874-ae5d-a124e5d17bb7
35,Ciężarówka z cementem demoluje ulicę.,#kierowcy #samochody #anglia #londyn,"Zawiódł hamulec postojowy i uciekła kierowcy, gdy z niej wysiadł.",2018-11-30 11:14:39,154,#kierowcy,98ba075e-36c6-48b6-81bc-4630439075c7
36,5-latka ma na imię Abcde. Obsługa lotniska zaczęła z niej drwić,#swiat #heheszki #duren,"Traci Redford, mama pięcioletniej Abcde (wymawiane Ab-city) umieściła w mediach społecznościowych wpis o przykrym zajściu na lotnisku. Obsługa lotniska podczas sprawdzania kart pokładowych zaczęła wyśmiewać się z imienia dziewczynki i wskazywać ją sobie palcami.",2018-11-30 10:33:42,548,#swiat,8d6b6c76-06e2-4685-8c05-e10fc3fac579
37,Światu zostało pięć lat do wojny? Amerykanie nie oddadzą roli światowego...,#swiat #ekonomia,"Amerykanie coraz bardziej uświadamiają sobie, że okienko się zamyka. I mogą uderzyć - z prof. Bogdanem Góralczykiem rozmawia Grzegorz Sroczyński.",2018-11-30 10:26:40,821,#swiat,a15af112-15a0-498f-bef1-7eb4d6594c17
38,Polacy płacą cztery razy większe odsetki od kredytów niż Finowie i Duńczycy,#ekonomia #gospodarka #finanse #banki #pieniadze #polska,"Trzeba zdawać sobie sprawę, że w skali Europy kredyty mieszkaniowe z Polski nadal cechują się dość wysokim oprocentowaniem. Nie jest to wcale nowe zjawisko. Wbrew pozorom, ma ono również swoje plusy.",2018-11-30 10:23:11,587,#ekonomia,64af14fd-2dad-492a-a611-110990f681de
39,"Edycja Kolekcjonerska Fallout 76 z 'workiem na śmieci', zamiast obiecanej torby",#gry #fallout #pcmasterrace #ps4 #xboxone #fallout76,"Być może leżącego nie powinno się kopać, ale Bethesda przez swoje postępowanie zasługuje na najwyższy wymiar kary. Brak szacunku dla konsumenta powinno się zawsze piętnować. Kolejny problem związany z Falloutem 76 dotyczy zawartości Edycji Kolekcjonerskiej.",2018-11-30 10:15:01,474,#gry,92c35edc-d951-486c-a8cb-6cbd022f1d1c
40,Rosyjskie myśliwce nad Bałtykiem. Przechwyciły je belgijskie F-16,#lotnictwo,"Belgijskie myśliwce F16-przechwyciły rosyjskie myśliwce, które leciały nad Morzem Bałtyckim bez zezwolenia. Do incydentu doszło w środę, ale dopiero teraz, informują o nim siły powietrzne Belgii.",2018-11-30 10:13:32,490,,fc5d84a0-8197-4093-bdd7-b43816a06797
41,A jednak. Wiceminister finansów: pozostawimy 8-proc. VAT na leki weterynaryjne,#polska #ekonomia #wy #finanse #weterynaria #zwierzaczki,"Wczoraj apel na wykopie, dzisiaj ministerstwo odpowiada na apel. Brawo #wy )
W rozmowie z Pulsem Biznesu wiceminister Świtała stwierdza, że MF wycofuje się z podwyżek bo ... mogłyby podnieść ceny leków. Poza tym mówi  jakie stawki zostaną obniżone (ebooki, pieczywo, owoce, przyprawy)",2018-11-30 10:08:05,570,#polska,1a2bc6f7-f2f1-4899-bf53-52eed71f0891
42,Polska jest mega. 25 magicznych miejsc na Podlasiu.,#polska #podlasie #zainteresowania #ciekawostki #podroze #podrywajzwykopem,"Niesamowite rozlewiska rzeczne, tajemnicze ruiny kościoła, niespotykane nigdzie indziej zabytki i wiele naturalnych, zjawiskowych atrakcji. Czyli wszystko to, co najlepsze na Podlasiu!",2018-11-30 09:55:38,444,#polska,cff63a03-676e-41df-be7b-faeed7d7d86e
43,Policja otrzyma dziś dwa śmigłowce Black Hawk,#polska #lotnictwo #policja #wojsko #smiglowce #helikoptery,Na lotnisku na warszawskim Bemowie odbędzie się dziś uroczystość przekazania policji dwóch śmigłowców  S-70i Black Hawk.,2018-11-30 09:35:16,309,#polska,4f727120-9f3b-4314-a872-eff12f60cca8
44,Jarmark Bożonarodzeniowy w Dortmund - polecisz tu za cenę szaszłyka z Wrocławia,#podorze #podrozujzwykopem #swieta #niemcy #roadtripbus,"Jarmark Bożonarodzeniowy w Dortmundzie to jeden z największych jarmarków świata. W tym roku odbywa się jego 120 edycja.

Co ciekawe ceny na jarmarku są zazwyczaj lepsze niż w Polsce, a na sam jarmark można polecieć w cenie szaszłyka z jarmarku we Wrocławiu (112 zł).",2018-11-30 09:30:50,1370,#podorze,e7e85a01-7995-4605-9d5f-4266fe888340
45,Ukraina zabrania wjazdu rosyjskim mężczyznom.,#swiat #ukraina #wojna #rosja,w wieku od 16 do 60 lat..,2018-11-30 09:30:38,388,#swiat,43d50cfc-aeb9-4dc5-ad86-6babb62596fe
46,"Dlaczego każdy myślący człowiek jest antysemitą, choć może o tym nie wiedzieć",#ciekawostki #zydzi #banki #bekazlewactwa #heheszki #4konserwy,"Rabin Jay Michaelson, udowadnia, że każdy myślący człowiek interesujący się geopolityką jest antysemitą, nawet jeśli kocha żydów. Rabin sam został zaliczony do grona antysemitów na podstawie testu ADL. Zrób test i sprawdź czy jesteś antysemitą, bo możesz o tym nie wiedzieć.",2018-11-30 09:23:11,486,#ciekawostki,d3755c01-eac8-4f40-b725-feb722b3ede3
47,Lody na patyku,#swiat #rosja #przyroda #zima #lod,Чудо природы,2018-11-30 09:05:15,357,#swiat,a01eac09-0dda-43ad-b28a-0ea2d7327d10
48,"Szukali rasistowskich napisów na murach, aby je zamalować. Gdy ich nie...",#polska #gdansk #ciekawostki #wydarzenia,"Ta historia, choć wydaje się być kompletnie absurdalna, miała miejsce naprawdę. Kilka lat temu grupa zawodowych antyfaszystów wybrała się do Gdańska w okolice stadionu Lechii, aby na murach pobliskich budynków odszukać hasła i napisy o charakterze rasistowskim, ksenofobicznym lub antysemickim...",2018-11-30 09:02:48,412,#polska,a9c6de2e-7dd4-4078-99e6-b3a1008d3a83
49,"9-latek w UK powiesił się azjatyccy koledzy gnębili go za to, że jest biały",#uk #przyszlosc #rasizm #islam #4konserwy,"9-letni chłopiec powiesił się po tym, gdy był gnębiony przez azjatycki gang w szkole. Grozili mu i powiedzieli m.in., że wszyscy biali powinni być martwi",2018-11-30 09:01:47,1214,#uk,50ed4737-df4b-4b4d-b7f3-826a77a01d3f
