,title,tags,description,date,vote_count,category_name,uuid
0,Świeżo upieczona grafomanka ze spidersweb narzeka na płeć wyrazów w j. polskim,#polska #heheszki #ciekawostki #technologia #jezykpolski #zainteresowania,"Jest oburzona że w google podkreśla żeńskie twory wyrazowe psycholożka, ministra, chirurżka",2018-12-09 00:42:44,201,#polska,6efa195b-718b-41e7-9923-d1c900caf821
1,Sośnierz w Parlamencie Europejskim przeciwko gnębieniu obywateli podatkami,#polska #polituka #uniaeuropejska #ue #sosnierz,Dobromir Sośnierz w Parlamencie Europejskim dał lekcję brukselskim miłośnikom podatków i gnębienia obywateli.,2018-12-08 22:10:42,531,#polska,37073c49-543c-4209-b5c5-02095504bf76
2,Paryż człowiek otrzymuje kulę z bliskiej odległości,#paryz #protest #starcia #postrzal #kula,Protest żółtych kamizelek. W Paryżu starcia z policją i setki zatrzymanych.,2018-12-08 22:08:50,242,#paryz,4b564e8a-a966-4e0f-a1c0-93357c4fcaf0
3,Podsumowanie tego co francuskie zomo robi z żółtymi kamizelkami,#zoltekamizelki #demokracja #francja #neuropa #4konserwy #paryz,"Tak traktowani są protestujący obywatele we Francji... Protest żółtych kamizelek dalej trwa, a władza nie zamierza zaniechać pacyfikacji demonstracji. Gdzie jest Unia Europejska razem z Komisją Europejską, przecież ŁAMANA JEST PRAWORZĄDNOŚĆ i PRAWA CZŁOWIEKA",2018-12-08 21:45:25,526,#zoltekamizelki,1d62d8de-145c-49a4-bee6-629592bc94e8
4,"Przykre, co poprawnosc polityczna robi z ludzi.",#zainteresowania #swiat #usa #bekazlewactwa #logikarozowychpaskow #ameryka,Sonda uliczna w Nowym Jorku.,2018-12-08 21:21:40,573,#zainteresowania,17da3a9a-2cf8-4007-947f-6d4598a50945
5,Zanim Königsberg stał się Kaliningradem,#nauka #historia #liganauki #gruparatowaniapoziomu #wojna #iiwojnaswiatowa,Oblężenie sowieckie doprowadziło do ogromnych zniszczeń i śmierci ponad 100 tys. cywilów. Zbrodnie sowieckie stanowiły zaledwie zwiastun degradacji tego miasta.,2018-12-08 20:38:49,185,#nauka,c7738141-ab66-4878-af44-69e99c403299
6,[ANW] Najbardziej niezwykłe księżyce w Układzie Słonecznym,#nauka #astronomia #kosmos #eksploracjakomosu #nasa #ciekawostki,Kolejny artykuł z zapowiadanego cyklu ANW [Artykuł Na Weekend]. Ile jest księżyców w Układzie Słonecznym? Nasz system planetarny jest pełen naturalnych satelitów. Astronomowie naliczyli aż 173 księżyce Oto kilka ciekawostek i najdziwniejszych faktów. EN [ W komentarzu ],2018-12-08 20:35:51,78,#nauka,08d82d97-1b8a-4663-b9c5-3681b3c4e805
7,Ciekawy przepis na omlet,#gotujzwykopem #omlet #potrawyzjaj,Po rosyjsku ale wszystko widać więc wiadomo co i jak...,2018-12-08 19:12:10,574,#gotujzwykopem,09d6de1b-eb6e-4091-8c07-05681d7f531b
8,Patologiczne zachowanie w wykonaniu kierowcy BMW.,#polska #polskiedrogi #bmw #patologiazewsi #patologiazmiasta,Startuje na wprost z pasa do skrętu w lewo spychając Passata.,2018-12-08 18:29:13,394,#polska,733e483f-41d6-46f9-9114-9dbb7ce543db
9,Morele oszukują sprzedając telefony z zagranicznej dystrybucji!,#cebuladeals #oszukujo #gorzkiezale #afera #morele #januszebiznesu,"OSTRZEŻENIE: W sklepie internetowym Morele oszukują klientów, sprzedając telefony Samsung z zagranicznej dystrybucji, niespełniające warunków promocji, które reklamują, jako oficjalny partner firmy Samsung w jej promocjach.",2018-12-08 18:16:18,188,#cebuladeals,d8a44272-2a42-41a9-b592-df87f542a2ca
10,Polska lekarka zachwycona pracą w Czechach. Odcięłam się od polskich szpitali,#szpital #czechy #praca #zdrowie #lekarz #slask,"W Polsce doszła do szklanego sufitu, którego w żaden sposób nie mogła przebić. Dr Justyna Krowicka, ordynator kliniki okulistycznej Gemini w Ostrawie, opowiada nam o powodach zmiany pracodawcy, klimacie pracy w Czechach oraz zagrożeniu, jakie stanowią oni dla polskiego rynku pracy.",2018-12-08 17:59:08,301,#szpital,239c6ca8-4346-48f0-999c-0a667f6483bb
11,Niepokój we Francji. Przygotowano 180 tys. granatów z gazem łzawiącym,#europa #francja #bezpieczenstwo #policja,"Napięcie i niepokój przed zapowiedzianymi na sobotę kolejnymi protestami żółtych kamizelek we Francji sięga zenitu. Rzecznik ruchu Benjamin Cauchy ostrzega, że manifestacja w Paryżu to pułapka. Policja przygotowała 180 tys. granatów z gazem łzawiącym. – Rząd stara się abyśmy wyglądali jak zbiry",2018-12-08 17:43:38,369,#europa,807bde83-5d37-4905-98e3-fdd5b92c6ea6
12,Pojazdy opancerzone na ulicach Paryża-Macron się schował  do wtorku. Jest gorąco,#europa #francja #demokracja #zoltekamizelki,"Sytuacja bez precedensu, władza wystawiła pojazdy opancerzone przeciwko protestującym. 90.000 funkcjonariuszy, prawie 1.000 aresztowań. Gdzie jest  Bruksela?
AKT IV protestów żółtych kamizelek w Paryżu",2018-12-08 17:05:25,2423,#europa,cfafda76-3940-4dfa-8353-fa6aea31a72a
13,"Chciałbym pomóc pewnej dziewczynie, którą kiedyś poznałem na Badoo.",#pomagajzwykopem #podrywajzwykopem #rozowypasek #badoo #rozowepaski,"Dziewczyna jest w tej chwili w stanie poruszać tylko palcami, dzięki czemu daliśmy radę się zgadać ) Jeśli ktoś zechce pomóc uroczemu różowemu paskowi, czy to symboliczną kwotą, czy wykopem, będę niesamowicie wdzięczny. Mirko już działa, czas uderzyć na główną :D",2018-12-08 16:11:34,3612,#pomagajzwykopem,3d293ecd-fc01-4a0f-8f3b-f20909047c1c
14,Facet wraca z Polski na Ukrainę i przeżywa szok.,#polska #ukraina #emigracja #ekonomia #bieda #ukrainiec,"Byłem w szoku, kiedy przyjechałem na Ukrainę po długim pobycie w Polsce.",2018-12-08 16:10:17,241,#polska,f8ca5d48-ed8b-461f-adc4-ef6e212ed613
15,Taka prośba do wszystkich serwisów informacyjnych i nie tylko,#swiat #polska #iiwojnaswiatowa #germandeathcamps #niemcy,"W związku z pojawiającymi się w ostatnim czasie określeniami dotyczącymi niemieckich nazistowskich obozów zagłady,  prośba o nie powielanie tych kłamstw szczególnie w tytułach artykułów czy znalezisk. Proponuje zamiast słowa polskie użyć frazy np. fałszowanie historii. Dziękuję...",2018-12-08 16:09:12,551,#swiat,6340b7db-88cd-4430-88da-04d2d92065c8
16,Angielska bandikierka. Co z tego wyrośnie?,#europa #patologiazewsi #anglia #rasizm #gnojki,Akcja dzieje się w Leeds. Policja rozkłada ręce. Rodzina przechodzi przez to codziennie. Dosyć patowa sytuacja...,2018-12-08 14:55:49,343,#europa,04481750-cd3c-4aa6-8ea0-907c6cc5d189
17,"“Nazywana ,,bramą do Polski",#polska #europa #ukraina #ciekawostki #historia,"“Nazywana ,,bramą do Polski najpotężniejsza warownia kresowej Rzeczpospolitej - zamek w Kamieńcu Podolskim. Choć od 225 lat pozostaje poza granicami Rzeczpospolitej, stanowi istotną część naszej historii i jest świadectwem naszej dawnej potęgi.  #BeautifulWorld #KamieniecPodolski”",2018-12-08 14:35:42,483,#polska,b6f92c32-2704-46ca-937e-49bfd0c6fba2
18,Cygan kradnie iphone w metrze w Budapeszcie,#budapeszt #metro #cygan #zlodziej,Ninja styl cygan kradnie iphone'a dziewczynie w metrze,2018-12-08 14:34:58,757,#budapeszt,3b94b206-2de4-44a9-9eb3-ab65d7683493
19,Nie żyje poszukiwana Roksana. Jej ciało znaleziono na dnie jeziora,#polska #policja #wypadek #kryminalne,"Nie żyje poszukiwana Roksana R., która zaginęła dwa dni po ślubie - ustaliła Wirtualna Polska. Jej ciało w samochodzie nurkowie odnaleźli na dnie jeziora w pobliżu miejsca zamieszkania.",2018-12-08 14:29:55,674,#polska,9774f324-fae1-4bca-9d7c-9c66961bb514
20,"ACTA2 na stadionach, czyli jak Parlament Europejski uderzy w kibiców",#polska #europa #pilkanozna #sport #acta2 #saveyourinternet,"Największe ligi europejskie protestują przeciwko wprowadzeniu zmian w prawie autorskim. Jeśli im się nie uda, może to oznaczać uderzenie w kulturę kibicowską na niespotykaną dotychczas skalę. W 2012 Donald Tusk miał nieciekawą minę, gdy kibice stadionową oprawę przenieśli na protesty. Powtórka?",2018-12-08 14:13:33,197,#polska,4c2460fa-1303-456f-a245-c7c583eb2b7c
21,Królobójcy polskich królów. Historia w Pigułce.,#nauka #ciekawostki #qualitycontent #gruparatowaniapoziomu #historia #ciekawostkihistoryczne,"Korona królów. Wielu się na nią porywało. Królowie polski ulegali zamachom. Bolesław Chrobry, Zygmunt III Waza i niesławny Poniatowski. Jak potoczyły się ich losy? Jak skończyli królobójcy? Dowiedz się w tym odcinku HW5M.",2018-12-08 14:12:30,228,#nauka,718a2478-ca5b-4af9-bc95-187cd4b9af00
22,"Ambasador Izraela na Ukrainie: Bandera i Szuchewycz to nie bohaterowie,...",#polska #ukraina #izrael #zydzi #historia #wydarzenia,Nowy ambasador Izraela na Ukrainie nazwał narodowych bohaterów tego kraju „stanowiących historycznie horror dla Żydów” – informuje Żydowska Agencja Telegraficzna (JTA). Joel Lion wypowiedział się surowo przeciwko rehabilitacji przez władze Ukrainy różnych postaci z czasów II wojny...,2018-12-08 14:08:13,441,#polska,1e7ef386-b31b-4c9b-89c4-c375788fb73f
23,Najfajniejsze zabawki RC,#technologia #modelarstwo #modelarstworc #lotnictwo #aircraftboners,Czyli co duzi chłopcy robią w garażach oprócz bimbru.,2018-12-08 14:05:05,204,#technologia,d7a69db8-6547-43c1-a229-e876592d36a8
24,"Facebook nie dba o użytkowników. Wewnętrzne maile pokazują, do czego się posuwał",#swiat #facebook #internet #prywatnosc #bezpieczenstwo,"Brytyjski parlament upublicznił treść wewnętrznej komunikacji Facebooka. Z e-maili możemy dowiedzieć się, że Facebook z premedytacją wprowadzał śledzenie SMS-ów i rozmów telefonicznych użytkowników bez informowania ich o tym.",2018-12-08 13:15:33,778,#swiat,a39b847b-eee9-46cb-8224-5ff47d8b0703
25,Nie serwuj sobie choroby,#polska #zdrowie #kampaniaspoleczna #otylosc,Kampania zdrowotna Ministerstwa Zdrowia przeciw otyłości. Na Zachodzie pewnie by nie przeszła ( ͡° ͜ʖ ͡°),2018-12-08 12:10:07,1226,#polska,cc65836e-bd0c-49ed-8408-fdbc0325f3b8
26,24 pracowników Amazona w szpitalu. Robot spryskał ich gazem na niedźwiedzie.,#usa #amazon #wydarzenia #zdrowie #praca #polska,Robot Amazona spryskał pracowników środkiem odstraszającym niedźwiedzie - przypadkowo. Jedna z nich jest w stanie krytycznym. Do wypadku doszło w magazynie w New Jersey należącym do giganta internetowej sprzedaży. Zautomatyzowany system ochrony przed drapieżnikami przebił około ćwierćkilogramową...,2018-12-08 12:00:45,434,#usa,be8a5cdb-0163-4d49-8f2f-f4ca3682fdab
27,Znikający herb Krakowa. Rozmowa z prof. Zenonem Piechem (Societas...,#polska #nauka #historia #krakow #heraldyka #ciekawostki,"Obszerna rozmowa z dr. hab. Zenonem Piechem, prof. UJ na temat herbu Krakowa i obecnej tendencji magistratu miejskiego do usuwania go ...",2018-12-08 11:34:17,206,#polska,a2599fb7-4351-46f3-a0e6-8ed618ca2160
28,Wykopowy serwer Ogame - MirkOgame już ruszył!,#grajzwykopem #staregry #mirkogame #gryprzegladarkowe #gry #nostalgia,"Drodzy Wykopowicze!  W przypływie wspomnień, nostalgii z dawnych lat postanowiliśmy stworzyć wykopowy serwer Ogame - MirkOgame!    https://mirkogame.pl/    Zapewne dla wielu z was były to godziny spędzone na rozbudowie planet, kopalni, koloni, pilnowaniu floty przed zezłomowaniem,wojny, sojusze,...",2018-12-08 11:26:04,495,#grajzwykopem,7bf94b29-4c7b-45ac-a8c1-af44f4d402a0
29,"Prawdopodobnie polska, anglojęzyczna stacja numeryczna",#sluzbyspecjalne #nasluch #radiokomunikacja #zainteresowania #hobby #krotkofalarstwo,"Świeże nagranie z 8.12.2018. Stacji nie było w harmonogramie na pryiom.org. Silny sygnał może sugerować nadawanie z terenu naszego kraju, ale niekoniecznie...",2018-12-08 11:19:29,590,#sluzbyspecjalne,671340f7-c157-4934-810e-17a59873921c
30,Przyjacielska wiewiórka i kurier.,#rozrywka #smiesznypiesek #zwierzaczki #wiewiorka #zainteresowania,Zrobiła mu dzień.,2018-12-08 11:13:40,616,#rozrywka,413e7587-66f0-47d6-bd0a-44c33f74f6d1
31,Kiedy leżysz sobie w domu,#rozrywka #ciekawostki #zainteresowania #smiesznypiesek #zwierzaczki #zwierzeta,i ktoś z kamerą cie nachodzi.,2018-12-08 11:07:29,221,#rozrywka,7d1b1a98-6edd-42b6-8603-435ca0b9d595
32,Wystartowała chińska sonda na niewidoczną stronę Księżyca,#kosmos #eksploracjakomosu #astronomia #ciekawostki #chiny #gruparatowaniapoziomu,Chińska sonda kosmiczna Chang’e 4 jest już w drodze na Księżyc. Jako pierwsza wyląduje na niewidocznej z Ziemi stronie Księżyca.,2018-12-08 10:35:48,356,#kosmos,065d0f6a-1fdd-4a75-a7f0-8a3de6940c8e
33,Protest żółtych kamizelek aktualnie NA ŻYWO prosto z demokratycznej Francji.,#europa #francja #4konserwy #neuropa #ekonomia #policja,Relacja LIVE w jakości HD z aktualnej sytuacji we Francji - 08.12.2018,2018-12-08 10:15:09,697,#europa,fc760f5f-5347-4bd1-bf2b-7d2484fe16c7
34,Biletomat nie połączy się z serwerem? Zablokuje kartę płatniczą na kilka dni,#polska #wroclaw #ciekawostki #heheszki #technologia #januszebiznesu,Z karty nie będzie można kupić biletu w żadnym automacie. Jeśli blokada nie zniknie w ciągu kilku dni należy osobiście stawić się w centrum obsługi klienta. Taką regułę zaprogramowali programiści we wrocławskim MPK.,2018-12-08 09:58:19,518,#polska,6dd400cb-7c27-421a-babb-048935f948fd
35,Polski festiwal w Melbourne,#polska #australia #emigracja #kuchnia #podrozecasha #melbourne,"Wybrałem się na Polski Festiwal w Melbourne w Australii, oczywiście nie sam - zabrałem ze sobą swoich Tajskich przyjaciół! :D",2018-12-08 09:57:39,406,#polska,9b493c28-52ba-4d45-bddb-6240eeb025c7
36,Rozczłonkowane i pokrwawione płody na Jarmarku,#polska #wroclaw #bekazpodludzi #ciekawostki,Urzędnicy Wrocławia wydali pozwolenie na manifestację antyaborcyjną w Mikołajki w samym centrum jarmarku świątecznego na który przychodzą dzieci. Policja biernie się temu musiała przyglądać. Propaganda wchodzi na nowy lvl.,2018-12-08 09:44:05,933,#polska,28c987cc-586a-4f03-86e8-82253520a50d
37,Dobrze Cię widzieć,#polska #odblaski #samochody #polskiedrogi #bezpieczenstwo #dobrzeciewidzieć,Akcja zachęcająca do noszenia odblasków na drogach. Polecam Cesarz,2018-12-08 09:43:35,462,#polska,aab20d4d-45fe-43d5-83c3-b5029006e1f1
38,Francja: Prawie 300 zatrzymanych przed protestami żółtych kamizelek,#europa #francja #wydarzenia,"Co najmniej 278 osób prewencyjnie zatrzymano w Paryżu i regionie stołecznym przed rozpoczęciem kolejnych protestów ruchu żółtych kamizelek. Taką informację podała prefektura policji. Francuskie władze obawiają się, że protesty ponownie przerodzą się w zamieszki....",2018-12-08 09:39:01,322,#europa,05d74c1c-e421-4cbb-bc32-25da86d455fc
39,Studenci polonistyki w Japońskim Uniwersytecie,#kultura #rozrywka #japonia #gonciarz #polska #ciekawostki,Normalny dzień w Tokijskim Uniwersytecie dla studentów polonistyki.,2018-12-08 09:02:18,1249,#kultura,8de289be-89b9-4429-aea1-986d073c7ce1
40,Zatrzymała pijanego Ukraińca. Policjantka po służbie zapobiegła tragedii -...,#polska,"Policjantka z Choszczna, będąc po służbie, zatrzymała nietrzeźwego kierującego. Obywatel Ukrainy prowadził samochód mając w organizmie 2,5 prom...",2018-12-08 08:52:51,406,,5467c20f-d5de-48d5-86e7-a1e00750b737
41,Japonia otwiera się na cudzoziemców. Braki pracowników są duże,#swiat #japonia #praca #emigracja,"Parlament Japonii przyjął proponowany przez rząd projekt ustawy, która umożliwi setkom tysięcy zagranicznych pracowników stały pobyt w tym kraju oraz ułatwienia wizowe dla cudzoziemców mogących podjąć pracę w sektorach najbardziej dotkniętych wakatami.",2018-12-08 08:42:42,398,#swiat,5d4174f6-d57f-403e-819b-8d5dba17d92d
42,Włochy chcą wprowadzić podatek od samochodów na benzynę. Są protesty.,#wlochy #samochody #motoryzacja #gospodarka #finanse #podatki,"Włosi chcą wprowadzić tzw. ekopodatek od samochodów na tradycyjne paliwo. Nabywcy nowych samochodów - elektrycznych, hybrydowych i napędzanych paliwem gazowym - mają dostać ulgi do 6 tys. euro. Ta zapowiedź wywołała jednak polemikę i protesty w kraju.",2018-12-08 08:23:58,334,#wlochy,c27f41d8-a0d3-44db-94ab-f0176273d446
43,Etiopia: muzułmanie oferują korzyści finansowe za przejście na islam,#swiat #afryka #religia #islam #4konserwy #chrzescijanstwo,"Jak podaje włoski miesięcznik katolicki „Tempi”, grupy muzułmanów namawiają młodych chrześcijan, aby porzucili swą wiarę, oferując im za to stypendia naukowe, tańsze mieszkania i dobrą, stabilną pracę. Pieniądze na ten proceder pochodzą z Arabii Saudyjskiej.",2018-12-08 07:34:15,433,#swiat,552d5e86-70a8-4dad-9e28-aac7f40d3f1e
44,InSight przesłał pierwsze dźwięki z Marsa,#kosmos #nasa #astronomia #mars #ciekawostki,"Dziwne uczucie, siedzieć i słuchać odgłosów z innej planety.",2018-12-08 01:36:05,648,#kosmos,8087a6f0-779f-4e9d-b00d-1aee99819ea6
45,Jak zaprogramować drona Tello w Node.js (JavaScript)?,#technologia #zainteresowania #nauka #drony #javascript,"Gdy recenzowałem drona Tello, to zwróciłem szczególną uwagę na to, że tego drona można zaprogramować. Obiecałem wtedy, że stworzę oddzielny wpis na temat programowania tego drona. W końcu udało mi się znaleźć trochę czasu i opisać dokładnie jak można zaprogramować drona Tello",2018-12-08 00:51:51,235,#technologia,12b3e228-754b-40e5-a0a2-622ab4a6b565
46,"Emisje CO2 na 1 mieszkańca: Kanada:18,63 tony/rok/, Polska 7,76 tony/rok ...",#europa #swiat #srodowisko #smog #wegiel #ekologia,"Świat: 1. Kanada - 18,63 tony/rok 2. Australia - 17,20 tony . Arabia Saudyjska - 16,02 tony 4. USA - 15,56 5. Kazachstan - 12,89. W Europie :1. Rosja - 11,54 tony / rok  2. Holandia - 9,62 tony / rok 3. Niemcy - 9,47 tony / rok 4. Polska - 7,76 tony / rok
5. Włochy - 6,03 tony / rok",2018-12-08 00:51:43,474,#europa,2b712a7b-2e92-4b78-b07e-4a473b3b4b58
47,Quake 2 OST. Sonic Mayhem - Quad Machine,#rozrywka #quake #quake2 #gry #sonicmayhem #nostalgia,Niezły kawałek z Quake II,2018-12-08 00:29:07,351,#rozrywka,fed23b0e-cd03-4fc1-982e-ce213b30ff5c
48,Znany portal randkowy zachęca Polki do związków z obcokrajowcami,#polska #przegryw #sympatia #4konserwy #tinder,Jak zawsze to kobieta ma być z Polski a mężczyzna z zagranicy. Nigdy nie promuje się odwrotnych sytuacji. Pozatym w Polsce chyba nie brakuje potencjalnych partnerów sądząc po dwukrotnej nadwyżce mężczyzn na tym portalu.,2018-12-07 22:56:44,724,#polska,9cd41ae0-ee04-42ac-88dc-af473658c3c5
49,Amerykanie rozwijają pociski hipersoniczne. Osiągną nawet 25000 km/h,#swiat #hahard #technologia #bron #usa #geopolityka,"Amerykanie od lat pracują nad projektem hipersonicznego pocisku, zdolnego do przebycia całego kontynentu w mgnieniu oka. Ostatnie doniesienia o rozwoju projektu są naprawdę imponujące. Amerykanie twierdzą, że ich rozwiązanie pozwoli osiągnąć prędkość nawet 25 tysięcy km/h",2018-12-07 22:47:13,262,#swiat,c602e6ed-f8ec-4279-8306-ead6057b4716
